(* CAPO - Computational Analysis Platform for Oberon - by Alan Freed and Felix Friedrich. *)
(* Version 1, Update 2 *)

модуль Array1dRat;   (** AUTHOR "adf, fof"; PURPOSE "Basic operations on type ARRAY OF Rational"; *)

использует НИЗКОУР, Array1dBytes, NbrRat, DataErrors, NbrInt, Array1dInt,NbrRe;

тип
	Value* = NbrRat.Rational;

	Array* = укль на массив из Value;
	Index* = цел32;

конст
	sz = размер16_от( Value );

	(**
		defined operations (a,b: Array; i: Integer; arr: ARRAY OF Integer) :
		negate	-a;
		copy	a := arr , a := b^
		fill	a := i;
		plus:	a+b, a+i = i+a
		minus	a-b, a-i, i-a
		mult	a*b, a*i = i*a
		mod	a MOD i
		div	a DIV i
			*)
тип
	Map* = проц {делегат} ( перем i: Value );


	(** fast access routines *)


	проц Copy*( перем x: массив из Value;  перем res: массив из Value;  srcoffset, destoffset, len: Index );
	нач
		Array1dBytes.RangeCheck( srcoffset, len, длинаМассива( x ) );  Array1dBytes.RangeCheck( destoffset, len, длинаМассива( res ) );

		Array1dBytes.MoveB( адресОт( x[srcoffset] ), адресОт( res[destoffset] ), len * sz );
	кон Copy;

	проц CreateCopy*( перем x: массив из Value ): Array;
	перем a: Array;
	нач
		нов( a, длинаМассива( x ) );  Copy( x, a^, 0, 0, длинаМассива( x ) );  возврат a;
	кон CreateCopy;

	проц CopyPat*( перем x: массив из Value;  перем res: массив из Value;
									    srcoffset, srcstep, destoffset, deststep, piecelen, pieces: Index );
	нач
		Array1dBytes.PatRangeCheck( srcoffset, srcstep, piecelen, pieces, длинаМассива( x ) );
		Array1dBytes.PatRangeCheck( destoffset, deststep, piecelen, pieces, длинаМассива( res ) );

		Array1dBytes.MoveBPat( адресОт( x[srcoffset] ), адресОт( res[destoffset] ), srcstep * sz, deststep * sz,
												 piecelen * sz, pieces );
	кон CopyPat;

	проц CreateCopyPat*( перем x: массив из Value;  offset, step, piecelen, pieces: Index ): Array;
	перем a: Array;
	нач
		(* range check done in copy pat *)

		нов( a, piecelen * pieces );  CopyPat( x, a^, offset, step, 0, piecelen, piecelen, pieces );  возврат a;
	кон CreateCopyPat;

	проц Fill*( x: Value;  перем res: массив из Value;  offset, len: Index );
		(* fills in dyadic steps *)
	нач
		Array1dBytes.RangeCheck( offset, len, длинаМассива( res ) );

		Array1dBytes.Fill( адресОт( res[offset] ), x, len );
		(* implicitly selects the right version of Fill in  Array1dBytes  *)
	кон Fill;

	проц FillPat*( x: Value;  перем res: массив из Value;  offset, step, piecelen, pieces: Index );
	нач
		Array1dBytes.PatRangeCheck( offset, step, piecelen, pieces, длинаМассива( res ) );

		Array1dBytes.FillPat( адресОт( res[offset] ), x, step, piecelen, pieces );
		(* implicitly selects the right version of FillPat in  Array1dBytes  *)
	кон FillPat;

(** monadic operations *)

	проц Negate*( перем x: массив из Value;  offset, len: Index );
	нач
		Array1dBytes.RangeCheck( offset, len, длинаМассива( x ) );

		увел( len, offset );
		нцПока (offset < len) делай x[offset] := -x[offset];  увел( offset ) кц;
	кон Negate;

	проц NegatePat*( перем x: массив из Value;  offset, step, piecelen, pieces: Index );
	перем idx: Index;
	нач
		Array1dBytes.PatRangeCheck( offset, step, piecelen, pieces, длинаМассива( x ) );

		нцПока (pieces > 0) делай
			idx := offset;  увел( offset, piecelen );
			нцПока (idx < offset) делай x[idx] := -x[idx];  увел( idx ) кц;
			увел( offset, step - piecelen );  умень( pieces )
		кц;
	кон NegatePat;

	проц Abs*( перем x: массив из Value;  offset, len: Index );
	нач
		Array1dBytes.RangeCheck( offset, len, длинаМассива( x ) );

		увел( len, offset );
		нцПока (offset < len) делай x[offset] := NbrRat.Abs( x[offset] );  увел( offset ) кц;
	кон Abs;

	проц AbsPat*( перем x: массив из Value;  offset, step, piecelen, pieces: Index );
	перем idx: Index;
	нач
		Array1dBytes.PatRangeCheck( offset, step, piecelen, pieces, длинаМассива( x ) );

		нцПока (pieces > 0) делай
			idx := offset;  увел( offset, piecelen );
			нцПока (idx < offset) делай x[idx] := NbrRat.Abs( x[idx] );  увел( idx ) кц;
			увел( offset, step - piecelen );  умень( pieces )
		кц;
	кон AbsPat;


(* Array Array operations *)

	проц AddAA*( перем x, y: массив из Value;  перем res: массив из Value;  offset, len: Index );
	нач
		Array1dBytes.RangeCheck( offset, len, длинаМассива( x ) );  Array1dBytes.RangeCheck( offset, len, длинаМассива( y ) );
		Array1dBytes.RangeCheck( offset, len, длинаМассива( res ) );

		увел( len, offset );
		нцПока (offset < len) делай res[offset] := x[offset] + y[offset];  увел( offset ) кц;
	кон AddAA;

	проц SubtractAA*( перем x, y: массив из Value;  перем res: массив из Value;  offset, len: Index );
	нач
		Array1dBytes.RangeCheck( offset, len, длинаМассива( x ) );  Array1dBytes.RangeCheck( offset, len, длинаМассива( y ) );
		Array1dBytes.RangeCheck( offset, len, длинаМассива( res ) );

		увел( len, offset );
		нцПока (offset < len) делай res[offset] := x[offset] - y[offset];  увел( offset ) кц;
	кон SubtractAA;

	проц MultAA*( перем x, y: массив из Value;  перем res: массив из Value;  offset, len: Index );
	нач
		Array1dBytes.RangeCheck( offset, len, длинаМассива( x ) );  Array1dBytes.RangeCheck( offset, len, длинаМассива( y ) );
		Array1dBytes.RangeCheck( offset, len, длинаМассива( res ) );

		увел( len, offset );
		нцПока (offset < len) делай res[offset] := x[offset] * y[offset];  увел( offset ) кц;
	кон MultAA;

	проц ScalarProduct*( перем x, y: массив из Value;  перем res: Value;  xoffset, yoffset, len: Index );
	нач
		Array1dBytes.RangeCheck( xoffset, len, длинаМассива( x ) );  Array1dBytes.RangeCheck( yoffset, len, длинаМассива( y ) );

		res := 0;  увел( len, xoffset );
		нцПока (xoffset < len) делай res := res + x[xoffset] * y[yoffset];  увел( xoffset );  увел( yoffset ) кц;
	кон ScalarProduct;

	проц ScalarProductPat*( перем x, y: массив из Value;  перем res: Value;
													   xoffset, yoffset, xstep, ystep, piecelen, pieces: Index );
	перем xidx, yidx: цел32;
	нач
		Array1dBytes.PatRangeCheck( xoffset, xstep, piecelen, pieces, длинаМассива( x ) );
		Array1dBytes.PatRangeCheck( yoffset, ystep, piecelen, pieces, длинаМассива( y ) );

		res := 0;  xidx := xoffset;  yidx := yoffset;
		нцПока (pieces > 0) делай
			увел( xoffset, piecelen );  увел( yoffset, piecelen );
			нцПока (xidx < xoffset) делай res := res + x[xidx] * y[yidx];  увел( xidx );  увел( yidx );  кц;
			увел( xoffset, xstep - piecelen );  увел( yoffset, ystep - piecelen );  умень( pieces );
		кц;
	кон ScalarProductPat;

(*
	PROCEDURE ModAA*( VAR x, y: ARRAY OF Value;  VAR res: ARRAY OF Value;  offset, len: Index );
	(** no checks for y[..] # 0, programmers responsibility *)
	BEGIN
		Array1dBytes.RangeCheck( offset, len, LEN( x ) );  Array1dBytes.RangeCheck( offset, len, LEN( y ) );
		Array1dBytes.RangeCheck( offset, len, LEN( res ) );

		INC( len, offset );
		WHILE (offset < len) DO res[offset] := x[offset] MOD y[offset];  INC( offset ) END;
	END ModAA;
*)

	проц DivAA*( перем x, y: массив из Value;  перем res: массив из Value;  offset, len: Index );
	(** no checks for y[..] # 0, programmers responsibility *)
	нач
		Array1dBytes.RangeCheck( offset, len, длинаМассива( x ) );  Array1dBytes.RangeCheck( offset, len, длинаМассива( y ) );
		Array1dBytes.RangeCheck( offset, len, длинаМассива( res ) );

		увел( len, offset );
		нцПока (offset < len) делай res[offset] := x[offset] / y[offset];  увел( offset ) кц;
	кон DivAA;

	проц EqualsAA*( перем x, y: массив из Value;  offset, len: Index ): булево;
	нач
		Array1dBytes.RangeCheck( offset, len, длинаМассива( x ) );  Array1dBytes.RangeCheck( offset, len, длинаМассива( y ) );

		увел( len, offset );
		нцПока (offset < len) делай
			если x[offset] # y[offset] то возврат ложь всё;
			увел( offset )
		кц;
		возврат истина;
	кон EqualsAA;

(** Array - Value operations *)

	проц AddAV*( перем x: массив из Value;  y: Value;  перем res: массив из Value;  offset, len: Index );
	нач
		Array1dBytes.RangeCheck( offset, len, длинаМассива( x ) );  Array1dBytes.RangeCheck( offset, len, длинаМассива( res ) );

		увел( len, offset );
		нцПока (offset < len) делай res[offset] := x[offset] + y;  увел( offset ) кц;
	кон AddAV;

	проц AddAVPat*( перем x: массив из Value;  y: Value;  перем res: массив из Value;
										   srcoffset, srcstep, destoffset, deststep, piecelen, pieces: Index );
	перем si, di, end, endpiece: Index;
	нач
		Array1dBytes.PatRangeCheck( srcoffset, srcstep, piecelen, pieces, длинаМассива( x ) );
		Array1dBytes.PatRangeCheck( destoffset, deststep, piecelen, pieces, длинаМассива( res ) );

		si := srcoffset;  di := destoffset;  end := srcoffset + srcstep * pieces;  srcstep := srcstep - piecelen;
		deststep := deststep - piecelen;
		нцПока si < end делай
			endpiece := si + piecelen;
			нцПока si < endpiece делай res[di] := x[si] + y;  увел( si );  увел( di );  кц;
			увел( si, srcstep );  увел( di, deststep );
		кц;
	кон AddAVPat;

	проц SubtractAV*( перем x: массив из Value;  y: Value;  перем res: массив из Value;  offset, len: Index );
	нач
		Array1dBytes.RangeCheck( offset, len, длинаМассива( x ) );  Array1dBytes.RangeCheck( offset, len, длинаМассива( res ) );

		увел( len, offset );
		нцПока (offset < len) делай res[offset] := x[offset] - y;  увел( offset ) кц;
	кон SubtractAV;

	проц SubtractAVPat*( перем x: массив из Value;  y: Value;  перем res: массив из Value;
												  srcoffset, srcstep, destoffset, deststep, piecelen, pieces: Index );
	перем si, di, end, endpiece: Index;
	нач
		Array1dBytes.PatRangeCheck( srcoffset, srcstep, piecelen, pieces, длинаМассива( x ) );
		Array1dBytes.PatRangeCheck( destoffset, deststep, piecelen, pieces, длинаМассива( res ) );

		si := srcoffset;  di := destoffset;  end := srcoffset + srcstep * pieces;  srcstep := srcstep - piecelen;
		deststep := deststep - piecelen;
		нцПока si < end делай
			endpiece := si + piecelen;
			нцПока si < endpiece делай res[di] := x[si] - y;  увел( si );  увел( di );  кц;
			увел( si, srcstep );  увел( di, deststep );
		кц;
	кон SubtractAVPat;

	проц SubtractVA*( перем x: Value;  перем y: массив из Value;  перем res: массив из Value;  offset, len: Index );
	нач
		Array1dBytes.RangeCheck( offset, len, длинаМассива( y ) );  Array1dBytes.RangeCheck( offset, len, длинаМассива( res ) );

		увел( len, offset );
		нцПока (offset < len) делай res[offset] := x - y[offset];  увел( offset ) кц;
	кон SubtractVA;

	проц SubtractVAPat*( x: Value;  перем y: массив из Value;  перем res: массив из Value;
												  srcoffset, srcstep, destoffset, deststep, piecelen, pieces: Index );
	перем si, di, end, endpiece: Index;
	нач
		Array1dBytes.PatRangeCheck( srcoffset, srcstep, piecelen, pieces, длинаМассива( y ) );
		Array1dBytes.PatRangeCheck( destoffset, deststep, piecelen, pieces, длинаМассива( res ) );

		si := srcoffset;  di := destoffset;  end := srcoffset + srcstep * pieces;  srcstep := srcstep - piecelen;
		deststep := deststep - piecelen;
		нцПока si < end делай
			endpiece := si + piecelen;
			нцПока si < endpiece делай res[di] := y[si] - x;  увел( si );  увел( di );  кц;
			увел( si, srcstep );  увел( di, deststep );
		кц;
	кон SubtractVAPat;

	проц MultAV*( перем x: массив из Value;  y: Value;  перем res: массив из Value;  offset, len: Index );
	нач
		Array1dBytes.RangeCheck( offset, len, длинаМассива( x ) );  Array1dBytes.RangeCheck( offset, len, длинаМассива( res ) );

		увел( len, offset );
		нцПока (offset < len) делай res[offset] := x[offset] * y;  увел( offset ) кц;
	кон MultAV;

	проц MultAVPat*( перем x: массив из Value;  y: Value;  перем res: массив из Value;
											 srcoffset, srcstep, destoffset, deststep, piecelen, pieces: Index );
	перем si, di, end, endpiece: Index;
	нач
		Array1dBytes.PatRangeCheck( srcoffset, srcstep, piecelen, pieces, длинаМассива( x ) );
		Array1dBytes.PatRangeCheck( destoffset, deststep, piecelen, pieces, длинаМассива( res ) );

		si := srcoffset;  di := destoffset;  end := srcoffset + srcstep * pieces;  srcstep := srcstep - piecelen;
		deststep := deststep - piecelen;
		нцПока si < end делай
			endpiece := si + piecelen;
			нцПока si < endpiece делай res[di] := x[si] * y;  увел( si );  увел( di );  кц;
			увел( si, srcstep );  увел( di, deststep );
		кц;
	кон MultAVPat;

	проц DivAV*( перем x: массив из Value;  y: Value;  перем res: массив из Value;  offset, len: Index );
	нач
		Array1dBytes.RangeCheck( offset, len, длинаМассива( x ) );  Array1dBytes.RangeCheck( offset, len, длинаМассива( res ) );

		увел( len, offset );
		нцПока (offset < len) делай res[offset] := x[offset] / y;  увел( offset ) кц;
	кон DivAV;

	проц DivAVPat*( перем x: массив из Value;  y: Value;  перем res: массив из Value;
										  srcoffset, srcstep, destoffset, deststep, piecelen, pieces: Index );
	перем si, di, end, endpiece: Index;
	нач
		Array1dBytes.PatRangeCheck( srcoffset, srcstep, piecelen, pieces, длинаМассива( x ) );
		Array1dBytes.PatRangeCheck( destoffset, deststep, piecelen, pieces, длинаМассива( res ) );

		si := srcoffset;  di := destoffset;  end := srcoffset + srcstep * pieces;  srcstep := srcstep - piecelen;
		deststep := deststep - piecelen;
		нцПока si < end делай
			endpiece := si + piecelen;
			нцПока si < endpiece делай res[di] := x[si] / y;  увел( si );  увел( di );  кц;
			увел( si, srcstep );  увел( di, deststep );
		кц;
	кон DivAVPat;

	проц DivVA*( x: Value;  перем y: массив из Value;  перем res: массив из Value;  offset, len: Index );
	нач
		Array1dBytes.RangeCheck( offset, len, длинаМассива( y ) );  Array1dBytes.RangeCheck( offset, len, длинаМассива( res ) );

		увел( len, offset );
		нцПока (offset < len) делай res[offset] := x / y[offset];  увел( offset ) кц;
	кон DivVA;

	проц DivVAPat*( x: Value;  перем y: массив из Value;  перем res: массив из Value;
										  srcoffset, srcstep, destoffset, deststep, piecelen, pieces: Index );
	перем si, di, end, endpiece: Index;
	нач
		Array1dBytes.PatRangeCheck( srcoffset, srcstep, piecelen, pieces, длинаМассива( y ) );
		Array1dBytes.PatRangeCheck( destoffset, deststep, piecelen, pieces, длинаМассива( res ) );

		si := srcoffset;  di := destoffset;  end := srcoffset + srcstep * pieces;  srcstep := srcstep - piecelen;
		deststep := deststep - piecelen;
		нцПока si < end делай
			endpiece := si + piecelen;
			нцПока si < endpiece делай res[di] := x / y[si];  увел( si );  увел( di );  кц;
			увел( si, srcstep );  увел( di, deststep );
		кц;
	кон DivVAPat;

(** mappings *)

	проц ApplyMap*( map: Map;  перем res: массив из Value;  offset, len: Index );
	нач
		Array1dBytes.RangeCheck( offset, len, длинаМассива( res ) );

		увел( len, offset );
		нцПока (offset < len) делай map( res[offset] );  увел( offset );  кц;
	кон ApplyMap;

	проц ApplyMapPat*( map: Map;  перем res: массив из Value;  offset, step, piecelen, pieces: Index );
	перем i, end, endpiece: Index;
	нач
		Array1dBytes.PatRangeCheck( offset, step, piecelen, pieces, длинаМассива( res ) );

		i := offset;  end := offset + step * pieces;  step := step - piecelen;
		нцПока i < end делай
			endpiece := i + piecelen;
			нцПока i < endpiece делай map( res[i] );  увел( i );  кц;
			увел( i, step );
		кц;
	кон ApplyMapPat;

(** characteristics *)

	проц Min*( перем x: массив из Value;  offset, len: Index;  перем minpos: Index ): Value;
	перем min: Value;
	нач
		Array1dBytes.RangeCheck( offset, len, длинаМассива( x ) );

		min := x[offset];  minpos := -1;  увел( len, offset );
		нцПока offset < len делай
			если x[offset] < min то min := x[offset];  minpos := offset всё;
			увел( offset )
		кц;
		возврат min;
	кон Min;

	проц Max*( перем x: массив из Value;  offset, len: Index;  перем maxpos: Index ): Value;
	перем max: Value;
	нач
		Array1dBytes.RangeCheck( offset, len, длинаМассива( x ) );

		max := x[offset];  maxpos := -1;  увел( len, offset );
		нцПока offset < len делай
			если x[offset] > max то max := x[offset];  maxpos := offset всё;
			увел( offset )
		кц;
		возврат max;
	кон Max;

	проц MinMax*( перем x: массив из Value;  offset, len: Index;  перем min, max: Value;  minpos, maxpos: Index );
	нач
		Array1dBytes.RangeCheck( offset, len, длинаМассива( x ) );

		max := x[offset];  maxpos := offset;  min := x[offset];  minpos := offset;  увел( len, offset );  увел( offset );
		нцПока offset < len делай
			если x[offset] > max то max := x[offset];  maxpos := offset
			аесли x[offset] < min то min := x[offset];  minpos := offset
			всё;
			увел( offset )
		кц;
	кон MinMax;

	проц MinMaxPat*( map: Map;  перем x: массив из Value;  offset, step, piecelen, pieces: Index;  перем min, max: Value;
											  minpos, maxpos: Index );
	перем i, end, endpiece: Index;
	нач
		Array1dBytes.PatRangeCheck( offset, step, piecelen, pieces, длинаМассива( x ) );

		i := offset;  end := offset + step * pieces;  step := step - piecelen;  max := x[offset];  maxpos := offset;  min := x[offset];
		minpos := offset;
		нцПока i < end делай
			endpiece := i + piecelen;
			нцПока i < endpiece делай
				если x[i] > max то max := x[i];  maxpos := offset
				аесли x[i] < min то min := x[i];  minpos := offset
				всё;
				увел( i );
			кц;
			увел( i, step );
		кц;
	кон MinMaxPat;

	проц MeanSsq*( перем x: массив из Value;  offset, len: Index;  перем mean, ssq: Value );
	(* mean and ssq distance of mean by provisional means algorithm *)
	перем d: Value;  val: Value;  i: Index;
	нач
		Array1dBytes.RangeCheck( offset, len, длинаМассива( x ) );

		mean := 0;  ssq := 0;  i := offset;  увел( len, offset );
		нцПока i < len делай val := x[i];  d := val - mean;  mean := mean + d / (i + 1 - offset);  ssq := ssq + d * (val - mean);  увел( i ) кц
	кон MeanSsq;

	проц kSmallestModify*( k: Index;  перем a: массив из Value;  len: цел32 ): Value;
	(* algorithm of Nikolaus Wirth, array is modified ! *)
	перем i, j, l, m: Index;  x: Value;

		проц swap( перем x, y: Value );
		перем z: Value;
		нач
			z := x;  x := y;  y := z
		кон swap;

	нач
		Array1dBytes.RangeCheck( 0, len, длинаМассива( a ) );

		l := 0;  m := len - 1;
		нцПока (l < m) делай
			x := a[k];  i := l;  j := m;
			нцДо
				нцПока (a[i] < x) делай увел( i ) кц;
				нцПока (x < a[j]) делай умень( j ) кц;
				если i <= j то swap( a[i], a[j] );  увел( i );  умень( j ) всё
			кцПри i > j;
			если j < k то l := i всё;
			если k < i то m := j всё
		кц;
		возврат a[k]
	кон kSmallestModify;

	проц kSmallest*( k: Index;  перем a: массив из Value;  len: цел32 ): Value;
	(** avoids modification by creatning a copy of a, not for frequent use *)
	перем copy: Array;
	нач
		Array1dBytes.RangeCheck( 0, len, длинаМассива( a ) );

		нов( copy, len );  Copy( a, copy^, 0, 0, len );  возврат kSmallestModify( k, copy^, len );
	кон kSmallest;

	проц Median*( перем a: массив из Value;  len: цел32 ): Value;
	нач
		возврат kSmallest( len DIV 2, a, len );
	кон Median;

(** norms and distances*)

	проц HammingWeight*( перем x: массив из Value;  offset, len: Index ): Index;
	перем res: Index;
	нач
		Array1dBytes.RangeCheck( offset, len, длинаМассива( x ) );

		увел( len, offset );  res := 0;
		нцПока offset < len делай
			если x[offset] # 0 то увел( res ) всё;
			увел( offset );
		кц;
		возврат res;
	кон HammingWeight;

	проц HammingWeightPat*( перем x: массив из Value;  offset, step, piecelen, pieces: Index ): Index;
	перем i, end, endpiece: Index;  res: Index;
	нач
		Array1dBytes.PatRangeCheck( offset, step, piecelen, pieces, длинаМассива( x ) );

		i := offset;  end := offset + step * pieces;  step := step - piecelen;  res := 0;
		нцПока i < end делай
			endpiece := i + piecelen;
			нцПока i < endpiece делай
				если x[i] # 0 то увел( res ) всё;
				увел( i );
			кц;
			увел( i, step );
		кц;
		возврат res;

	кон HammingWeightPat;

	проц HammingDist*( перем x, y: массив из Value;  xoffset, yoffset, len: Index ): Index;
	перем res: Index;
	нач
		Array1dBytes.RangeCheck( xoffset, len, длинаМассива( x ) );  Array1dBytes.RangeCheck( yoffset, len, длинаМассива( y ) );

		увел( len, xoffset );  res := 0;
		нцПока xoffset < len делай
			если x[xoffset] # y[yoffset] то увел( res ) всё;
			увел( xoffset );  увел( yoffset );
		кц;
		возврат res;
	кон HammingDist;

	проц L1Norm*( перем x: массив из Value;  offset, len: Index ): Value;
	(** caution: routine does not check overflows *)
	перем res: Value;
	нач
		Array1dBytes.RangeCheck( offset, len, длинаМассива( x ) );

		увел( len, offset );  res := 0;
		нцПока offset < len делай res := res + NbrRat.Abs( x[offset] );  увел( offset );  кц;
		возврат res;
	кон L1Norm;

	проц L1NormPat*( map: Map;  перем x: массив из Value;  offset, step, piecelen, pieces: Index ): Value;
	перем i, end, endpiece: Index;  res: Value;
	нач
		Array1dBytes.PatRangeCheck( offset, step, piecelen, pieces, длинаМассива( x ) );

		i := offset;  end := offset + step * pieces;  step := step - piecelen;  res := 0;
		нцПока i < end делай
			endpiece := i + piecelen;
			нцПока i < endpiece делай res := res + NbrRat.Abs( x[i] );  увел( i );  кц;
			увел( i, step );
		кц;
		возврат res;

	кон L1NormPat;

	проц L1Dist*( перем x, y: массив из Value;  xoffset, yoffset, len: Index ): Value;
	перем res: Value;
	нач
		Array1dBytes.RangeCheck( xoffset, len, длинаМассива( x ) );  Array1dBytes.RangeCheck( yoffset, len, длинаМассива( y ) );

		увел( len, xoffset );  res := 0;
		нцПока xoffset < len делай res := res + NbrRat.Abs( x[xoffset] - y[yoffset] );  увел( xoffset );  увел( yoffset );  кц;
		возврат res;
	кон L1Dist;



	проц L2NormSq*( перем x: массив из Value;  offset, len: Index ): NbrRe.Real;
	(** caution: routine does not check overflow *)
	перем res: NbrRe.Real;
	нач
		Array1dBytes.RangeCheck( offset, len, длинаМассива( x ) );

		увел( len, offset );  res := 0;
		нцПока offset < len делай res := res + x[offset] * x[offset];  увел( offset );  кц;
		возврат res;
	кон L2NormSq;

	проц L2Norm*( перем x: массив из Value;  offset, len: Index ): NbrRe.Real;
	нач
		возврат NbrRe.Sqrt( L2NormSq( x, offset, len ) );
	кон L2Norm;

	проц L2NormPatSq*( перем x: массив из Value;  offset, step, piecelen, pieces: Index ): NbrRe.Real;
	перем i, end, endpiece: Index;  res: NbrRe.Real;
	нач
		Array1dBytes.PatRangeCheck( offset, step, piecelen, pieces, длинаМассива( x ) );

		i := offset;  end := offset + step * pieces;  step := step - piecelen;  res := 0;
		нцПока i < end делай
			endpiece := i + piecelen;
			нцПока i < endpiece делай res := res + (x[i] * x[i]);  увел( i );  кц;
			увел( i, step );
		кц;
		возврат res;
	кон L2NormPatSq;

	проц L2NormPat*( перем x: массив из Value;  offset, step, piecelen, pieces: Index ): NbrRe.Real;
	нач
		возврат NbrRe.Sqrt( L2NormPatSq( x, offset, step, piecelen, pieces ) );
	кон L2NormPat;

	проц L2DistSq*( перем x, y: массив из Value;  xoffset, yoffset, len: Index ): NbrRe.Real;
	перем res: NbrRe.Real;  mult: Value;
	нач
		Array1dBytes.RangeCheck( xoffset, len, длинаМассива( x ) );  Array1dBytes.RangeCheck( yoffset, len, длинаМассива( y ) );

		увел( len, xoffset );  res := 0;
		нцПока xoffset < len делай mult := x[xoffset] - y[yoffset];  res := res + mult * mult;  увел( xoffset );  увел( yoffset );  кц;
		возврат res;
	кон L2DistSq;

	проц L2Dist*( перем x, y: массив из Value;  xoffset, yoffset, len: Index ): NbrRe.Real;
	нач
		возврат NbrRe.Sqrt( L2DistSq( x, y, xoffset, yoffset, len ) );
	кон L2Dist;


	проц LInftyNorm*( перем x: массив из Value;  offset, len: Index ): Value;
	(** caution: routine does not check overflow *)
	перем res, val: Value;
	нач
		Array1dBytes.RangeCheck( offset, len, длинаМассива( x ) );

		увел( len, offset );  res := 0;
		нцПока offset < len делай
			val := NbrRat.Abs( x[offset] );
			если val > res то res := val всё;
			увел( offset );
		кц;
		возврат res;
	кон LInftyNorm;

	проц LInftyNormPat*( перем x: массив из Value;  offset, step, piecelen, pieces: Index ): Value;
	перем i, end, endpiece: Index;  res, val: Value;
	нач
		Array1dBytes.PatRangeCheck( offset, step, piecelen, pieces, длинаМассива( x ) );

		i := offset;  end := offset + step * pieces;  step := step - piecelen;  res := 0;
		нцПока i < end делай
			endpiece := i + piecelen;
			нцПока i < endpiece делай
				val := NbrRat.Abs( x[i] );
				если val > res то res := val всё;
				увел( i );
			кц;
			увел( i, step );
		кц;
		возврат res;

	кон LInftyNormPat;

	проц LInftyDist*( перем x, y: массив из Value;  xoffset, yoffset, len: Index ): Value;
	перем res, val: Value;
	нач
		Array1dBytes.RangeCheck( xoffset, len, длинаМассива( x ) );  Array1dBytes.RangeCheck( yoffset, len, длинаМассива( y ) );

		увел( len, xoffset );  res := 0;
		нцПока xoffset < len делай
			val := NbrRat.Abs( x[xoffset] - y[yoffset] );
			если val > res то res := val всё;
			увел( xoffset );  увел( yoffset );
		кц;
		возврат res;
	кон LInftyDist;

	проц MinIndex( x, y: Index ): Index;
	нач
		если x < y то возврат x иначе возврат y всё;
	кон MinIndex;

	проц SetLen*( перем a: Array;  len: Index );
	(** extend: append zeros, shrink: simple cut *)
	перем res: Array;
	нач
		нов( res, len );  Copy( a^, res^, 0, 0, MinIndex( длинаМассива( a ), len ) );
	кон SetLen;

(** index operations *)
	проц RemoveBlock*( перем x: массив из Value;  offset, len: Index );
	(* remove block [offset,offset+len), fill rest with 0  *)
	перем restlen: Index;  null: Value;
	нач
		Array1dBytes.RangeCheck( offset, len, длинаМассива( x ) );

		null := 0;  restlen := длинаМассива( x ) - offset - len;  Copy( x, x, offset + len, offset, restlen );  Fill( null, x, offset + len, restlen )
	кон RemoveBlock;

	проц InsertBlock*( перем x: массив из Value;  offset, len: Index );
	(* insert (empty) block [offset,offset+len), content formerly in [offset,offset+len) is shifted upwards !*)
	перем restlen: Index;  null: Value;
	нач
		Array1dBytes.RangeCheck( offset, len, длинаМассива( x ) );

		null := 0;  restlen := длинаМассива( x ) - offset - len;  Copy( x, x, offset, offset + len, restlen );  Fill( null, x, offset, len );
	кон InsertBlock;

	проц ShiftBlock*( перем x: массив из Value;  from, to, len: Index );
	(** memory allocation by far not optimized, not intended for very frequent use*)
	перем temp: Array;
	нач
		Array1dBytes.RangeCheck( from, len, длинаМассива( x ) );  Array1dBytes.RangeCheck( to, len, длинаМассива( x ) );

		нов( temp, len );  Copy( x, temp^, from, 0, len );  RemoveBlock( x, from, len );  InsertBlock( x, to, len );
		Copy( temp^, x, 0, to, len );
	кон ShiftBlock;

	проц RemovePat*( перем x: массив из Value;  offset, step, piecelen, pieces: цел32 ): Array;
	(* for example: remove row or col from matrix *)
	перем srcidx, destidx: цел32;  res: Array;
	нач
		Array1dBytes.PatRangeCheck( offset, step, piecelen, pieces, длинаМассива( x ) );

		нов( res, длинаМассива( x ) - pieces * piecelen );  srcidx := 0;  destidx := 0;
		нцПока (srcidx < offset) делай res[destidx] := x[srcidx];  увел( srcidx );  увел( destidx );  кц;
		нцПока (pieces) > 0 делай
			увел( offset, piecelen );
			нцПока (srcidx < offset) делай увел( srcidx );  кц;
			увел( offset, step - piecelen );
			если (offset > длинаМассива( x )) то offset := длинаМассива( x ) всё;
			нцПока (srcidx < offset) делай res[destidx] := x[srcidx];  увел( srcidx );  увел( destidx );  кц;
			умень( pieces );
		кц;
		offset := длинаМассива( x );
		нцПока (srcidx < offset) делай res[destidx] := x[srcidx];  увел( srcidx );  увел( destidx );  кц;
		утв ( destidx = длинаМассива( res ) );
		возврат res;
	кон RemovePat;

	проц Remove*( перем x: массив из Value;  offset, len: цел32 ): Array;   (* optimize if necessary *)
	нач
		возврат RemovePat( x, offset, len, len, 1 );
	кон Remove;

	проц InsertPat*( перем x: массив из Value;  offset, step, piecelen, pieces: цел32 ): Array;
	(* for example: insert row or col in matrix *)

	перем srcidx, destidx: цел32;  res: Array;  null: Value;
	нач
		Array1dBytes.PatRangeCheck( offset, step, piecelen, pieces, длинаМассива( x ) + pieces * piecelen );

		null := 0;  нов( res, длинаМассива( x ) + pieces * piecelen );  srcidx := 0;  destidx := 0;
		нцПока (srcidx < offset) делай res[destidx] := x[srcidx];  увел( srcidx );  увел( destidx );  кц;
		нцПока (pieces) > 0 делай
			увел( offset, piecelen );
			нцПока (destidx < offset) делай res[destidx] := null;  увел( destidx );  кц;
			увел( offset, step - piecelen );
			нцПока ((destidx < offset) и (srcidx < длинаМассива( x ))) делай res[destidx] := x[srcidx];  увел( srcidx );  увел( destidx );  кц;
			умень( pieces );
		кц;
		offset := длинаМассива( x );
		нцПока (srcidx < offset) делай res[destidx] := x[srcidx];  увел( srcidx );  увел( destidx );  кц;
		утв ( destidx = длинаМассива( res ) );
		возврат res;
	кон InsertPat;

	проц Insert*( перем x: массив из Value;  offset, len: цел32 ): Array;   (* optimize if necessary *)
	нач
		возврат InsertPat( x, offset, len, len, 1 );
	кон Insert;

	проц GetPieces*( перем a: массив из Value;  offset, step, piecelen: цел32 ): цел32;
	нач
		если (длинаМассива( a ) - offset) остОтДеленияНа step >= piecelen то возврат (длинаМассива( a ) - offset) DIV step + 1 иначе возврат (длинаМассива( a ) - offset) DIV step всё;
	кон GetPieces;

(** sorting *)
	проц Sort*( перем x: массив из Value;  offset, len: Index );

		проц ThreeSort( l, c, r: Index );
		перем sort: Value;
		нач
			если x[l] > x[c] то sort := x[l];  x[l] := x[c];  x[c] := sort всё;
			если x[l] > x[r] то sort := x[l];  x[l] := x[r];  x[r] := sort всё;
			если x[c] > x[r] то sort := x[c];  x[c] := x[r];  x[r] := sort всё
		кон ThreeSort;

		проц InsertionSort( l, r: Index );
		перем i, j: Index;  sort: Value;
		нач
			нцДля i := l + 1 до r делай
				sort := x[i];  j := i;
				нцПока (j > 0) и (x[j - 1] > sort) делай x[j] := x[j - 1];  умень( j ) кц;
				x[j] := sort
			кц
		кон InsertionSort;

		проц QuickSort( l, r: Index );
		конст short = 7;   (* Short vectors sort faster with insertion. *)
		перем c, i, j: Index;  sort, temp: Value;
		нач
			если r - l > short то  (* quick sort *)
				c := (l + r) DIV 2;  ThreeSort( l, c, r );  sort := x[r];  i := l - 1;  j := r;
				нцДо
					нцДо увел( i ) кцПри x[i] >= sort;
					нцДо умень( j ) кцПри x[j] <= sort;
					temp := x[i];  x[i] := x[j];  x[j] := temp
				кцПри j < i;
				x[j] := x[i];  x[i] := x[r];  x[r] := temp;  QuickSort( l, j );  QuickSort( i + 1, r )
			аесли r > l то InsertionSort( l, r )
			иначе  (* Nothing to sort. *)
			всё
		кон QuickSort;

	нач
		Array1dBytes.RangeCheck( offset, len, длинаМассива( x ) );
		если len <= 1 то возврат всё;
		QuickSort( offset, offset + len - 1 );
	кон Sort;

	проц SortWithIndex*( перем x: массив из Value;  перем index: массив из Index;  offset, len: Index );

		проц ThreeSort( l, c, r: Index );
		перем sort: Value;  ind: Index;
		нач
			если x[l] > x[c] то sort := x[l];  x[l] := x[c];  x[c] := sort;  ind := index[l];  index[l] := index[c];  index[c] := ind;  всё;
			если x[l] > x[r] то sort := x[l];  x[l] := x[r];  x[r] := sort;  ind := index[l];  index[l] := index[r];  index[r] := ind;  всё;
			если x[c] > x[r] то sort := x[c];  x[c] := x[r];  x[r] := sort;  ind := index[c];  index[c] := index[r];  index[r] := ind;  всё
		кон ThreeSort;

		проц InsertionSort( l, r: Index );
		перем i, j: Index;  sort: Value;  ind: Index;
		нач
			нцДля i := l + 1 до r делай
				sort := x[i];  ind := index[i];  j := i;
				нцПока (j > 0) и (x[j - 1] > sort) делай x[j] := x[j - 1];  index[j] := index[j - 1];  умень( j ) кц;
				x[j] := sort;  index[j] := ind;
			кц
		кон InsertionSort;

		проц QuickSort( l, r: Index );
		конст short = 7;   (* Short vectors sort faster with insertion. *)
		перем c, i, j: Index;  sort, temp: Value;  ind: Index;
		нач
			если r - l > short то  (* quick sort *)
				c := (l + r) DIV 2;  ThreeSort( l, c, r );  sort := x[r];  ind := index[r];  i := l - 1;  j := r;
				нцДо
					нцДо увел( i ) кцПри x[i] >= sort;
					нцДо умень( j ) кцПри x[j] <= sort;
					temp := x[i];  x[i] := x[j];  x[j] := temp;  ind := index[i];  index[i] := index[j];  index[j] := ind;

				кцПри j < i;
				x[j] := x[i];  x[i] := x[r];  x[r] := temp;  index[j] := index[i];  index[i] := index[r];  index[r] := ind;  QuickSort( l, j );
				QuickSort( i + 1, r )
			аесли r > l то InsertionSort( l, r )
			иначе  (* Nothing to sort. *)
			всё
		кон QuickSort;

	нач
		Array1dBytes.RangeCheck( offset, len, длинаМассива( x ) );  Array1dBytes.RangeCheck( offset, len, длинаМассива( index ) );
		если len <= 1 то возврат всё;
		QuickSort( offset, offset + len - 1 );
	кон SortWithIndex;

	проц SortByIndex*( перем x: массив из Value;  перем index: массив из Index;  offset, len: Index );

		проц ThreeSort( l, c, r: Index );
		перем sort: Value;  ind: Index;
		нач
			если index[l] > index[c] то
				sort := x[l];  x[l] := x[c];  x[c] := sort;  ind := index[l];  index[l] := index[c];  index[c] := ind;
			всё;
			если index[l] > index[r] то sort := x[l];  x[l] := x[r];  x[r] := sort;  ind := index[l];  index[l] := index[r];  index[r] := ind;  всё;
			если index[c] > index[r] то
				sort := x[c];  x[c] := x[r];  x[r] := sort;  ind := index[c];  index[c] := index[r];  index[r] := ind;
			всё
		кон ThreeSort;

		проц InsertionSort( l, r: Index );
		перем i, j: Index;  sort: Value;  ind: Index;
		нач
			нцДля i := l + 1 до r делай
				sort := x[i];  ind := index[i];  j := i;
				нцПока (j > 0) и (index[j - 1] > ind) делай x[j] := x[j - 1];  index[j] := index[j - 1];  умень( j ) кц;
				x[j] := sort;  index[j] := ind;
			кц
		кон InsertionSort;

		проц QuickSort( l, r: Index );
		конст short = 7;   (* Short vectors sort faster with insertion. *)
		перем c, i, j, ind: Index;  sort, temp: Value;
		нач
			если r - l > short то  (* quick sort *)
				c := (l + r) DIV 2;  ThreeSort( l, c, r );  sort := x[r];  ind := index[r];  i := l - 1;  j := r;
				нцДо
					нцДо увел( i ) кцПри index[i] >= ind;
					нцДо умень( j ) кцПри index[j] <= ind;
					temp := x[i];  x[i] := x[j];  x[j] := temp;  ind := index[i];  index[i] := index[j];  index[j] := ind;

				кцПри j < i;
				x[j] := x[i];  x[i] := x[r];  x[r] := temp;  index[j] := index[i];  index[i] := index[r];  index[r] := ind;  QuickSort( l, j );
				QuickSort( i + 1, r )
			аесли r > l то InsertionSort( l, r )
			иначе  (* Nothing to sort. *)
			всё
		кон QuickSort;

	нач
		Array1dBytes.RangeCheck( offset, len, длинаМассива( x ) );  Array1dBytes.RangeCheck( offset, len, длинаМассива( index ) );

		если len <= 1 то возврат
		всё;
		QuickSort( offset, offset + len - 1 );
	кон SortByIndex;


	(** Overloaded operators for type:  Array. *)
(** Monadic Operator -  does not overwrite the argument *)
	операция "-"*( x: Array ): Array;
	перем minus: Array;
	нач
		если x # НУЛЬ то minus := CreateCopy( x^ );  Negate( minus^, 0, длинаМассива( minus ) );  иначе DataErrors.Error( "The supplied vector was NIL." ) всё;
		возврат minus
	кон "-";


(** Dyadic Operators *)

	операция ":="*( перем l: Array;  перем r: массив из Value );
	нач
		если l = НУЛЬ то нов( l, длинаМассива( r ) )
		аесли длинаМассива( l ) # длинаМассива( r ) то нов( l, длинаМассива( r ) )
		иначе  (* vector l is properly dimensioned *)
		всё;
		Copy( l^, r, 0, 0, длинаМассива( r ) );
	кон ":=";

	операция ":="*( перем l: Array;  r: Array1dInt.Array );
	перем i: Index;
	нач
		если r # НУЛЬ то
			если l = НУЛЬ то нов( l, длинаМассива( r ) )
			аесли длинаМассива( l ) # длинаМассива( r ) то нов( l, длинаМассива( r ) )
			иначе  (* vector l is properly dimensioned *)
			всё;
			нцДля i := 0 до длинаМассива( r ) - 1 делай l[i] := r[i] кц
		иначе DataErrors.Error( "The supplied instance of Array1dInt.Array was NIL." )
		всё
	кон ":=";

	операция ":="*( перем l: Array;  перем r: массив из NbrInt.Integer );
	перем i: Index;
	нач
		если l = НУЛЬ то нов( l, длинаМассива( r ) )
		аесли длинаМассива( l ) # длинаМассива( r ) то нов( l, длинаМассива( r ) )
		иначе  (* vector l is properly dimensioned *)
		всё;
		нцДля i := 0 до длинаМассива( r ) - 1 делай l[i] := r[i] кц
	кон ":=";

	операция "="*( l: Array;  перем r: массив из Value ): булево;
	нач
		если (l # НУЛЬ ) и (длинаМассива( l ) = длинаМассива( r )) то возврат EqualsAA( l^, r, 0, длинаМассива( l ) );  иначе DataErrors.Error( "The lengths of the two supplied Array vectors were not equal." );  всё;
		возврат ложь;
	кон "=";

	операция "="*( перем l: массив из Value;  r: Array ): булево;
	нач
		если (r # НУЛЬ ) и (длинаМассива( l ) = длинаМассива( r )) то возврат EqualsAA( r^, l, 0, длинаМассива( r ) );  иначе DataErrors.Error( "The lengths of the two supplied Array vectors were not equal." );  всё;
		возврат ложь;
	кон "=";


(* filling *)
	операция ":="*( перем l: Array;  r: Value );
	нач
		если l = НУЛЬ то возврат всё;
		Fill( r, l^, 0, длинаМассива( l ) );
	кон ":=";

(** Arithmetic. Operators do not overwrite the arguments. *)
	операция "+"*( l, r: Array ): Array;
	перем len: Index;  sum: Array;
	нач
		если (l # НУЛЬ ) и (r # НУЛЬ ) то
			если длинаМассива( l ) = длинаМассива( r ) то len := длинаМассива( l );  нов( sum, len );  AddAA( l^, r^, sum^, 0, len );  иначе DataErrors.Error( "The lengths of the two supplied Array vectors were not equal." ) всё
		иначе DataErrors.Error( "One or both of the two supplied Array vectors was NIL." )
		всё;
		возврат sum
	кон "+";

	операция "+"*( l: Array;  r: Value ): Array;
	перем sum: Array;
	нач
		если (l # НУЛЬ ) то нов( sum, длинаМассива( l ) );  AddAV( l^, r, sum^, 0, длинаМассива( l ) );  иначе DataErrors.Error( "Supplied Array was NIL" );  всё;
		возврат sum
	кон "+";

	операция "+"*( r: Value;  l: Array ): Array;
	перем sum: Array;
	нач
		если (l # НУЛЬ ) то нов( sum, длинаМассива( l ) );  AddAV( l^, r, sum^, 0, длинаМассива( l ) );  иначе DataErrors.Error( "Supplied Array was NIL" );  всё;
		возврат sum
	кон "+";

	операция "+"*( l: Array;  r: Array1dInt.Array ): Array;
	перем i, len: NbrInt.Integer;  sum: Array;
	нач
		если (l # НУЛЬ ) и (r # НУЛЬ ) то
			если длинаМассива( l ) = длинаМассива( r ) то
				len := длинаМассива( l );  нов( sum, len );
				нцДля i := 0 до len - 1 делай sum[i] := l[i] + r[i] кц
			иначе DataErrors.Error( "The lengths of the two supplied mixed-type vectors were not equal." )
			всё
		иначе DataErrors.Error( "One or both of the two supplied mixed-type vectors was NIL." )
		всё;
		возврат sum
	кон "+";

	операция "+"*( l: Array1dInt.Array;  r: Array ): Array;
	перем i, len: NbrInt.Integer;  sum: Array;
	нач
		если (l # НУЛЬ ) и (r # НУЛЬ ) то
			если длинаМассива( l ) = длинаМассива( r ) то
				len := длинаМассива( l );  нов( sum, len );
				нцДля i := 0 до len - 1 делай sum[i] := l[i] + r[i] кц
			иначе DataErrors.Error( "The lengths of the two supplied mixed-type vectors were not equal." )
			всё
		иначе DataErrors.Error( "One or both of the two supplied mixed-type vectors was NIL." )
		всё;
		возврат sum
	кон "+";

	операция "-"*( l: Array;  r: Value ): Array;
	перем sum: Array;
	нач
		если (l # НУЛЬ ) то нов( sum, длинаМассива( l ) );  SubtractAV( l^, r, sum^, 0, длинаМассива( l ) );  иначе DataErrors.Error( "Supplied Array was NIL" );  всё;
		возврат sum
	кон "-";

	операция "-"*( l: Value;  r: Array ): Array;
	перем sum: Array;
	нач
		если (r # НУЛЬ ) то нов( sum, длинаМассива( r ) );  SubtractVA( l, r^, sum^, 0, длинаМассива( r ) );  иначе DataErrors.Error( "Supplied Array was NIL" );  всё;
		возврат sum
	кон "-";

	операция "-"*( l, r: Array ): Array;
	перем len: Index;  diff: Array;
	нач
		если (l # НУЛЬ ) и (r # НУЛЬ ) то
			если длинаМассива( l ) = длинаМассива( r ) то len := длинаМассива( l );  нов( diff, len );  SubtractAA( l^, r^, diff^, 0, len ) иначе DataErrors.Error( "The lengths of the two supplied Array vectors were not equal." ) всё
		иначе DataErrors.Error( "One or both of the two supplied Array vectors was NIL." )
		всё;
		возврат diff
	кон "-";

	операция "-"*( l: Array;  r: Array1dInt.Array ): Array;
	перем i, len: NbrInt.Integer;  diff: Array;
	нач
		если (l # НУЛЬ ) и (r # НУЛЬ ) то
			если длинаМассива( l ) = длинаМассива( r ) то
				len := длинаМассива( l );  нов( diff, len );
				нцДля i := 0 до len - 1 делай diff[i] := l[i] - r[i] кц
			иначе DataErrors.Error( "The lengths of the two supplied mixed-type vectors were not equal." )
			всё
		иначе DataErrors.Error( "One or both of the two supplied mixed-type vectors was NIL." )
		всё;
		возврат diff
	кон "-";

	операция "-"*( l: Array1dInt.Array;  r: Array ): Array;
	перем i, len: NbrInt.Integer;  diff: Array;
	нач
		если (l # НУЛЬ ) и (r # НУЛЬ ) то
			если длинаМассива( l ) = длинаМассива( r ) то
				len := длинаМассива( l );  нов( diff, len );
				нцДля i := 0 до len - 1 делай diff[i] := l[i] - r[i] кц
			иначе DataErrors.Error( "The lengths of the two supplied mixed-type vectors were not equal." )
			всё
		иначе DataErrors.Error( "One or both of the two supplied mixed-type vectors was NIL." )
		всё;
		возврат diff
	кон "-";

(** Array dot product *)
	операция "*"*( l, r: Array ): Value;
	перем len: Index;  dot: Value;
	нач
		dot := 0;
		если (l # НУЛЬ ) и (r # НУЛЬ ) то
			если длинаМассива( l ) = длинаМассива( r ) то len := длинаМассива( l );  ScalarProduct( l^, r^, dot, 0, 0, len );  иначе DataErrors.Error( "The lengths of the two supplied Array vectors were not equal." ) всё
		иначе DataErrors.Error( "One or both of the two supplied Array vectors was NIL." )
		всё;
		возврат dot
	кон "*";

	операция "*"*( l: Array;  r: Array1dInt.Array ): NbrRat.Rational;
	перем i, len: NbrInt.Integer;  dot: NbrRat.Rational;
	нач
		dot := 0;
		если (l # НУЛЬ ) и (r # НУЛЬ ) то
			если длинаМассива( l ) = длинаМассива( r ) то
				len := длинаМассива( l );
				нцДля i := 0 до len - 1 делай dot := dot + l[i] * r[i] кц
			иначе DataErrors.Error( "The lengths of the two supplied mixed-type vectors were not equal." )
			всё
		иначе DataErrors.Error( "One or both of the two supplied mixed-type vectors was NIL." )
		всё;
		возврат dot
	кон "*";

	операция "*"*( l: Array1dInt.Array;  r: Array ): NbrRat.Rational;
	перем i, len: NbrInt.Integer;  dot: NbrRat.Rational;
	нач
		dot := 0;
		если (l # НУЛЬ ) и (r # НУЛЬ ) то
			если длинаМассива( l ) = длинаМассива( r ) то
				len := длинаМассива( l );
				нцДля i := 0 до len - 1 делай dot := dot + l[i] * r[i] кц
			иначе DataErrors.Error( "The lengths of the two supplied mixed-type vectors were not equal." )
			всё
		иначе DataErrors.Error( "One or both of the two supplied mixed-type vectors was NIL." )
		всё;
		возврат dot
	кон "*";

(** Scalar multiplication *)
	операция "*"*( l: Value;  r: Array ): Array;
	перем len: Index;  prod: Array;
	нач
		если r # НУЛЬ то len := длинаМассива( r );  нов( prod, len );  MultAV( r^, l, prod^, 0, len );  иначе DataErrors.Error( "The supplied Array vector was NIL." ) всё;
		возврат prod
	кон "*";

	операция "*"*( l: Array;  r: Value ): Array;
	перем len: Index;  prod: Array;
	нач
		если l # НУЛЬ то len := длинаМассива( l );  нов( prod, len );  MultAV( l^, r, prod^, 0, len );  иначе DataErrors.Error( "The supplied Array vector was NIL." ) всё;
		возврат prod
	кон "*";

	операция "*"*( l: NbrInt.Integer;  r: Array ): Array;
	перем i, len: NbrInt.Integer;  left: NbrRat.Rational;  prod: Array;
	нач
		если r # НУЛЬ то
			len := длинаМассива( r );  нов( prod, len );  left := l;
			нцДля i := 0 до len - 1 делай prod[i] := left * r[i] кц
		иначе DataErrors.Error( "The supplied Array vector was NIL." )
		всё;
		возврат prod
	кон "*";

	операция "*"*( l: Array;  r: NbrInt.Integer ): Array;
	перем i, len: NbrInt.Integer;  right: NbrRat.Rational;  prod: Array;
	нач
		если l # НУЛЬ то
			len := длинаМассива( l );  нов( prod, len );  right := r;
			нцДля i := 0 до len - 1 делай prod[i] := l[i] * right кц
		иначе DataErrors.Error( "The supplied Array vector was NIL." )
		всё;
		возврат prod
	кон "*";

(** Scalar division *)
	операция "/"*( l: Array;  r: Value ): Array;
	перем len: Index;  div: Array;
	нач
		если l # НУЛЬ то
			если r # 0 то len := длинаМассива( l );  нов( div, len );  DivAV( l^, r, div^, 0, len );  иначе DataErrors.Error( "Division by zero." ) всё
		иначе DataErrors.Error( "The supplied Array vector was NIL." )
		всё;
		возврат div
	кон "/";

	операция "/"*( l: Array;  r: NbrInt.Integer ): Array;
	перем i, len: NbrInt.Integer;  right: NbrRat.Rational;  div: Array;
	нач
		если l # НУЛЬ то
			  right := r;
			если right # 0 то
				len := длинаМассива( l );  нов( div, len );
				нцДля i := 0 до len - 1 делай div[i] := l[i] / right кц
			иначе DataErrors.Error( "Division by Integer zero." )
			всё
		иначе DataErrors.Error( "The supplied Array vector was NIL." )
		всё;
		возврат div
	кон "/";

кон Array1dRat.

