модуль AVI;

(* Procedures to read an .avi file *)
(* Written by Thomas Trachsel, ttrachsel@web.de, 18.9.2003 *)
(* Extended with indexfunctionality and adaptation on Codecs by Urs Müller, October 2004 *)
(* Cleaned by PL, March 2005 *)

использует
	НИЗКОУР, ЭВМ, Потоки, ЛогЯдра, Codecs;

	конст
		Debug = ложь;
		DefaultReaderSize = 4096;
		WriteError = 2907;

	(* Steht jetzt einmal hier, kann man vielleicht in AVIDemux reinpacken, mal schauen *)
	тип
		(* Structure that contains the main informations of the .avi file *)
		MainAVIHeaderDesc* = окласс
		перем
			microSecsPerFrame*: цел32;
			maxBytesPerSec*: цел32;
			reserved1*: цел32;
			flags*: цел32;
			totalFrames*: цел32;
			initialFrames*: цел32;
			streams*: цел32;
			suggestedBufferSize*: цел32;
			width*: цел32;
			height*: цел32;
			reserved*: массив 4 из цел32;
		кон MainAVIHeaderDesc;

		(* Structure that contains the main Info of a stream in a .avi file *)
		AVIStreamHeader* = окласс
		перем
			fccType*: массив 4 из симв8;
			fccHandler*: массив 4 из симв8;
			flags*: цел32;
			priority*: цел32;
			initialFrames*: цел32;
			scale*: цел32;
			rate*: цел32;
			start*: цел32;
			length*: цел32;
			suggestedBufferSize*: цел32;
			quality*: цел32;
			sampleSize*: цел32;
			left*: цел32;
			top*: цел32;
			right*: цел32;
			bottom*: цел32;
			streamIdentifier*: массив 4 из симв8;
			bitMapInfo*: BitMapInfo;
			waveFormatEx*: WAVEFormatEx;
		кон AVIStreamHeader;

		(* video stream specific infos *)
		BitMapInfo = окласс
		перем
			size*: цел32;
			width*: цел32;
			height*: цел32;
			planes*: цел32;
			bitCount*: цел32;
			compression*: цел32;
			sizeImage*: цел32;
			xPelsPerMeter*: цел32;
			yPelsPerMeter*: цел32;
			clrUsed*: цел32;
			clrImportant*: цел32;
		кон BitMapInfo;

		(* audio stream specific infos *)
		WAVEFormatEx* = окласс
		перем
			formatTag*: цел32;
			channels*: цел32;
			samplesPerSec*: цел32;
			avgBytesPerSec*: цел32;
			blockAlign*: цел32;
			bitsPerSample*: цел32;
			cbSize*: цел32;
		кон WAVEFormatEx;

		(* IndexChunk infos *)
		AVIIndexEntry* = запись
			ckid*: цел32;
			flags*: цел32;
			offset*: цел32;
			length*: цел32;
			tot*: цел32;
		кон;

	тип IndexArrayPointer* = укль на массив из AVIIndexEntry;

	(* Stream for reading a Stream of an .avi file *)
	тип AVIStream* = окласс(Codecs.DemuxStream)
		перем
			bufAdr: адресВПамяти;
			r : Потоки.Чтец;
			chunkSize*: размерМЗ;	(* Bytes in actual AVI Chunk *)
			streamHeader: AVIStreamHeader;
			stuffByte*: цел32;
			eof*: булево;	(* End of File *)

		(* Constructor *)
		проц & Init*( r: Потоки.Чтец;  streamHdr: AVIStreamHeader);
		нач
			bufAdr := 0;
			chunkSize := 0;
			streamHeader := streamHdr;
			сам.r := r;
			утв(сам.r # НУЛЬ);
			stuffByte := 0;
			eof := ложь;
		кон Init;

		(* Returns TRUE if the underlying reader supports seeking.  *)
		проц {перекрыта}можноЛиПерейтиКМестуВПотоке¿*() : булево;
		нач
			возврат r.можноЛиПерейтиКМестуВПотоке¿();
		кон можноЛиПерейтиКМестуВПотоке¿;

		(* Compare two array up to len bytes *)
		проц CompareCharArrays(ar1,ar2 : массив из симв8; len: цел32 ): булево;
		перем
			i: цел32;
		нач
			если ( len > длинаМассива( ar1 ) ) или ( len > длинаМассива( ar2 ) ) то
				возврат ложь
			всё;

			нцДля i := 0 до len-1 делай
				если ar1[i] # ar2[i] то
					возврат ложь
				всё;
			кц;
			возврат истина
		кон CompareCharArrays;

		(* Seek the next chunk of our stream in the avi file and read it *)
		проц  ReadNextChunk(перем buf:  массив из симв8);
		перем
			tempBuf: массив 4 из симв8;
			length: размерМЗ;
			len: цел32;
			done: булево;
		нач
			если Debug то ЛогЯдра.пСтроку8("Read next Chunk"); ЛогЯдра.пВК_ПС; всё;
			done := ложь;
			eof := ложь;

			(* Undocument in .avi docu; if the size of a chunk is odd, we have to skip one byte *)
			если stuffByte > 0 то
				r.ПропустиБайты( 1 );
				stuffByte := 0
			всё;

			нцДо
				r.чБайты(tempBuf, 0, 4, length );
				если r.кодВозвратаПоследнейОперации = Потоки.Успех то
					r.чЦел32_мз(len);
					stuffByte := len остОтДеленияНа 2;
					если r.кодВозвратаПоследнейОперации = Потоки.Успех то
						если Debug то
							ЛогЯдра.пСтроку8( "AVIStream: Found Chunk : " );
							ЛогЯдра.п16ричное( кодСимв8( tempBuf[0] ), 0 ); ЛогЯдра.п16ричное( кодСимв8( tempBuf[1] ), 0 );
							ЛогЯдра.п16ричное( кодСимв8( tempBuf[2] ), 0 ); ЛогЯдра.п16ричное( кодСимв8( tempBuf[3] ), 0 ); ЛогЯдра.пСтроку8(" ");
							ЛогЯдра.пСимв8( tempBuf[0] ); ЛогЯдра.пСимв8( tempBuf[1] ); ЛогЯдра.пСимв8( tempBuf[2] );
							ЛогЯдра.пСимв8( tempBuf[3] ); ЛогЯдра.пСтроку8( "@Pos: "); ЛогЯдра.пЦел64( r.МестоВПотоке() - 8, 0 );
							ЛогЯдра.пСтроку8( " SkipBytes: " ); ЛогЯдра.пЦел64( len, 0 ); ЛогЯдра.пВК_ПС();
						всё;
						если CompareCharArrays( tempBuf, streamHeader.streamIdentifier, 4 ) то
							(* We found the correct chunk *)
							если len > 0 то
								done := истина;
								bufAdr := адресОт( buf[0] );
								r.чБайты( buf, 0, len, chunkSize );
								buf[len] := симв8ИзКода( 0 ); buf[len+1] := симв8ИзКода( 0 ); buf[len+2] := симв8ИзКода( 0 ); buf[len+3] := симв8ИзКода( 0 );
								утв( len = chunkSize );
							всё;
						иначе
							r.ПропустиБайты( len + stuffByte )
						всё;
					иначе
						eof := истина;
						кодВозвратаПоследнейОперации := Потоки.КонецФайла;
						ЛогЯдра.пСтроку8("ENDE");
					всё;
				иначе
					eof := истина;
					кодВозвратаПоследнейОперации := Потоки.КонецФайла;
					ЛогЯдра.пСтроку8("ENDE");
				всё;
			кцПри ( done или eof );
		кон ReadNextChunk;

		(* Go to the beginnig of the next frame -> Read next chunk *)
		проц Resynch*(перем buf: массив из симв8): булево;
		нач
			ReadNextChunk(buf);
			возврат ~eof
		кон Resynch;

		(* Return Pos in Avi File, relativ to the beginning of the stream data *)
		проц {перекрыта}МестоВПотоке*(): Потоки.ТипМестоВПотоке;
		нач
			возврат r.МестоВПотоке()
		кон МестоВПотоке;

		(* Set the Position of the AVIReader. If frame flag is set, position is interpreted as a framenumber *)
		проц SetAVIPos*(pos: цел32;  перем retPos: цел32);
		нач
			если Debug то ЛогЯдра.пСтроку8("DemuxStream.SetAVIPos"); ЛогЯдра.пВК_ПС; всё;
			r.ПерейдиКМестуВПотоке(pos);
			stuffByte := 0;
			retPos := r.МестоВПотоке()(цел32);
			ОчистьСостояниеБуфера;
		кон SetAVIPos;

		проц {перекрыта}чБайты*(перем x: массив из симв8; ofs, size: размерМЗ; перем len: размерМЗ);
		перем
			min: цел32; res: целМЗ;
		нач
			если Debug то ЛогЯдра.пСтроку8("Bytes"); ЛогЯдра.пВК_ПС; всё;
			demultiplexer.GetData(streamNr, x, ofs, size, min, len, res);
		кон чБайты;

		(* Set Byte Position *)
		проц {перекрыта}ПерейдиКМестуВПотоке*(pos : Потоки.ТипМестоВПотоке);
		перем seekType, itemSize: цел32; res : целМЗ;
		нач
			если Debug то ЛогЯдра.пСтроку8("DemuxStream.SetPos"); ЛогЯдра.пВК_ПС; всё;
			seekType := Codecs.SeekByte;
			demultiplexer.SetStreamPos(streamNr, seekType, pos(цел32), itemSize, res);
			ОчистьСостояниеБуфера;
		кон ПерейдиКМестуВПотоке;

	кон AVIStream;

	(* The .avi File Demultiplexer *)
	AVIDemux* = окласс(Codecs.AVDemultiplexer)
	перем
		r : Потоки.Чтец;
		filename* : массив 256 из симв8;

		(* We need just these 3 Headers *)
		aviHeader: MainAVIHeaderDesc;
		audioStreamHeader: AVIStreamHeader;
		videoStreamHeader: AVIStreamHeader;
		riffLength: цел32;

		movieBeginPos: Потоки.ТипМестоВПотоке;
		indexStart: Потоки.ТипМестоВПотоке;
		videoFrames: цел32;
		audioChunks: цел32;
		videoIndex: IndexArrayPointer;
		audioIndex: IndexArrayPointer;
		audioBytes: цел32;

		videoBufferIndex: цел32;

		audioChunkSize: цел32;

		audioStream: AVIStream;
		videoStream: AVIStream;
		videoFramePos: цел32;
		audioFramePos: цел32;

		проц {перекрыта}Open*(in : Потоки.Чтец; перем res : целМЗ);
		нач
			r := in;
			res := Codecs.ResFailed;

			если in суть Codecs.FileInputStream	то
				in(Codecs.FileInputStream).f.GetName(filename);
				если ReadHeader() то res := Codecs.ResOk всё
			иначе возврат всё;													(* bad bad bad *)

		кон Open;

		проц GetAVIHeader*(): MainAVIHeaderDesc;
		нач
			возврат aviHeader
		кон  GetAVIHeader;

		(* Compare two arrays up to len bytes *)
		проц CompareCharArrays( ar1,ar2 : массив из симв8; len: цел32 ): булево;
		перем
			i: цел32;
		нач
			если ( len > длинаМассива( ar1 ) ) или ( len > длинаМассива( ar2 ) ) то
				возврат ложь
			всё;

			нцДля i := 0 до len-1 делай
				если ar1[i] # ar2[i] то
					возврат ложь
				всё;
			кц;
			возврат истина
		кон CompareCharArrays;

		(* Read .avi FIle Header *)
		проц ReadHeader*(): булево;
		перем
			buf : массив 8 из симв8;
			len: размерМЗ;
			done: булево;
			headerLength: цел32;
			headerBeginPos: Потоки.ТипМестоВПотоке;

			tempHeader: AVIStreamHeader;
			streamNumber: цел8;

		нач
			done := ложь;
			streamNumber := 0;
			riffLength := 0;
			aviHeader := НУЛЬ;
			audioStreamHeader := НУЛЬ;
			videoStreamHeader := НУЛЬ;

			утв(r # НУЛЬ);

			(* Check, if we have a valid avi file *)
			r.чБайты( buf,0,4,len );
			если CompareCharArrays( buf, "RIFF" ,4 ) # истина то
				ЛогЯдра.пСтроку8( "Not a valid .avi File!" ); ЛогЯдра.пВК_ПС;
				возврат ложь
			всё;
			r.чЦел32_мз(riffLength);

			r.чБайты( buf,0,4, len );
			если CompareCharArrays( buf, "AVI ",4 ) # истина то
				ЛогЯдра.пСтроку8( "Only .avi Files that contain a video stream are allowed" ); ЛогЯдра.пВК_ПС();
				возврат ложь
			всё;

			(* Read AVI Headers *)
			нцДо
				r.чБайты( buf,0,4, len );
				если CompareCharArrays( buf, "LIST",4 ) то
					(* We found an additional Header *)
					(* Store Infos about header *)
					r.чЦел32_мз(headerLength);

					headerLength := headerLength + headerLength остОтДеленияНа 2;
					headerBeginPos := r.МестоВПотоке();
					r.чБайты( buf,0,4, len );

					(* Main AVI Header *)
					если CompareCharArrays(buf, "hdrl",4) то
						r.чБайты( buf,0,4, len );
						если CompareCharArrays(buf, "avih",4) то
								aviHeader := ReadMainAVIHeader()
						иначе
							SkipHeader()
						всё;
					(* Stream Header *)
					аесли CompareCharArrays( buf, "strl",4 ) то
						r.чБайты( buf,0,4, len );
						если CompareCharArrays( buf, "strh",4 ) то
							tempHeader := ReadAVIStreamHeader();

							если CompareCharArrays(tempHeader.fccType, "vids",4) то
								r.ПропустиБайты(4); (* Skip "strf" *)

								если videoStreamHeader = НУЛЬ то
									videoStreamHeader := tempHeader;
									videoStreamHeader.streamIdentifier[0] := "0";
									videoStreamHeader.streamIdentifier[1] := симв8ИзКода( кодСимв8( '0' ) + streamNumber );
									videoStreamHeader.streamIdentifier[2] := "d";
									videoStreamHeader.streamIdentifier[3] := "c";
									увел(streamNumber)
								всё;
								tempHeader := НУЛЬ;

								если videoStreamHeader.bitMapInfo = НУЛЬ то
									videoStreamHeader.bitMapInfo := ReadBitMapInfo();
									videoStreamHeader.waveFormatEx := НУЛЬ
								иначе
									SkipHeader()
								всё;
							аесли CompareCharArrays(tempHeader.fccType, "auds",4) то
								r.ПропустиБайты(4);

								если audioStreamHeader = НУЛЬ то
									audioStreamHeader := tempHeader;
									audioStreamHeader.streamIdentifier[0] := "0";
									audioStreamHeader.streamIdentifier[1] := симв8ИзКода( кодСимв8('0') + streamNumber );
									audioStreamHeader.streamIdentifier[2] := "w";
									audioStreamHeader.streamIdentifier[3] := "b";
									увел(streamNumber)
								всё;
								tempHeader := НУЛЬ;

								если audioStreamHeader.waveFormatEx = НУЛЬ то
									audioStreamHeader.waveFormatEx := ReadWaveFormatEx();
									audioStreamHeader.bitMapInfo := НУЛЬ
								иначе
									SkipHeader()
								всё;
							иначе
								если Debug то
									ЛогЯдра.пСтроку8( "AVIDemux: Unknown AviStream found; " ); ЛогЯдра.пСтроку8(tempHeader.fccType);
									ЛогЯдра.пВК_ПС()
								всё;
							всё;
						всё;
					аесли CompareCharArrays(buf, "movi",4) то
						(* movie data begin, including movi Tag *)
						movieBeginPos := r.МестоВПотоке()-4;

						(* this could be improved... *)
						r.ПерейдиКМестуВПотоке(headerLength+movieBeginPos);			(* headerLength); *)

						r.чБайты(buf,0,4,len);

						если CompareCharArrays(buf, "idx1",4) то
							(* There is an index *)

							(* Start of Index including idx1 Tag *)
							indexStart := r.МестоВПотоке()-4;
							ReadIndex();
							если Debug то
								ЛогЯдра.пСтроку8("AVIDemux: Start of movie stream found " ); ЛогЯдра.пВК_ПС()
							всё;
						иначе
							videoIndex := НУЛЬ;
							audioIndex := НУЛЬ;
						всё;
						r.ПерейдиКМестуВПотоке(movieBeginPos+4);

						done := истина;
					иначе
						если Debug то
							ЛогЯдра.пСтроку8("AVIDemux: Unknown StreamHeader found: " ); ЛогЯдра.пСтроку8(buf); ЛогЯдра.пВК_ПС()
						всё;
						r.ПропустиБайты( headerLength - ( r.МестоВПотоке() - headerBeginPos ) )
					всё;
				иначе
					(* Unknown Header -> Skip *)
					если Debug то
						ЛогЯдра.пСтроку8("AVIDemux: Unknown Header found: " ); ЛогЯдра.пСрезБуфера16рично(buf,0,4); ЛогЯдра.пВК_ПС()
					всё;
					SkipHeader();
				всё;
			кцПри done;

			если Debug то
				DumpHeaders();
			всё;

			возврат истина
		кон ReadHeader;

		(* Noch ueberlegen: BOOLEAN Rueckgabe, wenn kein Index dann False *)
		проц ReadIndex*;
		перем
			buf : массив 8 из симв8;
			buf2 : массив 8 из симв8;
			indexLength: цел32;
			nidx: цел32;
			idxType: цел16;
			i: цел32;
			pos: цел32;
			length: цел32;
			len: размерМЗ;
			temp: цел32;
			nai: цел32;
			nvi: цел32;
			tot: цел32;
			ioff: цел32;

		нач
			r.чЦел32_мз(indexLength);

			nidx := indexLength DIV 16;
			idxType := 0;
			i := 0;
			нц
				r.чБайты(buf, 0, 4, len);
				если CompareCharArrays(buf, videoStreamHeader.streamIdentifier, 3) то
					i := i+1;
					(* Not shure, wether this is necessary - but everything works fine with it *)
					indexStart := r.МестоВПотоке()-4;
					прервиЦикл;
				всё;
				если i >= nidx то
					ЛогЯдра.пСтроку8("No Index found"); ЛогЯдра.пВК_ПС();
					прервиЦикл;
				всё;
			кц;

			r.ПропустиБайты(4);
			r.чЦел32_мз(pos);
			r.чЦел32_мз(length);
			r.ПерейдиКМестуВПотоке(pos);

			(* Index from start of File*)
			если CompareCharArrays(buf2, buf, 4) то
				r.чЦел32_мз(temp);

				если (temp = length) то
					idxType := 1;
				всё;
			иначе
				r.ПерейдиКМестуВПотоке(pos + movieBeginPos);

				r.чБайты(buf2, 0, 4, len);
				если CompareCharArrays(buf2, buf, 4) то
					r.чЦел32_мз(temp);

					если (temp = length) то
						idxType := 2;
					всё;
				всё;
			всё;

			(* now go on according to indexType *)
			если idxType = 0 то
				ЛогЯдра.пСтроку8("File without index: Not supported yet");
				(* And trap here ... *)
			всё;

			(* The 0 case: no index. It is possible to generate an index b y traversing the whole file *)
			(* For now we simply declare the file as not seekable *)

			если idxType # 0 то
				nai := 0;
				nvi := 0;

				r.ПерейдиКМестуВПотоке(indexStart);

				i := 0;
				(* Count, how many entries there are (the number would also be in the header, *)
				(* but if there is no index, you have to do this anyway) *)
				нцДо
					r.чБайты(buf, 0, 4, len);
					если CompareCharArrays(buf, videoStreamHeader.streamIdentifier, 3) то
						nvi := nvi+1;
					иначе
						если audioStreamHeader # НУЛЬ то
							если CompareCharArrays(buf, audioStreamHeader.streamIdentifier, 4) то
								nai := nai+1;
							всё;
						всё;
					всё;
					r.ПропустиБайты(12);
					i := i+1;
				кцПри (i = nidx-1);

				videoFrames := nvi;
				audioChunks := nai;
				нов(videoIndex, nvi);

				(* Vielleicht haben wir ja nur Bilder... *)
				если (audioChunks > 0) то
					нов(audioIndex, nai);
				всё;

				(* So, und jetzt die Arrays fuellen *)
				nvi := 0;
				nai := 0;
				tot := 0;
				r.ПерейдиКМестуВПотоке(indexStart);

				если (idxType = 1) то
					ioff := 8;
				иначе
					ioff := movieBeginPos(цел32);
				всё;

				i := 0;
				нцДо
					r.чБайты(buf, 0, 4, len);
					если CompareCharArrays(buf, videoStreamHeader.streamIdentifier, 3) то
						r.чЦел32_мз(videoIndex[nvi].flags);
						r.чЦел32_мз(videoIndex[nvi].offset);
						videoIndex[nvi].offset := videoIndex[nvi].offset + ioff;
						r.чЦел32_мз(videoIndex[nvi].length);
						nvi := nvi+1;
					иначе
						если CompareCharArrays(buf, audioStreamHeader.streamIdentifier, 4) то
							r.ПропустиБайты(4);
							r.чЦел32_мз(audioIndex[nai].offset);
							audioIndex[nai].offset := audioIndex[nai].offset + ioff;
							r.чЦел32_мз(audioIndex[nai].length);
							audioIndex[nai].tot := tot;
							tot := tot + audioIndex[nai].length;
							nai := nai+1;
						всё;
					всё;
					i := i+1;
				кцПри (i = nidx-1);
				audioBytes := tot;
			всё;
		кон ReadIndex;

		(* Skip chunk *)
		проц SkipHeader*;
		перем
			length: цел32;
		нач
			r.чЦел32_мз(length);
			r.ПропустиБайты( length + length остОтДеленияНа 2)
		кон SkipHeader;

		(* Read Main AVI Header *)
		проц ReadMainAVIHeader(): MainAVIHeaderDesc;
		перем
			aviHeader: MainAVIHeaderDesc;
			headerLength: цел32;
			startPos: Потоки.ТипМестоВПотоке;
		нач
			нов( aviHeader );

			r.чЦел32_мз(headerLength);
			startPos := r.МестоВПотоке();

			r.чЦел32_мз( aviHeader.microSecsPerFrame );
			r.чЦел32_мз( aviHeader.maxBytesPerSec );
			r.чЦел32_мз( aviHeader.reserved1 );
			r.чЦел32_мз( aviHeader.flags );
			r.чЦел32_мз( aviHeader.totalFrames );
			r.чЦел32_мз( aviHeader.initialFrames );
			r.чЦел32_мз( aviHeader.streams );
			r.чЦел32_мз( aviHeader.suggestedBufferSize );
			r.чЦел32_мз( aviHeader.width );
			r.чЦел32_мз( aviHeader.height );
			r.чЦел32_мз( aviHeader.reserved[0] );
			r.чЦел32_мз( aviHeader.reserved[1] );
			r.чЦел32_мз( aviHeader.reserved[2] );
			r.чЦел32_мз( aviHeader.reserved[3] );

			(* Skip Bytes if we have still available *)
			если r.МестоВПотоке() - startPos < headerLength то
				r.ПропустиБайты( headerLength - ( r.МестоВПотоке() - startPos ) )
			всё;

			возврат aviHeader;
		кон ReadMainAVIHeader;

		(* Read Header of this avi Stream *)
		проц ReadAVIStreamHeader(): AVIStreamHeader;
		перем
			header: AVIStreamHeader;
			headerLength: цел32;
			startPos: Потоки.ТипМестоВПотоке;
			len: размерМЗ;
			temp: цел16;
		нач
			нов(header);

			r.чЦел32_мз(headerLength);
			startPos := r.МестоВПотоке();

			r.чБайты( header.fccType,0,4, len );
			r.чБайты( header.fccHandler,0,4, len );
			r.чЦел32_мз( header.flags );
			r.чЦел32_мз( header.priority );
			r.чЦел32_мз( header.initialFrames );
			r.чЦел32_мз( header.scale );
			r.чЦел32_мз( header.rate );
			r.чЦел32_мз( header.start );
			r.чЦел32_мз( header.length );
			r.чЦел32_мз( header.suggestedBufferSize );
			r.чЦел32_мз( header.quality );
			r.чЦел32_мз( header.sampleSize );
			r.чЦел16_мз( temp ); header.left := temp;
			r.чЦел16_мз( temp ); header.top := temp;
			r.чЦел16_мз( temp ); header.right := temp;
			r.чЦел16_мз( temp ); header.bottom := temp;

			(* Skio Bytes if we have still available *)
			если r.МестоВПотоке() - startPos < headerLength то
				r.ПропустиБайты( headerLength - ( r.МестоВПотоке() - startPos ) )
			всё;

			возврат header
		кон ReadAVIStreamHeader;

		(* Read BitMapInfo Structure *)
		проц ReadBitMapInfo(): BitMapInfo;
		перем
			header: BitMapInfo;
			headerLength: цел32;
			startPos: Потоки.ТипМестоВПотоке;
			temp: цел16;
		нач
			нов(header);

			r.чЦел32_мз(headerLength);
			startPos := r.МестоВПотоке();

			r.чЦел32_мз( header.size );
			r.чЦел32_мз( header.width );
			r.чЦел32_мз( header.height );
			r.чЦел16_мз( temp ); header.planes := temp;
			r.чЦел16_мз( temp ); header.bitCount := temp;
			r.чЦел32_мз( header.compression );
			r.чЦел32_мз( header.sizeImage );
			r.чЦел32_мз( header.xPelsPerMeter );
			r.чЦел32_мз( header.yPelsPerMeter );
			r.чЦел32_мз( header.clrUsed );
			r.чЦел32_мз( header.clrImportant );

			если r.МестоВПотоке() - startPos < headerLength то
				r.ПропустиБайты( headerLength - ( r.МестоВПотоке() - startPos ) )
			всё;

			возврат header
		кон  ReadBitMapInfo;

		(* Read WaveFormatEX Structure *)
		проц ReadWaveFormatEx(): WAVEFormatEx;
		перем
			header: WAVEFormatEx;
			headerLength: цел32;
			startPos: Потоки.ТипМестоВПотоке;
			temp: цел16;
		нач
			нов(header);

			r.чЦел32_мз(headerLength);
			startPos := r.МестоВПотоке();

			r.чЦел16_мз( temp ); header.formatTag := temp;
			r.чЦел16_мз( temp ); header.channels := temp;
			r.чЦел32_мз( header.samplesPerSec );
			r.чЦел32_мз( header.avgBytesPerSec );
			r.чЦел16_мз( temp ); header.blockAlign := temp;
			r.чЦел16_мз( temp ); header.bitsPerSample := temp;
			r.чЦел16_мз( temp ); header.cbSize := temp;

			если r.МестоВПотоке() - startPos < headerLength то
				r.ПропустиБайты( headerLength - ( r.МестоВПотоке() - startPos ) )
			всё;

			возврат header
		кон ReadWaveFormatEx;

		(* Write Avi Headers to KernelLog *)
		проц DumpHeaders*;
		нач
			ЛогЯдра.пСтроку8("AviDemux: Dump of Avi Headers: "); ЛогЯдра.пВК_ПС();

			если aviHeader # НУЛЬ то
				ЛогЯдра.пСтроку8( "aviHeader.microSecsPerFrame =  " ); ЛогЯдра.пЦел64( aviHeader.microSecsPerFrame, 0 ); ЛогЯдра.пВК_ПС();
				ЛогЯдра.пСтроку8( "aviHeader.maxBytesPerSec =  " ); ЛогЯдра.пЦел64( aviHeader.maxBytesPerSec, 0 ); ЛогЯдра.пВК_ПС();
				ЛогЯдра.пСтроку8( "aviHeader.reserved1 =  " ); ЛогЯдра.пЦел64( aviHeader.reserved1, 0 ); ЛогЯдра.пВК_ПС();
				ЛогЯдра.пСтроку8( "aviHeader.flags =  " ); ЛогЯдра.пЦел64( aviHeader.flags, 0 ); ЛогЯдра.пВК_ПС();
				ЛогЯдра.пСтроку8( "aviHeader.totalFrames =  " ); ЛогЯдра.пЦел64( aviHeader.totalFrames, 0 ); ЛогЯдра.пВК_ПС();
				ЛогЯдра.пСтроку8( "aviHeader.initialFrames =  " ); ЛогЯдра.пЦел64( aviHeader.initialFrames, 0 ); ЛогЯдра.пВК_ПС();
				ЛогЯдра.пСтроку8( "aviHeader.streams =  " ); ЛогЯдра.пЦел64( aviHeader.streams, 0 ); ЛогЯдра.пВК_ПС();
				ЛогЯдра.пСтроку8( "aviHeader.suggestedBufferSize =  " ); ЛогЯдра.пЦел64( aviHeader.suggestedBufferSize, 0 ); ЛогЯдра.пВК_ПС();
				ЛогЯдра.пСтроку8( "aviHeader.width =  " ); ЛогЯдра.пЦел64( aviHeader.width, 0 ); ЛогЯдра.пВК_ПС();
				ЛогЯдра.пСтроку8( "aviHeader.height =  " ); ЛогЯдра.пЦел64( aviHeader.height, 0 ); ЛогЯдра.пВК_ПС();
				ЛогЯдра.пСтроку8( "aviHeader.reserved[0] =  " ); ЛогЯдра.пЦел64( aviHeader.reserved[0],0 ); ЛогЯдра.пВК_ПС();
				ЛогЯдра.пСтроку8( "aviHeader.reserved[1] =  " ); ЛогЯдра.пЦел64( aviHeader.reserved[1],0 ); ЛогЯдра.пВК_ПС();
				ЛогЯдра.пСтроку8( "aviHeader.reserved[2] =  " ); ЛогЯдра.пЦел64( aviHeader.reserved[2],0 ); ЛогЯдра.пВК_ПС();
				ЛогЯдра.пСтроку8( "aviHeader.reserved[3] =  " ); ЛогЯдра.пЦел64( aviHeader.reserved[3],0 ); ЛогЯдра.пВК_ПС()
			иначе
				ЛогЯдра.пСтроку8("AVIDemux.aviHeader = NIL"); ЛогЯдра.пВК_ПС()
			всё;

			если audioStreamHeader # НУЛЬ то
				ЛогЯдра.пСтроку8( "audioStreamHeader.fccType =  " ); ЛогЯдра.пСтроку8( audioStreamHeader.fccType ); ЛогЯдра.пВК_ПС();
				ЛогЯдра.пСтроку8( "audioStreamHeader.fccHandler =  " ); ЛогЯдра.пСтроку8( audioStreamHeader.fccHandler );
					ЛогЯдра.пВК_ПС();
				ЛогЯдра.пСтроку8( "audioStreamHeader.flags =  " ); ЛогЯдра.пЦел64( audioStreamHeader.flags, 0 ); ЛогЯдра.пВК_ПС();
				ЛогЯдра.пСтроку8( "audioStreamHeader.priority =  " ); ЛогЯдра.пЦел64( audioStreamHeader.priority, 0 ); ЛогЯдра.пВК_ПС();
				ЛогЯдра.пСтроку8( "audioStreamHeader.initialFrames =  " ); ЛогЯдра.пЦел64( audioStreamHeader.initialFrames, 0 );
					ЛогЯдра.пВК_ПС();
				ЛогЯдра.пСтроку8( "audioStreamHeader.scale =  " ); ЛогЯдра.пЦел64( audioStreamHeader.scale, 0 ); ЛогЯдра.пВК_ПС();
				ЛогЯдра.пСтроку8( "audioStreamHeader.rate =  " ); ЛогЯдра.пЦел64( audioStreamHeader.rate, 0 ); ЛогЯдра.пВК_ПС();
				ЛогЯдра.пСтроку8( "audioStreamHeader.start =  " ); ЛогЯдра.пЦел64( audioStreamHeader.start, 0 ); ЛогЯдра.пВК_ПС();
				ЛогЯдра.пСтроку8( "audioStreamHeader.length =  " ); ЛогЯдра.пЦел64( audioStreamHeader.length, 0 ); ЛогЯдра.пВК_ПС();
				ЛогЯдра.пСтроку8( "audioStreamHeader.suggestedBufferSize =  " );
					ЛогЯдра.пЦел64( audioStreamHeader.suggestedBufferSize, 0 ); ЛогЯдра.пВК_ПС();
				ЛогЯдра.пСтроку8( "audioStreamHeader.quality =  " ); ЛогЯдра.пЦел64( audioStreamHeader.quality, 0 ); ЛогЯдра.пВК_ПС();
				ЛогЯдра.пСтроку8( "audioStreamHeader.sampleSize =  " ); ЛогЯдра.пЦел64( audioStreamHeader.sampleSize, 0 );
					ЛогЯдра.пВК_ПС();
				ЛогЯдра.пСтроку8( "audioStreamHeader.left =  " ); ЛогЯдра.пЦел64( audioStreamHeader.left, 0 ); ЛогЯдра.пВК_ПС();
				ЛогЯдра.пСтроку8( "audioStreamHeader.top =  " ); ЛогЯдра.пЦел64( audioStreamHeader.top, 0 ); ЛогЯдра.пВК_ПС();
				ЛогЯдра.пСтроку8( "audioStreamHeader.right =  " ); ЛогЯдра.пЦел64( audioStreamHeader.right, 0 ); ЛогЯдра.пВК_ПС();
				ЛогЯдра.пСтроку8( "audioStreamHeader.bottom =  " ); ЛогЯдра.пЦел64( audioStreamHeader.bottom, 0 ); ЛогЯдра.пВК_ПС();
				ЛогЯдра.пСтроку8( "audioStreamHeader.streamIdentifier =  " );
				ЛогЯдра.пСрезБуфера16рично( audioStreamHeader.streamIdentifier, 0, 4 ); ЛогЯдра.пВК_ПС()
			иначе
				ЛогЯдра.пСтроку8("AVIDemux.audioStreamHeader = NIL"); ЛогЯдра.пВК_ПС()
			всё;

			если videoStreamHeader # НУЛЬ то
				ЛогЯдра.пСтроку8( "videoStreamHeader.fccType =  " ); ЛогЯдра.пСтроку8( videoStreamHeader.fccType ); ЛогЯдра.пВК_ПС();
				ЛогЯдра.пСтроку8( "videoStreamHeader.fccHandler =  " ); ЛогЯдра.пСтроку8( videoStreamHeader.fccHandler );
					ЛогЯдра.пВК_ПС();
				ЛогЯдра.пСтроку8( "videoStreamHeader.flags =  " ); ЛогЯдра.пЦел64( videoStreamHeader.flags, 0 ); ЛогЯдра.пВК_ПС();
				ЛогЯдра.пСтроку8( "videoStreamHeader.priority =  " ); ЛогЯдра.пЦел64( videoStreamHeader.priority, 0 ); ЛогЯдра.пВК_ПС();
				ЛогЯдра.пСтроку8( "videoStreamHeader.initialFrames =  " ); ЛогЯдра.пЦел64( videoStreamHeader.initialFrames, 0 );
					ЛогЯдра.пВК_ПС();
				ЛогЯдра.пСтроку8( "videoStreamHeader.scale =  " ); ЛогЯдра.пЦел64( videoStreamHeader.scale, 0 ); ЛогЯдра.пВК_ПС();
				ЛогЯдра.пСтроку8( "videoStreamHeader.rate =  " ); ЛогЯдра.пЦел64( videoStreamHeader.rate, 0 ); ЛогЯдра.пВК_ПС();
				ЛогЯдра.пСтроку8( "videoStreamHeader.start =  " ); ЛогЯдра.пЦел64( videoStreamHeader.start, 0 ); ЛогЯдра.пВК_ПС();
				ЛогЯдра.пСтроку8( "videoStreamHeader.length =  " ); ЛогЯдра.пЦел64( videoStreamHeader.length, 0 ); ЛогЯдра.пВК_ПС();
				ЛогЯдра.пСтроку8( "videoStreamHeader.suggestedBufferSize =  " );
					ЛогЯдра.пЦел64( videoStreamHeader.suggestedBufferSize, 0 ); ЛогЯдра.пВК_ПС();
				ЛогЯдра.пСтроку8( "videoStreamHeader.quality =  " ); ЛогЯдра.пЦел64( videoStreamHeader.quality, 0 ); ЛогЯдра.пВК_ПС();
				ЛогЯдра.пСтроку8( "videoStreamHeader.sampleSize =  " ); ЛогЯдра.пЦел64( videoStreamHeader.sampleSize, 0 );
					ЛогЯдра.пВК_ПС();
				ЛогЯдра.пСтроку8( "videoStreamHeader.streamIdentifier =  " );
				ЛогЯдра.пСрезБуфера16рично( videoStreamHeader.streamIdentifier, 0, 4 ); ЛогЯдра.пВК_ПС()
			иначе
				ЛогЯдра.пСтроку8("AVIDemux.videoStreamHeader = NIL"); ЛогЯдра.пВК_ПС()
			всё;

			если videoStreamHeader.bitMapInfo # НУЛЬ то
				ЛогЯдра.пСтроку8( "bitMapInfo.size =  " ); ЛогЯдра.пЦел64( videoStreamHeader.bitMapInfo.size ,0 ); ЛогЯдра.пВК_ПС();
				ЛогЯдра.пСтроку8( "bitMapInfo.width =  " ); ЛогЯдра.пЦел64( videoStreamHeader.bitMapInfo.width ,0 ); ЛогЯдра.пВК_ПС();
				ЛогЯдра.пСтроку8( "bitMapInfo.height =  " ); ЛогЯдра.пЦел64( videoStreamHeader.bitMapInfo.height ,0 ); ЛогЯдра.пВК_ПС();
				ЛогЯдра.пСтроку8( "bitMapInfo.planes =  " ); ЛогЯдра.пЦел64( videoStreamHeader.bitMapInfo.planes ,0 ); ЛогЯдра.пВК_ПС();
				ЛогЯдра.пСтроку8( "bitMapInfo.bitCount =  " ); ЛогЯдра.пЦел64( videoStreamHeader.bitMapInfo.bitCount ,0 ); ЛогЯдра.пВК_ПС();
				ЛогЯдра.пСтроку8( "bitMapInfo.compression =  " ); ЛогЯдра.пЦел64( videoStreamHeader.bitMapInfo.compression ,0 ); ЛогЯдра.пВК_ПС();
				ЛогЯдра.пСтроку8( "bitMapInfo.sizeImage =  " ); ЛогЯдра.пЦел64( videoStreamHeader.bitMapInfo.sizeImage ,0 ); ЛогЯдра.пВК_ПС();
				ЛогЯдра.пСтроку8( "bitMapInfo.xPelsPerMeter =  " ); ЛогЯдра.пЦел64( videoStreamHeader.bitMapInfo.xPelsPerMeter ,0 ); ЛогЯдра.пВК_ПС();
				ЛогЯдра.пСтроку8( "bitMapInfo.yelsPerMeter =  " ); ЛогЯдра.пЦел64( videoStreamHeader.bitMapInfo.yPelsPerMeter ,0 ); ЛогЯдра.пВК_ПС();
				ЛогЯдра.пСтроку8( "bitMapInfo.clrUsed =  " ); ЛогЯдра.пЦел64( videoStreamHeader.bitMapInfo.clrUsed ,0 ); ЛогЯдра.пВК_ПС();
				ЛогЯдра.пСтроку8( "bitMapInfo.clrImportant =  " ); ЛогЯдра.пЦел64( videoStreamHeader.bitMapInfo.clrImportant ,0 ); ЛогЯдра.пВК_ПС()
			иначе
				ЛогЯдра.пСтроку8("AVIDemux.bitMapInfo = NIL"); ЛогЯдра.пВК_ПС()
			всё;

			если (audioStreamHeader # НУЛЬ) и (audioStreamHeader.waveFormatEx # НУЛЬ) то
				ЛогЯдра.пСтроку8( "waveFormat.formatTag =  " ); ЛогЯдра.пЦел64( audioStreamHeader.waveFormatEx.formatTag ,0 ); ЛогЯдра.пВК_ПС();
				ЛогЯдра.пСтроку8( "waveFormat.channel =  " ); ЛогЯдра.пЦел64( audioStreamHeader.waveFormatEx.channels ,0 ); ЛогЯдра.пВК_ПС();
				ЛогЯдра.пСтроку8( "waveFormat.samplesPerSec =  " ); ЛогЯдра.пЦел64( audioStreamHeader.waveFormatEx.samplesPerSec ,0 ); ЛогЯдра.пВК_ПС();
				ЛогЯдра.пСтроку8( "waveFormat.avgBytesPerSec =  " ); ЛогЯдра.пЦел64( audioStreamHeader.waveFormatEx.avgBytesPerSec ,0 ); ЛогЯдра.пВК_ПС();
				ЛогЯдра.пСтроку8( "waveFormat.blockAlign =  " ); ЛогЯдра.пЦел64( audioStreamHeader.waveFormatEx.blockAlign ,0 ); ЛогЯдра.пВК_ПС();
				ЛогЯдра.пСтроку8( "waveFormat.bitsPerSample =  " ); ЛогЯдра.пЦел64( audioStreamHeader.waveFormatEx.bitsPerSample ,0 ); ЛогЯдра.пВК_ПС();
				ЛогЯдра.пСтроку8( "waveFormat.cbSize =  " ); ЛогЯдра.пЦел64( audioStreamHeader.waveFormatEx.cbSize ,0 ); ЛогЯдра.пВК_ПС()
			иначе
				ЛогЯдра.пСтроку8("AVIDemux.waveFormat = NIL"); ЛогЯдра.пВК_ПС()
			всё;

			ЛогЯдра.пВК_ПС()
		кон DumpHeaders;

		(* Write AVI video index to Kernel Log *)
		проц DumpVideoIndex*;
		перем i : цел32;
		нач
			ЛогЯдра.пСтроку8("AviDemux: Dump of Video-Index: "); ЛогЯдра.пВК_ПС();
			если videoIndex = НУЛЬ то ЛогЯдра.пСтроку8("no index in AVI"); ЛогЯдра.пВК_ПС; возврат всё;

			нцДля i := 0 до длинаМассива(videoIndex)-1 делай
				ЛогЯдра.пСтроку8("Index: "); ЛогЯдра.пЦел64(i, 0);
				ЛогЯдра.пСтроку8(" ckid= "); ЛогЯдра.пЦел64(videoIndex[i].ckid, 0);
				ЛогЯдра.пСтроку8(" flags= "); ЛогЯдра.пЦел64(videoIndex[i].flags, 0);
				ЛогЯдра.пСтроку8(" offset= "); ЛогЯдра.пЦел64(videoIndex[i].offset, 0);
				ЛогЯдра.пСтроку8(" length= "); ЛогЯдра.пЦел64(videoIndex[i].length, 0);
				ЛогЯдра.пСтроку8(" tot= "); ЛогЯдра.пЦел64(videoIndex[i].tot, 0);
				если (i > 0) то ЛогЯдра.пСтроку8(" deltaOFF= "); ЛогЯдра.пЦел64(videoIndex[i].offset - videoIndex[i-1].offset, 0); всё;
				ЛогЯдра.пВК_ПС;
			кц

		кон DumpVideoIndex;

		(* Write AVI audio index to Kernel Log *)
		проц DumpAudioIndex*;
		перем i : цел32;
		нач
			ЛогЯдра.пСтроку8("AviDemux: Dump of Audio-Index: "); ЛогЯдра.пВК_ПС();
			если audioIndex = НУЛЬ то ЛогЯдра.пСтроку8("no index in AVI"); ЛогЯдра.пВК_ПС; возврат всё;

			нцДля i := 0 до длинаМассива(audioIndex)-1 делай
				ЛогЯдра.пСтроку8("Index: "); ЛогЯдра.пЦел64(i, 0);
				ЛогЯдра.пСтроку8(" ckid= "); ЛогЯдра.пЦел64(audioIndex[i].ckid, 0);
				ЛогЯдра.пСтроку8(" flags= "); ЛогЯдра.пЦел64(audioIndex[i].flags, 0);
				ЛогЯдра.пСтроку8(" offset= "); ЛогЯдра.пЦел64(audioIndex[i].offset, 0);
				ЛогЯдра.пСтроку8(" length= "); ЛогЯдра.пЦел64(audioIndex[i].length, 0);
				ЛогЯдра.пСтроку8(" tot= "); ЛогЯдра.пЦел64(audioIndex[i].tot, 0);
				если (i > 0) то ЛогЯдра.пСтроку8(" deltaOFF= "); ЛогЯдра.пЦел64(audioIndex[i].offset - audioIndex[i-1].offset, 0); всё;
				ЛогЯдра.пВК_ПС;
			кц

		кон DumpAudioIndex;

		(* Return AudioStreamHeader *)
		проц GetAudioStreamHeader*(): AVIStreamHeader;
		нач
			возврат audioStreamHeader
		кон GetAudioStreamHeader;

		(* Return VideoStreamHeader *)
		проц GetVideoStreamHeader*():AVIStreamHeader;
		нач
			возврат videoStreamHeader
		кон GetVideoStreamHeader;

		(* Muss noch generischer werden *)
		проц {перекрыта}GetStream*(streamNr: цел32): Codecs.DemuxStream;
		перем
			(* reader : AVIReader; *)
			(* reader: Codecs.FileInputStream; *)
			reader : Потоки.Чтец;
			i: цел32;

			streamInfo : Codecs.AVStreamInfo;
			tag : массив 4 из симв8;

		нач

			reader := Codecs.OpenInputStream(filename);				(* should be only one reader ideally... *)
			reader.ПерейдиКМестуВПотоке(r.МестоВПотоке());

			если streamNr = 0 то
				нов(videoStream, reader, videoStreamHeader);
				videoFramePos := 0;
				(* Add streamInfo to Stream *)
				streamInfo.streamType := Codecs.STVideo;
				нцДля i := 0 до 3 делай streamInfo.contentType[i] := videoStreamHeader.fccHandler[i] кц;
				если videoIndex = НУЛЬ то streamInfo.seekability := {};
				иначе streamInfo.seekability := {3,4}; всё;
				streamInfo.length := videoFrames;
				streamInfo.frames := videoFrames;
				streamInfo.rate := videoStreamHeader.rate;

				videoStream.streamInfo := streamInfo;
				возврат videoStream;
			иначе
				нов(audioStream, reader, audioStreamHeader);
				audioFramePos := 0;
				(* Add streamInfo to Stream *)
				streamInfo.streamType := Codecs.STAudio;
				если (audioStreamHeader.waveFormatEx # НУЛЬ) то
					просей audioStreamHeader.waveFormatEx.formatTag из
						1 :	копируйСтрокуДо0("PCM", tag);
					|	85:	копируйСтрокуДо0("MP3", tag);
					иначе
					всё;
					нцДля i := 0 до 3 делай streamInfo.contentType[i] := tag[i]; кц;
				всё;
				если audioIndex = НУЛЬ то streamInfo.seekability := {};
				иначе streamInfo.seekability := {1,2}; всё;
				streamInfo.length := audioStreamHeader.length*GetSampleSize();
				streamInfo.frames := audioChunks;
				streamInfo.rate := audioStreamHeader.rate;

				audioStream.streamInfo := streamInfo;
				возврат audioStream;
			всё;
		кон GetStream;

		проц GetMilliSecondsPerFrame*(): цел32;
		нач
			возврат aviHeader.microSecsPerFrame DIV 1000;
		кон GetMilliSecondsPerFrame;

		проц GetNofChannels*(): цел32;
		нач
			возврат audioStreamHeader.waveFormatEx.channels;
		кон GetNofChannels;

		проц GetSamplesPerSecond*(): цел32;
		нач
			возврат audioStreamHeader.waveFormatEx.samplesPerSec;
		кон GetSamplesPerSecond;

		проц GetBitsPerSample*(): цел32;
		нач
			возврат audioStreamHeader.waveFormatEx.bitsPerSample;
		кон GetBitsPerSample;

		проц GetVideoIndex*(): IndexArrayPointer;
		нач
			возврат videoIndex;
		кон GetVideoIndex;

		проц GetAudioIndex*(): IndexArrayPointer;
		нач
			возврат audioIndex;
		кон GetAudioIndex;

		проц GetAudioChunks*(): цел32;
		нач
			возврат audioChunks;
		кон GetAudioChunks;

		проц GetAudioBytes*(): цел32;
		нач
			возврат audioBytes;
		кон GetAudioBytes;

		проц GetVideoFrames*(): цел32;
		нач
			возврат videoFrames;
		кон GetVideoFrames;

		проц {перекрыта}GetNumberOfStreams*(): цел32;
		нач
			возврат aviHeader.streams;
		кон GetNumberOfStreams;

		(* Could be optimized, as we assume videostream beeing at index 0 and that there is only one *)
		проц {перекрыта}GetStreamInfo*(streamNr: цел32): Codecs.AVStreamInfo;
		перем streamInfo : Codecs.AVStreamInfo;
			i: цел16;
			tag : массив 4 из симв8;
		нач

			если streamNr = 0 то							(* Video *)
				streamInfo.streamType := Codecs.STVideo;
				нцДля i := 0 до 3 делай
					streamInfo.contentType[i] := videoStreamHeader.fccHandler[i];
				кц;

				если videoIndex = НУЛЬ то
					streamInfo.seekability := {};
				иначе
					streamInfo.seekability := {3,4};
				всё;
				streamInfo.length := videoFrames;
				streamInfo.frames := videoFrames;
				streamInfo.rate := videoStreamHeader.rate;
			иначе											(* Audio *)
				streamInfo.streamType := Codecs.STAudio;

				если (audioStreamHeader.waveFormatEx # НУЛЬ) то
					просей audioStreamHeader.waveFormatEx.formatTag из
						1 :	копируйСтрокуДо0("PCM", tag);
					|	85:	копируйСтрокуДо0("MP3", tag);
					иначе
					всё;
					нцДля i := 0 до 3 делай
						streamInfo.contentType[i] := tag[i];
					кц;
				всё;

				если audioIndex = НУЛЬ то
					streamInfo.seekability := {};
				иначе
					streamInfo.seekability := {1,2};
				всё;
				streamInfo.length := audioStreamHeader.length*GetSampleSize();
				streamInfo.frames := audioChunks;
				streamInfo.rate := audioStreamHeader.rate;
			всё;

			возврат streamInfo
		кон GetStreamInfo;

		проц {перекрыта}GetStreamType*(streamNr : цел32): цел32;
		перем type : цел32;
		нач
			если streamNr = 0 то type :=  Codecs.STVideo;
			аесли streamNr = 1 то type := Codecs.STAudio;
			иначе type := Codecs.STUnknown;
			всё;
			возврат type
		кон GetStreamType;

		(* Returns Information, which can be read out from file and which is useful/needed *)
		проц GetInfo*(перем vl, vf, vr, mspf, al, af, ar : цел32);
		нач
			vl := videoFrames;
			vf := videoFrames;
			vr := videoStreamHeader.rate;
			mspf := aviHeader.microSecsPerFrame;
			если audioStreamHeader # НУЛЬ то
				al := audioStreamHeader.length*GetSampleSize();
				af := audioChunks;
				ar := audioStreamHeader.rate;
			всё;

		кон GetInfo;

		проц {перекрыта}GetData*(streamNr: цел32;  перем buf:  массив из симв8; ofs, size, min: размерМЗ; перем len: размерМЗ; перем res: целМЗ);
		перем
			rres: булево;
		нач
			если streamNr = 0 то
				если videoIndex # НУЛЬ то
					если videoFramePos < videoFrames то
						len := videoIndex[videoFramePos].length;
						если (len > (size-4)) то
							len := len+4;
							res := Codecs.ResFailed;
							возврат;
						всё;
						rres := videoStream.Resynch(buf);
						увел(videoFramePos);
						если rres то
							videoStream.кодВозвратаПоследнейОперации := Потоки.Успех;
							res := Codecs.ResOk;
						иначе
							res := Codecs.ResFailed;
							videoStream.кодВозвратаПоследнейОперации := Потоки.КонецФайла;
						всё
					иначе
						res := Codecs.ResFailed;
						videoStream.кодВозвратаПоследнейОперации := Потоки.КонецФайла;
						len := 0;
					всё;
				всё;
			иначе
				если audioIndex # НУЛЬ то
					если audioFramePos < audioChunks то
						len := audioIndex[audioFramePos].length;
						если (длинаМассива(buf) < len+4) то
							len := len+4;
							res := Codecs.ResFailed;
							audioStream.кодВозвратаПоследнейОперации := Потоки.КонецФайла;
							возврат;
						всё;
						len := audioIndex[audioFramePos].length;
						rres := audioStream.Resynch(buf);
						увел(audioFramePos);
						если rres то
							audioStream.кодВозвратаПоследнейОперации := Потоки.Успех;
							res := Codecs.ResOk;
						иначе
							(* res := Codecs.ResFailed; *)
							audioStream.кодВозвратаПоследнейОперации := Потоки.КонецФайла;
						всё
					иначе
						res := Codecs.ResFailed;
						audioStream.кодВозвратаПоследнейОперации := Потоки.КонецФайла;
						len := 0;
					всё;
				всё;
			всё;
		кон GetData;

		проц {перекрыта}SetStreamPos*(streamNr: цел32; seekType: цел32; pos: цел32; перем itemSize: цел32; перем res: целМЗ);
		(* PROCEDURE SetStreamPos*(streamNr, pos : SIGNED32; VAR res: INTEGER); *)
		перем
			n0, n1, n, spos: цел32;
			(* seekType, itemSize : SIGNED32; *)
		нач
			если Debug то ЛогЯдра.пСтроку8("AVIDemux.SetStreamPos: "); ЛогЯдра.пЦел64(pos, 0); ЛогЯдра.пВК_ПС; всё;
			если streamNr = 0 то
				если videoIndex # НУЛЬ то
					если seekType = Codecs.SeekKeyFrame то
						если pos > itemSize то
							если pos >= videoStreamHeader.length-1 то
								pos := videoStreamHeader.length-1;
							иначе
								нцПока ((pos < videoFrames-1) и (videoIndex[pos].flags # 16)) делай
									увел(pos);
								кц;
							всё;
						иначе
							если(pos > 0) то
								умень(pos);
							всё;
							нцПока ((videoIndex[pos].flags # 16) и (pos > 0)) делай
								умень(pos);
							кц;
						всё;
					всё;
					если ((seekType = Codecs.SeekFrame) или (seekType = Codecs.SeekKeyFrame)) то
						если pos < длинаМассива(videoIndex) то
							videoStream.SetAVIPos(videoIndex[pos].offset, itemSize);
							itemSize := pos;
							videoFramePos := pos;
						всё
					иначе
						videoStream.SetAVIPos(pos, itemSize);
					всё;
				всё;
			иначе
				если audioIndex # НУЛЬ то
					если seekType = Codecs.SeekSample то
						если pos < 0 то
							pos := 0;
						всё;
						если pos = 0 то
							n0 := 0;
						иначе
							n0 := 0;
							n1 := audioChunks;

							нцПока (n0 < n1 - 1) делай
								n := (n0 + n1) DIV 2;
								если (audioIndex[n].tot > pos) то
									n1 := n;
								иначе
									n0 := n;
								всё;
							кц;
						всё;
						audioStream.SetAVIPos(audioIndex[n0].offset, itemSize);
						audioFramePos := n0;
					аесли seekType = Codecs.SeekByte то
						(* spos := ENTIER(pos * 8 *  audioStreamHeader.waveFormatEx.samplesPerSec/audioStreamHeader.rate / 1000); *)
						spos := округлиВниз(pos / audioStreamHeader.rate * audioStreamHeader.waveFormatEx.samplesPerSec);

						если Debug то ЛогЯдра.пСтроку8("spos= "); ЛогЯдра.пЦел64(spos, 0); ЛогЯдра.пВК_ПС; всё;
						если spos < 0 то spos := 0 всё;
						если spos = 0 то n0 := 0
						иначе
							n0 := 0;
							n1 := audioChunks;

							нцПока (n0 < n1 - 1) делай
								n := (n0 + n1) DIV 2;
								если (audioIndex[n].tot > spos) то
									n1 := n;
								иначе
									n0 := n;
								всё;
							кц;
						всё;

						audioStream.SetAVIPos(audioIndex[n0].offset, itemSize);
						audioFramePos := n0;
						если Debug то
							ЛогЯдра.пСтроку8("audioIndex[n].tot= "); ЛогЯдра.пЦел64(audioIndex[n].tot, 0);
							ЛогЯдра.пСтроку8("audioIndex[n0].offset= "); ЛогЯдра.пЦел64(audioIndex[n0].offset, 0);
							ЛогЯдра.пСтроку8("audioFramePos= "); ЛогЯдра.пЦел64(audioFramePos, 0);
							ЛогЯдра.пСтроку8("itemSize= "); ЛогЯдра.пЦел64(itemSize, 0);  ЛогЯдра.пВК_ПС;
						всё
					иначе
						audioStream.SetAVIPos(pos, itemSize);
					всё;
				всё;
			всё;
		кон SetStreamPos;

		проц GetVideoWidth*(): цел32;
		нач
			возврат videoStreamHeader.bitMapInfo.width;
		кон GetVideoWidth;

		проц GetVideoHeight*(): цел32;
		нач
			возврат videoStreamHeader.bitMapInfo.height;
		кон GetVideoHeight;

		проц GetNextFrameSize*(streamNr: цел32): цел32;
		нач
			если streamNr = 0 то
				если videoFramePos < videoFrames то
					возврат videoIndex[videoFramePos].length;
				иначе
					возврат Codecs.ResFailed;
				всё;
			иначе
				если audioFramePos < audioChunks то
					возврат audioIndex[audioFramePos].length;
				иначе
					возврат Codecs.ResFailed;
				всё;
			всё;
		кон GetNextFrameSize;

		проц GetSampleSize*(): цел32;
		перем
			s: цел32;
		нач
			s := ((audioStreamHeader.waveFormatEx.bitsPerSample+7) DIV 8)*audioStreamHeader.waveFormatEx.channels;
			если s = 0 то
				s := 1;
			всё;
			возврат s;
		кон GetSampleSize;

	кон AVIDemux;

	(* -- Helper Procedures -- *)

(* Align stream to next Byte *)
проц Align*(перем  index: цел32);
нач
	если ( index остОтДеленияНа 8 ) # 0 то
		index :=  index - ( index остОтДеленияНа 8 ) + 8
	всё;
кон Align;

(* True if actual position is on byte boundary *)
проц IsAligned*(index: цел32): булево;
нач
	если ( index остОтДеленияНа 8 ) = 0 то
		возврат истина;
	иначе
		возврат ложь;
	всё;
кон IsAligned;

(* Read next n Bits (max 32), without advancing in stream. Max 32 Bits are allowed *)
(* Very slow but portable *)
проц ShowBitsSlow*( n: цел32; перем buf: массив из симв8; перем index: цел32): цел32;
перем
	ret: цел32;
	count: цел32;
нач
	ret := 0;
	count := 0;

	нцПока count < n делай
		ret := ret * 2;
		если ( 7 - ( index остОтДеленияНа 8 ) ) в мнвоНаБитахМЗ(кодСимв8(buf[index DIV 8])) то
			увел(ret)
		всё;
		увел( index );
		увел( count )
	кц;

	index := index - count;

	возврат ret
кон ShowBitsSlow;

(* Read next n Bits (max 32), without advancing in stream. Max 32 Bits are allowed *)
(* Fast, but im not sure if it's portable *)
проц ShowBits*( n: цел32; перем buf: массив из симв8; перем index: цел32): цел32;
перем
	nbit: цел32;
	posInLONGINT: цел32;
	bufa, bufb: цел32;
	temp: адресВПамяти;
	bufAdr: адресВПамяти;
нач
	bufAdr := адресОт( buf[0] );
	posInLONGINT := index остОтДеленияНа 32;
	nbit := ( posInLONGINT+ n ) - 32;

	если nbit > 0 то
		(* We have to read two 32 bit values *)
		temp := логСдвиг( index - posInLONGINT , -3 ) + bufAdr;
		bufa := ЭВМ.ПоменяйПорядокБайтЦел32( НИЗКОУР.прочти32битаПоАдресу( temp ) );
		bufb := ЭВМ.ПоменяйПорядокБайтЦел32( НИЗКОУР.прочти32битаПоАдресу( temp + 4 ) );

		temp := логСдвиг( логСдвиг( bufa, posInLONGINT ),  nbit - posInLONGINT );
		возврат НИЗКОУР.подмениТипЗначения( цел32, НИЗКОУР.подмениТипЗначения( мнвоНаБитахМЗ, логСдвиг( bufb, nbit - 32 ) ) + НИЗКОУР.подмениТипЗначения( мнвоНаБитахМЗ, temp ) )
	иначе
		(* Reading one 32 value is sufficient *)
		bufa := ЭВМ.ПоменяйПорядокБайтЦел32( НИЗКОУР.прочти32битаПоАдресу( логСдвиг( index - posInLONGINT, -3 ) + bufAdr ) );

		возврат логСдвиг( логСдвиг( bufa, posInLONGINT ),  n - 32 )
	всё;
кон ShowBits;

(* Show n bits, byte aligned without advancing in bit stream *)
проц ShowBitsByteAligned*(n: цел32; перем buf: массив из симв8; перем index: цел32): цел32;
перем
	count: цел32;
	ret: цел32;
нач
	count := 8 - ( index остОтДеленияНа 8 );

	если count = 8 то
		если ShowBits(8, buf, index) = 7FH то (* Spezial case: see iso spec *)
			count := 8
		иначе
			count := 0
		всё;
	всё;

	index := index + count;
	ret := ShowBits(n, buf, index);
	index := index - count;
	возврат ret
кон ShowBitsByteAligned;

(* Read next n Bits and advance in Bit Stream. Max 32 Bits are allowed *)
проц GetBits*( n: цел32; перем buf: массив из симв8; перем index: цел32): цел32;
перем
	ret: цел32;
нач
	ret := ShowBits(n, buf, index);
	SkipBits(n, index);
	возврат ret
кон GetBits;

(* Skip Next n Bits *)
проц SkipBits*(n: цел32; перем index: цел32 );
нач
	index := index + n
кон SkipBits;

проц Factory*() : Codecs.AVDemultiplexer;
перем p: AVIDemux;
нач
	нов(p);
	возврат p
кон Factory;

кон AVI.
