модуль Adaptec7; (** AUTHOR "prk"; PURPOSE "Adaptec 7xxx SCSI driver"; *)

использует
	НИЗКОУР, ЛогЯдра, PCI, ЭВМ, Kernel, Objects, Modules,
	SCSI, Script := Adaptec7Script;

конст
		(*debug flags*)
	traceCalls = 0;
	traceInts = 1;
	traceMsg = 2;
	traceSequencer = 4;
	traceReset = 5;
	traceConfig = 6;
	tracePeriod = 7;
	traceCmds = 8;
	traceSeeprom = 9;
	traceTermination = 10;

	traceSmall = 16;
	traceAIC7880 = 17;
	traceAIC7890 = 18;
	traceAHA2940 = 19;
	traceNoHandling = 20;
	(*traceDog = 21;*)
	traceNoRegister = 22;
	traceSync = 23;

	(* Buffer sizes*)
	QBufferSize = 3 * 256;
	SCBBufferSize = 128*32;
	BufferAlignment = 32;

	(* Message.Dir *)
	Sending = 0; Receiving = 1;

	(* Bus.sync Command Synchronization *)
	Free = 0;  InUse = 1;  Terminated = 2;

		(*Bus.chip: enumeration   *)
	AIC7770 = 1; AIC7850 = 2; AIC7860 = 3; AIC7870 = 4; AIC7880 = 5; AIC7890 = 6;
	AIC7895 = 7; AIC7896 = 8;

		(*Bus.feature   *)
	FeatUltra = 1; FeatUltra2 = 2; FeatWide = 3; FeatTwin = 4; FeatMoreSRAM = 5; FeatCmdChan = 6;
	FeatQueueRegs = 7; FeatSGPreload = 8; FeatSpioCap = 9;

		(*Bus.flag  *)
	FlagPageSCB = 1; FlagNewEepromFMT = 2; FlagBiosEnabled = 3; FlagMultiChannel = 4; FlagChnlB = 5; FlagChnlC = 6;
	FlagSeepromFound = 7; FlagChannelBPrimary = 8; FlagExtendTransA = 9; FlagExternalSRam = 10; FlagAbortPending = 11;
	FlagHandlingReqInits = 12;

		(*HSCB Control *)
	HwScbTypeMask = 03X; HwScbMsgMask = 0F6X;
	HwScbDisconnected = 3; HwScbDiscEnable = 6; HwScbMessage = 7;

(*SCSI Register Block *)
	(* 00H	SCSI Sequencer Control *)	SCSISEQ = 00H;
		(* Bit 0	SCSI Reset Out *)		SCSIRSTO = 0;
		(* Bit 1	Enable Auto ATN on parity *)		ENAUTOATNP = 1;
		(* Bit 4	Enable Reselection *)		ENRSELI = 4;
		(* Bit 5	Enable Selection in *)		ENSELI = 5;
		(* Bit 6	Enable Selection out *)		ENSELO = 6;
	(* 01H	SCSI Transfer Control 0 Register *)	SXFRCTL0 = 01H;
		(* Bit 3	SCSI PIO Enable *)		SPIOEN = 3;
		(* Bit 5	*)		FAST20 = 5;
		(* Bit 7	Digital Filtering On *)		DFON = 7;
	(* 02H	SCSI Transfer Control 1 Register *)	SXFRCTL1 = 02H;
		(* Bit 0	SCSI Termination Power Enable *)		STPWEN = 0;
		(* Bit 1	Active Negation Enable *)		ACTNEGEN = 1;
		(* Bit 2	Enable Selection timeout *)		ENSTIMER = 2;
		(* Bit 5	Enable Parity Check *)		ENSPCHK = 5;
	(* 03H	SCSI Control Signal *)	SCSISIG = 03H;
		(* Bit 0	Ack *)		ACK = 0;
		(* Bit 1	*)		REQ = 1;
		(* Bit 2	*)		BSY = 2;
		(* Bit 3	*)		SEL = 3;
		(* Bit 4	*)		ATN = 4;
		(* Bit 5	*)		MSG = 5;
		(* Bit 6	*)		IO = 6;
		(* Bit 7	*)		CD = 7;
	(* 04H	SCSI Rate Control *)	SCSIRATE = 04H;
		(* Bit 7	Wide Transer control *)		WIDEXFER = 7;
	(* 05H	SCSI ID *)	SCSIID = 05H;
					SCSIOFFSET = 05H;
	(* 06H	SCSI Data Low *)	SCSIDATL = 06H;
	(* 0BH	SCSI Status 0 *)	SSTAT0 = 0BH;
	(* 0BH	Clear SCSI Interrupt 0 *)	CLRSINT0 = 0BH;
		(* Bit 1	CLRSPIORDY *)		CLRSPIORDY = 1;
		(* Bit 3	CLRSWRAP *)		CLRSWRAP = 3;
		(* Bit 4	CLRSELINGO *)		CLRSELINGO = 4;
		(* Bit 5	CLRSELDI *)		CLRSELDI = 5;
		(* Bit 6	CLRSELDO *)		CLRSELDO = 6;
	(* 0CH	SCSI Status 1 *)	SSTAT1 = 0CH;
		(* Bit 0	*)		REQINIT = 0;
		(* Bit 2	SCSI Parity Error *)		SCSIPERR = 2;
		(* Bit 3	Bus Free Flag *)		BUSFREE = 3;
		(* Bit 5	Scsi Reset *)		SCSIRSTI = 5;
		(* Bit 7	Selection Time Out *)		SELTO = 7;
	(* 0CH	Clear SCSI Interrupt 1 *)	CLRSINT1 = 0CH;
		(* Bit 0	CLRREQINIT *)		CLRREQINIT = 0;
		(* Bit 1	CLRPHASECHG *)		CLRPHASECHG = 1;
		(* Bit 2	CLRSCSIPERR *)		CLRSCSIPERR = 2;
		(* Bit 3	CLRBUSFREE *)		CLRBUSFREE = 3;
		(* Bit 5	CLRSCSIRSTI *)		CLRSCSIRSTI = 5;
		(* Bit 6	CLRATNO *)		CLRATNO = 6;
		(* Bit 7	CLRSELTIMEO *)		CLRSELTIMEO = 7;
						CLRSINT1ALL = {0..3, 5..7};
	(* 0DH	SCSI Status 2 *)	SSTAT2 = 0DH;
		(* Bit 4	SCSI Expander Active *)		EXPACTIVE = 4;
	(* 0EH	SCSI Status 3 *)	SSTAT3 = 0EH;
	(* 0FH	SCSI ID for Ultra2 Chips *)	SCSIIDULTRA2 = 0FH;
	(* 10H	SCSI Interrupt Mode 0 *)	SIMODE0 = 10H;

	(* 11H	SCSI Interrupt Mode 1 *)	SIMODE1 = 11H;
		(* Bit 1	Enable ReqInit *)		ENREQINIT = 0;
		(* Bit 2	Enable Scsi Parity Error *)		ENSCSIPERR = 2;
		(* Bit 3	Enable Bus Free *)		ENBUSFREE = 3;
		(* Bit 5	Enable Scsi Reset *)		ENSCSIRST = 5;
		(* Bit 7	Enable Time-out *)		ENSELTIMO = 7;
	(* 12H	SCSI Bus Low *)	SCSIBUSL = 12H;
	(* 1BH	Serial Port I/O Cabability register *)	SPIOCAP = 1BH;
		(* Bit 0	 Termination and cable detection *)		SSPIOCPS = 0;
	(* 1DH	Board Control *)	BRDCTL = 1DH;
		(* Bit 0	7890 only: Board Strobe *)		BRDSTBULTRA2 = 0;
		(* Bit 1	7890 only: Board Read/Write *)		BRDRWULTRA2 = 1;
		(* Bit 2	Board Read/Write *)		BRDRW = 2;
		(* Bit 3	Board Chip Select *)		BRDCS = 3;
		(* Bit 4	Board Strobe *)		BRDSTB = 4;
	(* 1EH	Serial EEPROM Control *)	SEECTL = 1EH;
		(* Bit 0	Serial EEPROM Data In *)		SEEDI = 0;
		(* Bit 1	Serial EEPROM Data Out *)		SEEDO = 1;
		(* Bit 2	Serial EEPROM Clock *)		SEECK = 2;
		(* Bit 3	Serial EEPROM Chip Select *)		SEECS = 3;
		(* Bit 4	Serial EEPROM Ready *)		SEERDY = 4;
		(* Bit 5	Serial EEPROM Mode Select *)		SEEMS = 5;
	(* 1FH	SCSI Block Control *)	SBLKCTL = 1FH;
		(* Bit 1	Select Wide *)		SELWIDE = 1;
		(* Bit 3	SELBUSB *)		SELBUSB = 3;
		(* Bit 3	LVD transceiver active *)		ENAB40 = 3;
		(* Bit 5	Auto Flush Disable *)		AUTOFLUSHDIS = 5;
		(* Bit 6	Diagnostic LED on *)		DIAGLEDON = 6;
		(* Bit 7	Diagnostic LED Enable *)		DIAGLEDEN =7;

(* Scratch RAM *)
	(* 20H	1 byte per target starting at this address for configuration values*)	TARGSCSIRATE = 20H;
	(* 30H	Bit vector of targets that have ULTRA enabled. *)	ULTRAENB = 30H;
	(* 32H 	Bit vector of targets that have disconnection disabled*)	DISCDSB = 32H;
	(* 34H	buffer to designate the type or message to send to a target*)	MSGOUT = 34H;
	(* 35H	Parameters for DMA Logic*)	DMAPARAMS = 35H;
	(* 36H	*)		SEQFLAGS = 36H;
	(* 37H	SAVED_TCL*)	SAVEDTCL = 37H;
	(* 38H	SG_COUNT*)
	(* 39H	SG_NEXT*)
	(* 3DH	LASTPHASE*)	LASTPHASE = 3DH;
		(* Signals are declared in SCSISIG *)		PHASEMASK = {CD, MSG, IO};
		(* Patterns*)
		PhaseStatus = {CD, IO};
		PhaseCommand = {CD};
		PhaseMsgOut = {CD, MSG};
		PhaseMsgIn = {CD, MSG, IO};
		PhaseDataIn = {IO};
		PhaseDataOut = {};
		PhaseBusFree = {0};
	(* 3EH	WAITINGSCBH*)	WAITINGSCBH = 3EH;
	(* 3FH	DISCONNECTEDSCBH*)	DISCONNECTEDSCBH = 3FH;
	(* 40H	head of list of SCBs that are not in use.  Used for SCB paging*)	FREESCBH = 40H;
	(* 41H	HSCB_ADDR*)	HSCBARRAY = 41H;
	(* 45H	SCBID_ADDR*)	SCBIDADDR = 45H;
	(* 49H	TMODE_CMDADDR*)	TMODECMDADDR = 49H;
	(* 4DH	KERNEL_QINPOS*)	KERNELQINPOS = 4DH;
	(* 4EH	QINPOS*)	QINPOS = 4EH;
	(* 4FH	QOUTPOS*)	QOUTPOS = 4FH;
	(* 50H	TMODE_CMDADDR_NEXT*)	TMODECMDADDRNEXT = 50H;
	(* 51H	ARG_1 / RETURN_1*)	RETURN1 = 51H;
		(*	Phase Mismatch *)		MSGOUTPHASEMIS = {4};
		(* 	Send Sense *)		SENDSENSE = {6};
		(* 	Send Msg *)		SENDMSG = {7};
	(* 52H	ARG_2 *)
	(* 53H	LAST_MSG*)	LASTMSG = 53H;
	(* 54H	PREFETCH_CNT*)

	(* 5AH	Scsi Configuration *)	SCSICONF = 5AH;
		(* Bit 6	Reset SCSI-Bus at boot *)		RESETSCSI = 6;
		(* Bit 7	Termination Enable *)		TERMENB = 7;
	(* 60H	Sequencer Control *)	SEQCTL = 60H;
		(* Bit 0	Load Ram *)		LOADRAM = 0;
		(* Bit 1	Reset *)		SEQRESET = 1;
		(* Bit 4	Fast Mode *)		FASTMODE = 4;
		(* Bit 5	Fail disable *)		FAILDIS = 5;
		(* Bit 7	Parity Error disable *)		PERRORDIS = 7;
	(* 61H	Sequencer RAM Data *)	SEQRAM = 61H;
	(* 62H	Sequencer Address Registers *)	SEQADDR0 = 62H;
	(* 63H	*)		SEQADDR1 = 63H;
	(* 65H	*)		SINDEX = 65H;
(* Sequencer (SCSI Phase Engine)*)
	(* 70H	1 byte per target SCSI offset values for Ultra2 controllers *)	TARGOFFSET = 70H;
(* Bus Registers*)
	(* 84H	Board Control*)	BCTL = 84H;
		(* Bit 0 	Enable *)		ENABLE = 0;
	(* 84H	Device Space Command*)	DSCOMMAND0 = 84H;
		(* Bit 0	*)		CIOPARCKEN = 0;
		(* bit 1	*)		USCBSIZE32 = 1;
		(* Bit 5	Memory Parity Check Enable *)		MPARCKEN = 5;
		(* Bit 6	Data Parity Check Enable *)		DPARCKEN = 6;
		(* Bit 7	Cache Threshold Enable *)		CACHETHEN = 7;
	(* 86H	DSPCI Status *)	DSPCISTATUS = 86H;
		(*	Read when 100% empty, write when 100% full *)		DFTHRSH100 = {6, 7};
	(* 87H	Host Control, Overall host control of the device*)	HCNTRL = 87H;
		(* Bit 0	Chip Reset / Chip Reset Acknowledge *)		CHIPRST = 0;
		(* Bit 1	Interrupt Enable *)		INTEN = 1;
		(* Bit 2	Pause Enable *)		PAUSE = 2;
	(* 90H	Gate one of the four SCBs into the SCBARRAY window*)	SCBPTR = 90H;
	(* 91H	Interrupt Status *)	INTSTAT = 91H;
		(* Bit 0	Sequencer Interrupt *)		SEQINT = 0H;
		(* Bit 1	Command Completed *)		CMDCMPLT = 1H;
		(* Bit 2	Scsi Interrupt *)		SCSIINT = 2H;
		(* Bit 3	Break address *)		BRKADRINT = 3H;
		(* Sequencer Interrupt Mask *)		SEQINTMASK = {0, 4..7};
		(* Interrupt Values*)
			DataOverrun = 0EH; MsgInPhaseMis = 0DH; TracePoint2 = 0CH;
			TracePoint = 0BH; AwaitingMsg = 0AH; Residual = 08H;
			BadStatus = 07H; RejectMsg = 06H; AbortRequested = 05H;
			ExtendedMsg = 04H; NoMatch = 03H; NoIdent = 02H;
			SendReject = 01H; BadPhase = 00H;
	(* 92H	Write: Clear Interrupt Status *)	CLRINT = 92H;
		(* Bit 0	Clear Sequencer Interrupt *)		CLRSEQINT = 0;
		(* Bit 1	Clear Command Complete Interrupt *)		CLRCMDINT = 1;
		(* Bit 2	Clear SCSI Interrupt *)		CLRSCSIINT = 2;
		(* Bit 3	Clear Break Address Interrupt *)		CLRBRKADRINT = 3;
		(* Bit 4	Clear Parity Errors*)		CLRPARERR = 4;
	(* 92H	Read: Hard Error *)	ERROR = 92H;
		(* Bit 0	Illegal Hardware Address *)		ILLHADDR = 0;
		(* Bit 1	Illegal Software Address *)		ILLSADDR = 1;
		(* Bit 2	Illegal Opcode Error *)		ILLOPCODE = 2;
		(* Bit 3	Sequencer Parity Error *)		SQPARERR = 3;
		(* Bit 6	Pci error *)		PCIERRSTAT = 6;
	(* 94H	Data FIFO Status *)	DFSTATUS = 94H;

(* SCB Definition: this field give direct access to the scb pointed by SCBPTR*)
	(* A0H	SCB Control *)	SCBCONTROL = 0A0H;
		(* Bit 3	Disconnected*)		DISCONNECTED = 3;
		(* Bit 6	Disconnect Enabled*)		DISCENB = 6;
	(* A1H	*)		SCBTCL = 0A1H;
	(* A2H	Target Status *)	SCBTARGETSTATUS = 0A2H;
	(* A3H	SG / Count *)	SCBSGCOUNT = 0A3H;
	(* A4H	SG / Ptr *)	SCBSGPTR = 0A4H;
	(* A8H	*)		SCBRESIDSGCNT = 0A8H;
	(* A9H	*)		SCBRESIDDCNT = 0A9H;
	(* ACH	*)		SCBDATAPTR = 0ACH;
	(* B0H	*)		SCBDATACNT = 0B0H;
	(* B4H	*)		SCBCMDPTR = 0B4H;
	(* B8H	*)		SCBCMDLEN = 0B8H;
	(* B9H	*)		SCBTAG = 0B9H;
	(* BAH	*)		SCBNEXT = 0BAH;
	(* BBH	*)		SCBPREV = 0BBH;
	(* BCH	*)		SCBBUSYTARGETS = 0BCH;

	(* F0H	CCSCBBADDR, 7895/6/7 only *)	CCSCBBADDR = 0F0H;
	(* F4H	Host New SCB Queue Offset *)	HNSCBQOFF = 0F4H;
	(* F6H	Sequencer New SCB Queue Offset *)	SNSCBQOFF = 0F6H;
	(* F8H	Sequencer Done SCB Queue Offset *)	SDSCBQOFF = 0F8H;
	(* FAH	Queue Offset Control & Status *)	QOFFCTLSTA = 0FAH;
		(*	Queue size = 256 *)		SCBQSIZE256 = {1, 2};
	(* FBH	Data FIFO Threshold *)	DFFTHRSH = 0FBH;
		(*	Write starts when 75% full *)		WRDFFTHRSH75 = {6};
		(*	Read starts when 75% empty *)		RDDFFTHRSH75 = {2};

(*PCI Registers*)
	(* 40H	Device Configuration *)	DEVCONFIG = 40H;
		(* Bit 2	RAMPSM_ULTRA2 7895/6 only? *)		RAMPSMULTRA2 = 2;
		(* Bit 3	Byte Parity Error Enable *)		BERREN = 3;
		(* Bit 3	SCBRAMSELULTRA2??? *)		SCBRAMSELULTRA2 = 3;
		(* Bit 4	External SCB Parity Enable *)		EXTSCBPEN = 4;
		(* Bit 7	SCB RAM Select,  not 7890 *)		SCBRAMSEL = 7;
		(* Bit 9	RAM Present Mode *)		RAMPSM = 9;
		(* Bit 16	SCBSIZE32, 7895 only? *)		SCBSIZE32 = 16;
		(* Bit 31	PCI Error Generation Disable *)		PCIERRGENDIS = 31;

	SCAMCTL = 1AH;			(*ultra2 only*)

	(* HW-SCB Offsets *)
	HScontrol = 0;
	HStarget = 1;
	HSstatus = 2;
	HSSGcount = 3;
	HSSGptr = 4;
	HSresSGcnt = 8;
	HSresDataCnt = 9;
	HSdataPtr = 12;
	HSdataCnt = 16;
	HScmdPtr = 20;
	HScmdLen = 24;
	HStag = 25;
	HSnext = 26;
	HSprev = 27;
	HSpar = 28;

тип
	Interrupt = окласс
		перем
			root: Bus; int: цел32;

		проц HandleInterrupt;
		перем  int, err: мнвоНаБитахМЗ;  d: Bus;
		нач
			увел(aIntCount);
			d := root;
			нцПока d # НУЛЬ делай
				int := НИЗКОУР.подмениТипЗначения(мнвоНаБитахМЗ, d.Get1(d, INTSTAT));
				err := НИЗКОУР.подмениТипЗначения(мнвоНаБитахМЗ, d.Get1(d, ERROR));
				если d.interruptable и ((int # {}) или (err # {})) то
					если traceSmall в trace то ЛогЯдра.пСимв8("<") всё;
					если CMDCMPLT в int то
						если traceSmall в trace то ЛогЯдра.пСимв8("C") всё;
						IntCommand(d)
					всё;
					если (BRKADRINT в int) или (err # {}) то
						если traceSmall в trace то ЛогЯдра.пСимв8("B") всё;
						IntBrkAdr(d)
					всё;
					если SEQINT в int то
						если traceSmall в trace то ЛогЯдра.пСимв8("S") всё;
						IntSeqHandle(d, логСдвиг(НИЗКОУР.подмениТипЗначения(цел32, int), -4))
					всё;
					если SCSIINT в int то
						если traceSmall в trace то ЛогЯдра.пСимв8("s") всё;
						IntScsiHandle(d)
					всё;
					если traceSmall в trace то ЛогЯдра.пСимв8(">") всё;
				всё;
				d := d.next
			кц
		кон HandleInterrupt;

		проц Cleanup;
		нач
			Objects.RemoveHandler(сам.HandleInterrupt, int)
		кон Cleanup;

		проц & Init*(irq: цел32);
		нач
			int := ЭВМ.IRQ0 + irq;
			Objects.InstallHandler(сам.HandleInterrupt, int)
		кон Init;
	кон Interrupt;
(*
	Watchdog = POINTER TO RECORD  (Timer)
		VAR
			stop: BOOLEAN;
			dev, ms, count: SIGNED32;
			bus: Bus;

		PROCEDURE & InitW(ms, count: SIGNED32;  bus: Bus;  dev: SIGNED32);
		BEGIN
			KernelLog.String("Watchdog installed"); KernelLog.Ln;
			Init;
			SELF.count := count;  SELF.ms := ms;
			SELF.dev := dev;  SELF.bus := bus
		END InitW;

	BEGIN {ACTIVE}
		Wait(ms);
		WHILE ~stop & (count > 0) DO
			WriteBusState(bus);
			Wait(ms);
			DEC(count)
		END;
		IF ~stop THEN	(*timeouted*)
			bus.Synchronize(dev, bus.sync[dev], Terminated)
		END;
		KernelLog.String("Watchdog terminated"); KernelLog.Ln;
	END Watchdog;
*)
	Message = запись
		buf: массив 6 из симв8;
		pos, len, dir: цел8;
	кон;


	Bus = окласс (SCSI.Bus)
		перем
				(* card configuration *)
			flags, features:  мнвоНаБитахМЗ;
			chip: цел8;
			interruptable: булево;
			irq: цел8;	(* interrupt line *)
			scsiId: цел8;

			sync: массив 16 из цел8;	(* bus synchronization: only one cmd per device *)

				(* card IO information *)
			busNo, devNo, slotNo: цел32;	(* PCI Address *)
			buffers: массив (QBufferSize + SCBBufferSize + BufferAlignment) из симв8;	(* Q and SCB buffers *)
			scbArea: адресВПамяти;	(* virtual address of the hardware scb buffer, shared with the sequencer *)
			queueArea: адресВПамяти;	(*virtual address of the queue buffers, shared with the sequencer *)
			in, out: цел32;	(*pointer to next scb*)
			base: адресВПамяти;	(*virtual address for memory mapped IO / port address for port based IO *)
			Put1: проц (d: Bus; offset: цел32; val: симв8);
			Get1: проц (d: Bus; offset: цел32): симв8;

				(* cached values *)
			width: цел8; 	(* 8 or 16, iff FeatWide *)
			negotiateWidth: мнвоНаБитахМЗ;	(*handle transmission width whenever possible*)
			negotiateSync: мнвоНаБитахМЗ;	(*handle transmission sync whenever possible*)
			msg: Message;	(*message from/to device. Only one buffer: the message phase is not prehempted*)

			result, status: массив 16 из цел8;

			next: Bus;	(*list of all Ada7 busses *)

		проц Synchronize(dev: цел32;  await, set: цел8);
			проц Data;
			нач
				ЛогЯдра.пСтроку8("Sync ["); ЛогЯдра.пЦел64(dev, 0); ЛогЯдра.пСтроку8("] ");
				ЛогЯдра.пЦел64(await, 0); ЛогЯдра.пСтроку8(" -> "); ЛогЯдра.пЦел64(set, 0)
			кон Data;
		нач  {единолично}
			если traceSync в trace то BusNameMsg(сам, " ->"); Data; ЛогЯдра.пВК_ПС; всё;
			дождись(sync[dev] = await);
			если traceSync в trace то BusNameMsg(сам, " <-"); Data; ЛогЯдра.пВК_ПС всё;
			sync[dev] := set
		кон Synchronize;

		проц {перекрыта}Submit*(перем c: SCSI.Command);
		нач
			Synchronize(c.target, Free, InUse);
			BusSchedule(сам, c);		(* return only when command Terminated *)
			c.result := result[c.target];
			c.status := status[c.target];
			Synchronize(c.target, Terminated, Free);	(* activate/allow next command *)
		кон Submit;

		проц & Init*(id, bus, dev, slot: цел32);
		нач
			flags := card[id].flags;
			features := card[id].features;
			chip := card[id].chip;
			interruptable := ложь;
			копируйСтрокуДо0(card[id].name, fullname);
			busNo := bus;  devNo := dev;  slotNo := slot;
			если firstBus = НУЛЬ то  firstBus := сам  всё;
		кон Init;
	кон Bus;

	RateTableDesc = запись
		period: цел8;	(* 1/4 of nsec, same as sync negotiation message *)
		rate: симв8;	(* rate for normal/fast/ultra cards *)
		u2rate: симв8;	(* rate ultra2 cards *)
		speed: цел32;	(* speed in 100 KB/s for 8-bit bus *)
	кон;

	(* Description of the cards we're know about *)
	CardTable = запись
		signature: цел32;
		chip: цел8;
		flags, features: мнвоНаБитахМЗ;
		name: массив 32 из симв8;
	кон;

перем
	timer: Kernel.Timer;
	interrupt: массив 32 из Interrupt;

	card: массив 19 из CardTable;	(*description of the known cards*)
	rateTable: массив 13 из RateTableDesc;

	firstBus: Bus;
	trace: мнвоНаБитахМЗ;
	aExecute,
	aIntScsiSeltoProblem1, aIntScsiSeltoProblem2,
	aIntScsiReset, aIntScsiSelto, aIntScsiBusFree, aIntScsiParity, aIntScsiReqInit, aIntScsiSpecial, aIntScsiUnknown,
	aIntSeqNoMatch, aIntSeqSendReject, aIntSeqNoIdent, aIntSeqBadPhase, aIntSeqExtendedMsg,
	aIntSeqRejectMsg, aIntSeqBadStatus, aIntSeqAwaitingMsg, aIntSeqDataOverrun,
	aIntCount, aIntCmdCount, aIntBrkAdrCount, aIntSeqCount, aIntScsiCount: цел32;


(* Debug Procedures *)

проц ToDo(desc: массив из симв8);
нач
	ЛогЯдра.ЗахватВЕдиноличноеПользование;
	ЛогЯдра.пСтроку8(desc); ЛогЯдра.пСтроку8(" not implemented yet");
	ЛогЯдра.ОсвобождениеИзЕдиноличногоПользования
кон ToDo;

проц BusName(b: Bus);
нач
	ЛогЯдра.пСимв8("["); ЛогЯдра.п16ричное(b.busNo, -2);
	ЛогЯдра.пСимв8("/"); ЛогЯдра.п16ричное(b.devNo, -2);
	ЛогЯдра.пСимв8("/"); ЛогЯдра.п16ричное(b.slotNo, -2); ЛогЯдра.пСтроку8("] ");
кон BusName;

проц BusNameMsg(b: Bus;  str: массив из симв8);
нач
	ЛогЯдра.пСимв8("["); ЛогЯдра.п16ричное(b.busNo, -2);
	ЛогЯдра.пСимв8("/"); ЛогЯдра.п16ричное(b.devNo, -2);
	ЛогЯдра.пСимв8("/"); ЛогЯдра.п16ричное(b.slotNo, -2); ЛогЯдра.пСтроку8("] ");
	ЛогЯдра.пСтроку8(str)
кон BusNameMsg;

проц Reg(d: Bus; off: цел32;  name: массив из симв8);
нач
	ЛогЯдра.пСтроку8(name); ЛогЯдра.п16ричное(кодСимв8(d.Get1(d, off)), -2)
кон Reg;

проц DumpCurSCB(d: Bus);
нач
	Reg(d, SCBPTR, "CurSCB = ");
	Reg(d, SCBCONTROL, " Ctrl = ");
	Reg(d, SCBTCL, " Targ = ");
	Reg(d, SCBTAG, " Tag = ");
	Reg(d, SCBPREV, " Prev = ");
	Reg(d, SCBNEXT, " Next = ");
	ЛогЯдра.пВК_ПС;
кон DumpCurSCB;

проц DumpBusList(d: Bus;  list: цел32;  name: массив из симв8);
перем  ch, save: симв8;
нач
	BusName(d); ЛогЯдра.пСтроку8(name);
	save := d.Get1(d, SCBPTR);
	ch := d.Get1(d, list);
	нцПока ch # 0FFX делай
		ЛогЯдра.пСтроку8("->"); ЛогЯдра.п16ричное(кодСимв8(ch), -2);
		d.Put1(d, SCBPTR, ch); ch :=  d.Get1(d, SCBNEXT);
	кц;
	ЛогЯдра.пВК_ПС;
	d.Put1(d, SCBPTR, save);
кон DumpBusList;

проц DumpAllLists(d: Bus);
нач
	DumpBusList(d, FREESCBH, "Free");
	DumpBusList(d, WAITINGSCBH, "Wait");
	DumpBusList(d, DISCONNECTEDSCBH, "Disc");
кон DumpAllLists;

(* IO Procedures to be installed into the Bus structures to comunicate with hardware *)

проц PortPut(d: Bus; offset: цел32; val: симв8);
нач
	ЭВМ.пПорт8(цел32(d.base+offset), val)
кон PortPut;

проц PortGet(d: Bus; offset: цел32): симв8;
перем ch: симв8;
нач
	ЭВМ.чПорт8(цел32(d.base+offset), ch); возврат ch
кон PortGet;

проц MemoryPut(d: Bus; offset: цел32; val: симв8);
нач
	НИЗКОУР.запишиОбъектПоАдресу(d.base+offset, val)
кон MemoryPut;

проц MemoryGet(d: Bus; offset: цел32): симв8;
перем ch: симв8;
нач
	НИЗКОУР.прочтиОбъектПоАдресу(d.base+offset, ch);  возврат ch
кон MemoryGet;

(* Common Code Patterns *)

проц MakeTarget(targ, chan, lun: цел32): симв8;
нач
	возврат  симв8ИзКода(логСдвиг(targ остОтДеленияНа 16, 4)+логСдвиг(chan остОтДеленияНа 2, 3)+lun остОтДеленияНа 8)
кон MakeTarget;

(* Sync / Width functions *)

(* GetTableIndex - Return the index to start the search in the rateTable *)

проц GetTableIndex(ultra, ultra2: булево): цел32;
нач
	если ultra2 то возврат 0 аесли ultra то возврат 2 иначе возврат 5 всё
кон GetTableIndex;

проц GetMaxOffset(wide, ultra2: булево): симв8;
нач
	если ultra2 то  возврат 7FX
	аесли wide то  возврат  08X
	иначе возврат 0FX
	всё
кон GetMaxOffset;

проц SetWidth(d: Bus;  wide: булево);
перем  index: цел32;  rate: мнвоНаБитахМЗ;
нач
	index := кодСимв8(d.Get1(d, SCBTAG));
	rate := НИЗКОУР.подмениТипЗначения(мнвоНаБитахМЗ, d.Get1(d, TARGSCSIRATE + index));
	если wide то
		включиВоМнвоНаБитах(rate, WIDEXFER)
	иначе
		исключиИзМнваНаБитах(rate, WIDEXFER)
	всё;
	d.Put1(d, TARGSCSIRATE + index, НИЗКОУР.подмениТипЗначения(симв8, rate));
	d.Put1(d, SCSIRATE, НИЗКОУР.подмениТипЗначения(симв8, rate));
	BusNameMsg(d, "Device["); ЛогЯдра.пЦел64(index, 0); ЛогЯдра.пСтроку8("].width=");
	ЛогЯдра.пЦел64(НИЗКОУР.подмениТипЗначения(цел8, wide), 0); ЛогЯдра.пВК_ПС
кон SetWidth;

проц SetSyncRate(d: Bus;  period, offset: цел32);
перем i, index, speed: цел32;  ultra2, ultra, wide: булево;  ctrl0, rate: симв8;  set: мнвоНаБитахМЗ;
нач
	ultra2 := FeatUltra2 в d.features;
	ultra := FeatUltra в d.features;

	index := кодСимв8(d.Get1(d, SCBTAG));
	i := GetTableIndex(ultra, ultra2);
	нцПока  (i < длинаМассива(rateTable)) и (period > rateTable[i].period) делай увел(i) кц;
	если i = длинаМассива(rateTable) то
		i := -1; offset := 0;	(*async*)
	всё;
	rate := d.Get1(d, TARGSCSIRATE + index);
	rate := НИЗКОУР.подмениТипЗначения(симв8, НИЗКОУР.подмениТипЗначения(мнвоНаБитахМЗ, rate) * {WIDEXFER});
	wide := rate # 0X;
	если ultra2 то
		если i # -1 то  rate := симв8ИзКода(кодСимв8(rate) + кодСимв8(rateTable[i].u2rate))  всё;
		d.Put1(d, SCSIRATE, rate);
		d.Put1(d, SCSIOFFSET, симв8ИзКода(offset));
		d.Put1(d, TARGSCSIRATE+index, rate);
		d.Put1(d, TARGOFFSET+index, симв8ИзКода(offset))
	иначе
		если i # -1 то
			утв(offset < 10H);
			rate := симв8ИзКода(кодСимв8(rate) + кодСимв8(rateTable[i].rate) + (offset остОтДеленияНа 10H));
			ultra := i < 5
		иначе
			ultra := ложь
		всё;
		d.Put1(d, SCSIRATE, rate);
		d.Put1(d, TARGSCSIRATE + index, rate);
		ctrl0 := d.Get1(d, SXFRCTL0);
		set := НИЗКОУР.подмениТипЗначения(мнвоНаБитахМЗ, d.Get1(d, ULTRAENB + index DIV 8));
		если ultra то
			ctrl0 := НИЗКОУР.подмениТипЗначения(симв8, НИЗКОУР.подмениТипЗначения(мнвоНаБитахМЗ, ctrl0) + {FAST20});
			включиВоМнвоНаБитах(set, index остОтДеленияНа 8)
		иначе
			ctrl0 := НИЗКОУР.подмениТипЗначения(симв8, НИЗКОУР.подмениТипЗначения(мнвоНаБитахМЗ, ctrl0) - {FAST20});
			исключиИзМнваНаБитах(set, index остОтДеленияНа 8)
		всё;
		d.Put1(d, SXFRCTL0, ctrl0);
		d.Put1(d, ULTRAENB + index DIV 8, НИЗКОУР.подмениТипЗначения(симв8, set))
	всё;
	BusNameMsg(d, "Device["); ЛогЯдра.пЦел64(index, 0); ЛогЯдра.пСтроку8("].rate=");
	если i = -1 то
		ЛогЯдра.пСтроку8("async")
	иначе
		ЛогЯдра.пЦел64(rateTable[i].period, 0); ЛогЯдра.пСимв8("/"); ЛогЯдра.пЦел64(offset, 0);
		speed := rateTable[i].speed;
		если wide то speed := speed*2  всё;
		ЛогЯдра.пЦел64(speed DIV 10, 4); ЛогЯдра.пСимв8("."); ЛогЯдра.пЦел64(speed остОтДеленияНа 10, 0);
		ЛогЯдра.пСтроку8(" MB/s")
	всё;
	ЛогЯдра.пВК_ПС
кон SetSyncRate;

(* Queues Functions *)
(*
	Queue Layout

	+000H	untagged queue
	+100H	out queue
	+200H	in queue
*)

проц QUntaggedSet(d: Bus;  i: цел32;  ch: симв8);
нач
	НИЗКОУР.запишиОбъектПоАдресу(d.queueArea+i, ch)
кон QUntaggedSet;

проц QOutSet(d: Bus;  i: цел32;  ch: симв8);
нач
	НИЗКОУР.запишиОбъектПоАдресу(d.queueArea+100H+i, ch)
кон QOutSet;

проц QOutGet(d: Bus;  i: цел32): симв8;
перем ch: симв8;
нач
	НИЗКОУР.прочтиОбъектПоАдресу(d.queueArea+100H+i, ch);  возврат ch
кон QOutGet;

проц QInSet(d: Bus;  i: цел32;  ch: симв8);
нач
	НИЗКОУР.запишиОбъектПоАдресу(d.queueArea+200H+i, ch)
кон QInSet;

проц QInit(d: Bus);
перем paddr: адресВПамяти; i: целМЗ;
нач
	если traceCalls в trace то  BusNameMsg(d, "QInit"); ЛогЯдра.пВК_ПС  всё;
(*
	Machine.NewPhysicalPage(paddr);
	Machine.MapPhysical(paddr, Machine.PageSize, d.queueArea);
*)
	paddr := адресОт(d.buffers[0]);
	увел(paddr, (-paddr) остОтДеленияНа BufferAlignment);
	d.queueArea := paddr;

	нцДля i := 0 до 255 делай
		QUntaggedSet(d, i, 0FFX);  QOutSet(d, i, 0FFX);  QInSet(d, i, 0FFX)
	кц;
	d.in := 0;
	d.out := 0;
	d.Put1(d, SCBIDADDR, симв8ИзКода(paddr));
	d.Put1(d, SCBIDADDR+1, симв8ИзКода(логСдвиг(paddr, -8)));
	d.Put1(d, SCBIDADDR+2, симв8ИзКода(логСдвиг(paddr, -16)));
	d.Put1(d, SCBIDADDR+3, симв8ИзКода(логСдвиг(paddr, -24)));
	d.Put1(d, QINPOS, 0X);
	d.Put1(d, KERNELQINPOS, 0X);
	d.Put1(d, QOUTPOS, 0X);
	если FeatQueueRegs в d.features то
		d.Put1(d, QOFFCTLSTA, 6X);	(* Queue size = 256 *)
		d.Put1(d, SDSCBQOFF, 0X);
		d.Put1(d, SNSCBQOFF, 0X);
		d.Put1(d, HNSCBQOFF, 0X)
	всё;
	d.Put1(d, WAITINGSCBH, 0FFX);
	d.Put1(d, DISCONNECTEDSCBH, 0FFX);
кон QInit;


(* HW-SCB Functions *)
(*
	HW SCB Layout:
	00	1	control
	01	1	target
	02	1	status
	03	1	SG count
	04	4	SG pointer
	08	1	residual SG count
	09	3	residual Data count
	12	4	data ptr
	16	4	data cnt
	20	4	cmd ptr
	24	1	cmd len
	25	1	tag
	26	1	next
	27	1	prev
	28	4	par
*)

проц HSSet(d: Bus;  num, offset: цел32;  val: симв8);
нач	НИЗКОУР.запишиОбъектПоАдресу(d.scbArea + num*32 + offset, val)
кон HSSet;

проц HSSet4(d: Bus;  num, offset: цел32;  val: цел32);
нач	НИЗКОУР.запишиОбъектПоАдресу(d.scbArea + num*32 + offset, val)
кон HSSet4;

проц HSFreeCurrent(d: Bus);
нач
	d.Put1(d, SCBTAG, 0FFX);
	d.Put1(d, SCBCONTROL, 0X);
	d.Put1(d, SCBNEXT, d.Get1(d, FREESCBH));
	d.Put1(d, FREESCBH, d.Get1(d, SCBPTR))
кон HSFreeCurrent;

проц HSFreeScb(d: Bus;  index: цел32);
нач
	HSSet(d, index, HScontrol, 0X);
	HSSet(d, index, HSstatus, 0X);
	HSSet(d, index, HStarget, 0FFX)
кон HSFreeScb;

проц HSInit(d: Bus);
перем  paddr: адресВПамяти; i: целМЗ;  quit: булево;
нач
	если traceCalls в trace то  BusNameMsg(d, "HSInit"); ЛогЯдра.пВК_ПС  всё;
	(*allocate hw-scb buffer*)
(*
	Machine.NewPhysicalPage(paddr);
	Machine.MapPhysical(paddr, Machine.PageSize, d.scbArea);
*)
	paddr := адресОт(d.buffers[QBufferSize]);
	увел(paddr, (-paddr) остОтДеленияНа BufferAlignment);
	d.scbArea := paddr;

	нцДля i := 0 до 127 делай
		НИЗКОУР.запишиОбъектПоАдресу(d.scbArea + i*32 + HScontrol, 0X);	(* control := 0X *)
		НИЗКОУР.запишиОбъектПоАдресу(d.scbArea + i*32 + HStag, симв8ИзКода(i));	(* tag := i *)
	кц;
	d.Put1(d, HSCBARRAY, симв8ИзКода(paddr));
	d.Put1(d, HSCBARRAY+1, симв8ИзКода(логСдвиг(paddr, -8)));
	d.Put1(d, HSCBARRAY+2, симв8ИзКода(логСдвиг(paddr, -16)));
	d.Put1(d, HSCBARRAY+3, симв8ИзКода(логСдвиг(paddr, -24)));

	(* clear and initialize host scb table *)
	d.Put1(d, FREESCBH, 0X);
	i := 0;  quit := ложь;
	нцПока (i < 255) и ~quit делай
		d.Put1(d, SCBPTR, симв8ИзКода(i));
		d.Put1(d, SCBCONTROL, симв8ИзКода(i));
		если i # кодСимв8(d.Get1(d, SCBCONTROL)) то
			quit := истина
		иначе
			d.Put1(d, SCBPTR, 0X);
			если d.Get1(d, SCBCONTROL) # 0X то
				quit := истина
			иначе
				d.Put1(d, SCBPTR, симв8ИзКода(i));
				d.Put1(d, SCBCONTROL, 0X);
				d.Put1(d, SCBNEXT, симв8ИзКода(i+1));
				d.Put1(d, SCBPREV, симв8ИзКода(i-1));
				d.Put1(d, SCBTAG, 0FFX);
				d.Put1(d, SCBBUSYTARGETS, 0FFX);
				d.Put1(d, SCBBUSYTARGETS+1, 0FFX);
				d.Put1(d, SCBBUSYTARGETS+2, 0FFX);
				d.Put1(d, SCBBUSYTARGETS+3, 0FFX);
				увел(i)
			всё
		всё
	кц;
	d.Put1(d, SCBPTR, симв8ИзКода(i-1));	(*last SCB terminates the list*)
	d.Put1(d, SCBNEXT, 0FFX);

	d.Put1(d, SCBPTR, 0X);	(*clear first SCB control byte (may have been changed)*)
	d.Put1(d, SCBCONTROL, 0X);
	если i = 255 то  исключиИзМнваНаБитах(d.flags, FlagPageSCB)  всё;
	BusNameMsg(d, "SCB = "); ЛогЯдра.пЦел64(i, 0); ЛогЯдра.пВК_ПС
кон HSInit;

(* Sequencer Functions *)

проц SeqPause(d: Bus);
нач
	если traceSequencer в trace то  BusNameMsg(d, "SeqPause"); ЛогЯдра.пВК_ПС  всё;
	d.Put1(d, HCNTRL, НИЗКОУР.подмениТипЗначения(симв8, {INTEN, PAUSE}));
	нцПока ~(PAUSE в НИЗКОУР.подмениТипЗначения(мнвоНаБитахМЗ, d.Get1(d, HCNTRL))) делай  кц;
кон SeqPause;

проц SeqUnpause(d: Bus);
нач
	если traceSequencer в trace то  BusNameMsg(d, "SeqUnpause")  всё;
	если ~(FlagHandlingReqInits в d.flags) то
		если traceSequencer в trace то  ЛогЯдра.пСтроку8("*")  всё;
		d.Put1(d, HCNTRL, НИЗКОУР.подмениТипЗначения(симв8, {INTEN}))
	иначе
		ToDo("Ada7: Unpausing the sequencer while in message mode")
	всё;
	если traceSequencer в trace то  ЛогЯдра.пВК_ПС  всё;
кон SeqUnpause;

проц SeqLoad(d: Bus);
перем i, line: цел32;
нач
	если traceCalls в trace то  BusNameMsg(d, "LoadSequencer"); ЛогЯдра.пВК_ПС  всё;
		Script.Init(FeatUltra2 в d.features, FeatUltra в d.features, FeatWide в d.features, FeatTwin в d.features,
				FlagPageSCB в d.flags, FeatQueueRegs в d.features, FeatCmdChan в d.features, ложь, AIC7895 = d.chip);
	i := 0;
	d.Put1(d, SEQCTL, НИЗКОУР.подмениТипЗначения(симв8, {PERRORDIS,LOADRAM,FAILDIS,FASTMODE}));
	d.Put1(d, SEQADDR0, 0X);
	d.Put1(d, SEQADDR1, 0X);
	нцПока Script.GetNext(НИЗКОУР.подмениТипЗначения(мнвоНаБитахМЗ, line)) делай
		d.Put1(d, SEQRAM, симв8ИзКода(line));
		d.Put1(d, SEQRAM, симв8ИзКода(логСдвиг(line, -8)));
		d.Put1(d, SEQRAM, симв8ИзКода(логСдвиг(line, -16)));
		d.Put1(d, SEQRAM, симв8ИзКода(логСдвиг(line, -24)));
		увел(i)
	кц;
	BusNameMsg(d, "Sequencer Loaded lines="); ЛогЯдра.пЦел64(i, 0); ЛогЯдра.пВК_ПС;
	d.Put1(d, SEQCTL, НИЗКОУР.подмениТипЗначения(симв8, {FASTMODE,SEQRESET}));
кон SeqLoad;

(* PCI Functions *)

проц PCIClearInt(d: Bus);
конст	DPR = 0;  RMA = 5;  RTA = 4;
перем	res: целМЗ; dw: цел32;  bus, dev, slot: цел32;
нач
	bus := d.busNo;  dev := d.devNo;  slot := d.slotNo;
	res := PCI.ReadConfigByte(bus, dev, slot, 7H, dw);
	res := PCI.WriteConfigByte(bus, dev, slot, 7H, dw);	(* Clear PCI-Status *)
	если {DPR, RMA, RTA} * НИЗКОУР.подмениТипЗначения(мнвоНаБитахМЗ, dw) # {} то
		d.Put1(d, CLRINT, НИЗКОУР.подмениТипЗначения(симв8, {CLRPARERR}))
	всё;
кон PCIClearInt;

проц PCIInit(d: Bus;  bus, dev, slot: цел32);
перем  res: целМЗ; dw: цел32;
нач
	если traceCalls в trace то  BusNameMsg(d, "PCIInit"); ЛогЯдра.пВК_ПС  всё;
	res:=PCI.ReadConfigByte(bus, dev, slot, PCI.IntlReg, dw);	(*irq*)
	d.irq :=  устарПреобразуйКБолееУзкомуЦел(устарПреобразуйКБолееУзкомуЦел(dw));
	BusName(d); ЛогЯдра.пСтроку8("irq="); ЛогЯдра.пЦел64(d.irq, 0);
	res:=PCI.ReadConfigDword(bus, dev, slot, PCI.Adr1Reg, dw);	(*memio*)
	если dw = 0 то
		res:=PCI.ReadConfigDword(bus, dev, slot, PCI.Adr0Reg, dw);	(*iobase*)
		d.base := dw - 1;
		d.Put1 := PortPut;
		d.Get1 := PortGet;
		ЛогЯдра.пСтроку8(" Port="); ЛогЯдра.пЦел64(d.base, 0)
	иначе
		dw := НИЗКОУР.подмениТипЗначения(цел32, НИЗКОУР.подмениТипЗначения(мнвоНаБитахМЗ, dw) * {3..31});	(* clear io mode & 64 bit flags*)
		ЭВМ.MapPhysical(dw, 100H, d.base);
		d.Put1 := MemoryPut;
		d.Get1 := MemoryGet;
		ЛогЯдра.пСтроку8(" MemMap="); ЛогЯдра.п16ричное(dw, 0); ЛогЯдра.пСтроку8("/"); ЛогЯдра.п16ричное(d.base, 0)
	всё;
	ЛогЯдра.пВК_ПС;
	res:=PCI.ReadConfigWord(bus, dev, slot, PCI.CmdReg, dw);
	dw := НИЗКОУР.подмениТипЗначения(цел32, НИЗКОУР.подмениТипЗначения(мнвоНаБитахМЗ, dw) + {8, 6, 4, 2, 1, 0});	(*Serren, Perren, Mwricen, Master, MSpace, ISpace*)
	res:=PCI.WriteConfigWord(bus, dev, slot, PCI.CmdReg, dw);
	res:=PCI.ReadConfigDword(bus, dev, slot, DEVCONFIG, dw);
	dw := НИЗКОУР.подмениТипЗначения(цел32, НИЗКОУР.подмениТипЗначения(мнвоНаБитахМЗ, dw) + {PCIERRGENDIS} - {BERREN});
	если d.chip = AIC7895 то
		dw := НИЗКОУР.подмениТипЗначения(цел32, НИЗКОУР.подмениТипЗначения(мнвоНаБитахМЗ, dw) + {SCBSIZE32});
	всё;
	res:=PCI.WriteConfigDword(bus, dev, slot, DEVCONFIG, dw);
	SeqPause(d);
	PCIClearInt(d);
кон PCIInit;

(* Message Handling *)

проц MsgStart(d: Bus);
перем  t: мнвоНаБитахМЗ;
нач
	включиВоМнвоНаБитах(d.flags, FlagHandlingReqInits);
	t := НИЗКОУР.подмениТипЗначения(мнвоНаБитахМЗ, d.Get1(d, SIMODE1));
	d.Put1(d, SIMODE1, НИЗКОУР.подмениТипЗначения(симв8, t + {ENREQINIT}));
кон MsgStart;

проц MsgStop(d: Bus);
перем  t: мнвоНаБитахМЗ;
нач
	t := НИЗКОУР.подмениТипЗначения(мнвоНаБитахМЗ, d.Get1(d, SIMODE1));
	d.Put1(d, SIMODE1, НИЗКОУР.подмениТипЗначения(симв8, t - {ENREQINIT}));
	d.Put1(d, CLRINT, НИЗКОУР.подмениТипЗначения(симв8, {CLRSCSIINT}));
	исключиИзМнваНаБитах(d.flags, FlagHandlingReqInits);
кон MsgStop;

проц MsgCompose(d: Bus;  index: цел32;  перем msg: Message);
перем i: цел32;
нач
	если index в d.negotiateWidth то
		исключиИзМнваНаБитах(d.negotiateWidth, index);
		msg.buf[0] := SCSI.MsgExtended;
		msg.buf[1] := SCSI.MsgExtWdTrLen;
		msg.buf[2] := SCSI.MsgExtWdTr;
		msg.buf[3] := SCSI.MsgExtWdTr16Bit;	(*always ask for the max*)
		msg.len := 4;
		msg.pos := 0;
		msg.dir := Sending
	аесли index в d.negotiateSync то
		исключиИзМнваНаБитах(d.negotiateSync, index);
		i := GetTableIndex(FeatUltra в d.features, FeatUltra2 в d.features);
		msg.buf[0] := SCSI.MsgExtended;
		msg.buf[1] := SCSI.MsgExtSdTrLen;
		msg.buf[2] := SCSI.MsgExtSdTr;
		msg.buf[3] := симв8ИзКода(rateTable[i].period);	(* ask for min period (fastest) *)
		msg.buf[4] := GetMaxOffset(FeatWide в d.features, FeatUltra2 в d.features);	(* ask for the max offset *)
		msg.len := 5;
		msg.pos := 0;
		msg.dir := Sending
	иначе
		ToDo("Adaptec7.MsgCompose: negotiate what?");
	всё
кон MsgCompose;

проц MsgParse(d: Bus;  перем msg: Message): булево;
перем  reject, done, wide: булево;  period, offset: цел32;  t: мнвоНаБитахМЗ;
нач
	reject := ложь;  done := ложь;
	если msg.buf[0] # SCSI.MsgExtended то
		reject := истина
	аесли msg.len <= 2 то	(*ExtMsg are 4 or 5 bytes*)
		done := ложь
	аесли msg.buf[2] = SCSI.MsgExtSdTr то	(*sync handling*)
		если msg.buf[1] # SCSI.MsgExtSdTrLen то
			reject := истина
		аесли msg.len < кодСимв8(SCSI.MsgExtSdTrLen)+2 то
			done := ложь
		иначе
			done := истина;
			period := кодСимв8(msg.buf[3]);
			offset := кодСимв8(msg.buf[4]);
			BusNameMsg(d, "SyncMsg "); ЛогЯдра.пЦел64(period, 0); ЛогЯдра.пСимв8("/");
			ЛогЯдра.пЦел64(offset, 0); ЛогЯдра.пВК_ПС;
			SetSyncRate(d, period, offset)
		всё
	аесли msg.buf[2] = SCSI.MsgExtWdTr то	(*width handling*)
		если msg.buf[1] # SCSI.MsgExtWdTrLen то
			reject := истина
		аесли msg.len < кодСимв8(SCSI.MsgExtWdTrLen)+2 то
			done := ложь
		иначе
			done := истина;
			wide := msg.buf[3] = SCSI.MsgExtWdTr16Bit;
			BusNameMsg(d, "WidthMsg "); ЛогЯдра.пЦел64(кодСимв8(msg.buf[3]), 0); ЛогЯдра.пВК_ПС;
			SetWidth(d, wide);
		всё
	иначе
		reject := истина
	всё;
	если reject то
		d.Put1(d, MSGOUT, SCSI.MsgMessageReject);
		t := НИЗКОУР.подмениТипЗначения(мнвоНаБитахМЗ, d.Get1(d, SCSISIG));
		d.Put1(d, SCSISIG, НИЗКОУР.подмениТипЗначения(симв8, t + {ATN}))
	всё;
	возврат reject или done
кон MsgParse;

проц MsgTransmit(d: Bus;  перем msg: Message);
перем  t: мнвоНаБитахМЗ;  done: булево;  ch: симв8;
нач
	t := НИЗКОУР.подмениТипЗначения(мнвоНаБитахМЗ, d.Get1(d, SCSISIG));
	если msg.dir = Sending то
		если traceSmall в trace то
			ЛогЯдра.пСимв8("["); ЛогЯдра.п16ричное(кодСимв8(msg.buf[msg.pos]), -2); ЛогЯдра.пСимв8("]")
		всё;
		если msg.pos = msg.len-1 то	(* last byte *)
			done := истина;
			d.Put1(d, SINDEX, msg.buf[msg.pos]);
			d.Put1(d, RETURN1, 0X)
		аесли (t * PHASEMASK) # PhaseMsgOut  то	(* Phase Mismatch *)
			если traceSmall в trace то ЛогЯдра.пСимв8("&") всё;
			done := истина;
			d.Put1(d, RETURN1, НИЗКОУР.подмениТипЗначения(симв8, MSGOUTPHASEMIS))
		иначе
			d.Put1(d, CLRSINT1, НИЗКОУР.подмениТипЗначения(симв8, {CLRREQINIT}));
			d.Put1(d, CLRINT, НИЗКОУР.подмениТипЗначения(симв8, {CLRSCSIINT}));
			d.Put1(d, SCSIDATL, msg.buf[msg.pos]);
			увел(msg.pos);
		всё;
	иначе
		done := (t * PHASEMASK) # PhaseMsgIn;
		если ~done то
			msg.buf[msg.pos] := НИЗКОУР.подмениТипЗначения(симв8, d.Get1(d, SCSIBUSL));
			если traceSmall в trace то
				ЛогЯдра.пСимв8("("); ЛогЯдра.п16ричное(кодСимв8(msg.buf[msg.pos]), -2); ЛогЯдра.пСимв8(")")
			всё;
			увел(msg.len);  увел(msg.pos);
			done := MsgParse(d, d.msg);

			d.Put1(d, CLRSINT1, НИЗКОУР.подмениТипЗначения(симв8, {CLRREQINIT}));
			d.Put1(d, CLRINT, НИЗКОУР.подмениТипЗначения(симв8, {CLRSCSIINT}));
			ch := d.Get1(d, SCSIDATL);
			если ch # msg.buf[msg.pos-1] то  ЛогЯдра.пСтроку8("Ada7.MsgTransmit, strange"); ЛогЯдра.пВК_ПС всё;
		иначе
			ЛогЯдра.пСтроку8("Ada7.MsgTransmit, phase mismatch "); ЛогЯдра.п16ричное(НИЗКОУР.подмениТипЗначения(цел32, t), -2);
			ЛогЯдра.пВК_ПС
		всё
	всё;
	если done то
		MsgStop(d);  SeqUnpause(d)
	всё
кон MsgTransmit;

(* Interrupt Handling *)

проц Done(d: Bus;  index: цел32);	(* command terminated / aborted: remove scb and finish *)
нач
(*
	BusNameMsg(d, "Done = "); KernelLog.Int(index, 0); KernelLog.Ln;
*)
	QUntaggedSet(d, index, 0FFX);
	HSFreeScb(d, index);
	если d.sync[index] = InUse то
		d.Synchronize(index, InUse, Terminated)
	иначе
		ЛогЯдра.пСтроку8("PANIC: done called but not in use!"); ЛогЯдра.пВК_ПС
	всё;
кон Done;

проц IntCommand(d: Bus);
перем  index: цел32;
нач
	увел(aIntCmdCount);
	если traceInts в trace то
		BusNameMsg(d, "IntCmdCmplt"); ЛогЯдра.пВК_ПС;
		DumpAllLists(d);
		Reg(d, RETURN1, " RETURN = "); Reg(d, SCBPTR, " SCBPTR = "); ЛогЯдра.пВК_ПС
	всё;

	d.Put1(d, CLRINT, НИЗКОУР.подмениТипЗначения(симв8, {CLRCMDINT}));
	index := кодСимв8(QOutGet(d, d.out));
	нцПока index # кодСимв8(0FFX) делай
		QOutSet(d, d.out, 0FFX);
		d.out := (d.out + 1) остОтДеленияНа 256;
		Done(d, index);
		index := кодСимв8(QOutGet(d, d.out))
	кц
кон IntCommand;

проц IntBrkAdr(d: Bus);
перем  error: мнвоНаБитахМЗ;
нач
	увел(aIntBrkAdrCount);
	error := НИЗКОУР.подмениТипЗначения(мнвоНаБитахМЗ, d.Get1(d, ERROR));
	если PCIERRSTAT в error то
		ToDo("Adaptec7.IntBrkAdr/PCIERRSTAT");
		PCIClearInt(d)
	всё;
	d.Put1(d, CLRINT, НИЗКОУР.подмениТипЗначения(симв8, {CLRPARERR, CLRBRKADRINT}));
	(*
		Sequence is interrupted by a break position. This should not happen (I do not
		set any breakpoint).
		Restart the sequencer
	*)
(*
	ToDo("IntBrkAdr");
	d.Put1(d, SEQCTL, SYSTEM.VAL(CHAR, {FASTMODE, SEQRESET}));
*)
	SeqUnpause(d)
кон IntBrkAdr;

проц IntSeqHandle(d: Bus;  code: цел32);
конст trace = {traceInts};
перем  active, ch: симв8;  index: цел32;
нач
	если ложь и (traceInts в trace) то
		BusNameMsg(d, "IntSeqHandle"); ЛогЯдра.пВК_ПС;
		DumpAllLists(d);
		Reg(d, RETURN1, " RETURN = "); Reg(d, SCBPTR, " SCBPTR = "); Reg(d, SCBTARGETSTATUS, " TargStat = "); ЛогЯдра.пВК_ПС
	всё;
	увел(aIntSeqCount);

	d.Put1(d, CLRINT, НИЗКОУР.подмениТипЗначения(симв8, {CLRSEQINT}));
	active := d.Get1(d, SCBPTR);  index := кодСимв8(d.Get1(d, SCBTAG));

	просей code из
	| NoMatch:
			если traceInts в trace то BusNameMsg(d, "IntSeqHandle.NoMatch"); ЛогЯдра.пВК_ПС всё;
			увел(aIntSeqNoMatch);
			ch := d.Get1(d, SCSISEQ);
			d.Put1(d, SCSISEQ, НИЗКОУР.подмениТипЗначения(симв8, НИЗКОУР.подмениТипЗначения(мнвоНаБитахМЗ, ch) * {ENSELI, ENRSELI, ENAUTOATNP}))
	| SendReject:
			если traceInts в trace то BusNameMsg(d, "IntSeqHandle.SendReject"); ЛогЯдра.пВК_ПС всё;
			увел(aIntSeqSendReject)
	| NoIdent:
			увел(aIntSeqNoIdent);
			ToDo("IntSeqHandle.NoIdent")
	| BadPhase:
			если traceInts в trace то BusNameMsg(d, "IntSeqHandle.BadPhase"); ЛогЯдра.пВК_ПС всё;
			увел(aIntSeqBadPhase);
			если PhaseBusFree = НИЗКОУР.подмениТипЗначения(мнвоНаБитахМЗ, d.Get1(d, LASTPHASE)) то
				d.Put1(d, SEQCTL, НИЗКОУР.подмениТипЗначения(симв8, {FASTMODE, SEQRESET}))
			всё
	| ExtendedMsg:
			если (traceInts в trace) то BusNameMsg(d, "IntSeqHandle.ExtendedMsg"); ЛогЯдра.пВК_ПС всё;
			увел(aIntSeqExtendedMsg);
			MsgStart(d);
			d.msg.dir := Receiving; d.msg.pos := 0; d.msg.len := 0;
			возврат	(*don't unpause the sequencer!*)
	| RejectMsg:
			если (traceInts в trace) то BusNameMsg(d, "IntSeqHandle.RejectMsg"); ЛогЯдра.пВК_ПС всё;
			увел(aIntSeqRejectMsg);
	| BadStatus:
			(* result of the status phase *)
			увел(aIntSeqBadStatus);
			d.Put1(d, RETURN1, 0X);
			d.status[index] := устарПреобразуйКБолееУзкомуЦел(кодСимв8(d.Get1(d, SCBTARGETSTATUS)));
			если traceInts в trace то
				BusNameMsg(d, "IntSeq.BadStatus[");
				ЛогЯдра.пЦел64(index, 0);  ЛогЯдра.пСтроку8("] = "); ЛогЯдра.пЦел64(d.status[index], 0); ЛогЯдра.пВК_ПС;
				Reg(d, SSTAT0, "STAT0 = "); Reg(d, SSTAT1, " STAT1 = "); Reg(d, SSTAT2, " STAT2 = "); Reg(d, SSTAT3, " STAT3 = ");
				Reg(d, ERROR, " ERROR = ");
				Reg(d, DSCOMMAND0, " CMD0 = "); Reg(d, DSPCISTATUS, " DSPCISTATUS = "); ЛогЯдра.пВК_ПС;
				DumpAllLists(d);
				Reg(d, RETURN1, " RETURN = "); Reg(d, SCBPTR, " SCBPTR = "); Reg(d, SCBTARGETSTATUS, " TargStat = ");
				Reg(d, DFSTATUS, " DFSTATUS = "); Reg(d, DFFTHRSH, " DFFTHRSH = ");
				 ЛогЯдра.пВК_ПС;
				DumpCurSCB(d);
			всё
	| AwaitingMsg:	(* ScbMessage was in the scb control tag: now the sequencer asks if we have a message *)
			если traceInts в trace то BusNameMsg(d, "IntSeqHandle.AwaitingMsg"); ЛогЯдра.пВК_ПС всё;
			увел(aIntSeqAwaitingMsg);
			MsgStart(d);
			MsgCompose(d, index, d.msg);	(*prepare the message in the buffer, send during the scsi interrupt*)
			возврат	(*don't unpause the sequencer!*)
	| DataOverrun:
			увел(aIntSeqDataOverrun);
			если истина и (traceInts в trace) то BusNameMsg(d, "IntSeqHandle.DataOverrun"); ЛогЯдра.пВК_ПС всё;
			d.status[index] := SCSI.CommandTerminated;
			d.result[index] := SCSI.Error;
	всё;
	SeqUnpause(d)
кон IntSeqHandle;

проц IntScsiSeltoHandle(d: Bus);
перем  t: мнвоНаБитахМЗ;  index: цел32;
нач
	увел(aIntScsiSelto);
	если d.Get1(d, WAITINGSCBH) # d.Get1(d, SCBPTR) то
		увел(aIntScsiSeltoProblem1);
		BusNameMsg(d, "Selto: WAITING # SCBPTR"); ЛогЯдра.пВК_ПС
	всё;
	d.Put1(d, SCBPTR, d.Get1(d, WAITINGSCBH));
	index := кодСимв8(d.Get1(d, SCBTAG));
	если (traceInts в trace) то
		BusNameMsg(d, "IntScsiHandle.Selto"); ЛогЯдра.пЦел64(index, 0); ЛогЯдра.пВК_ПС;
		DumpCurSCB(d)
	всё;

	если d.sync[index] # InUse то
		увел(aIntScsiSeltoProblem2);
		ToDo("IntScsiHandle.Selto/Invalid Index");
		BusNameMsg(d, "IntScsiHandle.Selto"); ЛогЯдра.пЦел64(кодСимв8(d.Get1(d, WAITINGSCBH)), 0);
		ЛогЯдра.пСимв8("/"); ЛогЯдра.пЦел64(index, 0); ЛогЯдра.пВК_ПС;
		DumpCurSCB(d);
		DumpAllLists(d);

	иначе
		d.status[index] := SCSI.CommandTerminated;
		d.result[index] := SCSI.TimeOut;
		исключиИзМнваНаБитах(d.negotiateWidth, index);
		исключиИзМнваНаБитах(d.negotiateSync, index);
		d.Put1(d, SCBCONTROL, 0X);
		d.Put1(d, MSGOUT, SCSI.MsgNoop);
		d.Put1(d, WAITINGSCBH, d.Get1(d, SCBNEXT));
		HSFreeCurrent(d);
		Done(d, index)
	всё;
	d.Put1(d, SCSISEQ, 0X);
	t := НИЗКОУР.подмениТипЗначения(мнвоНаБитахМЗ, d.Get1(d, SIMODE1));
	d.Put1(d, SIMODE1, НИЗКОУР.подмениТипЗначения(симв8, t - {ENREQINIT, ENBUSFREE}));
	исключиИзМнваНаБитах(d.flags, FlagHandlingReqInits);
	d.Put1(d, CLRSINT1, НИЗКОУР.подмениТипЗначения(симв8, {CLRSELTIMEO,CLRBUSFREE}));
	d.Put1(d, CLRINT, НИЗКОУР.подмениТипЗначения(симв8, {CLRSCSIINT}));
	d.Put1(d, SEQCTL, НИЗКОУР.подмениТипЗначения(симв8, {FASTMODE, SEQRESET}));
	SeqUnpause(d)
кон IntScsiSeltoHandle;

проц IntScsiResetHandle(d: Bus);
	проц TraverseList(d: Bus;  list: цел32;  debugMsg: массив из симв8);
	перем  ptr: симв8;  index: цел32;
	нач
		ptr := d.Get1(d, list);
		нцПока ptr # 0FFX делай
			d.Put1(d, SCBPTR, ptr);
			index := кодСимв8(d.Get1(d, SCBTAG));
			ЛогЯдра.пСтроку8(debugMsg); ЛогЯдра.п16ричное(кодСимв8(ptr), -2); ЛогЯдра.пСимв8("/");
			ЛогЯдра.п16ричное(index, -2); ЛогЯдра.пВК_ПС;
			ptr := d.Get1(d, SCBNEXT);
			HSFreeCurrent(d);
			d.status[index] := SCSI.NotGood;
			d.result[index] := SCSI.Reset;
			Done(d, index)
		кц;
	кон TraverseList;
нач
	(* the bus is reset. Kill outstanding commands and reconfigure bus*)
	если истина и (traceInts в trace) то
		BusNameMsg(d, "IntScsiResetHandle"); ЛогЯдра.пВК_ПС;
		DumpAllLists(d);
	всё;
	увел(aIntScsiReset);
	BusConfigure(d);
	TraverseList(d, WAITINGSCBH, "waiting list ");
	TraverseList(d, DISCONNECTEDSCBH, "disc list");
	d.Put1(d, CLRSINT1, НИЗКОУР.подмениТипЗначения(симв8, {CLRSCSIRSTI}));
	d.Put1(d, CLRINT, НИЗКОУР.подмениТипЗначения(симв8, {CLRSCSIINT}));
	SeqUnpause(d)
кон IntScsiResetHandle;

проц IntScsiHandle(d: Bus);
перем  status: мнвоНаБитахМЗ;
нач
	если traceInts в trace то
		BusNameMsg(d, "IntScsiHandle"); ЛогЯдра.пВК_ПС;
		DumpAllLists(d);
		Reg(d, SSTAT1, "STAT1 = ");  Reg(d, SIMODE1, " SIMODE1 = ");
		Reg(d, RETURN1, " RETURN = "); Reg(d, SCBPTR, " SCBPTR = "); ЛогЯдра.пВК_ПС
	всё;
	увел(aIntScsiCount);
	status := НИЗКОУР.подмениТипЗначения(мнвоНаБитахМЗ, d.Get1(d, SSTAT1));
	если SCSIRSTI в status то
			IntScsiResetHandle(d)
	аесли SELTO в status то
			IntScsiSeltoHandle(d)
	аесли BUSFREE в status то
			увел(aIntScsiBusFree);
			ToDo("IntScsiHandle.BusFree");
			Reg(d, LASTPHASE, "LASTPHASE"); ЛогЯдра.пВК_ПС;
			d.Put1(d, CLRSINT1, НИЗКОУР.подмениТипЗначения(симв8, {CLRBUSFREE}));
			d.Put1(d, CLRINT, НИЗКОУР.подмениТипЗначения(симв8, {CLRSCSIINT}));
			d.Put1(d, SEQCTL, НИЗКОУР.подмениТипЗначения(симв8, {FASTMODE, SEQRESET}));
			SeqUnpause(d)
	аесли SCSIPERR в status то
			увел(aIntScsiParity);
			если истина и (traceInts в trace) то BusNameMsg(d, "IntScsiHandle.SCSIPERR"); ЛогЯдра.пВК_ПС всё;
			d.Put1(d, CLRSINT1, НИЗКОУР.подмениТипЗначения(симв8, {CLRSCSIPERR}));
			d.Put1(d, CLRINT, НИЗКОУР.подмениТипЗначения(симв8, {CLRSCSIINT}));
			SeqUnpause(d)
	аесли (REQINIT в status) и (FlagHandlingReqInits в d.flags) то
			если traceInts в trace то  BusNameMsg(d, "IntScsiHandle.ReqInit"); ЛогЯдра.пВК_ПС  всё;
			увел(aIntScsiReqInit);
			MsgTransmit(d, d.msg);
	аесли (1 в status) и (FlagHandlingReqInits в d.flags) то
			увел(aIntScsiSpecial);
			ЛогЯдра.пСимв8("("); ЛогЯдра.п16ричное(кодСимв8(d.Get1(d, SCSIBUSL)), -2); ЛогЯдра.пСимв8(")");
			ToDo("IntScsiHandle.Unexpected message");
	иначе
			увел(aIntScsiUnknown);
			ToDo("IntScsiHandle.Unknown");
			ЛогЯдра.пСтроку8("SSTAT1 = "); ЛогЯдра.п16ричное(НИЗКОУР.подмениТипЗначения(цел32, status), -2); ЛогЯдра.пВК_ПС;
			d.Put1(d, CLRINT, НИЗКОУР.подмениТипЗначения(симв8, {CLRSCSIINT}));
			SeqUnpause(d)
	всё
кон IntScsiHandle;

проц IntClear(d: Bus);
нач
	d.Put1(d, CLRSINT0, НИЗКОУР.подмениТипЗначения(симв8, {CLRSELDO, CLRSELDI, CLRSELINGO}));
	d.Put1(d, CLRSINT1, НИЗКОУР.подмениТипЗначения(симв8, CLRSINT1ALL));
	d.Put1(d, CLRINT, НИЗКОУР.подмениТипЗначения(симв8, {CLRSCSIINT, CLRSEQINT, CLRBRKADRINT, CLRPARERR}))
кон IntClear;

проц IntInstall(d: Bus);
нач
	IntClear(d);
	если interrupt[d.irq] = НУЛЬ то  нов(interrupt[d.irq], d.irq)  всё;
	d.next := interrupt[d.irq].root;  interrupt[d.irq].root := d;
	BusNameMsg(d, "IntHandler installed, "); ЛогЯдра.пЦел64(d.irq, 0); ЛогЯдра.пВК_ПС;
кон IntInstall;

(* ScbControl - Compote the control byte for dev-th device *)

проц ScbControl(d: Bus;  dev: цел32): симв8;
нач
	если dev в d.negotiateWidth то
		если traceSmall в trace то ЛогЯдра.пСимв8("W") всё;
		(*EXCL(dev, d.negotiateWidth);*) 	(*done in message handling! Only one msg per device*)
		возврат НИЗКОУР.подмениТипЗначения(симв8, {HwScbMessage})
	аесли dev в d.negotiateSync то
		если traceSmall в trace то ЛогЯдра.пСимв8("S") всё;
		возврат НИЗКОУР.подмениТипЗначения(симв8, {HwScbMessage})
	всё;
	возврат 0X
кон ScbControl;

(* BusSchedule - Schedule a new command for execution *)

проц BusSchedule(d: Bus;  перем c: SCSI.Command);
конст  MaxRange = 64;
перем  index, num, useRange: цел32; sgaddr: адресВПамяти; target: симв8;  range: массив 2, MaxRange+1 из ЭВМ.ДиапазонПамяти;
	(*dog: Watchdog;*)
	cmd: массив 2, 16 из симв8;  cmdBlock: цел32;
нач
	увел(aExecute);
	если (0 > c.target) или (c.target >= d.width) или ~(c.lun в {0..7}) или ~(c.chan в {0,1}) то	(*Invalid Destination*)
		d.Synchronize(c.target, InUse, Free);
		СТОП(200)
	всё;
	если (c.dlen > MaxRange * 4096) то		(* max pages: change range to increment this limit *)
		d.Synchronize(c.target, InUse, Free);
		СТОП(201)
	всё;
	(*IF traceDog IN trace THEN NEW(dog, 1000, 5, d, c.target) END;*)
	index := c.target;	(* this will be the scb used! *)
	если traceSmall в trace то
		ЛогЯдра.пСимв8("{"); ЛогЯдра.п16ричное(кодСимв8(c.cmd[0]), -2); ЛогЯдра.пСимв8("}")
	всё;
	если traceCmds в trace то
		BusNameMsg(d, "schedule ["); ЛогЯдра.пЦел64(index, 0); ЛогЯдра.пСтроку8("] =  ");
		ЛогЯдра.п16ричное(кодСимв8(c.cmd[0]), -2);
	всё;
	d.status[index] := SCSI.Good;
	d.result[index] := SCSI.OK;
	target := MakeTarget(c.target, c.chan, c.lun);
	HSSet(d, index, HScontrol, ScbControl(d, index));
	HSSet(d, index, HStarget, target);
	ЭВМ.TranslateVirtual(адресОт(c.cmd[0]), c.clen, num, range[0]);
	утв(num # 0, 202);
	если num > 1 то	(* The command buffer doesn't fit on one page, create own temp buffer *)
		cmdBlock := -1;
		нцДо
			увел(cmdBlock);
			ЭВМ.TranslateVirtual(адресОт(cmd[cmdBlock, 0]), c.clen, num, range[0]);
		кцПри num = 1;
		НИЗКОУР.копируйПамять(адресОт(c.cmd[0]), адресОт(cmd[cmdBlock, 0]), c.clen);
	всё;
	HSSet4(d, index, HScmdPtr, range[0, 0].адр(ЭВМ.Address32));
	HSSet(d, index, HScmdLen, симв8ИзКода(c.clen));

	если c.dlen = 0 то
		если traceCmds в trace то
			ЛогЯдра.пСтроку8("  No Data "); ЛогЯдра.пВК_ПС
		всё;
		HSSet(d, index, HSSGcount, 0X);
		HSSet4(d, index, HSSGptr, 0);
		HSSet4(d, index, HSdataPtr, 0);
		HSSet4(d, index, HSdataCnt, 0)
	иначе
		утв(c.dataAddr # 0);
		(* the data can be spread across many physical pages, I thus use a scatter-gather list
			for the data. Now the list itself could also be on a page boundary: I declare two adjacent ranges
			and at least one of them will fit on one page. *)
		ЭВМ.TranslateVirtual(адресОт(range[0, 0]), 16*размер16_от(ЭВМ.ДиапазонПамяти), num, range[0]);
		если num = 1 то	(* whole range[0] fits in one memory page *)
			useRange := 0;
		иначе
			ЭВМ.TranslateVirtual(адресОт(range[1, 0]), 16*размер16_от(ЭВМ.ДиапазонПамяти), num, range[0]);
			утв(num = 1, 203);
			useRange := 1;
			если traceCmds в trace то ЛогЯдра.пСимв8("+")всё;
		всё;
		sgaddr := range[0, 0].адр;
		ЭВМ.TranslateVirtual(c.dataAddr, c.dlen, num, range[useRange]);
		утв(num # 0, 204);
		если traceCmds в trace то
			если num > 1 то ЛогЯдра.пСимв8("%") иначе ЛогЯдра.пСимв8("$") всё
		всё;
		HSSet(d, index, HSSGcount, симв8ИзКода(num));
		HSSet4(d, index, HSSGptr, (sgaddr+размер16_от(ЭВМ.ДиапазонПамяти))(ЭВМ.Address32));	(*pass address to 2nd block*)
		HSSet4(d, index, HSdataPtr, range[useRange, 0].адр(ЭВМ.Address32));
		HSSet4(d, index, HSdataCnt, цел32 (range[useRange, 0].разм));
		если traceCmds в trace то
			ЛогЯдра.пСтроку8("  Data = "); ЛогЯдра.пЦел64(c.dlen, 0);
			ЛогЯдра.пЦел64(useRange, 2);
			ЛогЯдра.пЦел64(num, 2);
			ЛогЯдра.пВК_ПС;
		всё;
	всё;
	QUntaggedSet(d, кодСимв8(target), симв8ИзКода(index));
	QInSet(d, d.in, симв8ИзКода(index));
	d.in := (d.in+1) остОтДеленияНа 256;
	если FeatQueueRegs в d.features то
		d.Put1(d, HNSCBQOFF, симв8ИзКода(d.in))
	иначе
		SeqPause(d);
		d.Put1(d, KERNELQINPOS, симв8ИзКода(d.in));
		SeqUnpause(d)
	всё;
	d.Synchronize(c.target, Terminated, Terminated);	(* don't free: let bus.Submit copy results *)
	(*IF traceDog IN trace THEN dog.stop := TRUE END;*)	(*kill watchdog*)
	если traceCmds в trace то
		BusNameMsg(d, "schedule ["); ЛогЯдра.пЦел64(index, 0); ЛогЯдра.пСтроку8("] result = ");
		ЛогЯдра.пЦел64(d.status[index], 0); ЛогЯдра.пСимв8("/"); ЛогЯдра.пЦел64(d.result[index], 0);
		ЛогЯдра.пВК_ПС
	всё;
кон BusSchedule;

(* Reset Bus *)

проц BusReset(d: Bus);
(* if bus reset is called during bus operations, then the timer must be made local to the bus to avoid race conditions *)
перем  mode1, seq: мнвоНаБитахМЗ;
нач
	BusNameMsg(d, "BusR");
	mode1 := НИЗКОУР.подмениТипЗначения(мнвоНаБитахМЗ, d.Get1(d, SIMODE1));

	d.Put1(d, SIMODE1, НИЗКОУР.подмениТипЗначения(симв8, mode1 - {ENSCSIRST}));
	d.Put1(d, SCSISEQ, НИЗКОУР.подмениТипЗначения(симв8, {SCSIRSTO}));		(*d.Put1(d, SCSISEQ, d.Get1(d, SCSISEQ) + {SCSIRSTO});*)
	ЛогЯдра.пСимв8("e");
	нцДо
		timer.Sleep(5);
		seq :=НИЗКОУР.подмениТипЗначения(мнвоНаБитахМЗ,  d.Get1(d, SCSISEQ))
	кцПри (SCSIRSTO в seq);
	ЛогЯдра.пСимв8("s");
	timer.Sleep(10);
	d.Put1(d, SCSISEQ, 0X);
	timer.Sleep(5);
	ЛогЯдра.пСимв8("e");
	IntClear(d);
	d.Put1(d, SIMODE1, НИЗКОУР.подмениТипЗначения(симв8, mode1 + {ENSCSIRST}));
	ЛогЯдра.пСимв8("t"); ЛогЯдра.пВК_ПС
кон BusReset;

проц BusChipReset(d: Bus);
перем  t: Kernel.MilliTimer;
нач
	если {traceCalls, traceReset} * trace # {} то  BusNameMsg(d, "ResetChip"); ЛогЯдра.пВК_ПС  всё;
	d.Put1(d, HCNTRL, НИЗКОУР.подмениТипЗначения(симв8, {PAUSE, CHIPRST}));
	Kernel.SetTimer(t, 1000);	(*1 sec*)
	нцДо
	кцПри (CHIPRST в НИЗКОУР.подмениТипЗначения(мнвоНаБитахМЗ, d.Get1(d, HCNTRL))) или Kernel.Expired(t);
	SeqPause(d);	(*pause & clear rst bit*)
кон BusChipReset;

проц BusDetectWidth(d: Bus);
перем s: мнвоНаБитахМЗ;
нач
	s := НИЗКОУР.подмениТипЗначения(мнвоНаБитахМЗ, d.Get1(d, SBLKCTL));
	s := s * {SELWIDE, SELBUSB};
	d.wide := ложь;  d.width := 8;	(*default values*)
	если s = {SELWIDE} то
		BusNameMsg(d, "bus is wide"); ЛогЯдра.пВК_ПС;
		включиВоМнвоНаБитах(d.features, FeatWide);
		d.wide := истина;  d.width := 16
	аесли s = {SELBUSB} то
		BusNameMsg(d, "multichannel card"); ЛогЯдра.пВК_ПС;
		если ~(FlagMultiChannel в d.flags) то
			BusNameMsg(d, "WARNING: this card is not declared as multichannel"); ЛогЯдра.пВК_ПС
		всё;
		включиВоМнвоНаБитах(d.features, FeatTwin);
		включиВоМнвоНаБитах(d.flags, FlagMultiChannel)
	аесли s # {} то
		BusNameMsg(d, "PANIC: this card is both wide and multichannel"); ЛогЯдра.пВК_ПС;
		СТОП(99)
	всё
кон BusDetectWidth;

проц BusConfigureChannels(d: Bus);	(*special setups for multichannel boards*)
перем  chip: цел8; set: мнвоНаБитахМЗ;
нач
	chip := d.chip;
	если  FlagMultiChannel в d.flags то
		если chip в {AIC7870, AIC7880} то
			если d.slotNo = 5 то  включиВоМнвоНаБитах(d.flags, FlagChnlB)			(*3940, 3940Ultra*)
			аесли d.slotNo = 8 то включиВоМнвоНаБитах(d.flags, FlagChnlB)			(*3985, 3985Ultra*)
			аесли d.slotNo = 12 то включиВоМнвоНаБитах(d.flags, FlagChnlC)			(*3985, 3985Ultra*)
			всё
		аесли chip в {AIC7895, AIC7896} то
			если d.devNo # 0 то  включиВоМнвоНаБитах(d.flags, FlagChnlB) всё;
		всё;
	всё;
	(*set of DEVCONFIG.SCBSIZE32 for 7895 done in InitPCIBus*)

	set := НИЗКОУР.подмениТипЗначения(мнвоНаБитахМЗ, d.Get1(d, DSCOMMAND0));
	если chip в {AIC7890, AIC7896} то
		d.Put1(d, SCAMCTL, 0X);
		set := set + {CACHETHEN, MPARCKEN, USCBSIZE32, CIOPARCKEN} - {DPARCKEN}
	аесли chip в {AIC7850, AIC7860} то
		set := set + {CACHETHEN, MPARCKEN}- {DPARCKEN}
	всё;
	d.Put1(d, DSCOMMAND0, НИЗКОУР.подмениТипЗначения(симв8, set))
кон BusConfigureChannels;

проц BusConfigure(d: Bus);
перем i: цел32;
нач
	(* Init Speed/Width/Scratch RAM *)
	d.scsiId := 7;	(* host card id = 7 *)
	i := d.width;
	если ~(traceNoHandling в trace) то
		если d.wide то
			d.negotiateWidth := мнвоНаБитахМЗ({0 .. d.width-1});
		всё;
		d.negotiateSync := мнвоНаБитахМЗ({0 .. d.width-1});
	всё;
	нцПока i > 0 делай
		умень(i);
		d.Put1(d, TARGSCSIRATE+i, 0X);	(* dev[i] = async / 8-bit wide*)
		если FeatUltra2 в d.features то
			d.Put1(d, TARGOFFSET+i, 0X);	(* dev[i] = no offset *)
		всё
	кц;
	d.Put1(d, ULTRAENB, 0X);		(* no ultra *)
	d.Put1(d, ULTRAENB+1, 0X);
	d.Put1(d, DISCDSB, 0X);		(* no disconnect *)
	d.Put1(d, DISCDSB+1, 0X);
	d.Put1(d, SCSICONF, НИЗКОУР.подмениТипЗначения(симв8, {ENSPCHK, RESETSCSI}));
	d.Put1(d, SCSICONF+1, симв8ИзКода(d.scsiId))
кон BusConfigure;

проц BusInit(d: Bus);
перем  sblkctr: мнвоНаБитахМЗ;

	проц InitChannel;
	нач
		если FeatUltra2 в d.flags то
			d.Put1(d, SCSIIDULTRA2, симв8ИзКода(d.scsiId))
		иначе
			d.Put1(d, SCSIID, симв8ИзКода(d.scsiId))
		всё;
		d.Put1(d, SXFRCTL0, НИЗКОУР.подмениТипЗначения(симв8, {DFON, SPIOEN}));
		d.Put1(d, SXFRCTL1, НИЗКОУР.подмениТипЗначения(симв8, {ENSPCHK, ENSTIMER, ACTNEGEN, STPWEN}));
		d.Put1(d, SIMODE0, 0X);
		d.Put1(d, SIMODE1, НИЗКОУР.подмениТипЗначения(симв8,{ENSELTIMO, ENSCSIRST, ENSCSIPERR}));
		d.Put1(d, SCSIRATE, 0X);
	кон InitChannel;

нач
	если d.chip = AIC7770 то  d.Put1(d, BCTL, НИЗКОУР.подмениТипЗначения(симв8, {ENABLE}))  всё;
	sblkctr := НИЗКОУР.подмениТипЗначения(мнвоНаБитахМЗ, d.Get1(d, SBLKCTL));
	sblkctr := sblkctr - {AUTOFLUSHDIS, DIAGLEDEN};
	d.Put1(d, SBLKCTL, НИЗКОУР.подмениТипЗначения(симв8, sblkctr));

	d.Put1(d, MSGOUT, SCSI.MsgNoop);
	d.Put1(d, LASTMSG, SCSI.MsgNoop);
	d.Put1(d, SEQFLAGS, 0X);

	d.Put1(d, TMODECMDADDR, 0X);
	d.Put1(d, TMODECMDADDR+1, 0X);
	d.Put1(d, TMODECMDADDR+2, 0X);
	d.Put1(d, TMODECMDADDR+3, 0X);
	d.Put1(d, TMODECMDADDRNEXT, 0X);

	если FeatTwin в d.features то
		d.Put1(d, SBLKCTL, НИЗКОУР.подмениТипЗначения(симв8, sblkctr+{SELBUSB}));
		InitChannel;
		BusReset(d);
		d.Put1(d, SBLKCTL, НИЗКОУР.подмениТипЗначения(симв8, sblkctr))
	всё;
	InitChannel;
	если FeatUltra2 в d.features то
		d.Put1(d, DFFTHRSH, НИЗКОУР.подмениТипЗначения(симв8, WRDFFTHRSH75 + RDDFFTHRSH75))
	иначе
		d.Put1(d, DSPCISTATUS, НИЗКОУР.подмениТипЗначения(симв8, DFTHRSH100))
	всё;
	BusReset(d);
	d.interruptable := истина;
кон BusInit;

(* Bus detection *)

проц Detect;
перем  dummy, idx, bus, dev, slot, signature, i: цел32; res: целМЗ; host: Bus;
нач
	если traceCalls в trace то ЛогЯдра.пСтроку8("Ada7: Detect"); ЛогЯдра.пВК_ПС  всё;
	если PCI.Done = PCI.PCIPresent(dummy, dummy, dummy) то
		idx := 0;
		нцПока PCI.Done = PCI.FindPCIClassCode(010000H (*scsi card*), idx, bus, dev, slot) делай
			res := PCI.ReadConfigDword(bus, dev, slot, PCI.DevReg, signature);	(*signature = VendID / DevID*)
			i := длинаМассива(card)-1;
			нцДо  умень(i)  кцПри  (i < 0) или (card[i].signature = signature);
			если i >= 0 то
				нов(host, i, bus, dev, slot);
				BusNameMsg(host, card[i].name); ЛогЯдра.пВК_ПС;
				PCIInit(host, bus, dev, slot);
				BusChipReset(host);
				BusDetectWidth(host);
				BusConfigureChannels(host);
				BusConfigure(host);
				HSInit(host);
				QInit(host);
				SeqLoad(host);
				BusInit(host);
				IntInstall(host);
				SeqUnpause(host);
				если ~(traceNoRegister в trace) то
					timer.Sleep(1000);		(*wait for the bus reset to complete*)
					SCSI.RegisterBus(host)
				всё
			всё;
			увел(idx)
		кц
	иначе
		ЛогЯдра.пСтроку8("Ada7: No PCI present"); ЛогЯдра.пВК_ПС
	всё;
кон Detect;

(* Module Termination Functions *)

проц Cleanup;
перем  d: Bus;  i: цел32;
нач
	если Modules.shutdown # Modules.None то  возврат  всё;
	нцДля i := 0 до 31 делай
		если interrupt[i] # НУЛЬ то
			d := interrupt[i].root;
			нцПока d # НУЛЬ делай
				SeqPause(d);
				SCSI.RemoveBus(d);
				ToDo("Ada7: free buffers");
				BusNameMsg(d, "Removed"); ЛогЯдра.пВК_ПС;
				d := d.next
			кц;
			interrupt[i].Cleanup
		всё
	кц;
	firstBus := НУЛЬ;
кон Cleanup;

проц Init;
конст
	ultraFlags = {FlagPageSCB, FlagNewEepromFMT, FlagBiosEnabled};
	ultra2Features = {FeatMoreSRAM, FeatUltra2, FeatCmdChan, FeatQueueRegs, FeatSGPreload};

	проц Card(i: цел32; sig: цел64;  chip: цел8;  flags, features: мнвоНаБитахМЗ;  name: массив из симв8);
	нач
		card[i].signature := устарПреобразуйКБолееУзкомуЦел(sig);
		card[i].chip := chip;
		card[i].flags := flags;  card[i].features := features;
		копируйСтрокуДо0(name, card[i].name)
	кон Card;

	проц Table(i: цел32;  period: цел8;  rate, u2rate: симв8;  speed: цел32);
	нач
		rateTable[i].period := period;
		rateTable[i].rate := rate;
		rateTable[i].u2rate := u2rate;
		rateTable[i].speed := speed
	кон Table;

нач
	если traceAIC7890 в trace то
		Card(15, 001F9005H, AIC7890, ultraFlags, ultra2Features, "Adaptec AIC-7890/1 Ultra2");
	аесли traceAIC7880 в trace то
		Card(9, 80789004H, AIC7880, {FlagPageSCB, FlagBiosEnabled}, {FeatUltra}, "Adaptec AIC-7880 Ultra");
	аесли traceAHA2940 в trace то
		Card(10, 81789004H, AIC7880, {FlagPageSCB, FlagBiosEnabled}, {FeatUltra}, "Adaptec AHA-294X Ultra");
	иначе
	Card(0, 50789004H, AIC7850, {}, {FeatSpioCap}, "Adaptec AIC-7850");
	Card(1, 55789004H, AIC7850, {FlagPageSCB}, {FeatSpioCap}, "Adaptec AIC-7855");
	Card(2, 60789004H, AIC7860, ultraFlags, {FeatUltra, FeatSpioCap}, "Adaptec AIC-7860 Ultra");
	Card(3, 61789004H, AIC7860, ultraFlags, {FeatUltra, FeatSpioCap}, "Adaptec AHA-2940A Ultra");
	Card(4, 70789004H, AIC7870, {FlagPageSCB, FlagBiosEnabled}, {}, "Adaptec AIC-7870");
	Card(5, 71789004H, AIC7870, {FlagPageSCB, FlagBiosEnabled}, {}, "Adaptec AHA-294X");
	Card(6, 72789004H, AIC7870, {FlagPageSCB, FlagBiosEnabled, FlagMultiChannel}, {}, "Adaptec AHA-394X");
	Card(7, 73789004H, AIC7870, {FlagPageSCB, FlagBiosEnabled, FlagMultiChannel}, {}, "Adaptec AHA-398X");
	Card(8, 74789004H, AIC7870, {FlagPageSCB, FlagBiosEnabled}, {}, "Adaptec AHA-2944");
	Card(9, 80789004H, AIC7880, {FlagPageSCB, FlagBiosEnabled}, {FeatUltra}, "Adaptec AIC-7880 Ultra");
	Card(10, 81789004H, AIC7880, {FlagPageSCB, FlagBiosEnabled}, {FeatUltra}, "Adaptec AHA-294X Ultra");
	Card(11, 82789004H, AIC7880, {FlagPageSCB, FlagBiosEnabled, FlagMultiChannel}, {FeatUltra}, "Adaptec AHA-394X Ultra");
	Card(12, 83789004H, AIC7880, {FlagPageSCB, FlagBiosEnabled, FlagMultiChannel}, {FeatUltra}, "Adaptec AHA-398X Ultra");
	Card(13, 84789004H, AIC7880, {FlagPageSCB, FlagBiosEnabled}, {FeatUltra},"Adaptec AHA-2944 Ultra");
	Card(14, 78959004H, AIC7895, ultraFlags + {FlagMultiChannel}, {FeatMoreSRAM, FeatUltra, FeatCmdChan}, "Adaptec AIC-7895 Ultra");
	Card(15, 001F9005H, AIC7890, ultraFlags, ultra2Features, "Adaptec AIC-7890/1 Ultra2");
	Card(16, 00109005H, AIC7890, ultraFlags, ultra2Features, "Adaptec AHA-294X Ultra2");
	Card(17, 005F9005H, AIC7896, ultraFlags + {FlagMultiChannel}, ultra2Features, "Adaptec AIC-7896/7 Ultra2");
	Card(18, 00509005H, AIC7896, ultraFlags + {FlagMultiChannel}, ultra2Features, "Adaptec AHA-394X Ultra2");
	всё;
	Table(0, 10, 0FFX, 13X, 400);
	Table(1, 11, 0FFX, 14X, 200);
	Table(2, 12, 0X, 15X, 200);
	Table(3, 15, 10X, 16X, 160);
	Table(4, 18, 20X, 17X, 133);
	Table(5, 25, 00X, 18X, 100);
	Table(6, 31, 10X, 19X, 80);
	Table(7, 37, 20X, 1AX, 67);
	Table(8, 43, 30X, 1BX, 57);
	Table(9, 50, 40X, 1CX, 50);
	Table(10, 56, 50X, 0FFX, 44);
	Table(11, 62, 60X, 0FFX, 40);
	Table(12, 68, 70X, 0FFX, 36);
	Modules.InstallTermHandler(Cleanup)
кон Init;

(*
PROCEDURE WriteBusState(d: Bus);
BEGIN
	BusName(d);
	Reg(d, ERROR, "ERROR = ");
	Reg(d, INTSTAT, " INTSTAT = ");
	Reg(d, HCNTRL, " HCNTRL = ");
(*
	SeqPause(d);
	Reg(d, SIMODE0, " SIMODE0 = ");
	Reg(d, SIMODE1, " SIMODE1 = ");
	SeqUnpause(d);
*)
	KernelLog.Ln;
END WriteBusState;

PROCEDURE WriteScsiState(d: Bus);
BEGIN
	SeqPause(d);
	BusNameMsg(d, "Scsi State");
	Reg(d, SSTAT0, " S0=");
	Reg(d, SSTAT1, " S1=");
	Reg(d, SSTAT2, " S2=");
	Reg(d, SIMODE0, " M0=");
	Reg(d, SIMODE1, " M1=");
	KernelLog.Ln;
	SeqUnpause(d);
END WriteScsiState;

PROCEDURE WriteBusConfig(d: Bus);
VAR i: SIGNED32;  name: ARRAY 8 OF CHAR; Hex: ARRAY 17 OF CHAR;
BEGIN
	Hex := "0123456789ABCDEF";
	BusNameMsg(d, d.name); KernelLog.Ln;
	Reg(d, ULTRAENB, "Ultra0=");  Reg(d, ULTRAENB+1, " Ultra1=");
	Reg(d, DISCDSB, " Disc0=");  Reg(d, DISCDSB+1, " Disc1=");
	Reg(d, SCSICONF, " Conf0=");  Reg(d, SCSICONF+1, " Conf1="); KernelLog.Ln;
	name := " rateX=";
	FOR i := 0 TO d.width-1 DO
		name[5] := Hex[i];
		Reg(d, TARGSCSIRATE+i, name);
		IF FeatUltra2 IN d.features THEN  Reg(d, TARGOFFSET+i, "/")  END;
		IF i MOD 4 = 3 THEN KernelLog.Ln END
	END;
END WriteBusConfig;

PROCEDURE WriteBusConfig2(d: Bus);
VAR i: SIGNED32;  name: ARRAY 8 OF CHAR; Hex: ARRAY 17 OF CHAR;

	PROCEDURE Bit(d: Bus;  base, bit: SIGNED32;  msg: ARRAY OF CHAR);
	VAR  set: SET;
	BEGIN
		set := SYSTEM.VAL(SET, d.Get1(d, base + bit DIV 8));
		IF (bit MOD 8) IN set THEN  KernelLog.String(msg)  END
	END Bit;

BEGIN
	Hex := "0123456789ABCDEF";
	BusNameMsg(d, d.name); KernelLog.Ln;
	FOR i := 0 TO d.width-1 DO
		KernelLog.String("Device"); KernelLog.Char(Hex[i]);
		Reg(d, TARGSCSIRATE+i, " rate = ");
		IF FeatUltra2 IN d.features THEN  Reg(d, TARGOFFSET+i, "/")  END;
		Bit(d, ULTRAENB, i, " ultra");  Bit(d, DISCDSB, i, " disc");
		KernelLog.Ln
	END;
END WriteBusConfig2;

PROCEDURE WriteConfig*;
BEGIN
	WriteBusConfig(firstBus);
	WriteBusConfig2(firstBus);
END WriteConfig;

PROCEDURE WriteLists*;
VAR  d: Bus;
BEGIN
	d := firstBus;
	SeqPause(d);
	DumpAllLists(d);
	SeqUnpause(d)
END WriteLists;

PROCEDURE FullDump*;
VAR d: Bus;
BEGIN
	d := firstBus;
	BusNameMsg(d, "Full Dump!"); KernelLog.Ln;
	KernelLog.Memory(d.base, 100H); KernelLog.Ln
END FullDump;

PROCEDURE BusState*;
BEGIN	WriteBusState(firstBus);
END BusState;

PROCEDURE ScsiState*;
BEGIN	WriteScsiState(firstBus)
END ScsiState;

PROCEDURE Test*;
VAR  d: Bus;  res: INTEGER;
BEGIN
	d := firstBus;
	KernelLog.String("Adaptec7.Test"); KernelLog.Int(aCount, 0); KernelLog.Ln;
	INC(aCount);
	SCSI.DoTestUnitReady(d, 0, 0, res);
	KernelLog.String("res = "); KernelLog.Int(res, 0); KernelLog.Ln
END Test;

PROCEDURE Scan*;
VAR  d: Bus;  res: INTEGER;  i: SIGNED8;  inq: SCSI.InquiryData;
BEGIN
	d := firstBus;
	KernelLog.String("Adaptec7.Scan"); KernelLog.Int(aCount, 0); KernelLog.Ln;
	SCSI.DoInquiry(d, SHORT(SHORT(aCount MOD 8)), 0, inq, res);
	INC(aCount);
END Scan;

PROCEDURE Stress*;
VAR  d: Bus;  i, key, code, res: SIGNED32;  data: ARRAY 64*1024 OF CHAR;
	dev: Disks.DeviceTable;
BEGIN
	d := firstBus;
	Disks.GetRegistered(dev);
	i := 0;
	WHILE (i < LEN(dev)) & (dev[i].name # "SCSI0.2") DO  INC(i)  END;
	KernelLog.String("Adaptec7.Stress /  No Data"); KernelLog.Ln;
	FOR i := 0 TO 1000 DO
		SCSI.DoTestUnitReady(d, SHORT(SHORT(i MOD 8)), 0, res)
	END;
	KernelLog.String("Adaptec7.Stress /   Small Data"); KernelLog.Ln;
	FOR i := 0 TO 1000 DO
		SCSI.DoSense(d, SHORT(SHORT(i MOD 8)), 0, key, code, res)
	END;
	KernelLog.String("Adaptec7.Stress /   Medium Data"); KernelLog.Ln;
	FOR i := 0 TO 1000 DO
		dev[i].Transfer(Disks.Read, i*5, 1, data, 0, res)
	END;
	KernelLog.String("Adaptec7.Stress /   Big Data"); KernelLog.Ln;
	FOR i := 0 TO 1000 DO
		dev[i].Transfer(Disks.Read, i*5, 16, data, 0, res)
	END;
	KernelLog.String("Adaptec7.Stress /   Done"); KernelLog.Ln;
END Stress;

PROCEDURE Speed*;
VAR  dev: Disks.DeviceTable;  c, i, run, elap, size, res: SIGNED32;  data: ARRAY 64*1024 OF CHAR;
	t: Kernel.MilliTimer;
BEGIN
	Disks.GetRegistered(dev);
	i := 0;
	WHILE (i < LEN(dev)) & (dev[i].name # "SCSI0.2") DO  INC(i)  END;

	dev[i].GetSize(size, res);
	KernelLog.String("Size is = "); KernelLog.Int(size, 0); KernelLog.Ln;

	FOR run := 0 TO 7 DO
		size := ASH(1, run);
		Kernel.SetTimer(t, 0);
		FOR c := 0 TO 2047 DO
			dev[i].Transfer(Disks.Read, ASH(c, run), size, data, 0, res)
		END;
		elap := Kernel.Elapsed(t);
		KernelLog.String("blkSize = "); KernelLog.Int(512*size, 0);
		KernelLog.String("  elapsed = "); KernelLog.Int(elap, 0);
		KernelLog.String(" rate (KB/s) = "); KernelLog.Int(1000*1024*size DIV elap, 0);
		KernelLog.Ln;
	END
END Speed;

PROCEDURE Register*;
BEGIN
	SCSI.RegisterBus(firstBus)
END Register;
*)
проц KillAll*;		(*last resort when a command dies... *)
перем  i, j: цел32;  d: Bus;
нач
	нцДля i := 0 до 31 делай
		если interrupt[i] # НУЛЬ то
			d := interrupt[i].root;
			нцПока d # НУЛЬ делай
				нцДля j := 0 до d.width-1 делай
					d.Synchronize(j, d.sync[j], Terminated)
				кц;
				d := d.next
			кц
		всё
	кц
кон KillAll;

проц Install*;
кон Install;

нач
	ЛогЯдра.пСтроку8("Adaptec7 - 0.41 / prk"); ЛогЯдра.пВК_ПС;
	нов(timer);
	Init;
	Detect;
кон Adaptec7.

System.Free Adaptec7 ~		System.Free SCSI ~
System.State Adaptec7 ~

	Adaptec7.Cleanup

	Adaptec7.Detect

	Adaptec7.FullDump
	Adaptec7.WriteConfig
	Adaptec7.BusState			Adaptec7.ScsiState
	Adaptec7.WriteLists
	Adaptec7.Test
	Adaptec7.Speed
	Adaptec7.Scan
	Adaptec7.Register


	!OFSTools.Mount TEST AosFS SCSI0.2#2,R ~
	OFSTools.Mount USER AosFS SCSI0.0#6,R ~
	OFSTools.Unmount ^ ~
	OFSTools.Watch
	System.Directory USER:* ~

(*
	15.10.01	0.41	prk	wrong constant offset for DFF_THRSH discovered and corrected
	26.03.01	0.4	prk	adapted for the new Machine. Queue and SCB Buffers now anchored in Bus structure
	20.02.01	0.3	prk	own Timer removed, use Kernel.Timer instead, Watchdog commented out


	Failures:
	200:	Invalid Target
	201:	Data Size > 64KB
	202:	TranslateVirtual, num = 0 for the cmd buffer
	203:	TranslateVirtual, num invalid for the range buffer
	204:	TranslateVirtual, num = 0 for the data buffer

	Todos:
	300:	Command spans page boundary		[obsolete]
*)

(*
ToDo:
2 Disconnection
2 Ultra handling in SetSync
3 use CHAR consts instead of Bits/SETs -> use memory IO always (port IO is not needed)
4 BusCleanup: free buffers
*)
