(* Version 0.94 *)

(* AUTHOR: Christian Heinzer, heinzerc@student.ethz.ch *)
(* Based on FreeBSDs dev/sound/pci/es137x.c *)
(* The exported procedures implement those of the generic sound driver interface SoundDevices.Mod *)

модуль EnsoniqSound;	(** AUTHOR "chh"; PURPOSE "Ensoniq PCI Sounddriver"; *)

использует НИЗКОУР, ЛогЯдра, PCI, Objects, Kernel, ЭВМ, Modules, Plugins, SoundDevices;

конст
	Trace = ложь; (* debug output kernel log *)
	Bsize = 25600 * 3; (* size of intern soundbuffer, better > 25600*)

	(* Ensoniq registers and content *)
	Es1370RegControl = 0;
	Es1370RegStatus = 4H;
	Es1370RegSerialControl = 20H;
	Es1370RegMemPage = 0CH;
	Es1371RegCodec = 14H;
	Es1371RegLegacy = 18H;
	Es1371RegSmprate = 10H;

	Es1370RegDac1Scount = 24H;
	Es1370RegDac2Scount = 28H;
	Es1370RegAdcScount = 2CH;

	Es1371SyncRes = 4000H;
	Es1371DisSrc = 400000H;
	Es1371SrcRamBusy = 800000H;	(*Bit 23 *)

	EsSmpregDac1 = 70H;
	EsSmpregDac2 = 74H;
	EsSmpregAdc = 78H;
	EsSmpregVolAdc = 6CH;
	EsSmpregVolDac1 = 7CH;
	EsSmpregVolDac2 = 7EH;

	NumMixerChannels = 5; (* maximal number of mixerchannels *)

тип
	Sample = массив 4 из симв8; (* one sample: stereo 16 Bit *)

	Bufferlist = запись
		content : SoundDevices.Buffer;
		next : укль на Bufferlist
	кон;

	Listenerlist = запись
		proc : SoundDevices.MixerChangedProc;
		next : укль на Listenerlist
	кон;

	BuffersToReturn = запись (* temporary saves the buffers and their listeners that aren't needed any more *)
		blistener : SoundDevices.BufferListener;
		content : SoundDevices.Buffer;
		next : укль на BuffersToReturn
	кон;

	(* make sure that playcopy is not in progress *)
	(* make sure QueueBuffer and ReturnAllBuffers can not run parallel *)
	BufferObj* = окласс
	перем inplaycopy : булево;
		drv : Driver;

		проц Setinplaycopy(pc: булево);
		нач {единолично}
			inplaycopy := pc
		кон Setinplaycopy;

		проц ReturnAllBuffers(chan: Channel);
		нач {единолично}
			дождись(inplaycopy=ложь); (*AWAIT(~playcopy);*)
			chan.ReturnAllBuffers
		кон ReturnAllBuffers;
	кон BufferObj;

	MixerChannel*=окласс(SoundDevices.MixerChannel)
	перем vol : цел32;
		muted : булево;
		name, desc : укль на массив из симв8;
		reg : цел32; (* register of mixerchannel *)
		drv : Driver;

		проц &Constr*(drv: Driver; name, desc : массив из симв8; reg : цел32);
		перем i : размерМЗ;
		нач
			сам.drv := drv;
			нов(сам.name, длинаМассива(name));
			нцДля i := 0 до длинаМассива(name)-1 делай
				сам.name^[i] := name[i]
			кц;
			нов(сам.desc, длинаМассива(desc));
			нцДля i := 0 до длинаМассива(desc)-1 делай
				сам.desc^[i] := desc[i]
			кц;
			сам.reg := reg;
			i := 0;
			нцПока (i < NumMixerChannels-1) и (сам.drv.mixerChannels[i] # НУЛЬ) делай
				увел(i)
			кц;
			сам.drv.mixerChannels[i] := сам
		кон Constr;

		проц {перекрыта}SetVolume*(vol : цел32);
		перем resl : цел32;
		нач
			если vol > 0FFH то сам.vol := 0FFH всё;
			если vol < 0 то сам.vol := 0 всё;
			сам.vol := vol;
			resl := 31-сам.vol DIV 8;
			resl := resl+256*resl;
			drv.EsWrCd(reg, НИЗКОУР.подмениТипЗначения(цел16, resl));
			CallListener
		кон SetVolume;

		проц {перекрыта}GetVolume*() : цел32;
		нач
			возврат(vol)
		кон GetVolume;

		проц {перекрыта}GetIsMute*(): булево;
		нач
			возврат muted
		кон GetIsMute;

		проц CallListener;
		перем nl : укль на Listenerlist;
		нач
			если drv.listenerlist # НУЛЬ то
				nl := drv.listenerlist;
				нцПока nl.next # НУЛЬ делай
					если nl.proc # НУЛЬ то
						nl.proc(сам)
					всё;
					nl := nl.next
				кц;
				если nl.proc # НУЛЬ то
					nl.proc(сам)
				всё
			всё
		кон CallListener;

		проц {перекрыта}GetName*(перем name: массив из симв8);
		нач
			копируйСтрокуДо0(сам.name^, name)
		кон GetName;

		проц {перекрыта}GetDesc*(перем desc: массив из симв8);
		нач
			копируйСтрокуДо0 (сам.desc^, desc)
		кон GetDesc;

		проц {перекрыта}SetMute*(muted: булево);
		нач
			если сам.muted # muted то (* change mute state *)
				если muted то
					drv.EsWrCd(reg, НИЗКОУР.подмениТипЗначения(цел16, 8000H))
				иначе
					SetVolume(vol)
				всё;
				сам.muted := muted;
				CallListener
			всё
		кон SetMute;
	кон MixerChannel;

	PlayMixerChannel=окласс(MixerChannel)
		проц {перекрыта}SetVolume*(vol: цел32);
		перем resl : цел32;
		нач
			если vol > 0FFH то vol := 0FFH всё;
			если vol < 0 то vol := 0 всё;
			сам.vol := vol;
			resl := 63-vol DIV 4;
			resl := resl+256*resl;
			drv.EsWrCd(reg, НИЗКОУР.подмениТипЗначения(цел16, resl)); (* Master Out *)
			CallListener
		кон SetVolume;
	кон PlayMixerChannel;

	RecMixerChannel=окласс(MixerChannel)
		проц {перекрыта}SetVolume*(vol: цел32);
		перем resl : цел32;
		нач
			если vol > 0FFH то vol := 0FFH всё;
			если vol < 0 то vol := 0 всё;
			сам.vol := vol;
			resl := vol DIV 16;
			resl := resl+256*resl;
			drv.EsWrCd(reg, НИЗКОУР.подмениТипЗначения(цел16, resl)); (* Record Gain *)
			CallListener
		кон SetVolume;
	кон RecMixerChannel;

	Channel*=окласс(SoundDevices.Channel)
	перем active, free: булево;
		first, last: укль на Bufferlist; (* fast access to buffers *)
		blistener : SoundDevices.BufferListener;
		vol : цел16;
		ratedone : цел32; (* for sample rate conversion *)

		pos : цел32; (* actual position in buffer *)
		samplingRate, samplingResolution, nofSubChannels: цел32;
		delta: цел32; (* number of bytes for one sample *)
		drv : Driver;
		pause, stop, start : булево;
		silent, rsilent : булево; (* is a  channel playing/recording? *)

		проц ReturnAllBuffers;
		перем driver : укль на Bufferlist;
		нач
			driver := first;
			нцПока driver#НУЛЬ делай
				drv.AddBufferToReturn(blistener, driver.content); (* triggers blistener(driver.content); *)
				driver := driver.next
			кц;
			first := НУЛЬ; last := НУЛЬ
		кон ReturnAllBuffers;

		проц &Init*(drv : Driver);
		нач
			сам.drv := drv;
			pause := ложь; stop := ложь; start := ложь
		кон Init;

		проц {перекрыта}SetVolume*(vol: цел32);
		(* standard : 100H *)
		нач
			если vol > 0FFFFH то vol := 0FFFFH; всё;
			если vol < 0 то vol := 0; всё;
			сам.vol := устарПреобразуйКБолееУзкомуЦел(vol)
		кон SetVolume;

		проц {перекрыта}GetVolume*() : цел32;
		нач
			возврат vol
		кон GetVolume;

		проц {перекрыта}GetPosition() : цел32;
		нач
			возврат pos
		кон GetPosition;

		проц {перекрыта}Pause*; (* generic pause, used by recordchannel *)
		нач {единолично}
			active := ложь
		кон Pause;

		проц PauseNonExclusive;
		нач
			active := ложь
		кон PauseNonExclusive;

		проц {перекрыта}Close*;
		нач
			Stop;
			free := истина
		кон Close;

		проц {перекрыта}RegisterBufferListener*(blistener: SoundDevices.BufferListener);
		нач
			сам.blistener := blistener
		кон RegisterBufferListener;
	кон Channel;

	PlayerChannel=окласс(Channel)
	перем sample, oldsample : Sample; (*both needed for linear interpolation*)

		проц {перекрыта}Pause*;
		нач {единолично}
			pause := истина (* triggers drv.introbj.Deactivate(SELF) *)
		кон Pause;

		проц {перекрыта}PauseNonExclusive;
		нач
			drv.introbj.Deactivate(сам)
		кон PauseNonExclusive;

		проц {перекрыта}Stop*;
		нач {единолично}
			stop := истина
		кон Stop;

		проц {перекрыта}QueueBuffer*(buf: SoundDevices.Buffer);
		перем bufferlist: укль на Bufferlist;
		нач {единолично}
			если last # НУЛЬ то
				нов(bufferlist);
				last.next := bufferlist;
				bufferlist.next := НУЛЬ;
				bufferlist.content := buf;
				last := bufferlist
			иначе
				нов(bufferlist);
				last := bufferlist;
				last.next := НУЛЬ;
				bufferlist.content := buf;
				(*I'm too lazy to read in here the very first sample*)
				sample[0] := симв8ИзКода(0); sample[1] := симв8ИзКода(0);
				sample[2] := симв8ИзКода(0); sample[3] := симв8ИзКода(0);
				(*Take the second sample next for linear interpolation*)
				ratedone := 48000-samplingRate;
				pos := 0
			всё;
			если first = НУЛЬ то first := bufferlist всё
		кон QueueBuffer;

		(* Advance by one Buffer *)
		проц NextBuffer;
		нач {единолично}
			если first # НУЛЬ то
				если first.next # НУЛЬ то
					first := first.next
				иначе
					silent := истина; active := ложь;
					умень(drv.introbj.numplayer);
					first := НУЛЬ
				всё
			всё
		кон NextBuffer;

		проц {перекрыта}Start*;
		нач {единолично}
				start := истина
		кон Start;

		проц AwaitEvent;
		нач {единолично}
			дождись(pause или start или stop)
		кон AwaitEvent;

	нач {активное}
		нцДо
			AwaitEvent;
			если pause то
				drv.introbj.Deactivate(сам); pause := ложь
			всё;

			если stop то
				drv.introbj.Deactivate(сам);
				drv.bufferobj.ReturnAllBuffers(сам);
				stop := ложь
			всё;

			если start то
				если (first#НУЛЬ) то (* at least one buffer is registered *)
					drv.introbj.Activate(сам)
				всё;
				start := ложь
			всё
		кцПри 1=2
	кон PlayerChannel;

	RecordChannel=окласс(Channel)

		проц {перекрыта}Stop*;
		нач {единолично}
			PauseNonExclusive;
			drv.introbj.WaitNoRec;(*AWAIT(~reccopy);*)
			drv.bufferobj.ReturnAllBuffers(сам)
		кон Stop;

		проц {перекрыта}QueueBuffer*(buf: SoundDevices.Buffer);
		перем bufferlist: укль на Bufferlist;
		нач
			если last # НУЛЬ то
				нов(bufferlist);
				last.next := bufferlist;
				bufferlist.next := НУЛЬ;
				bufferlist.content := buf;
				last := bufferlist
			иначе
				нов(bufferlist);
				last := bufferlist;
				last.next := НУЛЬ;
				bufferlist.content := buf;
				ratedone := 0;
				pos := 0
			всё;
			если first = НУЛЬ то first := bufferlist всё
		кон QueueBuffer;

		(* Advances by one Buffer *)
		проц NextBuffer;
		нач {единолично}
			если first.next # НУЛЬ то
				first := first.next
			иначе
				rsilent := истина; active := ложь;
				first := НУЛЬ
			всё
		кон NextBuffer;

		проц {перекрыта}Start;
		нач {единолично}
			если first#НУЛЬ то (* at least one buffer registered *)
				active := истина;

				если ~ (4 в НИЗКОУР.подмениТипЗначения(мнвоНаБитахМЗ, drv.EsState.rctrl)) то
					если Trace то ЛогЯдра.пСтроку8("Enabling ADC Interrupt"); всё;
					drv.rloopcount := 0;
					ЭВМ.пПорт8(drv.base+Es1370RegMemPage, 0DX); (*1101*)
					ЭВМ.пПорт32(drv.base+34H, НИЗКОУР.подмениТипЗначения(цел32, Bsize DIV 4-1));
					(*additionally resets the counter of transfered longwords to 0*)

					drv.EsState.rctrl := НИЗКОУР.подмениТипЗначения(цел32, {4}+НИЗКОУР.подмениТипЗначения(мнвоНаБитахМЗ, drv.EsState.rctrl));
					ЭВМ.пПорт32(drv.base+Es1370RegControl, drv.EsState.rctrl) (*AdcEn*)
				всё
			всё
		кон Start;
	кон RecordChannel;

	Driver*=окласс(SoundDevices.Driver)
	перем playchannels : массив 32 из PlayerChannel; (* 32 channels are supported *)
			recordchannels : массив 32 из RecordChannel;
			pcm, line, cd : MixerChannel;
			time: Kernel.Timer; (* used in init *)
			base, irq : цел32; (* base address, interrupt nr of soundcard *)

			EsState : запись (* actual state of the soundcard *)
				sctrl : цел32; (* serial control register *)
				rctrl : цел32; (* irq / chip select block *)
			кон;
			p2, pr2 : укль на массив из симв8; (* points to intern soundbuffer for play/record *)
			loopcount, rloopcount : цел32; (* determines if first or second bufferpart is playing *)
			next: Driver;
			introbj : Introbj; (* interrupt handler *)
			masterout : PlayMixerChannel;
			masterin : RecMixerChannel;
			allsilent, rallsilent : булево; (* is at least one channel playing/recording? *)
			playcopy, reccopy : булево; (* interrupt occured, copy data *)
			listenerlist : укль на Listenerlist; (* list of MixerChangedProc *)
			mixerChannels : массив NumMixerChannels из MixerChannel;

			buffersToReturn, lastbtr : укль на BuffersToReturn;
			bufferobj : BufferObj;


		(** Change the Record Source*)
		(** 0: Microphone, 1: CD IN, 4: LINE IN, 5: STEREO MIX (DEFAULT) *)
		проц SetRecordSource*(i: цел16);
		нач
			EsWrCd(1AH, НИЗКОУР.подмениТипЗначения(цел16, i+i*256))
		кон SetRecordSource;

		проц &Constructor*(irq, base: цел32);
		нач
			нов(bufferobj);
			buffersToReturn := НУЛЬ;
			lastbtr := НУЛЬ;
			сам.base := base;
			сам.irq := irq;
			сам.next := installedDrivers;
			installedDrivers := сам;
			увел(installed);
			Init
		кон Constructor;

		(* add a buffer and it's listener to be returned *)
		(* mustn't be EXCLUSIVE because it could be blocked by ReturnBuffers *)
		проц AddBufferToReturn(blistener: SoundDevices.BufferListener; content: SoundDevices.Buffer);
		перем newbtr : укль на BuffersToReturn;
		нач {единолично}
			нов(newbtr);
			newbtr.blistener := blistener;
			newbtr.content := content;
			newbtr.next := НУЛЬ;
			если buffersToReturn # НУЛЬ то lastbtr.next := newbtr; lastbtr := newbtr
			иначе buffersToReturn := newbtr; lastbtr := buffersToReturn всё
		кон AddBufferToReturn;

		(* return all collected buffers now *)
		проц ReturnBuffers;
		нач {единолично}
			нцПока buffersToReturn # НУЛЬ делай
				buffersToReturn.blistener(buffersToReturn.content);
				buffersToReturn := buffersToReturn.next
			кц
		кон ReturnBuffers;

		проц WaitBuffersToReturn;
		нач {единолично}
			дождись(buffersToReturn # НУЛЬ)
		кон WaitBuffersToReturn;

		(* wait until sample rate converter is ready to accept commands/data *)
		проц EsWaitSrcReady() : цел32;
		перем t, r : цел32;
		нач
			нцДля t := 0 до 500 делай
				ЭВМ.чПорт32(base+Es1371RegSmprate, НИЗКОУР.подмениТипЗначения(цел32, r));
				если ~(23 в НИЗКОУР.подмениТипЗначения(мнвоНаБитахМЗ, r)) то
					возврат r
				всё
			кц;
			ЛогЯдра.пСтроку8("es1371: wait src ready timeout");
			возврат 0
		кон EsWaitSrcReady;

		(* set the address part of the value for the sample rate converter *)
		проц EsSrcRamAddro(reg: цел32): мнвоНаБитахМЗ;
		перем s, s2 : мнвоНаБитахМЗ;
			i : цел32;
		нач
			s := НИЗКОУР.подмениТипЗначения(мнвоНаБитахМЗ, reg);
			s := s*{0..6};
			s2 := {};
			нцДля i := 0 до 6 делай
				если i в s то s2 := s2+мнвоНаБитахМЗ({i+25}) всё
			кц;
			возврат s2
		кон EsSrcRamAddro;

		(* set the data part of the value for the src *)
		проц EsSrcRamDatao(reg: цел32): мнвоНаБитахМЗ;
		перем s : мнвоНаБитахМЗ;
		нач
			s := НИЗКОУР.подмениТипЗначения(мнвоНаБитахМЗ, reg);
			s := s*{0..15};
			возврат s
		кон EsSrcRamDatao;

		(* write to the sample rate converter *)
		проц EsSrcWrite(reg, data: цел32);
		перем r : цел32;
		перем s : мнвоНаБитахМЗ;
		нач
			r := EsWaitSrcReady();
			s := НИЗКОУР.подмениТипЗначения(мнвоНаБитахМЗ, r);
			s := s * {19..22};
			s := s + EsSrcRamAddro(reg)+EsSrcRamDatao(data);
			s := s + {24};
			r := НИЗКОУР.подмениТипЗначения(цел32, s);
			ЭВМ.пПорт32(base+Es1371RegSmprate, r)
		кон EsSrcWrite;

		(* read from sample rate converter *)
		проц EsSrcRead(reg: цел32) : цел32;
		перем r : цел32; s : мнвоНаБитахМЗ;
		нач
			r := EsWaitSrcReady();
			s := НИЗКОУР.подмениТипЗначения(мнвоНаБитахМЗ, r);
			s := s*{19..22};
			s := s + EsSrcRamAddro(reg);
			r := НИЗКОУР.подмениТипЗначения(цел32, r);
			ЭВМ.пПорт32(base+Es1371RegSmprate, r);
			r := EsWaitSrcReady();
			возврат НИЗКОУР.подмениТипЗначения(цел32, EsSrcRamDatao(r))
		кон EsSrcRead;

		(* set the adc sample rate *)
		проц EsAdcRate(rate, set: цел32);
		перем n, truncm, freq, result, tmp : цел32;
			stmp : мнвоНаБитахМЗ;
		нач
			если rate > 48000 то rate := 48000 всё;
			если rate < 4000 то rate := 4000 всё;
			n := rate DIV 3000;
			если ((n=15) или (n=13) или (n=11) или (n=9)) то умень(n) всё;
			truncm := (21*n-1);
			truncm := НИЗКОУР.подмениТипЗначения(цел32, НИЗКОУР.подмениТипЗначения(мнвоНаБитахМЗ, truncm)+{0});
			freq := ((48000*32768) DIV rate) * n;
			result := ((48000*32768) DIV (freq DIV n));
			если set>0 то
				если (rate >= 24000) то
					если (truncm > 239) то truncm := 239; всё;
					tmp := ((239-truncm) DIV 2) * 512;
					stmp := НИЗКОУР.подмениТипЗначения(мнвоНаБитахМЗ, tmp) + НИЗКОУР.подмениТипЗначения(мнвоНаБитахМЗ, n*16);
					tmp := НИЗКОУР.подмениТипЗначения(цел32, stmp);
					EsSrcWrite(EsSmpregAdc, tmp)
				иначе
					если (truncm < 119) то truncm := 119; всё;
					tmp := ((119-truncm) DIV 2) * 512;
					stmp := НИЗКОУР.подмениТипЗначения(мнвоНаБитахМЗ, tmp)+НИЗКОУР.подмениТипЗначения(мнвоНаБитахМЗ, n*16)+{15};
					tmp := НИЗКОУР.подмениТипЗначения(цел32, stmp);
					EsSrcWrite(EsSmpregAdc, tmp)
				всё;

				tmp := EsSrcRead(EsSmpregAdc+1);
				stmp := НИЗКОУР.подмениТипЗначения(мнвоНаБитахМЗ, tmp)*{0..7};
				stmp := stmp + (НИЗКОУР.подмениТипЗначения(мнвоНаБитахМЗ, freq DIV 32)*{10..15});
				EsSrcWrite(EsSmpregAdc+1, НИЗКОУР.подмениТипЗначения(цел32, stmp));

				EsSrcWrite(EsSmpregAdc+3, НИЗКОУР.подмениТипЗначения(цел32, НИЗКОУР.подмениТипЗначения(мнвоНаБитахМЗ, freq)*{0..14}));

				EsSrcWrite(EsSmpregVolAdc, НИЗКОУР.подмениТипЗначения(цел32, n * 256));
				EsSrcWrite(EsSmpregVolAdc+1, НИЗКОУР.подмениТипЗначения(цел32, n * 256))
			всё
		кон EsAdcRate;

		(* set the dac sample rate for dac number "set" *)
		проц EsDacRate(rate, set: цел32);
		перем freq, r, result, dac, dis, temp : цел32;
		перем stmp : мнвоНаБитахМЗ;

		нач
			если rate > 48000 то rate := 48000; всё;
			если rate < 4000 то rate := 4000; всё;
			freq := (rate * 32768) DIV 3000;
			result := (freq * 3000) DIV 32768;
			если set>0 то
				если set = 1 то dac := EsSmpregDac1; иначе dac := EsSmpregDac2; всё;
				если set = 1 то dis := 20; иначе dis := 21; всё;
				r := EsWaitSrcReady();
				stmp := НИЗКОУР.подмениТипЗначения(мнвоНаБитахМЗ, r)*{19..22};
				r := НИЗКОУР.подмениТипЗначения(цел32, stmp);
				ЭВМ.пПорт32(base+Es1371RegSmprate, r);
				r := EsSrcRead(dac+1);
				stmp := НИЗКОУР.подмениТипЗначения(мнвоНаБитахМЗ, r)*{0..7};
				stmp := stmp + (НИЗКОУР.подмениТипЗначения(мнвоНаБитахМЗ, freq DIV 32)*{10..15});
				temp := НИЗКОУР.подмениТипЗначения(цел32, stmp);
				EsSrcWrite(dac+1, temp);
				stmp := НИЗКОУР.подмениТипЗначения(мнвоНаБитахМЗ, freq);
				stmp := stmp*{0..14};
				temp := НИЗКОУР.подмениТипЗначения(цел32, stmp);
				EsSrcWrite(dac+3, temp);
				r := EsWaitSrcReady();
				stmp := НИЗКОУР.подмениТипЗначения(мнвоНаБитахМЗ, r);
				stmp := stmp*(мнвоНаБитахМЗ({22}+{dis}+{19}));
				r := НИЗКОУР.подмениТипЗначения(цел32, stmp);
				ЭВМ.пПорт32(base+Es1371RegSmprate, r)
			всё
		кон EsDacRate;

		(* write ac97 codec *)
		проц EsWrCd(addr, data: цел32);
		перем t, res, x, i: цел32;
		перем tset, tset2 : мнвоНаБитахМЗ;
		нач
			t := 0;
			нцДо
				увел(t);
				ЭВМ.чПорт32(base+Es1371RegCodec, НИЗКОУР.подмениТипЗначения(цел32, res))
			кцПри ((t>2000) или ~(30 в НИЗКОУР.подмениТипЗначения(мнвоНаБитахМЗ, res)));
			ЭВМ.чПорт32(base+Es1371RegSmprate, НИЗКОУР.подмениТипЗначения(цел32, x));
			t := EsWaitSrcReady();
			t := НИЗКОУР.подмениТипЗначения(цел32, НИЗКОУР.подмениТипЗначения(мнвоНаБитахМЗ, t)*{19..22});
			ЭВМ.пПорт32(base+Es1371RegSmprate, t);

			t := 0;
			нцДо
				увел(t);
				ЭВМ.чПорт32(base+Es1371RegSmprate, НИЗКОУР.подмениТипЗначения(цел32, res))
			кцПри (t>2000) или (НИЗКОУР.подмениТипЗначения(мнвоНаБитахМЗ, res)*{16..18, 23} = {16});

			tset := НИЗКОУР.подмениТипЗначения(мнвоНаБитахМЗ, addr)*{0..6};
			tset2 := {};
			нцДля i := 0 до 6 делай
				если i в tset то tset2 := tset2+мнвоНаБитахМЗ({i+16}) всё
			кц;
			tset := НИЗКОУР.подмениТипЗначения(мнвоНаБитахМЗ, data)*{0..15};
			tset := tset+tset2;
			res := НИЗКОУР.подмениТипЗначения(цел32, tset);
			ЭВМ.пПорт32(base+Es1371RegCodec, res);
			t := EsWaitSrcReady();
			ЭВМ.пПорт32(base+Es1371RegSmprate, x)
		кон EsWrCd;

		(* initialise the driver *)
		проц Initdrv;
		перем i: цел32;
			sndbuf : ЭВМ.Address32; (* physical address of the intern soundbuffer *)
		нач

			нцДля i := 0 до 31 делай
				нов(playchannels[i], сам);
				playchannels[i].active := ложь;
				playchannels[i].free := истина
			кц;

			нцДля i := 0 до 31 делай
				нов(recordchannels[i], сам);
				recordchannels[i].active := ложь;
				recordchannels[i].free := истина
			кц;

			нов(introbj, сам);
			introbj.numplayer := 0;

			(* set Bit 19 instead if you want to play direct 8 Bit sound *)
			EsState.sctrl := НИЗКОУР.подмениТипЗначения(цел32, {20});
			EsState.rctrl := 0;
			нов(time);

			Objects.InstallHandler(introbj.HandleInterrupt, ЭВМ.IRQ0+irq);

	(*********** INIT like in BSD driver *******************************)

			ЭВМ.пПорт32(base+Es1370RegStatus, НИЗКОУР.подмениТипЗначения(цел32, {29})); (* No idea why this is needed *)
			time.Sleep(20);
			ЭВМ.пПорт32(base+Es1370RegSerialControl, НИЗКОУР.подмениТипЗначения(цел32, 0));
			ЭВМ.пПорт32(base+Es1371RegLegacy, НИЗКОУР.подмениТипЗначения(цел32, 0));
			(* Now not again RegLegacy like in BSD-Driver *)
			ЭВМ.пПорт32(base+Es1370RegControl, НИЗКОУР.подмениТипЗначения(цел32, Es1371SyncRes));
			time.Sleep(2);	ЭВМ.пПорт32(base+Es1370RegControl, НИЗКОУР.подмениТипЗначения(цел32, {}));
			ЭВМ.пПорт32(base+Es1371RegSmprate, НИЗКОУР.подмениТипЗначения(цел32, Es1371DisSrc));

			нцДля i := 0 до 07FH делай
				EsSrcWrite(НИЗКОУР.подмениТипЗначения(цел16, i), 0)
			кц;
			EsSrcWrite(EsSmpregDac1, НИЗКОУР.подмениТипЗначения(цел32, {8}));
			EsSrcWrite(EsSmpregDac1+1, НИЗКОУР.подмениТипЗначения(цел32, {14}));
			EsSrcWrite(EsSmpregDac2, НИЗКОУР.подмениТипЗначения(цел32, {8}));
			EsSrcWrite(EsSmpregDac2+1, НИЗКОУР.подмениТипЗначения(цел32, {14}));
			(*Why not?*)
			EsSrcWrite(EsSmpregAdc, НИЗКОУР.подмениТипЗначения(цел32, {8}));
			EsSrcWrite(EsSmpregAdc+1, НИЗКОУР.подмениТипЗначения(цел32, {14}));

			EsSrcWrite(EsSmpregVolAdc, НИЗКОУР.подмениТипЗначения(цел32, {12}));
			EsSrcWrite(EsSmpregVolAdc+1, НИЗКОУР.подмениТипЗначения(цел32, {12}));
			EsSrcWrite(EsSmpregVolDac1, НИЗКОУР.подмениТипЗначения(цел32, {12}));
			EsSrcWrite(EsSmpregVolDac1+1, НИЗКОУР.подмениТипЗначения(цел32, {12}));
			EsSrcWrite(EsSmpregVolDac2, НИЗКОУР.подмениТипЗначения(цел32, {12}));
			EsSrcWrite(EsSmpregVolDac2+1, НИЗКОУР.подмениТипЗначения(цел32, {12}));

			EsAdcRate(48000, 1); (* set the base (hardware) samplerate for recording *)
			EsDacRate(48000, 2); (* set the base (hardware) samplerate for playback *)
			(*EsDacRate(40100, 1);(* DAC1 is not used in this driver *) *)
			ЭВМ.пПорт32(base+Es1371RegSmprate, НИЗКОУР.подмениТипЗначения(цел32, 0));

	(*****************************************************)

			(* allocate, allign and register record and play buffer *)

			нов(pr2, Bsize);
			rloopcount := 0;
			нов(p2, Bsize);
			loopcount := 0;
			ЭВМ.пПорт32(base+Es1370RegControl, НИЗКОУР.подмениТипЗначения(цел32, {})); (* Disable all Channels *)

			sndbuf := ЭВМ.ДайФизическийАдресДиапазонаПамяти(адресОт(pr2[0]), Bsize)(ЭВМ.Address32);
			если sndbuf = -1 то ЛогЯдра.пСтроку8("not enough defragmented space"); всё;


			ЭВМ.пПорт8(base+Es1370RegMemPage, 0DX); (*1101*)
			ЭВМ.пПорт32(base+30H, НИЗКОУР.подмениТипЗначения(цел32, sndbuf)); (* physical buf adress *)

			ЭВМ.пПорт32(base+34H, НИЗКОУР.подмениТипЗначения(цел32, Bsize DIV 4-1)); (* size of buffer (in longwords -1) *)

			(* number of samples to playback until interrupt for ADC*)
			(* set it to Bsize DIV 4-1 for 16bitmono/8bitstereo and to Bsize DIV 2-1 for 8bitmono *)
			ЭВМ.пПорт32(base+Es1370RegAdcScount, НИЗКОУР.подмениТипЗначения(цел32, Bsize DIV 8-1));

			(* enable interrupt and set dataformat for ADC*)
			(* 14: LoopMode OFF, driver is always in loop mode *)
			(* 4,5: 00:8BMono 01:8BStereo 10:16BM 11:16BS *)
			(* 10: INTERRUPT ENABLE*)

			EsState.sctrl := НИЗКОУР.подмениТипЗначения(цел32, {4, 5, 10}+НИЗКОУР.подмениТипЗначения(мнвоНаБитахМЗ, EsState.sctrl));
			ЭВМ.пПорт32(base+Es1370RegSerialControl, EsState.sctrl);


			sndbuf := ЭВМ.ДайФизическийАдресДиапазонаПамяти(адресОт(p2[0]), Bsize)(ЭВМ.Address32);
			если sndbuf = -1 то ЛогЯдра.пСтроку8("not enough defragmented space") всё;

			ЭВМ.пПорт8(base+Es1370RegMemPage, 0CX); (*1100*)
			ЭВМ.пПорт32(base+38H, НИЗКОУР.подмениТипЗначения(цел32, sndbuf)); (*physical buf adress*)

			ЭВМ.пПорт32(base+3CH, НИЗКОУР.подмениТипЗначения(цел32, Bsize DIV 4-1)); (* size of buffer (in longwords -1) *)

			(* number of samples to record until interrupt for DAC2*)
			(* set it to Bsize DIV 4-1 for 16bitmono/8bitstereo and to Bsize DIV 2-1 for 8bitmono *)
			ЭВМ.пПорт32(base+Es1370RegDac2Scount, НИЗКОУР.подмениТипЗначения(цел32, Bsize DIV 8-1));

			(* enable interrupt and set dataformat for DAC2*)
			(*14: LoopMode OFF, driver is always in loop mode*)
			(*2,3: 00:8BMono 01:8BStereo 10:16BM 11:16BS *)
			(*9: INTERRUPT ENABLE*)
		 	EsState.sctrl := НИЗКОУР.подмениТипЗначения(цел32, {2, 3, 9} + НИЗКОУР.подмениТипЗначения(мнвоНаБитахМЗ, EsState.sctrl));
			ЭВМ.пПорт32(base+Es1370RegSerialControl, EsState.sctrl)
		кон Initdrv;

		проц Initvol;
		нач
			(*EsWrCd(0, 1); (*Reset*) not needed*)

			EsWrCd(2, 0000H); (*Master*)
			EsWrCd(4, 8000H); (*Aux*)
			EsWrCd(6, 8000H); (*Mono*)
			EsWrCd(8, 8000H); (*Tone*)
			EsWrCd(0CH, 8000H); (*Phone*)
			EsWrCd(0EH, 8000H); (*Mic*)
			EsWrCd(10H, 4040H); (*Line In*)
			EsWrCd(18H, 4040H); (*PCM Out*)

			EsWrCd(1AH, НИЗКОУР.подмениТипЗначения(цел16, 5+5*256)); (*Record Source Stereo Mix*)
			EsWrCd(1CH, НИЗКОУР.подмениТипЗначения(цел16, 0+0*256)); (*Record Gain*)
			EsWrCd(1EH, НИЗКОУР.подмениТипЗначения(цел16, 0)); (*Record Gain Mic*)

	(* alternatives:
			EsWrCd(1AH, SYSTEM.VAL(SIGNED16, 0)); (* Record Source Micro *)
			EsWrCd(1CH, SYSTEM.VAL(SIGNED16, 15+15*256)); (*Record Gain*)
			EsWrCd(1EH, SYSTEM.VAL(SIGNED16, 15)); (*Record Gain Mic*)
	*)

			если Trace то ЛогЯдра.пСтроку8("Volume initialized"); ЛогЯдра.пВК_ПС всё
		кон Initvol;

		проц Finalize;
		нач
			(* disable interrupt *)
			ЭВМ.пПорт32(base+Es1370RegSerialControl, НИЗКОУР.подмениТипЗначения(цел32, {20}));
			Objects.RemoveHandler(introbj.HandleInterrupt, ЭВМ.IRQ0+irq);
			time.Sleep(100); (* make sure interrup has terminated *)
			если Modules.shutdown = Modules.None то
				SoundDevices.devices.Remove(сам)
			всё
		кон Finalize;

		проц {перекрыта}Init*;
		перем i : цел32;
		нач
			Initdrv;
			Initvol; (* initialise the hardware volume *)

			нцДля i := 0 до NumMixerChannels-1 делай mixerChannels[i] := НУЛЬ кц;

			нов(masterout, сам, "MasterOut", "Master Output mixer channel", 02H);
			нов(masterin, сам, "MasterIn", "master Input mixer channel", 1CH);
			нов(pcm, сам, "PCM", "PCM Output mixer channel", 18H);
			нов(line, сам, "LineIn", "Line In mixer channel", 10H);
			нов(cd, сам, "CD", "CD mixer channel", 12H);

			masterIn := masterin;
			masterOut := masterout;

			desc := "Ensoniq PCI Sound driver";

			masterin.SetVolume(0H);
			masterout.SetVolume(0FFH);
			pcm.SetVolume(0D8H);
			(* according to documentation pcm.SetVolume(0B8H) should give gain 0, but it's too silent *)

			masterin.muted := ложь;
			masterout.muted := ложь;
			pcm.muted := ложь;

			line.SetVolume(0D8H);

			(*line.SetMute(TRUE);*) (* set it mute if you hear noise *)

			cd.SetVolume(0D8H);
			cd.SetMute(истина);
			(* set volume so that recorded sound gets played back with same amplitude *)

			нов(listenerlist); (* no mixer listeners so far *)
			listenerlist.proc := НУЛЬ;
			listenerlist.next := НУЛЬ;
			если Trace то ЛогЯдра.пСтроку8("init done"); ЛогЯдра.пВК_ПС всё
		кон Init;

		проц {перекрыта}OpenPlayChannel*(перем channel : SoundDevices.Channel;
		samplingRate, samplingResolution, nofSubChannels, format : цел32;
		перем res : целМЗ);
		перем i, count : цел32;
		нач {единолично}
			channel := НУЛЬ;
			count := 0;
			нцДля i := 0 до 31 делай
				если ~playchannels[i].free то
					увел(count)
				всё
			кц;
			если Trace то ЛогЯдра.пСтроку8("Active channel #: "); ЛогЯдра.пЦел64(count, 0); ЛогЯдра.пВК_ПС всё;
			i := 0;
			нцПока (i<=31) и (~playchannels[i].free) делай
				увел(i);
			кц;

			если i <32 то
				channel := playchannels[i];
				playchannels[i].free := ложь;
				playchannels[i].first := НУЛЬ;
				playchannels[i].last := НУЛЬ;
				playchannels[i].samplingRate := samplingRate;
				playchannels[i].samplingResolution := samplingResolution;
				playchannels[i].nofSubChannels := nofSubChannels;
				playchannels[i].delta := (samplingResolution DIV 8) * nofSubChannels; (* number of bytes per sample *)
				playchannels[i].SetVolume(100H);
				playchannels[i].RegisterBufferListener(DefaultBufferListener);
				res := SoundDevices.ResOK;
				если Trace то ЛогЯдра.пСтроку8("Open play channel #: "); ЛогЯдра.пЦел64(i, 0); ЛогЯдра.пВК_ПС всё
			иначе res := SoundDevices.ResNoMoreChannels
			всё
		кон OpenPlayChannel;

		проц {перекрыта}OpenRecordChannel*(перем channel : SoundDevices.Channel;
		samplingRate, samplingResolution, nofSubChannels, format : цел32;
		перем res: целМЗ);
		перем i : цел32;
		нач
			channel := НУЛЬ;
			i := 0;
			нцПока (i <= 31) и (~recordchannels[i].free) делай
				увел(i)
			кц;
			если i<32 то
				channel := recordchannels[i];
				recordchannels[i].free := ложь;
				recordchannels[i].first := НУЛЬ;
				recordchannels[i].last := НУЛЬ;
				recordchannels[i].samplingRate := samplingRate;
				recordchannels[i].samplingResolution := samplingResolution;
				recordchannels[i].nofSubChannels := nofSubChannels;
				recordchannels[i].delta := (samplingResolution DIV 8) * nofSubChannels; (* number of bytes per sample *)
				recordchannels[i].SetVolume(100H);
				recordchannels[i].RegisterBufferListener(DefaultBufferListener);
				res := SoundDevices.ResOK
			иначе res := SoundDevices.ResNoMoreChannels
			всё
		кон OpenRecordChannel;

		проц {перекрыта}NofNativeFrequencies*():цел32;
		нач
			возврат 1
		кон NofNativeFrequencies;

		проц {перекрыта}GetNativeFrequency*(nr: цел32): цел32;
		нач
			возврат 48000
		кон GetNativeFrequency;

		проц {перекрыта}RegisterMixerChangeListener*(mixChangedProc: SoundDevices.MixerChangedProc);
		перем nlistenerlist, nl : укль на Listenerlist;
		нач
			если listenerlist.proc = НУЛЬ то
				listenerlist.proc := mixChangedProc
			иначе
				nlistenerlist := listenerlist;
				нцПока nlistenerlist.next # НУЛЬ делай
					nlistenerlist := nlistenerlist.next
				кц;
				нов(nl);
				nl.proc := mixChangedProc;
				nl.next := НУЛЬ;
				nlistenerlist.next := nl
			всё
		кон RegisterMixerChangeListener;

		проц {перекрыта}UnregisterMixerChangeListener*(mixChangedProc: SoundDevices.MixerChangedProc);
		перем nlistenerlist, nl : укль на Listenerlist;
		нач
			nlistenerlist := listenerlist;
			если nlistenerlist.proc = mixChangedProc то
				если listenerlist.next # НУЛЬ то listenerlist := listenerlist.next
				иначе
					listenerlist.proc := НУЛЬ
				всё
			иначе
				нцПока (nlistenerlist.next # НУЛЬ) и (nlistenerlist.proc # mixChangedProc) делай
					nl := nlistenerlist;
					nlistenerlist := nlistenerlist.next
				кц;
				если nlistenerlist.proc=mixChangedProc то
					nl.next := nlistenerlist.next
				всё
			всё
		кон UnregisterMixerChangeListener;

		проц {перекрыта}GetMixerChannel*(channelNr: цел32; перем channel: SoundDevices.MixerChannel);
		нач
			если (channelNr<NumMixerChannels) и (channelNr>=0) то
				channel := (mixerChannels[channelNr])
			иначе
				channel := НУЛЬ
			всё;
		кон GetMixerChannel;

		проц {перекрыта}GetNofMixerChannels*() : цел32;
		нач
			возврат NumMixerChannels
		кон GetNofMixerChannels;

	нач {активное}
		нцДо
			WaitBuffersToReturn;
			ReturnBuffers
		кцПри 1=2
	кон Driver;

	(* interrupt handling Object *)
	Introbj=окласс
	перем numplayer : цел32;
		 driver : Driver;
		перем copy : булево;

		проц &Init*(driver : Driver);
		нач
			сам.driver := driver;
			copy := ложь
		кон Init;

		проц WaitInterruptStop;
		нач
			дождись(~(5 в НИЗКОУР.подмениТипЗначения(мнвоНаБитахМЗ, driver.EsState.rctrl)))
		кон WaitInterruptStop;

		проц Deactivate(playerchannel : PlayerChannel);
		нач {единолично}
			если playerchannel.active то
				playerchannel.active := ложь;
				умень(numplayer);
				если numplayer=0 то
					WaitInterruptStop
				всё
			всё
		кон Deactivate;

		проц Activate(playerchannel : PlayerChannel);
		нач {единолично}
			если playerchannel.active = ложь то
				если numplayer=0 то
					WaitInterruptStop;
					(*Make sure Interrupt is already disabled*)
					driver.playcopy := истина;
					driver.loopcount := 1
				всё;
				playerchannel.active := истина;
				увел(numplayer)
			всё
		кон Activate;

		проц HandleInterrupt; (* interrupt handler *)
		перем r, where : цел32;
			sr, ssctrl : мнвоНаБитахМЗ;
		нач {единолично}
			ЭВМ.чПорт32(driver.base+Es1370RegStatus, r);
			sr := НИЗКОУР.подмениТипЗначения(мнвоНаБитахМЗ, r);
			если 31 в sr то (* Interrupt pending *)
				если 0 в sr то (* ACD int pending *)

					ЭВМ.пПорт8(driver.base+Es1370RegMemPage, 0DX);
					ЭВМ.чПорт32(driver.base+34H, where);

					если where DIV 65536 >= Bsize DIV 8 -1 то
						driver.rloopcount := 0 иначе driver.rloopcount := 1
					всё; (* which part of the buffer is not getting recorded into, so we can read it out next*)

					driver.reccopy := истина;
					ssctrl := НИЗКОУР.подмениТипЗначения(мнвоНаБитахМЗ, driver.EsState.sctrl)-{10};
					ЭВМ.пПорт32(driver.base+Es1370RegSerialControl, НИЗКОУР.подмениТипЗначения(цел32, ssctrl));
					ЭВМ.пПорт32(driver.base+Es1370RegSerialControl, driver.EsState.sctrl)
				всё;
				если 1 в sr то (* DAC2 int pending *)
					ЭВМ.пПорт8(driver.base+Es1370RegMemPage, 0CX);
					ЭВМ.чПорт32(driver.base+3CH, where);

					если where DIV 65536 >= Bsize DIV 8 - 1 то
						driver.loopcount := 0 иначе driver.loopcount := 1;
					всё; (* which part of the buffer is not playing, so we can fill it next*)

					driver.playcopy := истина;
					ssctrl := НИЗКОУР.подмениТипЗначения(мнвоНаБитахМЗ, driver.EsState.sctrl)-{9};
					ЭВМ.пПорт32(driver.base+Es1370RegSerialControl, НИЗКОУР.подмениТипЗначения(цел32, ssctrl));
					ЭВМ.пПорт32(driver.base+Es1370RegSerialControl, driver.EsState.sctrl)
				всё;
				если 2 в sr то (* DAC1 int pending, should never happen *)
					ssctrl := НИЗКОУР.подмениТипЗначения(мнвоНаБитахМЗ, driver.EsState.sctrl)-{8};
					ЭВМ.пПорт32(driver.base+Es1370RegSerialControl, НИЗКОУР.подмениТипЗначения(цел32, ssctrl));
					ЭВМ.пПорт32(driver.base+Es1370RegSerialControl, driver.EsState.sctrl)
				всё
			всё
			кон HandleInterrupt;

		(* wait until interrupt sets playcopy or reccopy *)
		проц Wait;
		нач {единолично}
			дождись(driver.playcopy или driver.reccopy)
		кон Wait;

		проц WaitNoPlay;
		нач {единолично}
			дождись(~driver.playcopy);
		кон WaitNoPlay;

		проц WaitNoRec;
		нач (*{EXCLUSIVE}*)
			дождись(~driver.reccopy)
		кон WaitNoRec;

		проц Setplaycopy(VALUE: булево);
		нач {единолично}
			driver.playcopy := VALUE
		кон Setplaycopy;

		(* make sure amplitude is in the allowed range *)
		проц Clip(перем lsigned: цел32);
		нач
			если lsigned >матМаксимум(цел16) то
				lsigned := матМаксимум(цел16)
			всё;
			если lsigned <матМинимум(цел16) то
				lsigned := матМинимум(цел16)
			всё
		кон Clip;

		проц Copy;
		перем first : булево;

			(* convert sample from mono to stereo *)
			проц mono(перем ca: Sample);
			нач
				ca[2] := ca[0];
				ca[3] := ca[1]
			кон mono;

			(* convert sample from 8 to 16 bit *)
			проц eight(перем ca: Sample);
			нач
				ca[3] := симв8ИзКода(кодСимв8(ca[1])-128);
				ca[2] := симв8ИзКода(0);
				ca[1] := симв8ИзКода(кодСимв8(ca[0])-128);
				ca[0] := симв8ИзКода(0)
			кон eight;

			(* convert 8 bit mono sample to 16 bit stereo *)
			проц eightmono(перем ca: Sample);
			нач
				eight(ca);
				mono(ca)
			кон eightmono;

			(* fills first or second half of intern buffer *)
			проц Playcopy(from, to : цел32);
			перем signed : цел16;
				lsigned, i, j, l : цел32;
				nr : цел32; (* ratedone MOD 48000 *)
				temp : цел32;

				проц Readnextsample;
				нач
					driver.playchannels[j].pos := driver.playchannels[j].pos+driver.playchannels[j].delta;
					driver.playchannels[j].ratedone := nr;
					driver.playchannels[j].oldsample := driver.playchannels[j].sample;

					(* first should never be NIL if we get so far. but if we are unlucky -stop and play of a channel exactly after each other- it can be, drop me a mail if you see how *)
					если (driver.playchannels[j].first # НУЛЬ) и (driver.playchannels[j].pos >= driver.playchannels[j].first.content.len) то

						(* current buffer is over *)

						driver.playchannels[j].pos := 0;
						(* driver.playchannels[j].blistener(driver.playchannels[j].first.content); *)
						(* can't return the buffer directly because we are inside an EXCLUSIVE part here and don't want
						to call an external Procedure from here, so save it for later in bufferObj *)
						driver.AddBufferToReturn(driver.playchannels[j].blistener, driver.playchannels[j].first.content);
						driver.playchannels[j].NextBuffer;
					всё;
					если (driver.playchannels[j].silent) или (driver.playchannels[j].first = НУЛЬ) то (* nothing more to read, but will still interpolate with oldsample *)
						driver.playchannels[j].sample[0]:= симв8ИзКода(0);
						driver.playchannels[j].sample[1]:= симв8ИзКода(0);
						driver.playchannels[j].sample[2]:= симв8ИзКода(0);
						driver.playchannels[j].sample[3]:= симв8ИзКода(0)
					иначе
						driver.allsilent := ложь;
						(* convert sample to 16 bit stereo *)
						driver.playchannels[j].sample[0] :=
						driver.playchannels[j].first.content.data[driver.playchannels[j].pos];
						если (driver.playchannels[j].samplingResolution=8) и
						(driver.playchannels[j].nofSubChannels=1) то
							eightmono(driver.playchannels[j].sample)
						всё;
						если (driver.playchannels[j].samplingResolution=16) или
						(driver.playchannels[j].nofSubChannels=2) то
							driver.playchannels[j].sample[1] :=
							driver.playchannels[j].first.content.data[driver.playchannels[j].pos+1];

							если (driver.playchannels[j].samplingResolution=8) то
								eight(driver.playchannels[j].sample)
							всё;
							если (driver.playchannels[j].nofSubChannels=1) то
								mono(driver.playchannels[j].sample)
							всё;
							если (driver.playchannels[j].samplingResolution=16) и
							(driver.playchannels[j].nofSubChannels=2) то
								driver.playchannels[j].sample[2] :=
								driver.playchannels[j].first.content.data[driver.playchannels[j].pos+2];
								driver.playchannels[j].sample[3] :=
								driver.playchannels[j].first.content.data[driver.playchannels[j].pos+3]
							всё
						всё
					всё (* not silent *)
				кон Readnextsample;

			нач {единолично}
				driver.bufferobj.Setinplaycopy(истина); (* wait until bufferobj is not locked *)
				нцДля j := 0 до 31 делай
					если driver.playchannels[j].active то
						driver.playchannels[j].silent := ложь;
						i := from;

						нцПока (i <= to) делай
							driver.playchannels[j].ratedone :=
							driver.playchannels[j].ratedone + driver.playchannels[j].samplingRate;
							nr := driver.playchannels[j].ratedone остОтДеленияНа 48000;
							если (nr # driver.playchannels[j].ratedone) то
								если (driver.playchannels[j].active) то
									(* time to read out next sample *)
									Readnextsample
								иначе
									driver.playchannels[j].oldsample[0] := симв8ИзКода(0);
									driver.playchannels[j].oldsample[1] := симв8ИзКода(0);
									driver.playchannels[j].oldsample[2] := симв8ИзКода(0);
									driver.playchannels[j].oldsample[3] := симв8ИзКода(0)
									(* now it's really silent *)
								всё
							всё;

							если first то (* don't have to mix *)
								нцДля l := 0 до 1 делай
									signed := НИЗКОУР.подмениТипЗначения(цел16, driver.playchannels[j].sample[2*l]);
									lsigned := устарПреобразуйКБолееШирокомуЦел(signed);
									signed := НИЗКОУР.подмениТипЗначения(цел16, driver.playchannels[j].oldsample[2*l]);
									lsigned := округлиВниз((1-driver.playchannels[j].ratedone/48000)*
									устарПреобразуйКБолееШирокомуЦел(signed)+(driver.playchannels[j].ratedone/48000)*lsigned+0.5);

									lsigned := lsigned*(driver.playchannels[j].vol) DIV 256 (*DIV 32*);

									Clip(lsigned);
									signed := устарПреобразуйКБолееУзкомуЦел(lsigned);
									driver.p2[i+2*l] := симв8ИзКода(signed остОтДеленияНа 256);
									driver.p2[i+2*l+1] := симв8ИзКода(signed DIV 256)
								кц
							иначе (* mix with current buffercontent *)
								нцДля l := 0 до 1 делай
									signed := НИЗКОУР.подмениТипЗначения(цел16, driver.playchannels[j].sample[2*l]);
									lsigned := устарПреобразуйКБолееШирокомуЦел(signed);
									signed := НИЗКОУР.подмениТипЗначения(цел16, driver.playchannels[j].oldsample[2*l]);
									lsigned := округлиВниз((1-driver.playchannels[j].ratedone/48000)*
									устарПреобразуйКБолееШирокомуЦел(signed)+(driver.playchannels[j].ratedone/48000)*lsigned+0.5);

									lsigned := lsigned*(driver.playchannels[j].vol) DIV 256 (*DIV 32*);

									signed := НИЗКОУР.подмениТипЗначения(цел16, driver.p2[i+2*l]);
									lsigned := устарПреобразуйКБолееШирокомуЦел(signed) + lsigned;

									Clip(lsigned);
									signed := устарПреобразуйКБолееУзкомуЦел(lsigned);
									driver.p2[i+2*l] := симв8ИзКода(signed остОтДеленияНа 256);
									driver.p2[i+1+2*l] := симв8ИзКода(signed DIV 256)
								кц
							всё;
							увел(i, 4)
						кц; (*WHILE*)
						first := ложь (* next channel can't be the first *)
					всё (*IF*)
				кц; (*FOR*)

				если ~driver.allsilent то (* make sure playing is in progress *)
					если ~ (5 в НИЗКОУР.подмениТипЗначения(мнвоНаБитахМЗ, driver.EsState.rctrl)) то
						если Trace то ЛогЯдра.пСтроку8("Enabling DAC2 Interrupt"); ЛогЯдра.пВК_ПС всё;
						ЭВМ.пПорт8(driver.base+Es1370RegMemPage, 0CX); (*1100*)
						ЭВМ.пПорт32(driver.base+3CH, НИЗКОУР.подмениТипЗначения(цел32, Bsize DIV 4-1));
						(*resets the counter of transferred longwords to 0*)
						driver.EsState.rctrl := НИЗКОУР.подмениТипЗначения(цел32, {5}+НИЗКОУР.подмениТипЗначения(мнвоНаБитахМЗ, driver.EsState.rctrl));
						ЭВМ.пПорт32(driver.base+Es1370RegControl, driver.EsState.rctrl); (*Dac2En*)
					всё;
				иначе (* make sure playing is stopped *)
					если (5 в НИЗКОУР.подмениТипЗначения(мнвоНаБитахМЗ, driver.EsState.rctrl)) то
						temp := НИЗКОУР.подмениТипЗначения(цел32, НИЗКОУР.подмениТипЗначения(мнвоНаБитахМЗ, driver.EsState.rctrl)-{5});
						ЭВМ.пПорт32(driver.base+Es1370RegControl, temp); (*Dac2Dis*)
						нцДля i := 0 до Bsize-1 делай driver.p2[i] := симв8ИзКода(0) кц;
						driver.EsState.rctrl := temp
					всё
				всё;
				driver.bufferobj.Setinplaycopy(ложь)
			кон Playcopy;

			проц Reccopy(from, to: цел32);
			перем sample : Sample;
				signed : цел16;
				lsigned, i, j, l : цел32;
				nr : цел32; (* ratedone MOD 48000 *)

			нач {единолично}
				нцДля j := 0 до 31 делай
					если driver.recordchannels[j].active то
						driver.recordchannels[j].rsilent := ложь;
						i := from;
						нцПока (i <= to) и (driver.recordchannels[j].active) делай
							если driver.recordchannels[j].pos >= driver.recordchannels[j].first.content.len то
								(* current buffer is over *)
								driver.recordchannels[j].pos := 0;
								(*driver.recordchannels[j].blistener(driver.recordchannels[j].first.content);*)
								driver.AddBufferToReturn(driver.recordchannels[j].blistener,
								driver.recordchannels[j].first.content);
								driver.recordchannels[j].NextBuffer;
							всё;

							driver.recordchannels[j].ratedone :=
							driver.recordchannels[j].ratedone + driver.recordchannels[j].samplingRate;
							nr := driver.recordchannels[j].ratedone остОтДеленияНа 48000;
							если nr # driver.recordchannels[j].ratedone то (* time to read out next sample *)
								driver.recordchannels[j].ratedone := nr;

								если ~driver.recordchannels[j].rsilent то
									driver.rallsilent := ложь;
									sample[0] := driver.pr2[i];
									sample[1] := driver.pr2[i+1];
									sample[2] := driver.pr2[i+2];
									sample[3] := driver.pr2[i+3];

									нцДля l := 0 до 1 делай
										signed := НИЗКОУР.подмениТипЗначения(цел16, sample[2*l]);
										lsigned := устарПреобразуйКБолееШирокомуЦел(signed);
										lsigned := lsigned*(driver.recordchannels[j].vol) DIV 256;
										Clip(lsigned);
										signed := устарПреобразуйКБолееУзкомуЦел(lsigned);

										sample[2*l] := симв8ИзКода(signed остОтДеленияНа 256);
										sample[2*l+1] := симв8ИзКода(signed DIV 256)
									кц;
									(* convert recorded 16 bit stereo sample to target format *)

									если driver.recordchannels[j].samplingResolution=8 то
										если driver.recordchannels[j].nofSubChannels=1 то
											driver.recordchannels[j].first.content.data[driver.recordchannels[j].pos]
											:= симв8ИзКода( (кодСимв8(sample[1])-128 + кодСимв8(sample[3])-128) DIV 2)
										иначе
											driver.recordchannels[j].first.content.data[driver.recordchannels[j].pos]
											:= симв8ИзКода(кодСимв8(sample[1])-128);
											driver.recordchannels[j].first.content.data[driver.recordchannels[j].pos+1]
											:= симв8ИзКода(кодСимв8(sample[3])-128)
										всё
									иначе
										если driver.recordchannels[j].nofSubChannels=1 то
											lsigned := НИЗКОУР.подмениТипЗначения(цел16, sample[0]);
											lsigned := lsigned+НИЗКОУР.подмениТипЗначения(цел16, sample[2]);
											signed := устарПреобразуйКБолееУзкомуЦел(lsigned DIV 2);
											driver.recordchannels[j].first.content.data[driver.recordchannels[j].pos]
											:= симв8ИзКода(signed остОтДеленияНа 256);
											driver.recordchannels[j].first.content.data[driver.recordchannels[j].pos+1]
											:= симв8ИзКода(signed DIV 256)
										иначе
											driver.recordchannels[j].first.content.data[driver.recordchannels[j].pos]
											:= sample[0];
											driver.recordchannels[j].first.content.data[driver.recordchannels[j].pos+1]
											:= sample[1];
											driver.recordchannels[j].first.content.data[driver.recordchannels[j].pos+2]
											:= sample[2];
											driver.recordchannels[j].first.content.data[driver.recordchannels[j].pos+3]
											:= sample[3]
										всё
									всё
								всё;
								driver.recordchannels[j].pos:= driver.recordchannels[j].pos+driver.recordchannels[j].delta
							всё;
							увел(i, 4)
						кц (*WHILE*)
					всё
				кц;

				если ~driver.rallsilent то (* make sure recording is in progress *)
					если ~ (4 в НИЗКОУР.подмениТипЗначения(мнвоНаБитахМЗ, driver.EsState.rctrl)) то
						ЭВМ.пПорт8(driver.base+Es1370RegMemPage,  0DX); (*1101*)
						ЭВМ.пПорт32(driver.base+34H, НИЗКОУР.подмениТипЗначения(цел32, Bsize DIV 4-1));
						(*resets the counter of transferred longwords to 0*)

						driver.EsState.rctrl := НИЗКОУР.подмениТипЗначения(цел32, {4}+НИЗКОУР.подмениТипЗначения(мнвоНаБитахМЗ, driver.EsState.rctrl));
						ЭВМ.пПорт32(driver.base+Es1370RegControl, driver.EsState.rctrl) (*AdcEn*)
					всё
				иначе (* make sure recording is stopped *)
					если (4 в НИЗКОУР.подмениТипЗначения(мнвоНаБитахМЗ, driver.EsState.rctrl)) то
						driver.EsState.rctrl := НИЗКОУР.подмениТипЗначения(цел32, НИЗКОУР.подмениТипЗначения(мнвоНаБитахМЗ, driver.EsState.rctrl)-{4});
						ЭВМ.пПорт32(driver.base+Es1370RegControl, driver.EsState.rctrl); (*AdcDis*)
						нцДля i := 0 до Bsize-1 делай driver.pr2[i] := симв8ИзКода(0) кц
					всё
				всё
			кон Reccopy;

		нач
			driver.allsilent := истина; first := истина;
			driver.rallsilent := истина;

			если driver.reccopy=истина то
				если driver.rloopcount остОтДеленияНа 2 = 0 то
					Reccopy(0, Bsize DIV 2 -1)
				иначе
					Reccopy(Bsize DIV 2, Bsize -1)
				всё;
				driver.reccopy := ложь
			всё;
			если driver.playcopy = истина то
				Setplaycopy(ложь);
				если driver.loopcount остОтДеленияНа 2 = 0 то
					Playcopy(0, Bsize DIV 2 -1)
				иначе
					Playcopy(Bsize DIV 2, Bsize -1)
				всё
			всё
		кон Copy;

	нач {активное}
		driver.playcopy := ложь;
		driver.reccopy := ложь;
		нцДо (* wait for user/interrupt setting playcopy/reccopy as long as driver is loaded *)
			Wait;
			Copy
		кцПри 1=2
	кон Introbj;

перем installedDrivers: Driver;
	installed: цел32;

проц DefaultBufferListener(buffer: SoundDevices.Buffer);
кон DefaultBufferListener;

(** Called when unloading the module *)
проц Cleanup;
нач
	нцПока installedDrivers # НУЛЬ делай
		installedDrivers.Finalize;
		installedDrivers := installedDrivers.next
	кц;
	installed := 0;
кон Cleanup;

проц ScanPCI(vendor, device: цел32; name: Plugins.Name);
перем index, bus, dev, fct, base, irq, i : цел32; res: целМЗ;
	driver : Driver;
	drivername : Plugins.Name;
нач
	driver := НУЛЬ;
	index := 0;
	нцПока (PCI.FindPCIDevice(device, vendor, index, bus, dev, fct) = PCI.Done) и (installed < 10) делай
		если Trace то
			ЛогЯдра.пСтроку8("Bus "); ЛогЯдра.пЦел64(bus, 1);
			ЛогЯдра.пСтроку8(", device: "); ЛогЯдра.пЦел64(dev, 1);
			ЛогЯдра.пСтроку8(", function: "); ЛогЯдра.пЦел64(fct, 1);
			ЛогЯдра.пСтроку8(", vendor/device "); ЛогЯдра.п16ричное(арифмСдвиг(vendor, 16) + device, 0); ЛогЯдра.пВК_ПС;
		всё;

		(* Get physical base address *)
		res := PCI.ReadConfigDword(bus, dev, fct, PCI.Adr0Reg, base);
		утв(res=PCI.Done);
		утв(нечётноеЛи¿(base));
		умень(base, base остОтДеленияНа 4); (* zero last 2 bits *)
		если Trace то ЛогЯдра.пСтроку8("Base address: "); ЛогЯдра.п16ричное(base, 0); ЛогЯдра.пВК_ПС всё;

		(* Get IRQ number *)
		res := PCI.ReadConfigByte(bus, dev, fct, PCI.IntlReg, irq);
		утв(res=PCI.Done);
		если Trace то ЛогЯдра.пСтроку8("IRQ"); ЛогЯдра.пЦел64(irq, 1); ЛогЯдра.пВК_ПС всё;
		(* Instanciate new driver object *)
		нов(driver, irq, base);
		ЛогЯдра.пСтроку8("Ensoniq sound driver installed."); ЛогЯдра.пВК_ПС;
		i := 0;
		нцПока name[i] # 0X делай drivername[i] := name[i]; увел(i) кц;
		drivername[i] := "#";
		drivername[i + 1] := симв8ИзКода(кодСимв8("0") + installed);
		drivername[i + 2] := 0X;
		driver.SetName(drivername);
		SoundDevices.devices.Add(driver, res);	(* add NEW driver to installedDrivers *)
		утв(res=0);
		увел(index)
	кц
кон ScanPCI;

(** command forcing Init and the installation of a driver. *)
проц Install*;
(* Init routine is called implicitly *)
кон Install;

(* Initialize the driver module *)
проц Init;
нач
	если installedDrivers = НУЛЬ то
		ScanPCI(1274H, 1371H, "ES1371");
		ScanPCI(1274H, 1373H, "ES1373");
		ScanPCI(1274H, 5880H, "5880 AudioPCI")
	всё;
кон Init;

нач {единолично}
	Modules.InstallTermHandler(Cleanup);
	installedDrivers := НУЛЬ;
	installed := 0;
	Init;
кон EnsoniqSound.

EnsoniqSound.Install ~
System.Free EnsoniqSound ~

Installation
Add EnsoniqSound.Install to Configuration.XML, section 'Autostart' to load driver at system startup.

