(* AUTHOR: Kristofer Jonsson, kjonsson@student.ethz.ch, krijo210@student.liu.se *)
(* Written Sommer Semester 2003 *)

модуль i810Sound; (** AUTHOR "krijo210@student.liu.se"; PURPOSE "Intel 810 Sound driver for SoundDevices"; *)

	использует НИЗКОУР, PCI, ЭВМ, Kernel, Objects, Modules, Plugins,
		SoundDevices, ЛогЯдра;

	конст
		(* PCI Audio Control register offsets *)
		PACRegAC97CmdData = 0060H;
		PACRegAC97CmdAddress = 0062H;
		PACRegAC97StatusData = 0064H;
		PACRegAC97StatusAddress = 0066H;

		(* Sound Preferences *)
		MasterVolume = 225; (* 0 silent, 255 full volume *)
		InitVolume = 128; (* 0 silent, 255 full volume *)
		(* Could be any value MOD 4 = 0. Small buffer size means much work for
			the driver but fast respons times. Big buffers vice versa. *)
		BufferSize = 08FF0H;
		NofMixerChannels = 6;
		Boost = истина;
		InsecureMode = истина; (* also search for untested but probably compatible devices *)

		(* States for channel *)
		StatePlaying = 1;
		StateRecording = 2;
		StatePaused = 3;
		StateStoped = 4;
		StateClosed = 5;

		(* Bus Master Registers *)
		BMRInBase = 00H;
		BMROutBase = 10H;

		BMRBufferDescriptorBaseAddress = 00H;
		BMRCurrentIndexReg = 04H;
		BMRLastValidIndexReg = 05H;
		BMRStatusReg = 06H;
		BMRCtrlReg = 0BH;
		BMRGlobalStatusReg = 30H;

		(* AC97 Registers *)
		AC97MasterVolReg = 02H;
		AC97AuxVolReg = 04H;
		AC97MonoVolReg = 06H;
		AC97MicVolReg = 0EH;
		AC97LineInVolReg = 10H;
		AC97CDVolReg = 12H;
		AC97PCMOutVolReg = 18H;
		AC97RecordGainReg = 1CH;

		AC97ResetReg = 0;
		AC97RecordSelectReg = 1AH;
		AC97DacRateReg = 2CH;
		AC97AdcRateReg = 32H;
		AC97StatCtrlReg = 2AH;

		DebugBaseAddress = 0;
		DebugDMAAddess = 1;
		TraceOpenChannel = 2;
		DebugTraceListeners = 3;
		DebugInit = 4;
		Debug = {DebugBaseAddress, DebugDMAAddess, TraceOpenChannel, DebugTraceListeners, DebugInit };

	тип
		PlayChannelList = укль на запись
			channel : PlayChannel;
			next : PlayChannelList;
		кон;

		RecChannelList = укль на запись
			channel : RecChannel;
			next : RecChannelList;
		кон;

		MixerChangedProcList = укль на запись
			mixerChangedProc : SoundDevices.MixerChangedProc;
			next : MixerChangedProcList;
		кон;

		BufferList = укль на запись
			buffer : SoundDevices.Buffer;
			next : BufferList;
		кон;

		Sample = массив 4 из симв8; (* 16 bit stereo sample *)

		DriverList = укль на запись
			driver : Driver;
			next : DriverList;
		кон;

		(**
			PCM data is transmitted through a DMA channel. Pointers to buffers are held in the
			memory in form of a structure named Buffer Drescriptor List.
			See Intel 82801xx Programmers manual for further details.
		*)
		DMABufferDescriptorList = укль на массив 32 из запись
			addr : цел32;
			CmdAndLength : цел32;
		кон;

		(**
			PCIAudioControl read/write from the PCI I/O space.
			I/O space is not memory mapped so we have to use PORTIN/PORTOUT.
		*)
		PCIAudioControl = окласс
			перем
				base: цел32;

			проц &Constr*(base : цел32);
			нач
				сам.base := base
			кон Constr;

			(* Read from I/O register *)
			проц RegRead8(offset : цел32) : цел8;
			перем
				res : симв8;
			нач
				ЭВМ.чПорт8(base + offset, res);
				возврат НИЗКОУР.подмениТипЗначения(цел8, res)
			кон RegRead8;

			проц RegRead16(offset : цел32) : цел16;
			перем
				res : цел16;
			нач
				ЭВМ.чПорт16(base + offset, res);
				возврат НИЗКОУР.подмениТипЗначения(цел16, res)
			кон RegRead16;

			проц RegRead32(offset : цел32) : цел32;
			перем
				res: цел32;
			нач
				ЭВМ.чПорт32(base + offset, res);
				возврат res
			кон RegRead32;

			(* Write to I/O register *)
			проц RegWrite8(offset : цел32; val : цел32);
			нач
				ЭВМ.пПорт8(base + offset, НИЗКОУР.подмениТипЗначения(симв8, val))
			кон RegWrite8;

			проц RegWrite16(offset : цел32; val : цел32);
			нач
				ЭВМ.пПорт16(base + offset, НИЗКОУР.подмениТипЗначения(цел16, val))
			кон RegWrite16;

			проц RegWrite32(offset : цел32; val : цел32);
			нач
				ЭВМ.пПорт32(base + offset, val)
			кон RegWrite32;

		кон PCIAudioControl;


		(**
			The AC97 Codec is a serial chip and we have to respect this fact. We may not flood it
			with data, but have to first check the semaphore register at NABMBAR + 34H if the
			chip is read to receive/transmit data. Else we get/put data to/from the I/O space
			as usual.
			All registers are 16 bit.
		*)
		AC97Control = окласс
			перем
				NAMBAR, NABMBAR: PCIAudioControl;

			проц &Constr*(NAMBAR, NABMBAR : PCIAudioControl);
			нач
				сам.NAMBAR := NAMBAR;
				сам.NABMBAR := NABMBAR
			кон Constr;

			проц RegRead16(offset : цел32): цел32;
			нач{единолично}
				утв(BusyWait());
				возврат NAMBAR.RegRead16(offset)
			кон RegRead16;

			проц RegWrite16(offset, value : цел32);
			нач{единолично}
				утв(BusyWait());
				NAMBAR.RegWrite16(offset, value)
			кон RegWrite16;

			(* Read semaphore register. If 0 is returned access to the AC97 I/O space
				is granted. If 1 is returned AC97 Codec is blocked. Then retry until timer
				of 2 ms times out. *)
			проц BusyWait() : булево;
			перем t: Kernel.MilliTimer;
			нач
				Kernel.SetTimer(t, 2);
				нцПока ~Kernel.Expired(t) делай
					если ~(0 в НИЗКОУР.подмениТипЗначения(мнвоНаБитахМЗ, NABMBAR.RegRead8(34H))) то
						возврат истина
					всё
				кц;

				возврат ложь
			кон BusyWait;

			(* Writing any value to this register restes the AC97 Codec *)
			проц Reset*;
			нач
				RegWrite16(AC97ResetReg, 1);
			кон Reset;

			проц WriteCodec*;
			нач
				(* Set volumes *)
				RegWrite16(AC97ResetReg, 0001H); (* Reset *)
				RegWrite16(AC97MasterVolReg, MasterVolume); (* Master volume *)
				RegWrite16(AC97AuxVolReg, 8000H); (* AUX volume *)
				RegWrite16(AC97MonoVolReg, 8000H); (* Mono volume *)
				RegWrite16(AC97PCMOutVolReg, 1818H); (* PCM Out Volume *)

				(* Enable variable DAC rate *)
				RegWrite16(AC97StatCtrlReg, 0001H)
			кон WriteCodec;

			проц SetDacRate*(rate : цел32);
			нач
				RegWrite16(AC97DacRateReg, rate)
			кон SetDacRate;

			проц SetAdcRate*(rate : цел32);
			нач
				RegWrite16(AC97AdcRateReg, rate)
			кон SetAdcRate;
		кон AC97Control;

тип
		(**
		 	Driver object is the core of the driver. It is responsible for creating
		 	new objects, setting registers, returning channels, handling interrupts.
		 *)
		Driver = окласс(SoundDevices.Driver)
			перем
				base : цел32;
				irq : цел32;
				AC97 : AC97Control;
				NAMBAR, NABMBAR : PCIAudioControl;
				DMAIn, DMAOut : DMABufferDescriptorList;
				firstPlayChannel : PlayChannelList;
				firstRecChannel : RecChannelList;
				mixerChannelList : массив NofMixerChannels из MixerChannel;
				firstMixerChangedProc : MixerChangedProcList;
				playCurrentBufferIndex, recCurrentBufferIndex : цел32;
				playLastValidIndex, recLastValidIndex : цел32;
				playBuffer, recBuffer, silentBuffer : SoundDevices.Buffer;
				playSamplingRate : массив 32 из цел32;
				recSamplingRate : цел32;
				playCurrentSamplingRate : цел32;
				playBufferList, recBufferList : массив 32 из SoundDevices.Buffer;
				playInterrupt, recInterrupt : булево;

			проц &Constr*(nambar, nabmbar, irq : цел32);
			перем
				res : целМЗ;
				DMAInPhysAdr, DMAOutPhysAdr: цел32;
				i : цел32;
			нач
				сам.base := base;
				сам.irq := irq;

				(* Create PCI Audio Control Object *)
				нов(NAMBAR, nambar);

				(* Create PCI Audio Control Object *)
				нов(NABMBAR, nabmbar);

				(* Create AC97 Control Object *)
				нов(AC97, NAMBAR, NABMBAR);

				(* Reset registers *)
				NABMBAR.RegWrite8(BMRInBase + BMRCtrlReg, 02H);
				NABMBAR.RegWrite8(BMROutBase + BMRCtrlReg, 02H);

				(* Write AC97 Codec *)
				AC97.Reset;
				AC97.WriteCodec;

				нов(DMAIn);
				нов(DMAOut);

				(* Size is 32 entries * 2 fields * 8 byte = 256 byte *)
				DMAInPhysAdr := GetPhysicalAdr(адресОт(DMAIn[0]), 256);
				DMAOutPhysAdr := GetPhysicalAdr(адресОт(DMAOut[0]), 256);

				(* Read Buffer Descriptor List Base Addresses *)
				NABMBAR.RegWrite32(BMRInBase + BMRBufferDescriptorBaseAddress, DMAInPhysAdr);
				NABMBAR.RegWrite32(BMROutBase + BMRBufferDescriptorBaseAddress, DMAOutPhysAdr);

				если DebugDMAAddess в Debug то
					ЛогЯдра.пСтроку8("DMA In Physical Address: "); ЛогЯдра.пЦел64(DMAInPhysAdr, 5); ЛогЯдра.пВК_ПС;
					ЛогЯдра.пСтроку8("DMA Out Physical Address: "); ЛогЯдра.пЦел64(DMAOutPhysAdr, 5); ЛогЯдра.пВК_ПС
				всё;

				(* Create buffers for playing and recording *)
				нцДля i := 0 до 31 делай
					нов(playBufferList[i]); нов(recBufferList[i]);
					нов(playBufferList[i].data, BufferSize); нов(recBufferList[i].data, BufferSize);
					playBufferList[i].len := BufferSize; recBufferList[i].len := BufferSize;

					DMAOut[i].addr := GetPhysicalAdr(
						адресОт(playBufferList[i].data[0]), BufferSize);
					DMAIn[i].addr := GetPhysicalAdr(
						адресОт(recBufferList[i].data[0]), BufferSize);

					DMAOut[i].CmdAndLength := логСдвиг(BufferSize, -1);
					SetBit(DMAOut[i].CmdAndLength, 31);
					DMAIn[i].CmdAndLength := логСдвиг(BufferSize, -1);
					SetBit(DMAIn[i].CmdAndLength, 31)
				кц;

				(* Create silent buffer *)
				нов(silentBuffer);
				нов(silentBuffer.data, BufferSize);
				нцДля i := 0 до BufferSize - 1 делай silentBuffer.data[i] := silentData кц;
				silentBuffer.len := BufferSize;

				(* Set initial samplings rate *)
				нцДля i := 0 до 31 делай playSamplingRate[i] := 48000 кц;
				playCurrentSamplingRate := 48000;

				(* Choose mic as record channel *)
				AC97.RegWrite16(AC97RecordSelectReg, 0000H);

				(* Create mixer channels *)
				нов(mixerChannelList[0], сам, AC97MasterVolReg, ложь, "MasterOut", "Master output mixer channel");
				нов(mixerChannelList[1], сам, AC97RecordGainReg, ложь, "MasterIn", "Master input mixer channel");
				нов(mixerChannelList[2], сам, AC97LineInVolReg, истина, "LineIn", "LineIn mixer channel");
				нов(mixerChannelList[3], сам, AC97PCMOutVolReg, ложь, "PCMOut", "PCM out mixer channel");
				нов(mixerChannelList[4], сам, AC97CDVolReg, истина, "CD", "CD input mixer channel");
				нов(mixerChannelList[5], сам, AC97MicVolReg, ложь, "Mic", "Microphone mixer channel");
				mixerChannelList[5].SetVolume(0); (* cancel noise that might come from the mic *)

				(* Give master volume some more gas *)
				mixerChannelList[0].SetVolume(MasterVolume);

				(* Install Objects interrupt handler *)
				Objects.InstallHandler(HandleInterrupt, ЭВМ.IRQ0+irq);

				(* Register Driver in SoundDevices *)
				SoundDevices.devices.Add(сам, res);
				утв(res = Plugins.Ok);

				(* Update driver table *)
				SoundDevices.devices.GetAll(DriverTab);

				(* Enable DMA
					Set the PCM Control Register
					Read more about it in the Intel documentation
					0001 1101 = 1Dh
					0000 0001 = 01h

					The Current Buffer Position seems to turn around when it reaches zero. This will result in a
					negative number counting backwards. It is not that interesting hearing the kernel code played
					at your loudspeakers, but who knows, maybe you hear satanic words if you play it backwards
					through the soundcard. I have to try it with the Windows...

					It is said that if you play the Windows install CD backwards you hear satanic words. What is
					that to care about. I mean, if you play it forwards it installs Windows!

					11H will enable DMA and raise an interrupt when a buffer is completed.
				*)
				Enable
			кон Constr;

			проц Finalize;
			нач
				Disable;

				(* Reset AC97 Codec *)
				AC97.Reset;

				(* Remove interrupt handler *)
				Objects.RemoveHandler(HandleInterrupt, ЭВМ.IRQ0+irq);

				(* Remove registered driver *)
				SoundDevices.devices.Remove(сам);

				(* Update driver table *)
				SoundDevices.devices.GetAll(DriverTab)
			кон Finalize;

			проц HandleInterrupt;
			перем
				status : цел32;
				interrupt : цел32;
			нач
				interrupt := NABMBAR.RegRead32(BMRGlobalStatusReg);

				(* Did a PCM Out interrupt occur? *)
				если (6 в НИЗКОУР.подмениТипЗначения(мнвоНаБитахМЗ, interrupt)) то
					(*
						Do a 32 bit read over Current Index, Last Valid Index and Status Register
						starting at Current Buffer Index.
					*)
					status := NABMBAR.RegRead32(BMROutBase + BMRCurrentIndexReg);

					(* Did a Buffer completion interrupt occur? *)
					если (19 в НИЗКОУР.подмениТипЗначения(мнвоНаБитахМЗ, status)) то
						нач {единолично}
							playLastValidIndex := (НИЗКОУР.подмениТипЗначения(цел32, НИЗКОУР.подмениТипЗначения(мнвоНаБитахМЗ, status)*{0..7}) + 2) остОтДеленияНа 32;
							playInterrupt := истина;
						кон;
					всё;

					(* Clear the interrupt *)
					NABMBAR.RegWrite16(BMROutBase + BMRStatusReg, 0FFH);
				всё;

				(* Did a PCM In interrupt occur? *)
				если (5 в НИЗКОУР.подмениТипЗначения(мнвоНаБитахМЗ, interrupt)) то
					(*
						Do a 32 bit read over Current Index, Last Valid Index and Status Register
						starting at Current Buffer Index.
					*)
					status := NABMBAR.RegRead32(BMRInBase + BMRCurrentIndexReg);

					(* Did a Buffer completion interrupt occur? *)
					если (19 в НИЗКОУР.подмениТипЗначения(мнвоНаБитахМЗ, status)) то
						нач {единолично}
							recLastValidIndex := (НИЗКОУР.подмениТипЗначения(цел32, НИЗКОУР.подмениТипЗначения(мнвоНаБитахМЗ, status)*{0..7}) + 2) остОтДеленияНа 32;
							recInterrupt := истина;
						кон;
					всё;

					(* Clear the interrupt *)
					NABMBAR.RegWrite16(BMRInBase + BMRStatusReg, 0FFH)
				всё;
			кон HandleInterrupt;

			(* Enqueues a new buffer for DMA to fetch, and updates last valid buffer index. *)
			проц QueueBuffer*;
			перем
				noOfSamples : размерМЗ;
			нач
				MixBuffers;

				DMAOut[playLastValidIndex].addr := GetPhysicalAdr(
					адресОт(playBufferList[playCurrentBufferIndex].data[0]), BufferSize);

				noOfSamples := логСдвиг(playBufferList[playCurrentBufferIndex].len, -1);
				DMAOut[playLastValidIndex].CmdAndLength := noOfSamples(цел32);
				SetBit(DMAOut[playLastValidIndex].CmdAndLength, 31);

				NABMBAR.RegWrite8(BMROutBase + BMRLastValidIndexReg, playLastValidIndex)

			кон QueueBuffer;

			(* Mix all active channels into one single buffer. *)
			проц MixBuffers;
			перем
				item : PlayChannelList;
				buffer : SoundDevices.Buffer;
				silent : булево;
			нач
				playCurrentBufferIndex := playLastValidIndex;

				playBuffer := НУЛЬ;
				playSamplingRate[playCurrentBufferIndex] := 1;
				silent := истина;

				(* Set max sampling rate *)
				item := firstPlayChannel;
				нцПока item # НУЛЬ делай
					если item.channel.state = StatePlaying то
						playSamplingRate[playCurrentBufferIndex] :=
							матМаксимум(playSamplingRate[playCurrentBufferIndex], item.channel.samplingRate);
						silent := ложь
					всё;
					item := item.next
				кц;

				(* Mix buffers *)
				item := firstPlayChannel;
				нцПока item # НУЛЬ делай
					если item.channel.state = StatePlaying то
						item.channel.PrepareData(playSamplingRate[playCurrentBufferIndex]);
						buffer := item.channel.ReturnBuffer();
						MixTwo(playBuffer, buffer);
					всё;
					item := item.next
				кц;

				(* If no active channel is found then outpus silent data *)
				если silent то
					playSamplingRate[playCurrentBufferIndex] := 48000;
					playBuffer := silentBuffer
				всё;

				(* We are always two steps ahead of DMA *)
				если playSamplingRate[(playCurrentBufferIndex-2) остОтДеленияНа 32] # playCurrentSamplingRate то
					playCurrentSamplingRate := playSamplingRate[(playCurrentBufferIndex-2) остОтДеленияНа 32];
					AC97.SetDacRate(playCurrentSamplingRate)
				всё;

				НИЗКОУР.копируйПамять(
					адресОт(playBuffer.data[0]),
					адресОт(playBufferList[playCurrentBufferIndex].data[0]),
					BufferSize);
				playBufferList[playCurrentBufferIndex].len := playBuffer.len;

			кон MixBuffers;

			(* Mix two buffers of the same sampling rate *)
			проц MixTwo(перем buffer : SoundDevices.Buffer; buffer2 : SoundDevices.Buffer);
			перем
				mix, sample1, sample2 : цел32;
				i : размерМЗ;
			нач
				(* First buffer don't have to be mixed *)
				если buffer = НУЛЬ то
					buffer := buffer2;
					возврат;
				всё;

				утв(buffer.len = buffer2.len);

				нцДля i := 0 до buffer.len-1 делай
					(* Lineary interpolate two samples *)
					sample1 := НИЗКОУР.подмениТипЗначения(цел16, buffer.data[i]);
					sample2 := НИЗКОУР.подмениТипЗначения(цел16, buffer2.data[i]);

					(* Lower volume to try to avoid clipping *)
					mix := sample1+sample2;

					(* Clip *)
					если mix > матМаксимум(цел16) то
						mix := матМаксимум(цел16);
					всё;
					если mix < матМинимум(цел16) то
						mix := матМинимум(цел16);
					всё;


					buffer.data[i] := симв8ИзКода(mix);
					buffer.data[i+1] := симв8ИзКода(логСдвиг(mix, -8));

					увел(i)
				кц
			кон MixTwo;

			(* Procedure to return recorded data *)
			проц ReturnBuffers*;
			перем
				item : RecChannelList;
			нач
				(* Last valid index is always 3 steps ahead of current buffer index *)
				recCurrentBufferIndex := (recLastValidIndex - 3) остОтДеленияНа 32;
				item := firstRecChannel;
				нцПока item # НУЛЬ делай
					если item.channel.state = StateRecording то
						item.channel.PrepareData(recBufferList[recCurrentBufferIndex], recSamplingRate)
					всё;
					item := item.next
				кц;

				NABMBAR.RegWrite8(BMRInBase + BMRLastValidIndexReg, recLastValidIndex)
			кон ReturnBuffers;

			проц {перекрыта}Init*;
			нач
				SetName("i810 Sound driver");
				desc := "Sound driver for the Intel 810 chips"
			кон Init;

			проц {перекрыта}Enable*;
			нач
				(* PCM Out *)
				если TestBit(NABMBAR.RegRead16(BMROutBase + BMRStatusReg), 0) то
					NABMBAR.RegWrite8(BMROutBase + BMRCtrlReg, 11H)
				всё;

				(* PCM In *)
				если TestBit(NABMBAR.RegRead16(BMRInBase + BMRStatusReg), 0) то
					NABMBAR.RegWrite8(BMRInBase + BMRCtrlReg, 11H)
				всё
			кон Enable;

			проц {перекрыта}Disable*;
			нач
				(* PCM Out *)
				NABMBAR.RegWrite16(BMROutBase + BMRStatusReg, 0002H);
				NABMBAR.RegWrite8(BMROutBase + BMRCtrlReg, 00H);

				(* PCM In *)
				NABMBAR.RegWrite16(BMRInBase + BMRStatusReg, 0002H);
				NABMBAR.RegWrite8(BMRInBase + BMRCtrlReg, 00H)
			кон Disable;

			проц NofNativeFrequences() : цел32;
			нач
				возврат 0;
			кон NofNativeFrequences;

			проц {перекрыта}GetNativeFrequency*(nr : цел32) : цел32;
			нач
				возврат 48000;
			кон GetNativeFrequency;

			проц {перекрыта}NofSamplingResolutions*() : цел32;
			нач
				возврат 2 (* 16 Bit and 8 Bit *)
			кон NofSamplingResolutions;

			проц {перекрыта}GetSamplingResolution(nr : цел32) : цел32;
			нач
				утв((nr >= 0) и (nr <2));
				если nr = 0 то
					возврат 16
				иначе
					возврат 8
				всё;
			кон GetSamplingResolution;

			проц {перекрыта}NofSubChannelSettings*() : цел32;
			нач
				возврат 2 (* Mono and stereo *)
			кон NofSubChannelSettings;

			проц {перекрыта}GetSubChannelSetting*(nr : цел32) : цел32;
			нач
				утв((nr >= 0) и (nr <= 2));
				если nr = 0 то
					возврат 1 (* Mono *)
				иначе
					возврат 2 (* Stereo *)
				всё
			кон GetSubChannelSetting;

			проц {перекрыта}NofWaveFormats*() : цел32;
			нач
				возврат 1 (* Only PCM *)
			кон NofWaveFormats;

			проц {перекрыта}OpenPlayChannel*(перем channel : SoundDevices.Channel; samplingRate, samplingResolution,
				nofSubChannels, format : цел32; перем res : целМЗ);
			перем
				playChannel : PlayChannel;
				sResolution : цел32;
			нач {единолично}
				channel := НУЛЬ;

				(* Check for valid sample rate.
					All values < 7040 will be set to 7040. *)
				если ~((samplingRate > 0) и (samplingRate <= 48000)) то
					res := SoundDevices.ResUnsupportedFrequency;
					возврат
				всё;

				(* Check for supported samplingResolution *)
				если samplingResolution = 16 то
					sResolution := 0
				аесли samplingResolution = 8 то
					sResolution := 1
				иначе
					res := SoundDevices.ResUnsupportedSamplingRes;
					возврат
				всё;

				(* Check for supported subchannel *)
				если (nofSubChannels # 1) и (nofSubChannels # 2) то
					res := SoundDevices.ResUnsupportedSubChannels;
					возврат
				всё;

				(* Check for supported format *)
				если format # SoundDevices.FormatPCM то
					res := SoundDevices.ResUnsupportedFormat;
					возврат
				всё;

				(* Fine, we passed all tests. Let's create a channel. *)
				нов(playChannel, сам, samplingRate, sResolution, nofSubChannels);
				channel := playChannel;
				AddPlayChannel(playChannel);

				если TraceOpenChannel в Debug то
					ЛогЯдра.пСтроку8("Open PlayChannel: "); ЛогЯдра.пЦел64(samplingRate, 1); ЛогЯдра.пСтроку8("Hz, ");
					ЛогЯдра.пЦел64(samplingResolution, 1); ЛогЯдра.пСтроку8("bit, ");
					ЛогЯдра.пЦел64(nofSubChannels, 1); ЛогЯдра.пСтроку8(" channel(s)"); ЛогЯдра.пВК_ПС
				всё;

				res := SoundDevices.ResOK
			кон OpenPlayChannel;

			проц RemovePlayChannel(channel : PlayChannel);
			перем
				item : PlayChannelList;
			нач
				item := firstPlayChannel;
				если item # НУЛЬ то
					если item.channel = channel то
						firstPlayChannel := item.next;
						возврат
					всё
				всё;

				нцПока item.next # НУЛЬ делай
					если item.next.channel = channel то
						item.next := item.next.next;
						возврат
					всё;
					item := item.next
				кц
			кон RemovePlayChannel;

			проц AddPlayChannel(channel : PlayChannel);
			перем
				item : PlayChannelList;
			нач
				нов(item);
				item.channel := channel;
				item.next := firstPlayChannel;
				firstPlayChannel := item
			кон AddPlayChannel;

			проц {перекрыта}OpenRecordChannel*(перем channel : SoundDevices.Channel; samplingRate, samplingResolution,
				nofSubChannels, format : цел32; перем res : целМЗ);
			перем
				recChannel : RecChannel;
				item : RecChannelList;
				sResolution : цел32;
			нач {единолично}
				channel := НУЛЬ;

				(* Check for valid sample rate.
					All values < 7040 will be set to 7040. *)
				если ~((samplingRate > 0) и (samplingRate <= 48000)) то
					res := SoundDevices.ResUnsupportedFrequency;
					возврат
				всё;

				(* Check for supported samplingResolution *)
				если samplingResolution = 16 то
					sResolution := 0
				аесли samplingResolution = 8 то
					sResolution := 1
				иначе
					res := SoundDevices.ResUnsupportedSamplingRes;
					возврат
				всё;

				(* Check for supported subchannel *)
				если (nofSubChannels # 1) и (nofSubChannels # 2) то
					res := SoundDevices.ResUnsupportedSubChannels;
					возврат
				всё;

				(* Check for supported format *)
				если format # SoundDevices.FormatPCM то
					res := SoundDevices.ResUnsupportedFormat;
					возврат;
				всё;

				(* Fine, we passed all tests. Let's create a channel. *)
				нов(recChannel, сам, samplingRate, sResolution, nofSubChannels);
				channel := recChannel;
				AddRecChannel(recChannel);

				если TraceOpenChannel в Debug то
					ЛогЯдра.пСтроку8("Open RecChannel: "); ЛогЯдра.пЦел64(samplingRate, 1); ЛогЯдра.пСтроку8("Hz, ");
					ЛогЯдра.пЦел64(samplingResolution, 1); ЛогЯдра.пСтроку8("bit, ");
					ЛогЯдра.пЦел64(nofSubChannels, 1); ЛогЯдра.пСтроку8(" channel(s)"); ЛогЯдра.пВК_ПС
				всё;

				(* Set max sampling rate *)
				recSamplingRate := 1;
				item := firstRecChannel;
				нцПока item # НУЛЬ делай
					recSamplingRate := матМаксимум(recSamplingRate, item.channel.samplingRate);
					item := item.next;
				кц;

				recSamplingRate := samplingRate;
				AC97.SetAdcRate(recSamplingRate);

				res := SoundDevices.ResOK

			кон OpenRecordChannel;

			проц RemoveRecChannel(channel : RecChannel);
			перем
				item : RecChannelList;
			нач
				item := firstRecChannel;
				если item # НУЛЬ то
					если item.channel = channel то
						firstRecChannel := item.next;
						возврат
					всё
				всё;

				нцПока item.next # НУЛЬ делай
					если item.next.channel = channel то
						item.next := item.next.next;
						возврат
					всё;
					item := item.next
				кц;

			кон RemoveRecChannel;

			проц AddRecChannel(channel : RecChannel);
			перем
				item : RecChannelList;
			нач
				нов(item);
				item.channel := channel;
				item.next := firstRecChannel;
				firstRecChannel := item
			кон AddRecChannel;

			проц {перекрыта}RegisterMixerChangeListener*(mixChangedProc : SoundDevices.MixerChangedProc);
			перем
				item : MixerChangedProcList;
			нач {единолично}
				утв(mixChangedProc # НУЛЬ);

				нов(item);
				item.mixerChangedProc := mixChangedProc;
				item.next := firstMixerChangedProc;
				firstMixerChangedProc := item
			кон RegisterMixerChangeListener;

			проц {перекрыта}UnregisterMixerChangeListener*(mixChangeProc : SoundDevices.MixerChangedProc);
			перем
				item : MixerChangedProcList;
			нач {единолично}
				item := firstMixerChangedProc;

				(* No registered listeners *)
				если item = НУЛЬ то
					возврат;
				всё;

				(* Check first entry *)
				если item.mixerChangedProc = mixChangeProc то
					firstMixerChangedProc := item.next;
					если DebugTraceListeners в Debug то ЛогЯдра.пСтроку8("Removed mixerChangedProc"); ЛогЯдра.пВК_ПС всё;
					возврат;
				всё;

				нцПока (item.next # НУЛЬ) и (item.next.mixerChangedProc # mixChangeProc) делай
					item := item.next
				кц;

				если item.next # НУЛЬ то
					item.next := item.next.next;
					если DebugTraceListeners в Debug то ЛогЯдра.пСтроку8("Removed mixerChangedProc"); ЛогЯдра.пВК_ПС всё
				иначе
					если DebugTraceListeners в Debug то ЛогЯдра.пСтроку8("Could not remove mixerChangeProc"); ЛогЯдра.пВК_ПС всё
				всё;
			кон UnregisterMixerChangeListener;

			проц {перекрыта}GetMixerChannel*(channelNr : цел32; перем channel : SoundDevices.MixerChannel);
			нач
				если (channelNr >= 0) и (channelNr < NofMixerChannels) то
					channel := mixerChannelList[channelNr]
				иначе
					channel := НУЛЬ
				всё
			кон GetMixerChannel;

			проц {перекрыта}GetNofMixerChannels*() : цел32;
			нач
				возврат NofMixerChannels
			кон GetNofMixerChannels;

			нач {активное}
				playInterrupt := ложь;
				recInterrupt := ложь;

				нцПока (истина) делай
					нач {единолично}
						дождись(playInterrupt или recInterrupt);
					кон;

					если playInterrupt то
						QueueBuffer;
						playInterrupt := ложь;
					аесли recInterrupt то
						ReturnBuffers;
						recInterrupt := ложь;
					всё;
				кц;
		кон Driver;



		(**
			MixerChannel is a hardware mixer channel that control the
			AC97 chip. It can set volume for each channel.
		*)
		MixerChannel = окласс(SoundDevices.MixerChannel)
			перем
				driver : Driver;
				name, desc : укль на массив из симв8;
				volumeReg : цел32;
				volume, muteVol : цел32;
				volBits : цел32;
				mute : булево;

			проц &Constr*(driver : Driver; volumeReg : цел32; mute : булево; name, desc : массив из симв8);
			перем
				i : размерМЗ;
			нач
				сам.driver := driver;
				сам.volumeReg := volumeReg;
				сам.mute := mute;

				нов(сам.name, длинаМассива(name));
				нцДля i := 0 до длинаМассива(name) - 1 делай
					сам.name^[i] := name[i];
				кц;

				нов(сам.desc, длинаМассива(desc));
				нцДля i := 0 до длинаМассива(desc) - 1 делай
					сам.desc^[i] := desc[i]
				кц;

				(* Get number of volume bits *)
				(* Set first 6 bits and shift until a '0' appears *)
				driver.AC97.RegWrite16(volumeReg, 803FH);
				volume := driver.AC97.RegRead16(volumeReg);
				volBits := 0;
				нцПока нечётноеЛи¿(volume) делай
					volume := логСдвиг(volume, -1);
					увел(volBits)
				кц;

				(* 64 seems to be a reasonable init volume *)
				SetVolume(InitVolume)
			кон Constr;

			проц {перекрыта}GetName*(перем name : массив из симв8);
			нач
				копируйСтрокуДо0(сам.name^, name)
			кон GetName;

			проц {перекрыта}GetDesc*(перем desc : массив из симв8);
			нач
				копируйСтрокуДо0(сам.desc^, desc)
			кон GetDesc;

			проц {перекрыта}SetVolume*(volume : цел32);
			нач {единолично}
				утв((volume >= 0) и (volume <= 255));
				сам.volume := volume;

				(* Shift away "overflow" bits *)
				volume := 255 - volume;
				volume := логСдвиг(volume, volBits - 8);
				volume := volume + логСдвиг(volume, 8);
				если сам.mute то SetBit(volume, 15) всё;
				если Boost то SetBit(volume, 6) всё;
				driver.AC97.RegWrite16(volumeReg, volume);

				CallMixerListeners
			кон SetVolume;

			проц {перекрыта}GetVolume*() : цел32;
			нач
				возврат сам.volume
			кон GetVolume;

			(* Volume has to be 0 <= volume < 256 *)
			проц {перекрыта}SetMute*(mute : булево);
			перем
				volume : цел32;
			нач {единолично}
				сам.mute := mute;
				если mute то muteVol := volume; volume := 0
				иначе volume := muteVol всё;
(*				volume := driver.AC97.RegRead16(volumeReg);
				SetBit(volume, 15);
				driver.AC97.RegWrite16(volume, volumeReg);
*)				CallMixerListeners
			кон SetMute;

			проц {перекрыта}GetIsMute*() : булево;
			нач
				возврат сам.mute;
			кон GetIsMute;

			проц CallMixerListeners;
			перем
				item : MixerChangedProcList;
			нач
				item := driver.firstMixerChangedProc;
				нцПока item # НУЛЬ делай
					item.mixerChangedProc(сам);
					item := item.next
				кц
			кон CallMixerListeners;

		кон MixerChannel;

		(**
			Audio player/recorder asks driver for a channel. Through the channel are data
			enqueued for playing or recording. Software mixing of volume i possible.
		*)
		Channel = окласс(SoundDevices.Channel)
			перем
				driver : Driver;
				samplingRate, samplingResolution, nofSubChannels : цел32;
				bufferListener : SoundDevices.BufferListener;
				firstBuffer, lastBuffer : BufferList;
				playRecBuffer : SoundDevices.Buffer;
				firstBufferPos : цел32;
				volume : цел32;
				state : цел32;


			проц &Constr*(driver : Driver; samplingRate, samplingResolution, nofSubChannels : цел32);
			нач
				сам.driver := driver;
				сам.samplingRate := samplingRate;
				сам.samplingResolution := samplingResolution;
				сам.nofSubChannels := nofSubChannels;

				нов(playRecBuffer);
				нов(playRecBuffer.data, BufferSize);
				playRecBuffer.len := BufferSize;

				(* Set volume to max. Software software mixing only wastes data. *)
				SetVolume(255)
			кон Constr;

			проц {перекрыта}GetChannelKind*() : цел32;
			нач
				СТОП(99) (* ABSTRACT *)
			кон GetChannelKind;

			проц {перекрыта}SetVolume*(volume : цел32);
			нач
				сам.volume := volume
			кон SetVolume;

			(* Linear volume *)
			проц SampleSetVolume(перем sample : Sample);
			перем
				left, right : цел32;
				volume : цел32;
			нач
				volume := сам.volume;
				если (volume < 0) то volume := 0 всё;
				если (volume > 255) то volume := 255 всё;

				left := НИЗКОУР.подмениТипЗначения(цел16, sample);
				right := НИЗКОУР.подмениТипЗначения(цел16, sample[2]);

				(* Multiply volume with a number between 0 and 1. *)

				left := left * volume DIV 256;
				right := right * volume DIV 256;

				sample[0] := симв8ИзКода(left);
				sample[1] := симв8ИзКода(логСдвиг(left, -8));
				sample[2] := симв8ИзКода(right);
				sample[3] := симв8ИзКода(логСдвиг(right, -8))
			кон SampleSetVolume;

			проц {перекрыта}GetVolume*() : цел32;
			нач
				возврат сам.volume
			кон GetVolume;

			проц {перекрыта}GetPosition*() : цел32;
			нач
				возврат firstBufferPos
			кон GetPosition;

			проц {перекрыта}RegisterBufferListener*(bufferListener : SoundDevices.BufferListener);
			нач {единолично}
				сам.bufferListener := bufferListener
			кон RegisterBufferListener;

			проц {перекрыта}QueueBuffer*(x : SoundDevices.Buffer);
			перем
				bufferListItem : BufferList;
			нач
				нов(bufferListItem);
				bufferListItem.buffer := x;

				если firstBuffer = НУЛЬ то
					firstBuffer := bufferListItem
				иначе
					lastBuffer.next := bufferListItem
				всё;

				lastBuffer := bufferListItem
			кон QueueBuffer;

			проц ReturnBuffer*() : SoundDevices.Buffer;
			нач
				возврат playRecBuffer
			кон ReturnBuffer;

			проц {перекрыта}Start*;
			нач
				СТОП(99) (* ABSTRACT *)
			кон Start;

			проц {перекрыта}Pause*;
			нач
				state := StatePaused
			кон Pause;

			проц {перекрыта}Stop*;
			нач
				state := StateStoped;
				ReturnAllBuffers;
			кон Stop;

			проц {перекрыта}Close*;
			нач
				СТОП(99) (* ABSTRACT *)
			кон Close;

			проц CallBufferListener() : булево;
			нач
				если bufferListener = НУЛЬ то
					если firstBuffer # НУЛЬ то
						firstBuffer := firstBuffer.next
					всё;
					firstBufferPos := 0;
					возврат ложь
				всё;

				bufferListener(firstBuffer.buffer);
				firstBuffer := firstBuffer.next;
				firstBufferPos := 0;
				возврат истина
			кон CallBufferListener;

			проц ReturnAllBuffers;
			перем
				item : BufferList;
			нач {единолично}
				если bufferListener = НУЛЬ то возврат всё;
				item := firstBuffer;
				нцПока item # НУЛЬ делай
					bufferListener(item.buffer);
					item := item.next
				кц;
				firstBuffer := НУЛЬ
			кон ReturnAllBuffers;

		кон Channel;


		PlayChannel = окласс(Channel);

			проц &ConstrPlay*(driver : Driver; samplingRate, samplingResolution, nofSubChannels : цел32);
			нач
				Constr(driver, samplingRate, samplingResolution, nofSubChannels);
			кон ConstrPlay;

			проц {перекрыта}Start*;
			нач
				утв(state # StateClosed);
				state := StatePlaying;
				driver.Enable;
			кон Start;

			проц {перекрыта}Close*;
			нач
				Stop;
				state := StateClosed;
				driver.RemovePlayChannel(сам)
			кон Close;

			(*
				1) PCM Out Interrupt -> Driver::QueueBuffer -> Driver::MixBuffers -> PlayChannel::PrepareData
				2) Driver::MixBuffer -> PlayChannel::ReturnBuffer

				Prepare data into playRecBuffer. That buffer is then read by Driver::MixBuffers which mixes
				several channels into one channel, which will be enqueued for DMA to read and play.

				WavePlayer enqueues a buffer the the channel. When this channel has emptied the buffer
				it calls the registered buffer listener and asks the player to enqueue another buffer.
			*)
			проц PrepareData*(toRate : цел32);
			перем
				playRecBufferPos : цел32;
				sample : Sample;
				srate : цел32;
			нач {единолично}
				srate := 0;

				нцПока (firstBuffer # НУЛЬ) и (playRecBufferPos < BufferSize) делай

					(* Upsampling. If srate > torate then we insert the sample,
						else we strech buffer by inserting silent data. *)
					srate := srate + samplingRate;
					если (srate >= toRate) то
						srate := srate остОтДеленияНа toRate;

						(* 16 bit stereo *)
						если (samplingResolution = 0) и (nofSubChannels = 2) то
							sample[0] := firstBuffer.buffer.data[firstBufferPos];
							sample[1] := firstBuffer.buffer.data[firstBufferPos+1];
							sample[2] := firstBuffer.buffer.data[firstBufferPos+2];
							sample[3] := firstBuffer.buffer.data[firstBufferPos+3];
							увел(firstBufferPos, 4);

						(* 16 bit mono *)
						аесли (samplingResolution = 0) и (nofSubChannels = 1) то
							sample[0] := firstBuffer.buffer.data[firstBufferPos];
							sample[1] := firstBuffer.buffer.data[firstBufferPos+1];
							MonoToStereo(sample);
							увел(firstBufferPos, 2);

						(* 8 bit stereo *)
						аесли (samplingResolution = 1) и (nofSubChannels = 2) то
							sample[0] := firstBuffer.buffer.data[firstBufferPos];
							sample[1] := firstBuffer.buffer.data[firstBufferPos+1];
							EightToSixten(sample);
							увел(firstBufferPos, 2);

						(* 8 bit stereo *)
						аесли (samplingResolution = 1) и (nofSubChannels = 1) то
							sample[0] := firstBuffer.buffer.data[firstBufferPos];
							EightToSixten(sample);
							MonoToStereo(sample);
							увел(firstBufferPos);

						(* Unsupported bitrate and no of channels *)
						иначе
							ЛогЯдра.пЦел64(samplingResolution, 1); ЛогЯдра.пСтроку8(" bit, ");
							ЛогЯдра.пЦел64(nofSubChannels, 1); ЛогЯдра.пСтроку8(" channels are not supported");
							СТОП(99)
						всё;

						SampleSetVolume(sample);

						playRecBuffer.data[playRecBufferPos] := sample[0];
						playRecBuffer.data[playRecBufferPos+1] := sample[1];
						playRecBuffer.data[playRecBufferPos+2] := sample[2];
						playRecBuffer.data[playRecBufferPos+3] := sample[3];

						увел(playRecBufferPos, 4);

						(* End of queue buffer *)
						если firstBufferPos >= firstBuffer.buffer.len то
							если ~CallBufferListener() то
								OutputSilentData(playRecBufferPos);
								возврат
							всё;
						всё;

					(* Insert silent sample *)
					иначе
						(*KernelLog.String("Upsample"); KernelLog.Ln;*)
						playRecBuffer.data[playRecBufferPos] := симв8ИзКода(0);
						playRecBuffer.data[playRecBufferPos+1] := симв8ИзКода(0);
						playRecBuffer.data[playRecBufferPos+2] := симв8ИзКода(0);
						playRecBuffer.data[playRecBufferPos+3] := симв8ИзКода(0);

						увел(playRecBufferPos, 4);
					всё;
				кц;

					(* If buffer is not filled up then output silent data *)
					OutputSilentData(playRecBufferPos)
			кон PrepareData;

			(* 8 bit => 16 bit conversion *)
			проц EightToSixten(перем sample : Sample);
			нач
				sample[3] := симв8ИзКода(кодСимв8(sample[1])-128);
				sample[2] := симв8ИзКода(0);
				sample[1] := симв8ИзКода(кодСимв8(sample[0])-128);
				sample[0] := симв8ИзКода(0)
			кон EightToSixten;

			(* mono => stereo conversion *)
			проц MonoToStereo(перем sample : Sample);
			нач
				sample[2] := sample[0];
				sample[3] := sample[1]
			кон MonoToStereo;

			(* If there is no more data to fill up playRecBuffer with we output silent data. *)
			проц OutputSilentData(playRecBufferPos : цел32);
			нач
				нцПока (playRecBufferPos < BufferSize) делай
					playRecBuffer.data[playRecBufferPos] := silentData;
					увел(playRecBufferPos, 1)
				кц
			кон OutputSilentData;

		кон PlayChannel;


		RecChannel = окласс(Channel)

			проц {перекрыта}Start*;
			нач
				утв(state # StateClosed);
				state := StateRecording;
				driver.Enable
			кон Start;

			проц {перекрыта}Close*;
			нач
				Stop;
				state := StateClosed;
				driver.RemoveRecChannel(сам);
			кон Close;

			(*
				PCM In Interrupt -> Driver::ReturnBuffers -> RecChannel::PrepareData
				Prepares data and return it to RecPlayer
			*)
			проц PrepareData(buffer : SoundDevices.Buffer; toRate : цел32);
			перем
				bufferPos : цел32;
				sample : Sample;
				sampleSize : цел8;
				srate : цел32;
			нач
				srate := 0;
				bufferPos := 0;
				нцПока (firstBuffer # НУЛЬ) и (bufferPos < buffer.len) делай

					srate := srate + toRate;
					если (srate >= samplingRate) то
						srate := srate остОтДеленияНа samplingRate;

						sample[0] := buffer.data[bufferPos];
						sample[1] := buffer.data[bufferPos+1];
						sample[2] := buffer.data[bufferPos+2];
						sample[3] := buffer.data[bufferPos+3];

						(*SampleSetVolume(sample);*)
						увел(bufferPos, 4);

						(* 16 bit stereo *)
						если (samplingResolution = 0) и (nofSubChannels = 2) то
							sampleSize := 4

						(* 16 bit mono *)
						аесли (samplingResolution = 0) и (nofSubChannels = 1) то
							StereoToMono(sample);
							sampleSize := 2

						(* 8 bit stereo *)
						аесли (samplingResolution = 1) и (nofSubChannels = 2) то
							SixtenToEight(sample);
							sampleSize := 2

						(* 8 bit stereo *)
						аесли (samplingResolution = 1) и (nofSubChannels = 1) то
							StereoToMono(sample);
							SixtenToEight(sample);
							sampleSize := 1

						(* Unsupported bitrate and no of channels *)
						иначе
							ЛогЯдра.пЦел64(samplingResolution, 1); ЛогЯдра.пСтроку8(" bit, ");
							ЛогЯдра.пЦел64(nofSubChannels, 1); ЛогЯдра.пСтроку8(" channels are not supported");
							СТОП(99)
						всё;

						НИЗКОУР.копируйПамять(
							адресОт(sample[0]),
							адресОт(firstBuffer.buffer.data[0]) + firstBufferPos,
							sampleSize);
						увел(firstBufferPos, sampleSize);

						(* If buffer is filled, then return buffer *)
						если firstBufferPos >= firstBuffer.buffer.len то
							если ~CallBufferListener() то
								возврат
							всё;
						всё;

					(* Drop sample *)
					иначе
						увел(bufferPos, 4);
					всё;

				кц;

			кон PrepareData;

			(* stereo => mono conversion *)
			проц StereoToMono(перем sample : Sample);
			перем
				mix, left, right : цел32;
			нач
				(* Take average of left and right channel *)
				left := НИЗКОУР.подмениТипЗначения(цел16, sample);
				right := НИЗКОУР.подмениТипЗначения(цел16, sample[2]);
				mix := логСдвиг(left + right, -1);

				sample[0] := симв8ИзКода(mix);
				sample[1] := симв8ИзКода(логСдвиг(mix, -8))
			кон StereoToMono;

			(* 16 bit => 8 bit conversion *)
			проц SixtenToEight(перем sample : Sample);
			нач
				sample[0] := симв8ИзКода(кодСимв8(sample[1]) - 128);
				sample[1] := симв8ИзКода(кодСимв8(sample[3]) - 128)
			кон SixtenToEight;

		кон RecChannel;

	перем
		silentData : симв8;
		firstDriver : DriverList;
		DriverTab : Plugins.Table;
		installedDriver : булево;



	проц SetBit(перем a : цел32; n : цел32);
	нач
		утв((n >= 0) и (n < 32));
		включиВоМнвоНаБитах(НИЗКОУР.подмениТипЗначения(мнвоНаБитахМЗ, a), n)
	кон SetBit;

(*
	PROCEDURE ClearBit(VAR a : SIGNED32; n : SIGNED32);
	VAR t : SET;
	BEGIN
		ASSERT((n >= 0) & (n < 32));
		t := SYSTEM.VAL(SET, a);
		EXCL(t, n);
		a := SYSTEM.VAL(SIGNED32, t)
	END ClearBit;
*)

	проц TestBit(a, n : цел32) : булево;
	нач
		возврат n в НИЗКОУР.подмениТипЗначения(мнвоНаБитахМЗ, a);
	кон TestBit;

	(* Get physical address for DMA transfers *)
	проц GetPhysicalAdr(adr: адресВПамяти; size : размерМЗ) : ЭВМ.Address32;
	перем
		physadr : ЭВМ.Address32;
	нач
		(* All data has to be continous in memory since DMA does not understand pages *)
		physadr := ЭВМ.ДайФизическийАдресДиапазонаПамяти(adr, size)(ЭВМ.Address32);
		утв(physadr # ЭВМ.НулевойАдрес);
		(* Address must be 8 byte align. See Intel programmes manual
		for close details of the Buffer Description List *)
		утв(physadr остОтДеленияНа 4 = 0);
		возврат physadr
	кон GetPhysicalAdr;

	(* Scan after PCI card and install it if found *)
	проц ScanPCI(vendid, devid : цел32);
	перем
		index, i : цел32; res: целМЗ;
		CmdReg : цел32;
		bus, dev, fkt : цел32;
		nambar, nabmbar, irq : цел32;
		driver : Driver;
		driverList : DriverList;

	нач
		если DebugInit в Debug то ЛогЯдра.пСтроку8("Search for PCI card"); ЛогЯдра.пВК_ПС всё;

		index := 0;
		нцПока (index < 10) и
			(PCI.FindPCIDevice(devid, vendid, index, bus, dev, fkt) = PCI.Done) делай

			res := PCI.ReadConfigWord(bus, dev, fkt, PCI.CmdReg, i);
			если DebugInit в Debug то
				ЛогЯдра.пСтроку8("Vendor ID: "); ЛогЯдра.п16ричное(vendid, 4); ЛогЯдра.пСтроку8("h"); ЛогЯдра.пВК_ПС;
				ЛогЯдра.пСтроку8("Device ID: "); ЛогЯдра.п16ричное(devid, 4); ЛогЯдра.пСтроку8("h"); ЛогЯдра.пВК_ПС;
				ЛогЯдра.пСтроку8("Bus: "); ЛогЯдра.пЦел64(bus, 1); ЛогЯдра.пВК_ПС;
				ЛогЯдра.пСтроку8("Device: "); ЛогЯдра.пЦел64(dev, 1); ЛогЯдра.пВК_ПС;
				ЛогЯдра.пСтроку8("Function: "); ЛогЯдра.пЦел64(fkt, 1); ЛогЯдра.пВК_ПС;
				ЛогЯдра.пСтроку8("Command: "); ЛогЯдра.п16ричное(i, 4); ЛогЯдра.пСтроку8("h"); ЛогЯдра.пВК_ПС
			всё;

			(* Get NAMBAR, Native Audio Mixer Base Address Register *)
			res := PCI.ReadConfigDword(bus, dev, fkt, PCI.Adr0Reg, nambar);
			утв(res = PCI.Done);
			утв(нечётноеЛи¿(nambar));
			умень(nambar, nambar остОтДеленияНа 16);
			если DebugInit в Debug то
				ЛогЯдра.пСтроку8("Native Audio Mastering Base Address (NAMABR): "); ЛогЯдра.пЦел64(nambar, 5); ЛогЯдра.пВК_ПС
			всё;

			(* Get NAMBMBAR, Native Audio Bus Mastering Base Address Register *)
			res := PCI.ReadConfigDword(bus, dev, fkt, PCI.Adr1Reg, nabmbar);
			утв(res = PCI.Done);
			утв(нечётноеЛи¿(nabmbar));
			умень(nabmbar, nabmbar остОтДеленияНа 16);
			если DebugInit в Debug то
				ЛогЯдра.пСтроку8("Native Audio Bus Mastering Base Address (NABMABR): "); ЛогЯдра.пЦел64(nabmbar, 5); ЛогЯдра.пВК_ПС
			всё;

			(* Get IRQ number *)
			res := PCI.ReadConfigByte(bus, dev, fkt, PCI.IntlReg, irq);
			утв(res = PCI.Done);
			если DebugInit в Debug то
				ЛогЯдра.пСтроку8("IRQ: "); ЛогЯдра.пЦел64(irq, 2); ЛогЯдра.пВК_ПС
			всё;

			(* AC97 registers have to be enabled in the PCI Command Register *)
			res := PCI.ReadConfigWord(bus, dev, fkt, PCI.CmdReg, CmdReg);
			утв(res = PCI.Done);
			SetBit(CmdReg, 0);
			res := PCI.WriteConfigWord(bus, dev, fkt, PCI.CmdReg, CmdReg);
			утв(res = PCI.Done);

			(* Create Driver Object *)
			нов(driver, nambar, nabmbar, irq);

			ЛогЯдра.пСтроку8("Intel 810 sound driver installed."); ЛогЯдра.пВК_ПС;

			нов(driverList);
			driverList.driver := driver;
			driverList.next := firstDriver;
			firstDriver := driverList;

			увел(index)
		кц
кон ScanPCI;


	(* Install the driver *)
	проц Install*;
	нач {единолично}
		(* Avoid multiple installation *)
		если ~installedDriver то
			(* Scan for hardware *)
			(* TODO - extend this list *)
			ScanPCI(8086H,2485H);
			ScanPCI(8086H, 24C5H);
			ScanPCI(8086H, 266EH); (* Intel 915 chipset *)

			(* These chips should work, but it hasn't been tested! *)
			(* This list could probaly be further extended *)
			если (InsecureMode = истина) то
				ScanPCI(8086H, 2415H);
				ScanPCI(8086H, 2425H);
				ScanPCI(8086H, 2445H);
				ScanPCI(8086H, 24D5H);
				ScanPCI(8086H, 7195H);
				(*ScanPCI(8086H, 7012H);*)
			всё;

			installedDriver := истина
		всё;
	кон Install;

	(** Enable is a hardware enable. *)
	проц Enable*;
	перем
		item : DriverList;
	нач
		item := firstDriver;
		нцПока item # НУЛЬ делай
			item.driver.Enable;
			item := item.next
		кц;
	кон Enable;

	(** Enable is a hardware pause. *)
	проц Disable*;
	перем
		item : DriverList;
	нач
		item := firstDriver;
		нцПока item # НУЛЬ делай
			item.driver.Disable;
			item := item.next
		кц;
	кон Disable;

	(** Cleanup function called when the module is unloaded *)
	проц Cleanup;
	перем
		item : DriverList;
	нач
		item := firstDriver;
		нцПока item # НУЛЬ делай
			item.driver.Finalize;
			item := item.next
		кц
	кон Cleanup;

нач
	Modules.InstallTermHandler(Cleanup)
кон i810Sound.


PC.Compile * \s ~
System.Free i810Sound ~ (* Make sure module is unloaded *)
Aos.Call i810Sound.Install ~

Aos.Call i810Sound.Disable ~ (* pause all *)
Aos.Call i810Sound.Enable ~

Aos.Call PlayRecWave.Play x.wav ~
Aos.Call MP3Player.Play DATA:/SomeMp3File.Mp3 ~

System.Free i810Sound ~
System.Free i810Sound~
