(* Aos, Copyright 2001, Pieter Muller, ETH Zurich *)

модуль DiskFS; (** AUTHOR "pjm"; PURPOSE "Aos disk file system"; *)

использует НИЗКОУР, ЭВМ, ЛогЯдра, Modules, Clock, Files, Kernel;

конст
	SkipIndexFlag = 31; (* DiskFS filesystem flag. Do not write index map back to disk when unmounting *)
	MinVolSize = 4;

	SectorFactor = 29;

	(* WARNING: When the maximum length of filenames is changed, volumes must be re-formatted!!! *)
	FileNameLength = 128; (* includes 0X *)

	SectorTableSize = 128;
	SectorSize = 4096;
	IndexSize = SectorSize DIV 4;
	DiskAdrSize = 4; (* bytes *)

	HeaderSize =  4 (* mark *) + FileNameLength + 4*4 (* aleng, bleng, time, date *) + (SectorTableSize+1)*DiskAdrSize;

	DirEntrySize = FileNameLength + 2*DiskAdrSize (* adr, p *);
	DirPgHeaderSize = 2*4 (* mark, m *) + DiskAdrSize (* p0 *) + 4 (* min. FillerSize *);
	DirPgSize = (SectorSize - DirPgHeaderSize) DIV DirEntrySize;
	FillerSize = (SectorSize - DirPgHeaderSize) остОтДеленияНа DirEntrySize + 4 (* min. FillerSize *);

	DirRootAdr = 1*SectorFactor;
	N = DirPgSize DIV 2;

	DirMark = цел32(9B1EA38DH);
	HeaderMark = цел32(9BA71D86H);

	MapIndexSize = (SectorSize-4) DIV 4;
	MapSize = SectorSize DIV размер16_от (мнвоНаБитахМЗ);	(* {MapSize MOD SIZEOF (SET) = 0} *)
	MapMark = цел32(9C2F977FH);

	MaxBufs = 1024;
	InitHint = 200*SectorFactor;

	Closed = 0X; Opening = 1X; Opened = 2X; Closing = 3X;

	SetSize = матМаксимум (мнвоНаБитахМЗ) + 1;

тип
	DiskSector = запись кон;	(* Oberon Sector, size SectorSize *)
	DiskSectorArr = массив SectorSize из симв8;

	DiskAdr = цел32;
	FileName = массив FileNameLength из симв8;
	SectorTable = массив SectorTableSize из DiskAdr;

	FileHeader = запись (DiskSector)   (* allocated in the first page of each file on disk *)
		mark: цел32;
		name: FileName;
		aleng, bleng: цел32;
		date, time: цел32;
		sec: SectorTable;
		ext: DiskAdr;
		data: массив SectorSize-HeaderSize из симв8
	кон;

	IndexSector = запись (DiskSector)
		x: массив IndexSize из DiskAdr
	кон;

	DataSector = запись (DiskSector)
		B: массив SectorSize из симв8
	кон;

	DirEntry = запись	(*B-tree node*)
		name: FileName;
		adr: DiskAdr; (*sec no of file header*)
		p: DiskAdr  (*sec no of descendant in directory*)
	кон;

	DirPage = запись (DiskSector)
		mark: цел32;
		m: цел32;
		p0: DiskAdr; (*sec no of left descendant in directory*)
		fill: массив FillerSize из симв8;
		e: массив DirPgSize из DirEntry
	кон;

	MapIndex = запись (DiskSector)
		mark: цел32;
		index: массив MapIndexSize из DiskAdr
	кон;

	MapSector = запись (DiskSector)
		map: массив MapSize из мнвоНаБитахМЗ
	кон;

	Buffer = укль на запись (Files.Hint)
		apos, lim: цел32;
		mod: булево;
		next: Buffer;
		data: DataSector
	кон;

	SuperIndex = укль на запись
		adr: DiskAdr;
		mod: булево;
		sub: массив IndexSize из SubIndex
	кон;

	SubIndex = укль на запись
		adr: DiskAdr;
		mod: булево;
		sec: IndexSector
	кон;

тип
	Directory = окласс
		перем
			vol: Files.Volume;
			state: симв8;
			lastSectorReserved, noCleanup: булево;

		(* "exported" methods: Search, Insert, Delete *)

		проц Search(перем name: FileName; перем A: DiskAdr);
		перем i, L, R: цел32; dadr: DiskAdr; a: DirPage;
		нач {единолично}
			утв(state = Opened);
			dadr := DirRootAdr;
			нц
				GetSector(vol, dadr, a);
				утв(a.mark = DirMark);
				L := 0; R := a.m; (*binary search*)
				нцПока L < R делай
					i := (L+R) DIV 2;
					если name <= a.e[i].name то R := i иначе L := i+1 всё
				кц ;
				если (R < a.m) и (name = a.e[R].name) то
					A := a.e[R].adr; прервиЦикл (*found*)
				всё ;
				если R = 0 то dadr := a.p0 иначе dadr := a.e[R-1].p всё ;
				если dadr = 0 то A := 0; прервиЦикл  (*not found*) всё
			кц
		кон Search;

		проц insert(перем name: FileName; dpg0:  DiskAdr; перем h: булево; перем v: DirEntry; fad: DiskAdr);
		(*h = "tree has become higher and v is ascending element"*)
		перем ch: симв8; i, j, L, R: цел32; dpg1: DiskAdr; u: DirEntry; a: DirPage;
		нач (*~h*)
			утв(state = Opened);
			GetSector(vol, dpg0, a);
			L := 0; R := a.m; (*binary search*)
			нцПока L < R делай
				i := (L+R) DIV 2;
				если name <= a.e[i].name то R := i иначе L := i+1 всё
			кц ;
			если (R < a.m) и (name = a.e[R].name) то
				a.e[R].adr := fad; PutSector(vol, dpg0, a)  (*replace*)
			иначе (*not on this page*)
				если R = 0 то dpg1 := a.p0 иначе dpg1 := a.e[R-1].p всё ;
				если dpg1 = 0 то (*not in tree, insert*)
					u.adr := fad; u.p := 0; h := истина; j := 0;
					нцДо ch := name[j]; u.name[j] := ch; увел(j)
					кцПри ch = 0X;
					нцПока j < FileNameLength делай u.name[j] := 0X; увел(j) кц
				иначе
					insert(name, dpg1, h, u, fad)
				всё ;
				если h то (*insert u to the left of e[R]*)
					если a.m < DirPgSize то
						h := ложь; i := a.m;
						нцПока i > R делай умень(i); a.e[i+1] := a.e[i] кц ;
						a.e[R] := u; увел(a.m)
					иначе (*split page and assign the middle element to v*)
						a.m := N; a.mark := DirMark;
						если R < N то (*insert in left half*)
							v := a.e[N-1]; i := N-1;
							нцПока i > R делай умень(i); a.e[i+1] := a.e[i] кц ;
							a.e[R] := u; PutSector(vol, dpg0, a);
							AllocSector(vol, dpg0, dpg0); i := 0;
							нцПока i < N делай a.e[i] := a.e[i+N]; увел(i) кц
						иначе (*insert in right half*)
							PutSector(vol, dpg0, a);
							AllocSector(vol, dpg0, dpg0); умень(R, N); i := 0;
							если R = 0 то v := u
							иначе v := a.e[N];
								нцПока i < R-1 делай a.e[i] := a.e[N+1+i]; увел(i) кц ;
								a.e[i] := u; увел(i)
							всё ;
							нцПока i < N делай a.e[i] := a.e[N+i]; увел(i) кц
						всё ;
						a.p0 := v.p; v.p := dpg0
					всё ;
					PutSector(vol, dpg0, a)
				всё
			всё
		кон insert;

		проц Insert(перем name: FileName; fad: DiskAdr);
		перем oldroot: DiskAdr; h: булево; U: DirEntry; a: DirPage;
		нач {единолично}
			h := ложь;
			insert(name, DirRootAdr, h, U, fad);
			если h то (*root overflow*)
				GetSector(vol, DirRootAdr, a);
				AllocSector(vol, DirRootAdr, oldroot); PutSector(vol, oldroot, a);
				a.mark := DirMark; a.m := 1; a.p0 := oldroot; a.e[0] := U;
				PutSector(vol, DirRootAdr, a)
			всё
		кон Insert;

		проц underflow(перем c: DirPage; (*ancestor page*) dpg0:  DiskAdr; s: цел32; (*insertion point in c*)
				перем h: булево); (*c undersize*)
		перем i, k: цел32; dpg1: DiskAdr; a, b: DirPage; (*a := underflowing page, b := neighbouring page*)
		нач
			GetSector(vol, dpg0, a);
			(*h & a.m = N-1 & dpg0 = c.e[s-1].p*)
			если s < c.m то (*b := page to the right of a*)
				dpg1 := c.e[s].p; GetSector(vol, dpg1, b);
				k := (b.m-N+1) DIV 2; (*k = no. of items available on page b*)
				a.e[N-1] := c.e[s]; a.e[N-1].p := b.p0;
				если k > 0 то
					(*move k-1 items from b to a, one to c*) i := 0;
					нцПока i < k-1 делай a.e[i+N] := b.e[i]; увел(i) кц ;
					c.e[s] := b.e[i]; b.p0 := c.e[s].p;
					c.e[s].p := dpg1; умень(b.m, k); i := 0;
					нцПока i < b.m делай b.e[i] := b.e[i+k]; увел(i) кц ;
					PutSector(vol, dpg1, b); a.m := N-1+k; h := ложь
				иначе (*merge pages a and b, discard b*) i := 0;
					нцПока i < N делай a.e[i+N] := b.e[i]; увел(i) кц ;
					i := s; умень(c.m);
					нцПока i < c.m делай c.e[i] := c.e[i+1]; увел(i) кц ;
					a.m := 2*N; h := c.m < N;
					FreeSector(vol, dpg1) (* free b *)
				всё ;
				PutSector(vol, dpg0, a)
			иначе (*b := page to the left of a*) умень(s);
				если s = 0 то dpg1 := c.p0 иначе dpg1 := c.e[s-1].p всё ;
				GetSector(vol, dpg1, b);
				k := (b.m-N+1) DIV 2; (*k = no. of items available on page b*)
				если k > 0 то
					i := N-1;
					нцПока i > 0 делай умень(i); a.e[i+k] := a.e[i] кц ;
					i := k-1; a.e[i] := c.e[s]; a.e[i].p := a.p0;
					(*move k-1 items from b to a, one to c*) умень(b.m, k);
					нцПока i > 0 делай умень(i); a.e[i] := b.e[i+b.m+1] кц ;
					c.e[s] := b.e[b.m]; a.p0 := c.e[s].p;
					c.e[s].p := dpg0; a.m := N-1+k; h := ложь;
					PutSector(vol, dpg0, a)
				иначе (*merge pages a and b, discard a*)
					c.e[s].p := a.p0; b.e[N] := c.e[s]; i := 0;
					нцПока i < N-1 делай b.e[i+N+1] := a.e[i]; увел(i) кц ;
					b.m := 2*N; умень(c.m); h := c.m < N;
					FreeSector(vol, dpg0) (* free a *)
				всё ;
				PutSector(vol, dpg1, b)
			всё
		кон underflow;

		проц delete(перем name: FileName; dpg0: DiskAdr; перем h: булево; перем fad: DiskAdr);
		(*search and delete entry with key name; if a page underflow arises,
			balance with adjacent page or merge; h := "page dpg0 is undersize"*)
		перем i, L, R: цел32; dpg1: DiskAdr; a: DirPage;

			проц del(dpg1: DiskAdr; перем h: булево);
				перем dpg2: DiskAdr; (*global: a, R*) b: DirPage;
			нач
				GetSector(vol, dpg1, b); dpg2 := b.e[b.m-1].p;
				если dpg2 # 0 то del(dpg2, h);
					если h то underflow(b, dpg2, b.m, h); PutSector(vol, dpg1, b) всё
				иначе
					b.e[b.m-1].p := a.e[R].p; a.e[R] := b.e[b.m-1];
					умень(b.m); h := b.m < N; PutSector(vol, dpg1, b)
				всё
			кон del;

		нач (*~h*)
			утв(state = Opened);
			GetSector(vol, dpg0, a);
			L := 0; R := a.m; (*binary search*)
			нцПока L < R делай
				i := (L+R) DIV 2;
				если name <= a.e[i].name то R := i иначе L := i+1 всё
			кц ;
			если R = 0 то dpg1 := a.p0 иначе dpg1 := a.e[R-1].p всё ;
			если (R < a.m) и (name = a.e[R].name) то
				(*found, now delete*) fad := a.e[R].adr;
				если dpg1 = 0 то  (*a is a leaf page*)
					умень(a.m); h := a.m < N; i := R;
					нцПока i < a.m делай a.e[i] := a.e[i+1]; увел(i) кц
				иначе del(dpg1, h);
					если h то underflow(a, dpg1, R, h) всё
				всё ;
				PutSector(vol, dpg0, a)
			аесли dpg1 # 0 то
				delete(name, dpg1, h, fad);
				если h то underflow(a, dpg1, R, h); PutSector(vol, dpg0, a) всё
			иначе (*not in tree*) fad := 0
			всё
		кон delete;

		проц Delete(перем name: FileName; перем fad: DiskAdr);
		перем h: булево; newroot: DiskAdr; a: DirPage;
		нач {единолично}
			h := ложь;
			delete(name, DirRootAdr, h, fad);
			если h то (*root underflow*)
				GetSector(vol, DirRootAdr, a);
				если (a.m = 0) и (a.p0 # 0) то
					newroot := a.p0; GetSector(vol, newroot, a);
					PutSector(vol, DirRootAdr, a); (*discard newroot*)
					FreeSector(vol, newroot)
				всё
			всё
		кон Delete;

		проц Startup;
		перем
			j, sec, size, q, free, thres: цел32; mi: MapIndex; ms: MapSector;
			s: массив 10 из симв8; found: булево;
		нач	(* only called from Init *)
			size := vol.size; found := ложь;
			если (vol.Available() = size) и (size # 0) то	(* all sectors available *)
				GetSector(vol, size*SectorFactor, mi);
				если mi.mark = MapMark то
					j := 0;	(* check consistency of index *)
					нцПока (j # MapIndexSize) и (mi.index[j] >= 0) и (mi.index[j] остОтДеленияНа SectorFactor = 0) делай
						увел(j)
					кц;
					если j = MapIndexSize то
						found := истина;
						mi.mark := 0; PutSector(vol, size*SectorFactor, mi);	(* invalidate index *)
						j := 0; sec := 1; q := 0;
						нц
							если (j = MapIndexSize) или (mi.index[j] = 0) то прервиЦикл всё;
							GetSector(vol, mi.index[j], ms);
							нцДо
								если (sec остОтДеленияНа SetSize) в ms.map[sec DIV SetSize остОтДеленияНа MapSize] то
									MarkSector(vol, sec*SectorFactor);
									увел(q)
								всё;
								если sec = size то прервиЦикл всё;
								увел(sec)
							кцПри sec остОтДеленияНа (MapSize*SetSize) = 0;
							увел(j)
						кц;
						ЭВМ.ДайЗначениеКлючаКонфигурацииЯОС("DiskGC", s);
						thres := 0; j := 0;
						нцПока s[j] # 0X делай thres := thres*10+(кодСимв8(s[j])-48); увел(j) кц;
						если thres < 10 то thres := 10
						аесли thres > 100 то thres := 100
						всё;
						утв(q = size-vol.Available());
						free := vol.Available()*100 DIV size;
						если (free > thres) и (vol.Available() > 100000H DIV SectorSize) то
							state := Opened
						иначе	(* undo *)
							нцДля j := SectorFactor до size*SectorFactor шаг SectorFactor делай
								если Marked(vol, j) то FreeSector(vol, j) всё
							кц;
							утв(vol.Available() = size);
							ЛогЯдра.пСтроку8("DiskFS: "); ЛогЯдра.пЦел64(free, 1);
							ЛогЯдра.пСтроку8("% free, forcing disk GC on ");
							ЛогЯдра.пСтроку8(vol.name); ЛогЯдра.пВК_ПС
						всё
					всё
				всё;
				если ~found то
					ЛогЯдра.пСтроку8("DiskFS: Index not found on ");
					ЛогЯдра.пСтроку8(vol.name); ЛогЯдра.пВК_ПС
				всё
			всё
		кон Startup;

		проц &Init*(vol: Files.Volume);
		перем k: цел32; A: массив 2000 из DiskAdr; files: цел32; bad: булево;

			проц MarkSectors;
			перем L, R, i, j, n: цел32; x: DiskAdr; hd: FileHeader; sup, sub: IndexSector; mark: массив 512 из DiskAdr; markPosition: цел32;

				проц StartMarking;
				нач
					markPosition := 0;
				кон StartMarking;

				проц FinishMarking;
				нач
					vol.MarkBlocks(mark,0,markPosition);
					markPosition := 0;
				кон FinishMarking;

				проц MarkSector(vol: Files.Volume (* ignored *); sec: цел32);
				нач
					mark[markPosition] := sec DIV SectorFactor;
					увел(markPosition);
					если markPosition = длинаМассива(mark) то
						FinishMarking;
					всё;
				кон MarkSector;

				проц sift(L, R: цел32);
					перем i, j: цел32; x: DiskAdr;
				нач j := L; x := A[j];
					нц i := j; j := 2*j + 1;
						если (j+1 < R) и (A[j] < A[j+1]) то увел(j) всё ;
						если (j >= R) или (x > A[j]) то прервиЦикл всё ;
						A[i] := A[j]
					кц ;
					A[i] := x
				кон sift;

			нач
				StartMarking;
				ЛогЯдра.пСтроку8(" marking");
				L := k DIV 2; R := k; (*heapsort*)
				нцПока L > 0 делай умень(L); sift(L, R) кц ;
				нцПока R > 0 делай
					умень(R); x := A[0]; A[0] := A[R]; A[R] := x; sift(L, R)
				кц;
				нцПока L < k делай
					bad := ложь; увел(files);
					если files остОтДеленияНа 128 = 0 то ЛогЯдра.пСимв8(".") всё;
					GetSector(vol, A[L], hd);
					если hd.aleng < SectorTableSize то
						j := hd.aleng + 1;
						нцДо
							умень(j);
							если hd.sec[j] # 0 то MarkSector(vol, hd.sec[j]) иначе hd.aleng := j-1; bad := истина всё
						кцПри j = 0
					иначе
						j := SectorTableSize;
						нцДо
							умень(j);
							если hd.sec[j] # 0 то MarkSector(vol, hd.sec[j]) иначе hd.aleng := j-1; bad := истина всё
						кцПри j = 0;
						если hd.ext = 0 то hd.aleng := SectorTableSize-1; bad := истина всё;
						если ~bad то
							MarkSector(vol, hd.ext); GetSector(vol, hd.ext, sup);
							n := (hd.aleng - SectorTableSize) DIV IndexSize; i := 0;
							нцПока (i <= n) и ~bad делай
								если sup.x[i] # 0 то
									MarkSector(vol, sup.x[i]); GetSector(vol, sup.x[i], sub);
									если i < n то j := IndexSize
									иначе j := (hd.aleng - SectorTableSize) остОтДеленияНа IndexSize + 1
									всё;
									нцДо
										умень(j);
										если (sub.x[j] остОтДеленияНа SectorFactor = 0) и (sub.x[j] > 0) то
											MarkSector(vol, sub.x[j])
										иначе
											bad := истина
										всё
									кцПри j = 0;
									увел(i)
								иначе bad := истина
								всё;
								если bad то
									если i = 0 то hd.aleng := SectorTableSize-1
									иначе hd.aleng := SectorTableSize + (i-1) * IndexSize
									всё
								всё
							кц
						всё
					всё;
					если bad то
						ЛогЯдра.пВК_ПС; ЛогЯдра.пСтроку8(hd.name); ЛогЯдра.пСтроку8(" truncated");
						hd.bleng := SectorSize; если hd.aleng < 0 то hd.aleng := 0 (* really bad *) всё;
						PutSector(vol, A[L], hd)
					всё;
					увел(L)
				кц;
				FinishMarking;
			кон MarkSectors;

			проц TraverseDir(dpg: DiskAdr);
				перем i: цел32; a: DirPage;
			нач
				GetSector(vol, dpg, a); MarkSector(vol, dpg); i := 0;
				нцПока i < a.m делай
					A[k] := a.e[i].adr;
(*
					IF A[k] = 0DEADDEADH THEN
						KernelLog.Enter; KernelLog.Int(dpg DIV SectorFactor, 1); KernelLog.Char(" "); KernelLog.Int(k, 1); KernelLog.Exit
					END;
*)
					увел(k); увел(i);
					если k = 2000 то MarkSectors; k := 0 всё
				кц ;
				если a.p0 # 0 то
					TraverseDir(a.p0); i := 0;
					нцПока i < a.m делай
						TraverseDir(a.e[i].p); увел(i)
					кц
				всё
			кон TraverseDir;

		нач
			сам.vol := vol; lastSectorReserved := ложь;
			если ~(Files.ReadOnly в vol.flags) то
				state := Opening; k := 0;
				Startup;
				если state # Opened то
					files := 0; ЛогЯдра.пСтроку8("DiskFS: Scanning ");
					ЛогЯдра.пСтроку8(vol.name); ЛогЯдра.пСтроку8("...");
					TraverseDir(DirRootAdr);
					MarkSectors;
					ЛогЯдра.пЦел64(files, 6); ЛогЯдра.пСтроку8(" files"); ЛогЯдра.пВК_ПС;
					state := Opened
				всё;
				если ~Marked(vol, vol.size*SectorFactor) то	(* last sector still free *)
					MarkSector(vol, vol.size*SectorFactor); lastSectorReserved := истина	(* allocate it *)
				всё;
				ЛогЯдра.пСтроку8("DiskFS: "); ЛогЯдра.пЦел64(vol.Available() * (SectorSize DIV 1024), 1);
				ЛогЯдра.пСтроку8("K of "); ЛогЯдра.пЦел64(vol.size * (SectorSize DIV 1024), 1);
				ЛогЯдра.пСтроку8("K available on "); ЛогЯдра.пСтроку8(vol.name);
				ЛогЯдра.пВК_ПС
			иначе
				state := Opened
			всё
		кон Init;

		проц Cleanup;
		перем i, j, p, q, sec, size: цел32; mi: MapIndex; ms: MapSector;
		нач {единолично}
			(*KernelLog.String("DiskFS: Cleanup "); KernelLog.String(vol.name); KernelLog.Ln;*)
			state := Closing;
			size := vol.size; i := size*SectorFactor;
			если ~(Files.ReadOnly в vol.flags) и ~noCleanup то
				если lastSectorReserved то FreeSector(vol, i); lastSectorReserved := ложь всё;
				если ~Marked(vol, i) то	(* last sector is available for us *)
					j := 0; sec := 1; q := 0;
					нц
						нцДо умень(i, SectorFactor) кцПри (i = 0) или ~Marked(vol, i);	(* find a free sector *)
						если i = 0 то возврат всё;	(* no more space, don't commit *)
						mi.index[j] := i; увел(j);
						нцДля p := 0 до MapSize-1 делай ms.map[p] := {} кц;
						нцДо
							если Marked(vol, sec*SectorFactor) то
								включиВоМнвоНаБитах(ms.map[sec DIV SetSize остОтДеленияНа MapSize], sec остОтДеленияНа SetSize);
								увел(q)
							всё;
							если sec = size то
								PutSector(vol, i, ms);
								прервиЦикл
							всё;
							увел(sec)
						кцПри sec остОтДеленияНа (MapSize*SetSize) = 0;
						PutSector(vol, i, ms)
					кц;
					нцПока j # MapIndexSize делай mi.index[j] := 0; увел(j) кц;
					mi.mark := MapMark;
					PutSector(vol, size*SectorFactor, mi);	(* commit *)
					ЛогЯдра.пСтроку8("DiskFS: Map saved on ");
					ЛогЯдра.пСтроку8(vol.name); ЛогЯдра.пВК_ПС
				(*ELSE
					KernelLog.String("DiskFS: sector in use "); KernelLog.Int(size, 1); KernelLog.Ln*)
				всё
			(*ELSE
				KernelLog.String("DiskFS: Read-only"); KernelLog.Ln*)
			всё;
			state := Closed; vol := НУЛЬ
		кон Cleanup;

	кон Directory;

тип
	FileSystem = окласс (Files.FileSystem)	(* our file system type *)
		перем
			dir: Directory;
			finalizeFiles: Kernel.FinalizedCollection;
			openFiles: DiskAdrList;
				(* all files that are registered, must be stored separately of finalizeFiles because of race
					between Delete0/Rename0 and deferred execution of file close finalizer *)
			tempRegFileSec: DiskAdrTable; (* temporary used for PurgeOpenedFile *)

		проц &Init*;
		нач нов(finalizeFiles); нов(openFiles); нов(tempRegFileSec)
		кон Init;

		проц {перекрыта}New0*(конст name: массив из симв8): Files.File;
		перем i: цел32; res: целМЗ; f: File; buf: Buffer; head {неОтслСборщиком}: укль {опасныйДоступКПамяти} на FileHeader; namebuf: FileName;
		нач {единолично}
			f := НУЛЬ; Check(name, namebuf, res);
			если res <= 0 то
				нов(buf); buf.apos := 0; buf.mod := истина; buf.lim := HeaderSize; buf.next := buf;
				head := адресОт(buf.data);
				head.mark := HeaderMark;
				head.aleng := 0; head.bleng := HeaderSize; head.name := namebuf;
				Clock.Get(head.time, head.date);
				нов(f); f.fs := сам; f.key := 0; f.aleng := 0; f.bleng := HeaderSize; f.modH := истина;
				f.time := head.time; f.date := head.date;
				f.firstbuf := buf; f.nofbufs := 1; f.name := namebuf; f.sechint := InitHint;
				f.registered := (f.name[0] = 0X);
				f.ext := НУЛЬ; i := 0;
				нцДо f.sec[i] := 0; head.sec[i] := 0; увел(i) кцПри i = SectorTableSize;
				finalizeFiles.Add(f, Collect);
			иначе
				ЛогЯдра.пСтроку8("DiskFS: "); ЛогЯдра.пСтроку8(name); ЛогЯдра.пСтроку8(", res: "); ЛогЯдра.пЦел64(res, 0); ЛогЯдра.пВК_ПС;
			всё;
			возврат f
		кон New0;

		проц {перекрыта}Old0*(конст name: массив из симв8): Files.File;
		перем
			i, k: цел32; res: целМЗ; f: File; header: DiskAdr; buf: Buffer; head {неОтслСборщиком}: укль {опасныйДоступКПамяти} на FileHeader;
			namebuf: FileName; super: SuperIndex; sub: SubIndex; sec: IndexSector;
		нач {единолично}
			f := НУЛЬ; Check(name, namebuf, res);
			если res = 0 то
				dir.Search(namebuf, header);
				если header # 0 то
					нов(buf); buf.apos := 0; buf.next := buf; buf.mod := ложь;

					GetSector(vol, header, buf.data);
					head := адресОт(buf.data);

					нов(f); f.fs := сам; f.key := header;
					f.aleng := head.aleng; f.bleng := head.bleng;
					f.time := head.time; f.date := head.date;
					если f.aleng = 0 то buf.lim := f.bleng иначе buf.lim := SectorSize всё;
					f.firstbuf := buf; f.nofbufs := 1;
					f.name := namebuf; f.registered := истина;
					f.sec := head.sec;
					k := (f.aleng + (IndexSize-SectorTableSize)) DIV IndexSize;
					если k # 0 то
						нов(super); super.adr := head.ext; super.mod := ложь; f.ext := super;
						GetSector(vol, super.adr, sec); i := 0;
						нцПока i # k делай
							нов(sub); sub.adr := sec.x[i]; sub.mod := ложь; super.sub[i] := sub;
							GetSector(vol, sub.adr, sub.sec); увел(i)
						кц;
						нцПока i # IndexSize делай super.sub[i] := НУЛЬ; увел(i) кц
					иначе
						f.ext := НУЛЬ
					всё;
					f.sechint := header; f.modH := ложь;
					finalizeFiles.Add(f, Collect); openFiles.Add(f.key)
				всё
			всё;
			возврат f
		кон Old0;

		проц {перекрыта}Delete0*(конст name: массив из симв8; перем key: цел32; перем res: целМЗ);
		перем adr: DiskAdr; namebuf: FileName; head: FileHeader;
		нач {единолично}
			Check(name, namebuf, res);
			если res = 0 то
				dir.Delete(namebuf, adr);
				key := adr;
				если adr # 0 то
					если ~openFiles.Contains(adr) то
						PurgeByAdr(adr)
					иначе
						GetSector(vol, adr, head);
						head.mark := HeaderMark+1;	(* invalidate mark *)
						PutSector(vol, adr, head)
					всё
				иначе
					res := 2
				всё
			иначе
				key := 0
			всё
		кон Delete0;

		проц {перекрыта}Rename0*(конст old, new: массив из симв8; f: Files.File; перем res: целМЗ);
		перем adr, newAdr: DiskAdr; oldbuf, newbuf: FileName;  head: FileHeader;
		нач {единолично}
			Check(old, oldbuf, res);
			если res = 0 то
				Check(new, newbuf, res);
				если res = 0 то
					dir.Delete(oldbuf, adr);
					если adr # 0 то
						dir.Search(newbuf, newAdr); утв(adr # newAdr);
						если (newAdr # 0) и ~openFiles.Contains(newAdr) то
							PurgeByAdr(newAdr)
						всё;
						если f # НУЛЬ то	(* file is open *)
							утв(f.key = adr);	(* it's key must match *)
							f(File).name := newbuf
						всё;
						dir.Insert(newbuf, adr);
						GetSector(vol, adr, head);
						head.name := newbuf;
						PutSector(vol, adr, head)
					иначе res := 2
					всё
				всё
			всё
		кон Rename0;

		проц {перекрыта}Enumerate0*(конст mask: массив из симв8; flags: мнвоНаБитахМЗ; enum: Files.Enumerator);
		перем b: булево; fh: FileHeader; fn: массив Files.PrefixLength+FileNameLength из симв8;
		нач {единолично}
			b := истина; enumerate(сам, mask, DirRootAdr, flags, enum, b, fh, fn)
		кон Enumerate0;

		проц {перекрыта}FileKey*(конст name: массив из симв8): цел32;
			перем res: целМЗ; namebuf: FileName; header: DiskAdr;
		нач {единолично}
			header := 0;
			Check(name, namebuf, res);
			если res = 0 то
				dir.Search(namebuf, header)
			всё;
			возврат header
		кон FileKey;

		(* exlcusive lock must be acquired, result in tempRegFileSec *)
		проц CollectRegisteredFileSectors(adr: DiskAdr);
		перем hd: FileHeader; i, p, m, n: цел32; super, sub: IndexSector;
		нач
			tempRegFileSec.Clear;
			GetSector(vol, adr, hd);
			tempRegFileSec.Add(adr);
			утв(hd.sec[0] = adr);
			если hd.aleng < SectorTableSize то m := hd.aleng + 1 иначе m := SectorTableSize всё; p := 1;
			нцПока p < m делай
				если hd.sec[p] # 0 то tempRegFileSec.Add(hd.sec[p]) всё;
				увел(p)
			кц;
			если (hd.aleng >= SectorTableSize) и (hd.ext # 0) то
				GetSector(vol, hd.ext, super); tempRegFileSec.Add(hd.ext);
				n := (hd.aleng - SectorTableSize) DIV IndexSize; i := 0;
				нцПока i <= n делай
					если super.x[i] # 0 то
						GetSector(vol, super.x[i], sub); tempRegFileSec.Add(super.x[i]);
						если i < n то m := IndexSize
						иначе m := (hd.aleng - SectorTableSize) остОтДеленияНа IndexSize + 1
						всё;
						p := 0;
						нцПока p < m делай
							если sub.x[p] # 0 то tempRegFileSec.Add(sub.x[p]) всё;
							увел(p)
						кц
					всё;
					увел(i)
				кц
			всё
		кон CollectRegisteredFileSectors;

		(* exlcusive lock must be acquired! *)
		проц PurgeByAdr(adr: DiskAdr);
		перем hd: FileHeader; i, p, m, n: цел32; super, sub: IndexSector;
		нач
			GetSector(vol, adr, hd);
			FreeSector(vol, adr);
			утв(hd.sec[0] = adr);
			если hd.aleng < SectorTableSize то m := hd.aleng + 1 иначе m := SectorTableSize всё; p := 1;
			нцПока p < m делай
				если hd.sec[p] # 0 то FreeSector(vol, hd.sec[p]) всё;
				увел(p)
			кц;
			если (hd.aleng >= SectorTableSize) и (hd.ext # 0) то
				GetSector(vol, hd.ext, super); FreeSector(vol, hd.ext);
				n := (hd.aleng - SectorTableSize) DIV IndexSize; i := 0;
				нцПока i <= n делай
					если super.x[i] # 0 то
						GetSector(vol, super.x[i], sub); FreeSector(vol, super.x[i]);
						если i < n то m := IndexSize
						иначе m := (hd.aleng - SectorTableSize) остОтДеленияНа IndexSize + 1
						всё;
						p := 0;
						нцПока p < m делай
							если sub.x[p] # 0 то FreeSector(vol, sub.x[p]) всё;
							увел(p)
						кц
					всё;
					увел(i)
				кц
			всё
		кон PurgeByAdr;

		(* purge all sectors of f except the sectors in 'except', except may be NIL *)
		проц PurgeOpenedFile(f: File; except: DiskAdrTable);
		перем i, p, m, n: цел32; super, sub: IndexSector; free: массив 512 из DiskAdr; freePosition: размерМЗ;

			проц StartFreeing;
			нач
				freePosition := 0;
			кон StartFreeing;

			проц FinishFreeing;
			нач
				vol.FreeBlocks(free,0,freePosition);
				freePosition := 0;
			кон FinishFreeing;

			проц FreeSector(vol: Files.Volume (* ignored *); sec: цел32);
			нач
				free[freePosition] := sec DIV SectorFactor;
				увел(freePosition);
				если freePosition = длинаМассива(free) то
					FinishFreeing;
				всё;
			кон FreeSector;

			проц FreeExcept(sec: DiskAdr);
			нач
				если (except = НУЛЬ) или ~except.Contains(sec) то FreeSector(vol, sec) всё
			кон FreeExcept;

		нач
			StartFreeing;
			если f.aleng < SectorTableSize то m := f.aleng + 1 иначе m := SectorTableSize всё; p := 0; (* include sec[0] *)
			нцПока p < m делай
				если f.sec[p] # 0 то FreeExcept(f.sec[p]) всё;
				увел(p)
			кц;
			если (f.aleng >= SectorTableSize) и (f.ext # НУЛЬ) и (f.ext.adr # 0) то
				GetSector(vol, f.ext.adr, super); FreeExcept(f.ext.adr);
				n := (f.aleng - SectorTableSize) DIV IndexSize; i := 0;
				нцПока i <= n делай
					если super.x[i] # 0 то
						GetSector(vol, super.x[i], sub); FreeExcept(super.x[i]);
						если i < n то m := IndexSize
						иначе m := (f.aleng - SectorTableSize) остОтДеленияНа IndexSize + 1
						всё;
						p := 0;
						нцПока p < m делай
							если sub.x[p] # 0 то FreeExcept(sub.x[p]) всё;
							увел(p)
						кц
					всё;
					увел(i)
				кц
			всё;
			FinishFreeing;
		кон PurgeOpenedFile;

		проц Close(f: File);
		перем adr: DiskAdr;
		нач {единолично}
			если f.key # 0 то
				утв(openFiles.Contains(f.key));
				openFiles.Remove(f.key);
				dir.Search(f.name, adr);
				если (adr = 0) или (adr # f.key) то (* deleted or overwritten *)
					PurgeOpenedFile(f, НУЛЬ)
				иначе
					CollectRegisteredFileSectors(adr);
					PurgeOpenedFile(f, tempRegFileSec);
					tempRegFileSec.Clear
				всё
			иначе
				PurgeOpenedFile(f, НУЛЬ)
			всё
		кон Close;

		проц {перекрыта}Finalize*;
		нач {единолично}
			dir.Cleanup();
			vol.Finalize;
			Finalize^	(* see note in Files *)
		кон Finalize;

	кон FileSystem;

	DiskAdrArray = укль на массив из DiskAdr;

	(* analogous to TFClasses.List *)
	DiskAdrList = окласс
		перем
			list : DiskAdrArray;
			count : цел32;

		проц &New*;
		нач нов(list, 8); count := 0
		кон New;

		проц Grow;
		перем old: DiskAdrArray; i : цел32;
		нач
			old := list;
			нов(list, длинаМассива(list)*2);
			нцДля i := 0 до count-1 делай list[i] := old[i] кц
		кон Grow;

		проц Add(x: DiskAdr);
		нач {единолично}
			утв(x # 0);
			если count = длинаМассива(list) то Grow всё;
			list[count] := x;
			увел(count)
		кон Add;

		проц Remove(x: DiskAdr);
		перем i : цел32;
		нач {единолично}
			утв(x # 0);
			i := 0; нцПока (i < count) и (list[i] # x) делай увел(i) кц;
			если i < count то
				нцПока (i < count-1) делай list[i] := list[i+1]; увел(i) кц;
				умень(count);
				list[count] := 0
			всё
		кон Remove;

		проц Contains(x: DiskAdr) : булево;
		перем i: цел32;
		нач {единолично}
			i := 0 ; нцПока i < count делай если list[i] = x то возврат истина всё; увел(i) кц;
			возврат ложь
		кон Contains;
	кон DiskAdrList;

	DiskAdrTable = окласс
		перем
			table : DiskAdrArray;
			count :размерМЗ;
			size: размерМЗ; (* cache: invariant size  = LEN(table) *)

		конст
			threshold = 4; (* 1/4 filled -> grow*)

		проц &New*;
		нач нов(table, 8); size := длинаМассива(table)-1; count := 0;
		кон New;

		проц Clear;
		перем i: размерМЗ;
		нач{единолично}
			нцДля i := 0 до длинаМассива(table)-1 делай
				table[i] := 0;
			кц;
			count := 0;
		кон Clear;

		проц Grow;
		перем old: DiskAdrArray; x: цел32; i, index: размерМЗ;
		нач
			old := table;
			нов(table, длинаМассива(old)*2); (* filled with zeroes -- ok *)
			size := длинаМассива(table)-1;
			count := 0;
			нцДля i := 0 до длинаМассива(old)-1 делай
				x := old[i];
				если (x # 0) то
					index := HashValue(x);
					если (table[index] = 0) то
						table[index] := x;
						увел(count);
					иначе
						СТОП(100); (* double entry *)
					всё;
				всё;
			кц;
		кон Grow;

		проц HashValue(key: DiskAdr):размерМЗ;
		перем index, h, i := 0 : размерМЗ;
		нач
			h := key остОтДеленияНа size;
			нцДо
				index := (h + i) остОтДеленияНа size;
				увел(i);
			кцПри((table[index] = 0) или (table[index] = key) или (i > size));
			утв((table[index] = 0) или (table[index] = key));
			возврат index;
		кон HashValue;

		проц Add(x: DiskAdr);
		перем index: размерМЗ;
		нач {единолично}
			утв(x # 0);
			если count > size DIV threshold то Grow всё;
			index := HashValue(x);
			если table[index] = 0 то
				table[index] := x;
				увел(count);
			иначе
				утв(table[index] = x);
			всё;
		кон Add;

		проц Contains(x: DiskAdr) : булево;
		нач {единолично}
			возврат table[HashValue(x)] = x;
		кон Contains;

	кон DiskAdrTable;

тип
	File = окласс (Files.File)
		перем
			aleng, bleng: цел32;
			nofbufs: цел32;
			modH, registered: булево;
			firstbuf: Buffer;
			sechint: DiskAdr;
			name: FileName;
			time, date: цел32;
			ext: SuperIndex;
			sec: SectorTable;

		проц {перекрыта}Set*(перем r: Files.Rider; pos: Files.Position);
		перем a, b: цел32;
		нач {единолично}
			r.eof := ложь; r.res := 0; r.file := сам; r.fs := fs;
			если pos < 0 то
				a := 0; b := HeaderSize
			аесли pos < aleng*SectorSize + bleng - HeaderSize то
				a := (цел32(pos) + HeaderSize) DIV SectorSize; b := (цел32(pos) + HeaderSize) остОтДеленияНа SectorSize
			иначе
				a := aleng; b := bleng
			всё;
			r.apos := a; r.bpos := b; r.hint := firstbuf
		кон Set;

		проц {перекрыта}Pos*(перем r: Files.Rider): Files.Position;
		нач
			возврат цел32(r.apos)*SectorSize + r.bpos - HeaderSize
		кон Pos;

		проц {перекрыта}Read*(перем r: Files.Rider; перем x: симв8);
		перем buf: Buffer;
		нач {единолично}
			buf := r.hint(Buffer);
			если цел32(r.apos) # buf.apos то buf := GetBuf(сам, цел32(r.apos)); r.hint := buf всё;
			если r.bpos < buf.lim то
				x := buf.data.B[r.bpos]; увел(r.bpos)
			аесли цел32(r.apos) < aleng то
				увел(r.apos);
				buf := SearchBuf(сам, цел32(r.apos));
				если buf = НУЛЬ то
					buf := r.hint(Buffer);
					если buf.mod то WriteBuf(сам, buf) всё ;
					ReadBuf(сам, buf, цел32(r.apos))
				иначе
					r.hint := buf
				всё;
				утв(buf.lim > 0);
				x := buf.data.B[0]; r.bpos := 1
			иначе
				x := 0X; r.eof := истина
			всё
		кон Read;

		проц {перекрыта}ReadBytes*(перем r: Files.Rider; перем x: массив из симв8; ofs, len: размерМЗ);
		перем src: адресВПамяти; m: размерМЗ; buf: Buffer;
		нач {единолично}
			если длинаМассива(x)-ofs < len то НИЗКОУР.СТОП(19) всё;
			если len > 0 то
				buf := r.hint(Buffer);
				если цел32(r.apos) # buf.apos то buf := GetBuf(сам, цел32(r.apos)); r.hint := buf всё;
				нц
					если len <= 0 то прервиЦикл всё ;
					src := адресОт(buf.data.B[0]) + r.bpos; m := r.bpos + len;
					если m <= buf.lim то
						НИЗКОУР.копируйПамять(src, адресОт(x[ofs]), len); r.bpos := m; r.res := 0; прервиЦикл
					аесли buf.lim = SectorSize то
						m := buf.lim - r.bpos;
						если m > 0 то НИЗКОУР.копируйПамять(src, адресОт(x[ofs]), m); увел(ofs, m); умень(len, m) всё ;
						если цел32(r.apos) < aleng то
							увел(r.apos); r.bpos := 0; buf := SearchBuf(сам, цел32(r.apos));
							если buf = НУЛЬ то
								buf := r.hint(Buffer);
								если buf.mod то WriteBuf(сам, buf) всё ;
								ReadBuf(сам, buf, цел32(r.apos))
							иначе
								r.hint := buf
							всё
						иначе
							r.bpos := buf.lim; r.res := len; r.eof := истина; прервиЦикл
						всё
					иначе
						m := buf.lim - r.bpos;
						если m > 0 то НИЗКОУР.копируйПамять(src, адресОт(x[ofs]), m); r.bpos := buf.lim всё ;
						r.res := len - m; r.eof := истина; прервиЦикл
					всё
				кц;
			иначе
				r.res := 0
			всё
		кон ReadBytes;

		проц {перекрыта}Write*(перем r: Files.Rider; x: симв8);
		перем buf: Buffer;
		нач {единолично}
			buf := r.hint(Buffer);
			если цел32(r.apos) # buf.apos то buf := GetBuf(сам, цел32(r.apos)); r.hint := buf всё;
			если r.bpos >= buf.lim то
				если r.bpos < SectorSize то
					увел(buf.lim); увел(bleng); modH := истина
				иначе
					WriteBuf(сам, buf); увел(r.apos); buf := SearchBuf(сам, цел32(r.apos));
					если buf = НУЛЬ то
						buf := r.hint(Buffer);
						если цел32(r.apos) <= aleng то
							ReadBuf(сам, buf, цел32(r.apos))
						иначе
							buf.apos := цел32(r.apos); buf.lim := 1; увел(aleng); bleng := 1; modH := истина;
							если (aleng - SectorTableSize) остОтДеленияНа IndexSize = 0 то NewSub(сам) всё
						всё
					иначе
						r.hint := buf
					всё;
					r.bpos := 0
				всё
			всё;
			buf.data.B[r.bpos] := x; увел(r.bpos); buf.mod := истина
		кон Write;

		проц {перекрыта}WriteBytes*(перем r: Files.Rider; конст x: массив из симв8; ofs, len: размерМЗ);
		перем dst: адресВПамяти; m: размерМЗ; buf: Buffer;
		нач {единолично}
			если длинаМассива(x)-ofs < len то НИЗКОУР.СТОП(19) всё;
			если len > 0 то
				buf := r.hint(Buffer);
				если цел32(r.apos) # buf.apos то buf := GetBuf(сам, цел32(r.apos)); r.hint := buf всё;
				нц
					если len <= 0 то прервиЦикл всё;
					buf.mod := истина; dst := адресОт(buf.data.B[0]) + r.bpos; m := r.bpos + len;
					если m <= buf.lim то
						НИЗКОУР.копируйПамять(адресОт(x[ofs]), dst, len); r.bpos := m; прервиЦикл
					аесли m <= SectorSize то
						НИЗКОУР.копируйПамять(адресОт(x[ofs]), dst, len); r.bpos := m;
						bleng := цел32(m); buf.lim := цел32(m); modH := истина; прервиЦикл
					иначе
						m := SectorSize - r.bpos;
						если m > 0 то НИЗКОУР.копируйПамять(адресОт(x[ofs]), dst, m); увел(ofs, m); умень(len, m) всё;
						WriteBuf(сам, buf); увел(r.apos); r.bpos := 0; buf := SearchBuf(сам, цел32(r.apos));
						если buf = НУЛЬ то
							buf := r.hint(Buffer);
							если цел32(r.apos) <= aleng то ReadBuf(сам, buf, цел32(r.apos))
							иначе
								buf.apos := цел32(r.apos); buf.lim := 0; увел(aleng); bleng := 0; modH := истина;
								если (aleng - SectorTableSize) остОтДеленияНа IndexSize = 0 то NewSub(сам) всё
							всё
						иначе
							r.hint := buf
						всё
					всё
				кц
			всё
		кон WriteBytes;

		проц {перекрыта}Length*(): Files.Size;
		нач {единолично}
			возврат aleng*SectorSize + bleng - HeaderSize
		кон Length;

		проц {перекрыта}GetDate*(перем t, d: цел32);
		нач {единолично}
			t := time; d := date
		кон GetDate;

		проц {перекрыта}SetDate*(t, d: цел32);
		нач {единолично}
			modH := истина; time := t; date := d
		кон SetDate;

		проц {перекрыта}GetName*(перем name: массив из симв8);
		нач {единолично}
			Files.JoinName(fs.prefix, сам.name, name)
		кон GetName;

		проц {перекрыта}Register0*(перем res: целМЗ);
		перем oldAdr: DiskAdr; fs0: FileSystem;
		нач {единолично}
			Unbuffer(сам);
			если ~registered и (name # "") то
				fs0 := fs(FileSystem);
				fs0.dir.Search(name, oldAdr);
				fs0.dir.Insert(name, sec[0]);
				registered := истина; key := sec[0];
				fs0.openFiles.Add(key);
				если (oldAdr # 0) и ~fs0.openFiles.Contains(oldAdr) то (* overwrite not opened file *)
					утв(oldAdr # key);
					fs0.PurgeByAdr(oldAdr)
				всё;
				res := 0
			иначе
				res := 1
			всё
		кон Register0;

		проц {перекрыта}Update*;
		нач {единолично}
			Unbuffer(сам)
		кон Update;

	кон File;

проц Collect(f: динамическиТипизированныйУкль);
перем file: File; fs: FileSystem;
нач
	file := f(File);
	если file.fs # НУЛЬ то
		fs := file.fs(FileSystem);
		если (fs.vol # НУЛЬ) и ~(Files.ReadOnly в fs.vol.flags) то fs.Close(file) всё
	всё
кон Collect;

проц GetSector(vol: Files.Volume; src: DiskAdr;  перем dest: DiskSector);
нач
	если src остОтДеленияНа SectorFactor # 0 то НИЗКОУР.СТОП(15) всё;
	vol.GetBlock(src DIV SectorFactor, НИЗКОУР.подмениТипЗначения(DiskSectorArr, dest))
кон GetSector;

проц PutSector(vol: Files.Volume;  dest: DiskAdr;  перем src: DiskSector);
нач
	утв(~(Files.ReadOnly в vol.flags));
	если dest остОтДеленияНа SectorFactor # 0 то НИЗКОУР.СТОП(15) всё;
	vol.PutBlock(dest DIV SectorFactor, НИЗКОУР.подмениТипЗначения(DiskSectorArr, src))
кон PutSector;

проц AllocSector(vol: Files.Volume;  hint: DiskAdr;  перем sec: DiskAdr);
нач
	утв(~(Files.ReadOnly в vol.flags));
	vol.AllocBlock(hint DIV SectorFactor, sec);
	sec := sec * SectorFactor
кон AllocSector;

проц MarkSector(vol: Files.Volume;  sec: цел32);
нач
	утв(~(Files.ReadOnly в vol.flags));
	vol.MarkBlock(sec DIV SectorFactor)
кон MarkSector;

проц FreeSector(vol: Files.Volume;  sec: цел32);
нач
	утв(~(Files.ReadOnly в vol.flags));
	утв(Marked(vol, sec));
	vol.FreeBlock(sec DIV SectorFactor)
кон FreeSector;

проц Marked(vol: Files.Volume;  sec: цел32): булево;
нач
	утв(~(Files.ReadOnly в vol.flags));
	возврат vol.Marked(sec DIV SectorFactor)
кон Marked;

проц Match*(mask, name: массив из симв8): булево;
перем m,n, om, on: цел32; f: булево;
нач
	m := 0; n := 0; om := -1;
	f := истина;
	нц
		если (mask[m] = "*") то
			om := m; увел(m);
			нцПока (name[n] # 0X) и (name[n] # mask[m]) делай увел(n) кц;
			on := n
		аесли (mask[m] = "?") то
			если (name[n] = 0X) то f := ложь; прервиЦикл всё;
			увел(m); увел(n)
		иначе
			если (mask[m] # name[n]) то
				если (om = -1) то f := ложь; прервиЦикл
				аесли (name[n] # 0X) то (* try the next position *)
					m := om; n := on + 1;
					если (name[n] = 0X) то f := ложь; прервиЦикл всё
				иначе
					f := ложь; прервиЦикл
				всё
			иначе увел(m); увел(n)
			всё
		всё;
		если (mask[m] = 0X) и ((name[n] = 0X) или (om=-1)) то прервиЦикл всё
	кц;
	возврат f и (name[n] = 0X)
кон Match;

проц enumerate(fs: Files.FileSystem; конст mask: массив из симв8; dpg: DiskAdr; flags: мнвоНаБитахМЗ; enum: Files.Enumerator; перем continue: булево; перем fh: FileHeader; перем fn: массив из симв8);
перем i, diff: цел32; dpg1: DiskAdr; a: DirPage; time, date, size: цел32;
нач
	GetSector(fs.vol, dpg, a); i := 0;
	нцПока (i < a.m) и continue делай
(*		MatchPrefix(mask, a.e[i].name, pos, diff); *)
		если i = 0 то dpg1 := a.p0 иначе dpg1 := a.e[i-1].p всё;
		если diff >= 0 то (* matching prefix *)
			если dpg1 # 0 то enumerate(fs, mask, dpg1, flags, enum, continue, fh, fn) всё;
			если diff = 0 то
				если continue и ((mask = "") или Match(mask, a.e[i].name)) то
					time := 0; date := 0; size := 0;
					если flags * {Files.EnumTime, Files.EnumSize} # {} то
						GetSector(fs.vol, a.e[i].adr, fh);
						если Files.EnumTime в flags то
							time := fh.time; date := fh.date
						всё;
						если Files.EnumSize в flags то
							size := fh.aleng*SectorSize + fh.bleng - HeaderSize
						всё
					всё;
					Files.JoinName(fs.prefix, a.e[i].name, fn);
					enum.PutEntry(fn, {}, time, date, size)
				всё
			иначе continue := ложь
			всё
		всё;
		увел(i)
	кц;
	если continue и (i > 0) и (a.e[i-1].p # 0) то
		enumerate(fs, mask, a.e[i-1].p, flags, enum, continue, fh, fn)
	всё
кон enumerate;

(* Check a file name. *)

проц Check(конст s: массив из симв8; перем name: FileName; перем res: целМЗ);
перем i, k: цел32; ch: симв8;
нач
	ch := s[0]; i := 0; k := 0;
	если (ch = 0X) то name[0] := 0X; res := -1
	иначе
		если (ch = Files.PathDelimiter) то k := 1; ch := s[k] всё;	(* skip first path delimiter *)
		нц
			если (ch < " ") или (ch = ":") или (ch = Files.PathDelimiter) то res := 3; прервиЦикл всё;
			name[i] := ch; увел(i); увел(k); ch := s[k];
			если (ch = 0X) то
				нцПока (i < FileNameLength) делай name[i] := 0X; увел(i) кц;
				res := 0; прервиЦикл
			всё;
			если (i = FileNameLength-1) то res := 4; прервиЦикл всё
		кц
	всё
кон Check;

проц UpdateHeader(f: File; перем h: FileHeader);
нач
	h.aleng := f.aleng; h.bleng := f.bleng;
	h.sec := f.sec;
	если f.ext # НУЛЬ то h.ext := f.ext.adr иначе h.ext := 0 всё;
	h.date := f.date; h.time := f.time
кон UpdateHeader;

проц ReadBuf(f: File; buf: Buffer; pos: цел32);
перем sec: DiskAdr; xpos: цел32;
нач
	если pos < SectorTableSize то
		sec := f.sec[pos]
	иначе
		xpos := pos-SectorTableSize;
		sec := f.ext.sub[xpos DIV IndexSize].sec.x[xpos остОтДеленияНа IndexSize]
	всё;
	GetSector(f.fs.vol, sec, buf.data);
	если pos < f.aleng то buf.lim := SectorSize иначе buf.lim := f.bleng всё;
	buf.apos := pos; buf.mod := ложь
кон ReadBuf;

проц NewSuper(f: File);
перем i: цел32; super: SuperIndex;
нач
	нов(super); super.adr := 0; super.mod := истина; f.modH := истина; f.ext := super;
	нцДля i := 0 до IndexSize-1 делай super.sub[i] := НУЛЬ кц
кон NewSuper;

проц WriteBuf(f: File; buf: Buffer);
перем i, k, xpos: цел32; secadr: DiskAdr; super: SuperIndex; sub: SubIndex; vol: Files.Volume;
нач
	vol := f.fs.vol;
	Clock.Get(f.time, f.date); f.modH := истина;
	если buf.apos < SectorTableSize то
		secadr := f.sec[buf.apos];
		если secadr = 0 то
			AllocSector(vol, f.sechint, secadr);
			f.modH := истина; f.sec[buf.apos] := secadr; f.sechint := secadr
		всё;
		если buf.apos = 0 то
			UpdateHeader(f, НИЗКОУР.подмениТипЗначения(FileHeader, buf.data)); f.modH := ложь
		всё
	иначе
		super := f.ext;
		если super = НУЛЬ то NewSuper(f); super := f.ext всё;
		xpos := buf.apos-SectorTableSize;
		i := xpos DIV IndexSize; sub := super.sub[i];
		если sub = НУЛЬ то
			нов(sub); sub.adr := 0; sub.sec.x[0] := 0; super.sub[i] := sub; super.mod := истина
		всё;
		k := xpos остОтДеленияНа IndexSize; secadr := sub.sec.x[k];
		если secadr = 0 то
			AllocSector(vol, f.sechint, secadr); f.sechint := secadr;
			sub.mod := истина; sub.sec.x[k] := secadr
		всё
	всё;
	PutSector(vol, secadr, buf.data); buf.mod := ложь
кон WriteBuf;

проц SearchBuf(f: File; pos: цел32): Buffer;
перем buf: Buffer;
нач
	buf := f.firstbuf;
	нц
		если buf.apos = pos то прервиЦикл всё;
		buf := buf.next;
		если buf = f.firstbuf то buf := НУЛЬ; прервиЦикл всё
	кц;
	возврат buf
кон SearchBuf;

проц GetBuf(f: File; pos: цел32): Buffer;
перем buf: Buffer;
нач
	buf := f.firstbuf;
	нц
		если buf.apos = pos то прервиЦикл всё;
		если buf.next = f.firstbuf то
			если f.nofbufs < MaxBufs то (* allocate new buffer *)
				нов(buf); buf.next := f.firstbuf.next; f.firstbuf.next := buf;
				увел(f.nofbufs)
			иначе (* take one of the buffers *)
				f.firstbuf := buf;
				если buf.mod то WriteBuf(f, buf) всё
			всё;
			buf.apos := pos;
			если pos <= f.aleng то ReadBuf(f, buf, pos) всё;
			прервиЦикл
		всё;
		buf := buf.next
	кц;
	возврат buf
кон GetBuf;

проц Unbuffer(f: File);
перем
	i, k: цел32; buf: Buffer; super: SuperIndex; sub: SubIndex; head: FileHeader;
	sec: IndexSector; vol: Files.Volume;
нач
	vol := f.fs.vol;
	buf := f.firstbuf;
	нцДо
		если buf.mod то WriteBuf(f, buf) всё;
		buf := buf.next
	кцПри buf = f.firstbuf;
	super := f.ext;
	если super # НУЛЬ то
		k := (f.aleng + (IndexSize-SectorTableSize)) DIV IndexSize; i := 0;
		нцПока i # k делай
			sub := super.sub[i]; увел(i);
			если sub.mod то
				если sub.adr = 0 то
					AllocSector(vol, f.sechint, sub.adr); f.sechint := sub.adr;
					super.mod := истина
				всё;
				PutSector(vol, sub.adr, sub.sec); sub.mod := ложь
			всё
		кц;
		если super.mod то
			если super.adr = 0 то
				AllocSector(vol, f.sechint, super.adr); f.sechint := super.adr;
				f.modH := истина
			всё;
			i := 0;
			нцПока i # k делай sec.x[i] := super.sub[i].adr; увел(i) кц;
			нцПока i # IndexSize делай sec.x[i] := 0; увел(i) кц;
			PutSector(vol, super.adr, sec); super.mod := ложь
		всё
	всё;
	если f.modH то
		GetSector(vol, f.sec[0], head); UpdateHeader(f, head);
		PutSector(vol, f.sec[0], head); f.modH := ложь
	всё
кон Unbuffer;

проц NewSub(f: File);
перем i, k: цел32; sub: SubIndex;
нач
	k := (f.aleng - SectorTableSize) DIV IndexSize;
	если k = IndexSize то НИЗКОУР.СТОП(18) всё;
	нов(sub); sub.adr := 0; sub.mod := истина;
	нцДля i := 0 до IndexSize-1 делай sub.sec.x[i] := 0 кц;
	если f.ext = НУЛЬ то NewSuper(f) всё;
	f.ext.sub[k] := sub
кон NewSub;

(** Generate a new file system object.  Files.NewVol has volume parameter, Files.Par has mount prefix. *)
проц NewFS*(context : Files.Parameters);
перем fs: FileSystem; fh: FileHeader; skipIndexMapWriteback: булево; options: массив 8 из симв8;
нач
	(* Get options *)
	context.arg.ПропустиБелоеПоле;
	нцДо кцПри ~context.arg.ПропустиБелоеПолеИЧитайЦепочкуСимволов8ДоБелогоПоляИлиВКавычках(options) или (options = '|');
	если context.arg.ПропустиБелоеПолеИЧитайЦепочкуСимволов8ДоБелогоПоляИлиВКавычках(options) то
		skipIndexMapWriteback := options = 'N'
	всё;

	если Files.This(context.prefix) = НУЛЬ то
		если (context.vol.blockSize = SectorSize) и (context.vol.size >= MinVolSize) то
			GetSector(context.vol, DirRootAdr, fh);
			если fh.mark = DirMark то	(* assume it is an Aos filesystem *)
				нов(fs);  fs.vol := context.vol;
				утв(context.vol.size < матМаксимум(цел32) DIV SectorFactor);
				fs.desc := "AosFS";
				нов(fs.dir, context.vol);	(* initialize directory and volume *)
				утв(fs.dir.state = Opened);	(* will have to undo changes to vol before continuing *)
				Files.Add(fs, context.prefix);
				если skipIndexMapWriteback то
					включиВоМнвоНаБитах(fs.flags, SkipIndexFlag);
					fs.dir.noCleanup := истина
				всё
			иначе
				context.error.пСтроку8("DiskFS: File system not found on ");
				context.error.пСтроку8(context.vol.name);  context.error.пВК_ПС
			всё
		иначе
			context.error.пСтроку8("DiskFS: Bad volume size");  context.error.пВК_ПС
		всё
	иначе
		context.error.пСтроку8("DiskFS: ");  context.error.пСтроку8(context.prefix);
		context.error.пСтроку8(" already in use");  context.error.пВК_ПС
	всё;
кон NewFS;

(* Clean up when module unloaded. *)

проц Cleanup;
перем ft: Files.FileSystemTable; i: размерМЗ;
нач
	если Modules.shutdown = Modules.None то
		Files.GetList(ft);
		если ft # НУЛЬ то
			нцДля i := 0 до длинаМассива(ft^)-1 делай
				если ft[i] суть FileSystem то Files.Remove(ft[i]) всё
			кц
		всё
	всё
кон Cleanup;

нач
	утв((размер16_от(FileHeader) = SectorSize) и (размер16_от(IndexSector) = SectorSize) и (размер16_от(DataSector) = SectorSize) и
			(размер16_от(DirPage) = SectorSize) и (размер16_от(MapIndex) = SectorSize) и (размер16_от(MapSector) = SectorSize) и
			(DirPgSize остОтДеленияНа 2 = 0));
	Modules.InstallTermHandler(Cleanup);
кон DiskFS.

(*
	aleng * SectorSize + bleng = length (including header)
	apos * SectorSize + bpos = current position
	0 <= bpos <= lim <= SectorSize
	0 <= apos <= aleng < SectorTableSize + IndexSize*IndexSize
	(apos < aleng) & (lim = SectorSize) OR (apos = aleng)

	Methods with {} notation are explicitly unprotected.  They must be called only from a protected context.
*)

(*
	04.02.2004	lb			Prevent disk space leaks during system run (disk GC)
	03.01.2006	staubesv	Avoid longint overflow that caused disk gc even if not necessary
*)
