модуль DTPView; (** AUTHOR "PL"; PURPOSE "View for simple DTP Editor"; *)

использует
	WMStandardComponents, WMGraphics, Inputs,
	WMComponents, WMRectangles, WMEditors, Strings,
	WMWindowManager, DTPData, DTPUtilities; (* , DTPFrame *)

конст
	RULERSIZE = 20;
	HIGHLIGHT = цел32(0FF8800FFH);
	ACTIVEFRAMECOLOR = 00000FFFFH;
	FRAMECOLOR = 00088FFFFH;
	MASTERFRAMECOLOR = 000FF88FFH;
	BORDERCOLOR = цел32(0FF00FFFFH);
	GUIDECOLOR = 000FFFFFFH;
	GRIDCOLOR = цел32(0BABABAFFH);
	SUBGRIDCOLOR = цел32(0DDDDDDFFH);
	point = 0.3527777778;						(* 1/72 inch *)

перем

тип

	DrawPanel* = окласс(WMComponents.VisualComponent)
	перем
		(* parentWindow : Window; *)
		document : DTPData.Document;
		cpage: DTPData.PageObject;
		cframe, activeFrame*: DTPData.FrameObject;
		cguide: DTPData.GuideObject;
		ccontent: DTPData.ContentObject;
		ready* : булево;

		vScrollbar- : WMStandardComponents.Scrollbar;
		hScrollbar- : WMStandardComponents.Scrollbar;
		zoomFactor : вещ32; quality : булево;
		zoomUser : вещ32;
		zoomMode- : цел32;									(* 0 : ZoomFitDoc *)
																(* 1 : ZoomFitWidth *)
																(* 2 : ZoomFitHeight *)
																(* 3 : ZoomFitFrame *)
																(* 4 : ZoomFitOriginal *)
																(* 5 : ZoomFitUser *)
		docOriginX, docOriginY : цел32; snapDistance: вещ32;
		showGrid, snapToGrid : булево; gridDistance : вещ32; gridDivision : цел32;
		wheelMode- : цел32;
		previewMode* : булево;
		mpageMode* : булево;
		render : булево;
		selectionON* : булево;
		snapOnCreate: булево;
		activeTool*: Strings.String;
		x0, y0, x1, y1, dx, dy, gx, gy, vx0, vy0, vx1, vy1: размерМЗ;
		fx0, fy0, fx1, fy1, tx0, ty0, tx1, ty1: вещ32;
		res, res2: цел32;
		down, move, resize, addobject, addguide, moveguide, oldpointer: булево;
		prevPointerInfo: WMWindowManager.PointerInfo;
		oldPointerInfo: цел32;
		plugPointer: булево;
		manager : WMWindowManager.WindowManager;
		oldfx0, oldfy0, oldfx1, oldfy1: вещ32;

		props*: PropertyWindow;
		propertyOpen*: булево;
		propsX*, propsY*: размерМЗ;

(*		nObj*: NewObjectDialog;
		newObjOpen*: BOOLEAN;
*)
		(* DELEGATES *)
		newPluginObject* : проц {делегат} (): DTPData.ContentObject;
		ownerWindowSetFocus* : проц {делегат};
		ownerWindowUpdatePageNumber* : проц {делегат};
		ownerWindowExitFullScreen*: проц {делегат};

		проц &{перекрыта}Init*;
		нач
			Init^;
			ready := ложь;
			document := НУЛЬ;
			(* default values *)
			fillColor.Set(0888888FFH);
			docOriginX := 30; docOriginY := 30;
			propsX := 820; propsY := 350;
			showGrid := истина; snapToGrid := ложь; gridDistance := 50; gridDivision := 10;
			previewMode := ложь;
			down := ложь; move := ложь; resize := ложь; addguide := ложь; moveguide := ложь; addobject := ложь;
			takesFocus.Set(истина); oldpointer := истина; plugPointer := ложь;
			snapDistance := 2.0;
			zoomMode := 0;
			selectionON := истина;
			snapOnCreate := ложь;
			quality := истина;
			render := ложь;
			needsTab.Set(истина);
			wheelMode := 0;

			нов(props, сам); props.Show; propertyOpen := истина;
			(* newObjOpen := FALSE; *)
			manager := WMWindowManager.GetDefaultManager();

		кон Init;

		проц {перекрыта}PropertyChanged*(sender, property : динамическиТипизированныйУкль);
		нач
			если property = fillColor то Invalidate
			иначе PropertyChanged^(sender, property)
			всё;
		кон PropertyChanged;

		проц {перекрыта}Resized*;
		перем
			cpage: DTPData.PageObject;
			cframe: DTPData.FrameObject;
			ccontent : DTPData.ContentObject;
		нач

			если document = НУЛЬ то
				возврат
			всё;

			просей zoomMode из										(* zoom current view *)
					0: ZoomFitDoc;
				|	1: ZoomFitWidth;
				|	2: ZoomFitHeight;
				|	3: ZoomFitFrame;
				|	4: ZoomFitOriginal;
				|	5: ZoomFitUser;
			иначе
			всё;
			cpage := document.GetCurrentMasterPage();
			если (cpage # НУЛЬ) то
				cframe := cpage.GetFirstFrame();
				нцПока (cframe # НУЛЬ) делай
					ccontent := cframe.GetContent();
					если ccontent # НУЛЬ то
						ccontent.Resize(zoomFactor);
						ccontent.SetSize(округлиВниз(cframe.GetWidth()*zoomFactor), округлиВниз(cframe.GetHeight()*zoomFactor));
					всё;
					cframe := cframe.next;
				кц;
			всё;
			cpage := document.GetCurrentPage();
			если (cpage # НУЛЬ) то
				cframe := cpage.GetFirstFrame();
				нцПока (cframe # НУЛЬ) делай
					(* tempString := cframe.GetName(); *)
					(* KernelLog.String("Setting: "); KernelLog.String(tempString^); KernelLog.Int(ENTIER(cframe.GetWidth()*zoomFactor), 0); KernelLog.Int(ENTIER(cframe.GetHeight()*zoomFactor), 0); KernelLog.Ln; *)
					ccontent := cframe.GetContent();
					если ccontent # НУЛЬ то
						ccontent.Resize(zoomFactor);
						ccontent.SetSize(округлиВниз(cframe.GetWidth()*zoomFactor), округлиВниз(cframe.GetHeight()*zoomFactor));
					всё;
					cframe := cframe.next;
				кц;
			всё;
			Invalidate;

		кон Resized;

		проц Render*(state : булево);
		нач
			render := state;
		кон Render;

		проц {перекрыта}RecacheProperties*;
		нач
			RecacheProperties^;
			Invalidate;
		кон RecacheProperties;

		проц SetScrollbars*(hScrollbar, vScrollbar : WMStandardComponents.Scrollbar);
		нач
			Acquire;
			если hScrollbar # НУЛЬ то hScrollbar.onPositionChanged.Remove(ScrollbarsChanged) всё;
			если vScrollbar # НУЛЬ то vScrollbar.onPositionChanged.Remove(ScrollbarsChanged) всё;
			сам.hScrollbar := hScrollbar; сам.vScrollbar := vScrollbar;
			hScrollbar.onPositionChanged.Add(ScrollbarsChanged);
			vScrollbar.onPositionChanged.Add(ScrollbarsChanged);
			UpdateScrollbars;
			Release;
		кон SetScrollbars;

		проц ScrollbarsChanged*(sender, data : динамическиТипизированныйУкль);
		нач
			если document # НУЛЬ то
				если ~IsCallFromSequencer() то sequencer.ScheduleEvent(сам.ScrollbarsChanged, sender, data)
				иначе
					если sender = vScrollbar то
						docOriginY := -округлиВниз(vScrollbar.pos.Get()/100*(zoomFactor*document.GetPageHeight()+50)) + 30;
						(* KernelLog.Int(docOriginY, 0); KernelLog.Ln; *)
					аесли sender = hScrollbar то
						docOriginX := -округлиВниз(hScrollbar.pos.Get()/100*(zoomFactor*document.GetPageWidth()+50)) + 30;
						(* KernelLog.Int(docOriginX, 0); KernelLog.Ln; *)
					всё;
					Invalidate;
				всё;
			всё;
		кон ScrollbarsChanged;

		проц UpdateScrollbars;
		нач
			если document # НУЛЬ то
				если vScrollbar # НУЛЬ то
					(* vScrollbar.max.Set(ENTIER(document.GetPageHeight()*zoomFactor)); *)
					(* vScrollbar.pageSize.Set(bounds.GetHeight());  *)
					vScrollbar.pos.Set(docOriginY);
				всё;
				если hScrollbar # НУЛЬ то
					(* hScrollbar.visible.Set(layout.textWidth > bounds.GetWidth()); *)
					(* hScrollbar.max.Set(ENTIER(document.GetPageWidth()*zoomFactor)); *)
					(* hScrollbar.pageSize.Set(bounds.GetWidth()); *)
					hScrollbar.pos.Set(docOriginX);
				всё;
			всё;
		кон UpdateScrollbars;

		проц SetDocument*(doc: DTPData.Document);
		нач
			document := doc;
(*			IF (document.GetPageWidth() > 0) & (document.GetPageHeight() > 0) & THEN
				ready := TRUE;
			END;
*)		кон SetDocument;

		проц GetDocument*(): DTPData.Document;
		нач
			возврат document;
		кон GetDocument;

		проц SetZoomMode*(mode : цел32);
		нач
			zoomMode := mode;
			Resized;
			Invalidate;
			zoomUser := zoomFactor;
		кон SetZoomMode;

		проц SetRenderZoomMode*(mode: цел32);
		перем (* tempString: Strings.String; *)
			cpage: DTPData.PageObject;
			cframe: DTPData.FrameObject;
			ccontent : DTPData.ContentObject;
		нач
			zoomMode := mode;
			просей zoomMode из										(* zoom current view *)
					0: ZoomFitDoc;
				|	1: ZoomFitWidth;
				|	2: ZoomFitHeight;
				|	3: ZoomFitFrame;
				|	4: ZoomFitOriginal;
				|	5: ZoomFitUser;
			иначе
			всё;
			cpage := document.GetCurrentMasterPage();
			если (cpage # НУЛЬ) то
				cframe := cpage.GetFirstFrame();
				нцПока (cframe # НУЛЬ) делай
					ccontent := cframe.GetContent();
					если ccontent # НУЛЬ то
						ccontent.Resize(zoomFactor);
						ccontent.SetSize(округлиВниз(cframe.GetWidth()*zoomFactor), округлиВниз(cframe.GetHeight()*zoomFactor));
					всё;
					cframe := cframe.next;
				кц;
			всё;
			cpage := document.GetCurrentPage();
			если (cpage # НУЛЬ) то
				cframe := cpage.GetFirstFrame();
				нцПока (cframe # НУЛЬ) делай
					(* tempString := cframe.GetName(); *)
					(* KernelLog.String("Setting: "); KernelLog.String(tempString^); KernelLog.Int(ENTIER(cframe.GetWidth()*zoomFactor), 0); KernelLog.Int(ENTIER(cframe.GetHeight()*zoomFactor), 0); KernelLog.Ln; *)
					ccontent := cframe.GetContent();
					если ccontent # НУЛЬ то
						ccontent.Resize(zoomFactor);
						ccontent.SetSize(округлиВниз(cframe.GetWidth()*zoomFactor), округлиВниз(cframe.GetHeight()*zoomFactor));
					всё;
					cframe := cframe.next;
				кц;
			всё;
			(* Invalidate; *)
		кон SetRenderZoomMode;

		проц ZoomFitHeight*;
		перем drawPanelW, drawPanelH : вещ32;
			docW, docH : вещ32;
		нач
			docW := document.GetPageWidth();
			docH := document.GetPageHeight();
			drawPanelW := bounds.GetWidth();
			drawPanelH := bounds.GetHeight();
			zoomFactor := (drawPanelH - 2*RULERSIZE)/docH;

		кон ZoomFitHeight;

		проц ZoomFitWidth*;
		перем drawPanelW, drawPanelH : вещ32;
			docW, docH : вещ32;
		нач
			docW := document.GetPageWidth();
			docH := document.GetPageHeight();
			drawPanelW := bounds.GetWidth();
			drawPanelH := bounds.GetHeight();
			zoomFactor := (drawPanelW - 2*RULERSIZE)/docW;

		кон ZoomFitWidth;

		проц ZoomFitDoc*;
		перем drawPanelW, drawPanelH : вещ32;
			docW, docH : вещ32;
			ratioPanel, ratioDoc : вещ32;
		нач
			docW := document.GetPageWidth();
			docH := document.GetPageHeight();
			drawPanelW := bounds.GetWidth();
			drawPanelH := bounds.GetHeight();
			ratioPanel := (drawPanelW-RULERSIZE) / (drawPanelH-RULERSIZE);
			ratioDoc := docW / docH;

			если ratioDoc > ratioPanel то
				zoomFactor := (drawPanelW-2*RULERSIZE)/docW;		(* zoom fit width *)
			иначе
				zoomFactor := (drawPanelH-2*RULERSIZE)/docH;		(* zoom fit height *)
			всё

		кон ZoomFitDoc;

		проц ZoomFitFrame*;
		перем drawPanelW, drawPanelH : вещ32;
			frameW, frameH : вещ32;
			cpage : DTPData.PageObject;
		нач
			если (document # НУЛЬ) то
				если mpageMode то
					cpage := document.GetCurrentMasterPage();
				иначе
					cpage := document.GetCurrentPage();
				всё;
				если (cpage # НУЛЬ) и (cpage.currentFrame # НУЛЬ) то
					frameW := cpage.currentFrame.GetWidth();
					frameH := cpage.currentFrame.GetHeight();
					drawPanelW := bounds.GetWidth();
					drawPanelH := bounds.GetHeight();
					если frameW > frameH то
						zoomFactor := (drawPanelW-2*RULERSIZE)/frameW;
					иначе
						zoomFactor := (drawPanelH-2*RULERSIZE)/frameH;
					всё;
					docOriginX := округлиВниз(30-cpage.currentFrame.GetX()*zoomFactor);
					docOriginY := округлиВниз(30-cpage.currentFrame.GetY()*zoomFactor);
					(* KernelLog.Int(docOriginX, 0); KernelLog.Ln; *)
				всё;
				zoomUser := zoomFactor;
				SetZoomMode(5);
			всё;

		кон ZoomFitFrame;

		проц ZoomFitUser*;
		нач
			zoomFactor := zoomUser;
		кон ZoomFitUser;

		проц ZoomFitOriginal*;
		нач
			zoomFactor := 1/point;
		кон ZoomFitOriginal;

		проц ZoomIncrease*;
		перем (* tempString : ARRAY 64 OF CHAR; *)
		нач
			zoomUser := 1.1*zoomFactor;
			(* Strings.FloatToStr(zoomUser, 0,4,0,tempString); KernelLog.String(tempString); *)
			(* ZoomFitUser; *)
		кон ZoomIncrease;

		проц ZoomDecrease*;
		перем (* tempString : ARRAY 64 OF CHAR; *)
		нач
			zoomUser := 0.9*zoomFactor;
			(* Strings.FloatToStr(zoomUser, 0,4,0,tempString); KernelLog.String(tempString); *)
			(* ZoomFitUser; *)
		кон ZoomDecrease;

		проц SetZoomUser*(factor: вещ32);
		нач
			zoomUser := factor;
		кон SetZoomUser;

		проц SetZoomFactor*(factor : вещ32);
		нач
			zoomFactor := factor;
		кон SetZoomFactor;

		проц GetZoomFactor*() : вещ32;
		нач
			возврат zoomFactor
		кон GetZoomFactor;

		проц SetOrigin*(x, y : цел32);
		нач
			docOriginX := x;
			docOriginY := y;
		кон SetOrigin;

		проц GetOriginX*(): цел32;
		нач
			возврат docOriginX
		кон GetOriginX;

		проц GetOriginY*(): цел32;
		нач
			возврат docOriginY
		кон GetOriginY;

		проц SetSnapDistance*(distance: вещ32);
		нач
			snapDistance := distance;
		кон SetSnapDistance;

		проц GetSnapDistance*(): вещ32;
		нач
			возврат snapDistance;
		кон GetSnapDistance;

		проц SetSnap*(s2grid: булево);
		нач
			snapToGrid := s2grid;
		кон SetSnap;

		проц GetSnap*(): булево;
		нач
			возврат snapToGrid;
		кон GetSnap;

		проц SetPreviewMode*(prevMode : булево);
		нач
			previewMode := prevMode;
		кон SetPreviewMode;

		проц GetPreviewMode*() : булево;
		нач
			возврат previewMode;
		кон GetPreviewMode;

		проц SetMasterEditMode*(masterMode: булево);
		нач
			mpageMode := masterMode;
		кон SetMasterEditMode;

		проц GetMasterEditMode*(): булево;
		нач
			возврат mpageMode;
		кон GetMasterEditMode;

		проц ShowGrid*(sGrid : булево);
		нач
			showGrid := sGrid;
		кон ShowGrid;

		проц SetGrid*(gDist : вещ32; gDiv : цел32);
		нач
			gridDistance := gDist;
			gridDivision := gDiv;
		кон SetGrid;

		проц {перекрыта}WheelMove*(dz: размерМЗ);
		нач
			если ~previewMode то
				если wheelMode = 0 то								(* wheel zoom *)
					zoomMode := 5;
					zoomUser := (1+dz/30)*zoomFactor;
					(* ZoomFitUser; *)
					Resized;
					Invalidate;
				аесли wheelMode = 1 то							(* wheel scroll vertical *)

				аесли wheelMode = 2 то							(* wheel scroll horizontal *)

				иначе
				всё;
			всё;
		кон WheelMove;

		проц {перекрыта}PointerDown*(x, y : размерМЗ; keys : мнвоНаБитахМЗ);
		перем
(*			cpage: DTPData.PageObject;
			cframe: DTPData.FrameObject;
			cguide: DTPData.GuideObject;
*)
			fx, fy: вещ32;
			px, py, pw, ph: цел32;
			horizontal: булево;
			snapLeft, snapTop, snapRight, snapBottom : булево;

		нач
			down := 0 в keys;
			если document # НУЛЬ то
				если mpageMode то
					cpage := document.GetCurrentMasterPage();
				иначе
					cpage := document.GetCurrentPage();
				всё;
				если ~previewMode то									(* Document Edit Mode *)
					x0 := x; y0 := y;
					если WillSnap((x-docOriginX)/zoomFactor, (y-docOriginY)/zoomFactor, (x-docOriginX)/zoomFactor, (y-docOriginY)/zoomFactor, snapLeft, snapTop, snapRight, snapBottom, fx, fy) то
						если snapLeft или snapRight то tx0 := fx иначе tx0 := -1; всё;
						если snapTop или snapBottom то ty0 := fy иначе ty0 := -1; всё;
						snapOnCreate := истина;
					всё;
					если ~selectionON то								(* plugin Selected *)
						cframe := cpage.GetCurrentFrame();
						(* click inside Frame Bounds *)
						если (cframe # НУЛЬ) и WMRectangles.PointInRect(x, y, WMRectangles.MakeRect(округлиВниз(cframe.GetX()*zoomFactor)+docOriginX, округлиВниз(cframe.GetY()*zoomFactor)+docOriginY, округлиВниз((cframe.GetX()+cframe.GetWidth())*zoomFactor)+docOriginX, округлиВниз((cframe.GetY()+cframe.GetHeight())*zoomFactor)+docOriginY)) то
							ccontent := cframe.GetContent();
							ccontent.FocusReceived;
							ccontent.PointerDown(x-округлиВниз(cframe.GetX()*zoomFactor)-docOriginX, y-округлиВниз(cframe.GetY()*zoomFactor)-docOriginY, keys);
							addobject := ложь;
						иначе
							addobject := истина;
							если ccontent # НУЛЬ то
								ccontent.FocusLost();
							всё;
						всё;

						props.SetInactive;
						props.InitValues;

					иначе												(* selectiontool *)
						cframe := cpage.GetCurrentFrame();
						cguide := cpage.GetCurrentGuide();
						если ccontent # НУЛЬ то							(* Plugin Focus Lost *)
							ccontent.FocusLost;
						всё;
						если cframe # НУЛЬ то
							px := округлиВниз(cframe.GetX()*zoomFactor)+docOriginX;
							py := округлиВниз(cframe.GetY()*zoomFactor)+docOriginY;
							pw := округлиВниз(cframe.GetWidth()*zoomFactor);
							ph := округлиВниз(cframe.GetHeight()*zoomFactor);
							если WMRectangles.PointInRect(x, y, WMRectangles.MakeRect(px+2, py+2, px+pw-2, py+ph-2)) то
								move := истина; quality := ложь;
								dx := px - x;
								dy := py - y;
							иначе
								(* resize *)
								res := IsInFrameHandle(x, y);
								если res >= 0 то
									fx0 := округлиВниз(cframe.GetX()*zoomFactor)+docOriginX;
									fy0 := округлиВниз(cframe.GetY()*zoomFactor)+docOriginY;
									fx1 := округлиВниз(cframe.GetWidth()*zoomFactor)+fx0;
									fy1 := округлиВниз(cframe.GetHeight()*zoomFactor)+fy0;
									resize := истина; quality := ложь;
								всё;
							всё;
						аесли cguide # НУЛЬ то
							horizontal := cguide.GetHorizontal();
							если horizontal то
								если (y1<(cguide.GetPosition()*zoomFactor+docOriginY+1)) и (y1>(cguide.GetPosition()*zoomFactor+docOriginY-1)) то
									moveguide := истина;
								всё;
							иначе
								если (x1<(cguide.GetPosition()*zoomFactor+docOriginX+1)) и (x1>(cguide.GetPosition()*zoomFactor+docOriginX-1)) то
									moveguide := истина;
								всё;
							всё;
						всё;
						(* add guide *)
						res2 := IsInRuler(x, y);
						если res2 >= 0 то
							addguide := истина;
						всё;
					всё;
					UpdateProps;
				иначе															(* preview Mode *)
					если 0 в keys то
						document.NextPage;
						Resized;
						Invalidate;
					аесли 2 в keys то
						document.PrevPage;
						Resized;
						Invalidate;
					всё;
					ownerWindowUpdatePageNumber;
				всё;
			всё;
		кон PointerDown;

		проц {перекрыта}PointerMove*(x, y : размерМЗ; keys : мнвоНаБитахМЗ);
		перем
(*			cpage: DTPData.PageObject;
			cframe: DTPData.FrameObject;
			cguide: DTPData.GuideObject;
*)			fx, fy, tx, ty: вещ32;
			xs, ys, xe, ye, w, h: цел32;
			oldx1, oldy1 : размерМЗ;
			pointerres: цел32;
			manager: WMWindowManager.WindowManager;
			snapLeft, snapTop, snapRight, snapBottom : булево;

		нач
			если document # НУЛЬ то
				если mpageMode то
					cpage := document.GetCurrentMasterPage();
				иначе
					cpage := document.GetCurrentPage();
				всё;
				если ~previewMode то											(* Document Edit Mode *)
					cframe := cpage.GetCurrentFrame();
					cguide := cpage.GetCurrentGuide();
					oldx1 := x1; oldy1:= y1;
					x1 := x; y1 := y;
					если selectionON то										(* selection tool *)
						если move то											(* move frame *)
							quality := ложь;
							если WillSnap((x+dx-docOriginX)/zoomFactor, (y+dy-docOriginY)/zoomFactor, (x+dx-docOriginX)/zoomFactor+cframe.GetWidth(), (y+dy-docOriginY)/zoomFactor+cframe.GetHeight(), snapLeft, snapTop, snapRight, snapBottom, tx, ty) то			(* snap upper/left & lower/right*)
								если snapLeft то fx := tx;
								аесли snapRight то fx := tx-cframe.GetWidth();
								иначе fx := (x+dx-docOriginX)/zoomFactor; всё;
								если snapTop то fy := ty;
								аесли snapBottom то fy := ty-cframe.GetHeight();
								иначе fy := (y+dy-docOriginY)/zoomFactor; всё;

								cframe.SetPosition(fx, fy);
							иначе
								fx := (x + dx - docOriginX)/zoomFactor;
								fy := (y + dy - docOriginY)/zoomFactor;
								cframe.SetPosition(fx, fy);
							всё;
							x1 := округлиВниз(fx*zoomFactor)-dx+docOriginX; y1 := округлиВниз(fy*zoomFactor)-dy+docOriginY;
							InvalidateRect(WMRectangles.MakeRect(матМинимум(x1, oldx1)+dx-10, матМинимум(oldy1, y1)+dy-10, округлиВниз(cframe.GetWidth()*zoomFactor)+матМаксимум(x1, oldx1)+dx+10, округлиВниз(cframe.GetHeight()*zoomFactor)+матМаксимум(y1, oldy1)+dy+10));
						аесли resize то										(* resize frame *)
							quality := ложь;
							xs := округлиВниз(cframe.GetX()*zoomFactor)+docOriginX;
							ys := округлиВниз(cframe.GetY()*zoomFactor)+docOriginY;
							w := округлиВниз(cframe.GetWidth()*zoomFactor);
							h := округлиВниз(cframe.GetHeight()*zoomFactor);
							xe := xs + w; ye := ys +h;
							просей res из
								  0: cframe.SetExtent((x-docOriginX)/zoomFactor, cframe.GetY(), (fx1-x)/zoomFactor, cframe.GetHeight());
								| 1: cframe.SetExtent((x-docOriginX)/zoomFactor, (y-docOriginY)/zoomFactor, (fx1-x)/zoomFactor, (fy1-y)/zoomFactor);
								| 2: cframe.SetExtent(cframe.GetX(), (y-docOriginY)/zoomFactor, cframe.GetWidth(), (fy1-y)/zoomFactor);
								| 3: cframe.SetExtent(cframe.GetX(), (y-docOriginY)/zoomFactor, (x-fx0)/zoomFactor, (fy1-y)/zoomFactor);
								| 4:	fx := (x-xs)/zoomFactor; fy := cframe.GetHeight();
									если WillSnap((x-docOriginX)/zoomFactor, (y-docOriginY)/zoomFactor, (x-docOriginX)/zoomFactor, (y-docOriginY)/zoomFactor, snapLeft, snapTop, snapRight, snapBottom, tx, ty) то
										если snapLeft или snapRight то fx := tx-cframe.GetX(); всё;
									всё; cframe.SetSize(fx, fy);
									cframe.SetSize(fx, fy);
								| 5: fx := (x-xs)/zoomFactor; fy := (y-ys)/zoomFactor;
									если WillSnap((x-docOriginX)/zoomFactor, (y-docOriginY)/zoomFactor, (x-docOriginX)/zoomFactor, (y-docOriginY)/zoomFactor, snapLeft, snapTop, snapRight, snapBottom, tx, ty) то
										если snapLeft или snapRight то fx := tx-cframe.GetX(); всё;
										если snapTop или snapBottom то fy := ty-cframe.GetY(); всё;
									всё; cframe.SetSize(fx, fy);
								| 6:	fx := cframe.GetWidth(); fy := (y-ys)/zoomFactor;
									если WillSnap((x-docOriginX)/zoomFactor, (y-docOriginY)/zoomFactor, (x-docOriginX)/zoomFactor, (y-docOriginY)/zoomFactor, snapLeft, snapTop, snapRight, snapBottom, tx, ty) то
										если snapTop или snapBottom то fy := ty-cframe.GetY(); всё;
									всё; cframe.SetSize(fx, fy);
								| 7: cframe.SetExtent((x-docOriginX)/zoomFactor, cframe.GetY(), (fx1-x)/zoomFactor, (y-fy0)/zoomFactor);
							иначе
							всё;
							ccontent := cframe.GetContent(); ccontent.SetSize(округлиВниз(cframe.GetWidth()*zoomFactor), округлиВниз(cframe.GetHeight()*zoomFactor));
							InvalidateRect(WMRectangles.MakeRect(округлиВниз(матМинимум(cframe.GetX(), матМинимум(oldfx0, oldfx1))*zoomFactor)+docOriginX-10, округлиВниз(матМинимум(cframe.GetY(), матМинимум(oldfy0, oldfy1))*zoomFactor)+docOriginY-10, округлиВниз(матМаксимум((cframe.GetX()+cframe.GetWidth()), матМаксимум(oldfx1, oldfx0))*zoomFactor)+docOriginX+15, округлиВниз(матМаксимум(cframe.GetY()+cframe.GetHeight(), матМаксимум(oldfy1, oldfy0))*zoomFactor)+docOriginY+15));
							oldfx0 := cframe.GetX(); oldfy0 := cframe.GetY(); oldfx1:= cframe.GetX()+cframe.GetWidth(); oldfy1:= cframe.GetY()+cframe.GetHeight();
						аесли moveguide то									(* move guide *)
							если cguide.GetHorizontal() то
								если WillSnap(0, (y-docOriginY)/zoomFactor, 1,(y-docOriginY)/zoomFactor, snapLeft, snapTop, snapRight, snapBottom, tx, ty) то
									если snapTop то cguide.SetPosition(ty); 		(* snap guide *)
									иначе cguide.SetPosition((y-docOriginY)/zoomFactor); всё;
								всё;
								oldy1 := gy; gy := y;
								InvalidateRect(WMRectangles.MakeRect(0, матМинимум(oldy1, gy)-10, округлиВниз(document.GetPageWidth()*zoomFactor)+docOriginX, матМаксимум(oldy1, gy)+10));
							иначе
								если WillSnap((x-docOriginX)/zoomFactor, 0, (x-docOriginX)/zoomFactor,1, snapLeft, snapTop, snapRight, snapBottom, tx, ty) то
									если snapLeft то cguide.SetPosition(tx);		(* snap guide *)
									иначе cguide.SetPosition((x-docOriginX)/zoomFactor); всё;
								всё;
								oldx1 := gx; gx := x;
								InvalidateRect(WMRectangles.MakeRect(матМинимум(oldx1, gx)-10, 0, матМаксимум(oldx1, gx)+10, округлиВниз(document.GetPageHeight()*zoomFactor)+docOriginX));
							всё;
						аесли addguide то									(* create new guide object *)
							oldx1 := gx; gx := x;
							если res2 = 0 то										(* Horizontal guide *)
								InvalidateRect(WMRectangles.MakeRect(0, матМинимум(oldy1, gy)-10, округлиВниз(document.GetPageWidth()*zoomFactor)+docOriginX, матМаксимум(oldy1, gy)+10));
							иначе												(* Vertical guide *)
								InvalidateRect(WMRectangles.MakeRect(матМинимум(oldx1, gx)-10, 0, матМаксимум(oldx1, gx)+10, округлиВниз(document.GetPageHeight()*zoomFactor)+docOriginX));
							всё;
						иначе
						всё;
						manager := WMWindowManager.GetDefaultManager();
						если cframe # НУЛЬ то
							(* change pointerinfo *)
							pointerres := IsInFrameHandle(x, y);

							просей pointerres из
									0: если (oldPointerInfo # 0) и ~down то
										oldPointerInfo := 0;
										SetPointerInfo(manager.pointerLeftRight); всё;
								|	1: если (oldPointerInfo # 1) и ~down то
										oldPointerInfo := 1;
										SetPointerInfo(manager.pointerULDR); всё;
								|	2: если (oldPointerInfo # 2) и ~down то
										oldPointerInfo := 2;
										SetPointerInfo(manager.pointerUpDown); всё;
								|	3: если (oldPointerInfo # 3) и ~down то
										oldPointerInfo := 3;
										SetPointerInfo(manager.pointerURDL); всё;
								|	4: если (oldPointerInfo # 4) и ~down то
										oldPointerInfo := 4;
										SetPointerInfo(manager.pointerLeftRight); всё;
								|	5: если (oldPointerInfo # 5) и ~down то
										oldPointerInfo := 5;
										SetPointerInfo(manager.pointerULDR); всё;
								|	6: если (oldPointerInfo # 6) и ~down то
										oldPointerInfo := 6;
										SetPointerInfo(manager.pointerUpDown); всё;
								|	7: если (oldPointerInfo # 7) и ~down то
										oldPointerInfo := 7;
										SetPointerInfo(manager.pointerURDL); всё;
								|	8: если (oldPointerInfo # 8) и ~down то
										oldPointerInfo := 8;
										SetPointerInfo(manager.pointerMove); всё;
							иначе
								если (oldPointerInfo # -1) и ~down то
									SetPointerInfo(manager.pointerStandard); oldPointerInfo := -1;
								всё;
							всё;
						аесли cguide # НУЛЬ то
							если cguide.GetHorizontal() то
								если (y>(cguide.GetPosition()*zoomFactor)+docOriginY-1) и (y<(cguide.GetPosition()*zoomFactor)+docOriginY+1) то
									если (x<(document.GetPageWidth()*zoomFactor)+docOriginX) и (x>docOriginX) и ~down то
										SetPointerInfo(manager.pointerUpDown);
									всё;
								аесли ~down то
									SetPointerInfo(manager.pointerStandard);
								всё;
							иначе
								если (x>(cguide.GetPosition()*zoomFactor)+docOriginX-1) и (x<(cguide.GetPosition()*zoomFactor)+docOriginX+1) то
									если (y<(document.GetPageHeight()*zoomFactor)+docOriginY) и (y>docOriginY) и ~down то
										SetPointerInfo(manager.pointerLeftRight);
									всё;
								аесли ~down то
									SetPointerInfo(manager.pointerStandard);
								всё;
							всё;
						иначе
							(* fix pointer *)
							если GetPointerInfo() # manager.pointerStandard то
								SetPointerInfo(manager.pointerStandard);
							всё;
						всё;
					иначе												(* plugin selected *)
						если down то
							если addobject то							(* on create new content object *)
								InvalidateRect(WMRectangles.MakeRect(матМинимум(vx0, vx1)-10, матМинимум(vy0, vy1)-10, матМаксимум(vx0, vx1)+10, матМаксимум(vy0, vy1)+10));
							иначе
								если  (cframe # НУЛЬ) и WMRectangles.PointInRect(x, y, WMRectangles.MakeRect(округлиВниз(cframe.GetX()*zoomFactor)+docOriginX, округлиВниз(cframe.GetY()*zoomFactor)+docOriginY, округлиВниз((cframe.GetX()+cframe.GetWidth())*zoomFactor)+docOriginX, округлиВниз((cframe.GetY()+cframe.GetHeight())*zoomFactor)+docOriginY)) то
									ccontent := cframe.GetContent();
									ccontent.PointerMove(x-округлиВниз(cframe.GetX()*zoomFactor)-docOriginX, y-округлиВниз(cframe.GetY()*zoomFactor)-docOriginY, keys);
								всё;
							всё;
						иначе
							manager := WMWindowManager.GetDefaultManager();
							если  (cframe # НУЛЬ) и WMRectangles.PointInRect(x, y, WMRectangles.MakeRect(округлиВниз(cframe.GetX()*zoomFactor)+docOriginX, округлиВниз(cframe.GetY()*zoomFactor)+docOriginY, округлиВниз((cframe.GetX()+cframe.GetWidth())*zoomFactor)+docOriginX, округлиВниз((cframe.GetY()+cframe.GetHeight())*zoomFactor)+docOriginY)) то
								ccontent := cframe.GetContent();
								ccontent.PointerMove(x-округлиВниз(cframe.GetX()*zoomFactor)-docOriginX, y-округлиВниз(cframe.GetY()*zoomFactor)-docOriginY, keys);
								(* Set Plugin Pointer *)
								если ~plugPointer то
									plugPointer := истина;
									SetPointerInfo(ccontent.GetPluginPointer());
								всё;
							иначе
								(* Set Normal Pointer *)
								если plugPointer то
									plugPointer := ложь;
									SetPointerInfo(manager.pointerStandard);
								всё;
							всё;
						всё;

					всё;

					если down то
						(* Invalidate; *)
						если propertyOpen то
							quality := ложь;
							UpdateProps;
							quality := истина;
						всё;
					иначе
						UpdateCoordinates;
					всё;
				иначе													(* preview Mode *)

				всё;
			всё;
		кон PointerMove;

		проц {перекрыта}PointerUp*(x, y : размерМЗ; keys : мнвоНаБитахМЗ);
		перем string, tempString, tempString2: массив 32 из симв8;
			content, activeContent: DTPData.ContentObject;
			resguide: DTPData.GuideObject;
			resframe: DTPData.FrameObject;
			horizontal : булево;
			fx, fy, fw, fh: вещ32;
			px, py, pw, ph: цел32;
			snapL, snapT, snapR, snapB: булево;
		нач
			down :=  0 в keys;
			если document # НУЛЬ то
				если mpageMode то
					cpage := document.GetCurrentMasterPage();
				иначе
					cpage := document.GetCurrentPage();
				всё;
				cframe := cpage.GetCurrentFrame();
				если ~previewMode то									(* Document Edit Mode *)
					если ~selectionON то								(* -- create Object -- *)
						если (x0 = x1) и (y0 = y1) то						(* not dragged only clicked *)
							если (cframe # НУЛЬ) и WMRectangles.PointInRect(x, y, WMRectangles.MakeRect(округлиВниз(cframe.GetX()*zoomFactor)+docOriginX, округлиВниз(cframe.GetY()*zoomFactor)+docOriginY, округлиВниз((cframe.GetX()+cframe.GetWidth())*zoomFactor)+docOriginX, округлиВниз((cframe.GetY()+cframe.GetHeight())*zoomFactor)+docOriginY)) то
								ccontent := cframe.GetContent();
								ccontent.PointerUp(x-округлиВниз(cframe.GetX()*zoomFactor)-docOriginX, y-округлиВниз(cframe.GetY()*zoomFactor)-docOriginY, keys);
							иначе
(*							(* input dialog frame size *)					(* disable pointerevent?? *)
								IF ~newObjOpen THEN
									newObjOpen := TRUE;
									NEW(nObj, SELF);
									dRes := nObj.Show(fw, fh);
									IF dRes THEN
										cpage.AddFrame((x0-docOriginX)/zoomFactor, (y0-docOriginY)/zoomFactor, fw, fh);
									END;
								END;
*)							всё;
						иначе											(* dragged *)
							если addobject то
								если (cpage # НУЛЬ) то					(* create frame *)
(*									fx := (MIN(x0,x1)-docOriginX)/zoomFactor;
									fy := (MIN(y0,y1)-docOriginY)/zoomFactor;
									fw := (MAX(x0,x1)-MIN(x0,x1))/zoomFactor;
									fh := (MAX(y0,y1)-MIN(y0,y1))/zoomFactor;
*)
									fx := (x0-docOriginX)/zoomFactor;
									fy := (y0-docOriginY)/zoomFactor;
									fw := (x1-x0)/zoomFactor;
									fh := (y1-y0)/zoomFactor;
									если snapOnCreate то
										если tx0 > -1 то fx := tx0; fw := (x1-docOriginX)/zoomFactor - tx0; всё;
										если ty0 > -1 то  fy := ty0; fh := (y1-docOriginY)/zoomFactor - ty0; всё;
										snapOnCreate := ложь;
										tx0 := -1; ty0 := -1;
									всё;
									если WillSnap((x-docOriginX)/zoomFactor, (y-docOriginY)/zoomFactor, (x-docOriginX)/zoomFactor, (y-docOriginY)/zoomFactor, snapL, snapT, snapR, snapB, tx1, ty1) то
										если snapL или snapR то fw := tx1-fx всё;
										если snapT или snapB то fh := ty1-fy всё;
									всё;
									cpage.AddFrame(fx, fy, fw, fh);

									(* create content & add it *)
									content := newPluginObject();
									content.SetSize(округлиВниз(fw*zoomFactor), округлиВниз(fh*zoomFactor));
									content.Resize(zoomFactor);
									cframe := cpage.GetCurrentFrame();
									cframe.FixExtent();
									копируйСтрокуДо0(activeTool^, string);
									если string = "Frame" то string := "Empty" всё;
									Strings.Append(string, "Frame"); копируйСтрокуДо0(string, tempString2);
									Strings.IntToStr(document.objectCounter, tempString);
									Strings.Append(string, tempString);
									нцПока document.GetContentByName(string) # НУЛЬ делай (* find next free name *)
										увел(document.objectCounter);
										Strings.IntToStr(document.objectCounter, tempString);
										копируйСтрокуДо0(tempString2, string);
										Strings.Append(string, tempString);
									кц;
									cframe.SetName(Strings.NewString(string));
									cframe.SetType(activeTool);
									content.contentName := Strings.NewString(string);
									content.ownerDoc := document;
									cframe.SetContent(content);
									document.AddContent(content);
									если activeFrame # НУЛЬ то
										activeContent := activeFrame.GetContent();
										activeContent.Hide;
									всё;
									content.Show(propsX, propsY); activeFrame := cframe;
									InvalidateRect(WMRectangles.MakeRect(матМинимум(x0, x1)-5, матМинимум(y0, y1)-5, матМаксимум(x0, x1)+5, матМаксимум(y0, y1)+5));
								всё;
							иначе										(* forward click to plugin *)
								если (cframe # НУЛЬ) и WMRectangles.PointInRect(x, y, WMRectangles.MakeRect(округлиВниз(cframe.GetX()*zoomFactor)+docOriginX, округлиВниз(cframe.GetY()*zoomFactor)+docOriginY, округлиВниз((cframe.GetX()+cframe.GetWidth())*zoomFactor)+docOriginX, округлиВниз((cframe.GetY()+cframe.GetHeight())*zoomFactor)+docOriginY)) то
									ccontent := cframe.GetContent();
									ccontent.PointerUp(x, y, keys);
								иначе

								всё;
							всё;
							addobject := ложь;
						всё;
					иначе												(* -- select -- *)
						если (x0 = x1) и (y0 = y1) и ~resize то			(* select frame at x, y top *)
							cframe := cpage.GetLastFrame(); resframe := НУЛЬ;
							нцПока (cframe # НУЛЬ) и (resframe = НУЛЬ) делай
								px := округлиВниз(cframe.GetX()*zoomFactor)+docOriginX;
								py := округлиВниз(cframe.GetY()*zoomFactor)+docOriginY;
								pw := округлиВниз(cframe.GetWidth()*zoomFactor);
								ph := округлиВниз(cframe.GetHeight()*zoomFactor);
								если WMRectangles.PointInRect(x, y, WMRectangles.MakeRect(px, py, px+pw, py+ph)) то
									resframe := cframe;
								всё;
								cframe := cframe.prev;
							кц;										(* select guide *)
							cguide := cpage.GetLastGuide(); resguide := НУЛЬ;
							нцПока (cguide # НУЛЬ) и (resguide = НУЛЬ) делай
								horizontal := cguide.GetHorizontal();
								если horizontal то
									если (y1<(cguide.GetPosition()*zoomFactor+docOriginY+1)) и (y1>(cguide.GetPosition()*zoomFactor+docOriginY-1)) то
										resguide := cguide;
									всё;
								иначе
									если (x1<(cguide.GetPosition()*zoomFactor+docOriginX+1)) и (x1>(cguide.GetPosition()*zoomFactor+docOriginX-1)) то
										resguide := cguide;
									всё;
								всё;
								cguide := cguide.prev
							кц;
							cpage.currentGuide := resguide;
							cpage.currentFrame := resframe;
							(* display the current content properties *)
							если resframe # НУЛЬ то
								если resframe # activeFrame то
									если activeFrame # НУЛЬ то
										activeContent := activeFrame.GetContent();
										activeContent.Hide;
									всё;
									activeFrame := resframe;
									activeContent := activeFrame.GetContent();
									activeContent.Show(propsX, propsY);
								всё;
							иначе
								если activeFrame # НУЛЬ то
									activeContent := activeFrame.GetContent();
									activeContent.Hide;
								всё;
								activeFrame := НУЛЬ;
							всё;
						всё;
						если resize то 									(* fix beyond zero resize *)
							cframe := cpage.GetCurrentFrame();
							если cframe # НУЛЬ то
								cframe.FixExtent();
							всё;
						аесли addguide то							(* create guide object *)
							если (x>docOriginX) и (y>docOriginY) то		(* only add if on page *)
								если res2 = 0 то							(* Horizontal *)
									cpage.AddGuide((y-docOriginY)/zoomFactor, истина);
								иначе									(* Vertical *)
									cpage.AddGuide((x-docOriginX)/zoomFactor, ложь);
								всё;
							всё;
						всё;
						move := ложь;
						resize := ложь;
						addguide := ложь;
						moveguide := ложь;
						quality := истина;
					всё;
					Invalidate;
					UpdateProps;
					ownerWindowSetFocus;
				иначе													(* Preview Mode *)

				всё;
			всё;
		кон PointerUp;

		проц {перекрыта}KeyEvent*(ucs: размерМЗ; flags: мнвоНаБитахМЗ; перем keySym: размерМЗ);
		перем
(*			cpage: DTPData.PageObject;
			cframe: DTPData.FrameObject;
			cguide: DTPData.GuideObject;
*)			newFrame : DTPData.FrameObject;
			newContent: DTPData.ContentObject;
		нач
			(* document := parentWindow.GetDocument(); *)
			если document # НУЛЬ то
				если mpageMode то
					cpage := document.GetCurrentMasterPage();
				иначе
					cpage := document.GetCurrentPage();
				всё;
				если ~previewMode то									(* Document Edit Mode *)
					cframe := cpage.GetCurrentFrame();
					cguide := cpage.GetCurrentGuide();
					если selectionON то								(* selection tool *)
						если (cframe = НУЛЬ) и (cguide = НУЛЬ) то			(* nothing selected *)
							если keySym =  016H то (* Ctrl-V *)
								если DTPData.dollyFrame # НУЛЬ то
									newFrame := DTPData.dollyFrame.Clone();
									newContent := newFrame.GetContent();
									newContent.redrawProc := InvalidateCurrentFrame;
									newContent.updatePropsPosition := SetContentPropsPosition;
									newContent.Resize(zoomFactor);
									newContent.SetSize(округлиВниз(newFrame.GetWidth()*zoomFactor), округлиВниз(newFrame.GetHeight()*zoomFactor));
									cpage.InsertFrame(newFrame);
									UpdateProps;
									UpdateContentProps;
								аесли document.dollyGuide # НУЛЬ то
									cpage.AddGuide(document.dollyGuide.GetPosition(), document.dollyGuide.GetHorizontal());
									UpdateProps;
								всё;
							иначе
							всё;
						аесли (cframe # НУЛЬ) то						(* frame selected *)
							если keySym = 03H то (* Ctrl-C *)
								DTPData.dollyFrame := cframe.Clone();
								document.dollyGuide := НУЛЬ;
					 		аесли (keySym = 0FF63H) и (flags * Inputs.Ctrl # {}) то  (*Ctrl Insert *)
	 							DTPData.dollyFrame := cframe.Clone();
								document.dollyGuide := НУЛЬ;
							аесли keySym = 0FF51H то (* Cursor Left *)
								если flags * Inputs.Shift = {} то
									если flags * Inputs.Alt # {} то
										cframe.SetPosition(cframe.GetX()-2.5, cframe.GetY());
									иначе
										cframe.SetPosition(cframe.GetX()-1/4, cframe.GetY());
									всё;
									UpdateProps;
								всё;
							аесли keySym = 0FF53H то (* Cursor Right *)
								если flags * Inputs.Shift = {} то
									если flags * Inputs.Alt # {} то
										cframe.SetPosition(cframe.GetX()+2.5, cframe.GetY());
									иначе
										cframe.SetPosition(cframe.GetX()+1/4, cframe.GetY());
									всё;
									UpdateProps;
								всё;
							аесли keySym = 0FF54H то (* Cursor Down *)
								если flags * Inputs.Shift = {} то
									если flags * Inputs.Alt # {} то
										cframe.SetPosition(cframe.GetX(), cframe.GetY()+2.5);
									иначе
										cframe.SetPosition(cframe.GetX(), cframe.GetY()+1/4);
									всё;
									UpdateProps;
								всё;
							аесли keySym = 0FF52H то (* Cursor Up *)
								если flags * Inputs.Shift = {} то
									если flags * Inputs.Alt # {} то
										cframe.SetPosition(cframe.GetX(), cframe.GetY()-2.5);
									иначе
										cframe.SetPosition(cframe.GetX(), cframe.GetY()-1/4);
									всё;
								всё;
								UpdateProps;
							аесли keySym = 018H то (* Ctrl-X *)
								(* clone frame (to buffer) and remove current *)
								DTPData.dollyFrame := cframe.Clone();
								document.dollyGuide := НУЛЬ;
								cpage.DeleteFrame();
								UpdateProps;
								UpdateContentProps;
							аесли keySym =  016H то (* Ctrl-V *)
								если DTPData.dollyFrame # НУЛЬ то
									newFrame := DTPData.dollyFrame.Clone();
									newContent := newFrame.GetContent();
									newContent.redrawProc := InvalidateCurrentFrame;
									newContent.updatePropsPosition := SetContentPropsPosition;
									newContent.Resize(zoomFactor);
									newContent.SetSize(округлиВниз(newFrame.GetWidth()*zoomFactor), округлиВниз(newFrame.GetHeight()*zoomFactor));
									cpage.InsertFrame(newFrame);
									UpdateProps;
									UpdateContentProps;
								всё;
							аесли keySym = 0FFFFH то (* Delete *)
								newFrame := cpage.GetCurrentFrame();
								если newFrame # НУЛЬ то
									newContent := newFrame.GetContent();
									newContent.OnDelete;
									cpage.DeleteFrame;
									UpdateProps;
									UpdateContentProps;
								всё;
							аесли keySym = 0FFADH то (* grey minus *)
								если cframe # НУЛЬ то
									cpage.Move2BackStep;
								всё;
							аесли keySym = 0FFABH то (* grey plus *)
								если cframe # НУЛЬ то
									cpage.Move2FrontStep;
								всё;
							иначе

							всё;
						аесли (cguide # НУЛЬ) то					(* guide selected *)
							если keySym = 0FFFFH то (* Delete *)
								(* delete currend guide *)
								cpage.DeleteGuide;
							всё;
						иначе

						всё;
					иначе 											(* plugins active *)
						если cframe # НУЛЬ то
							ccontent := cframe.GetContent();
							ccontent.KeyEvent(ucs, flags, keySym);
						всё;
					всё;

					(* stateless keys *)
					если keySym = 0FF56H то (* Page Down *)
						document.NextPage;
						UpdateProps;
						UpdateContentProps;
						ownerWindowUpdatePageNumber;
						Resized;
					аесли keySym = 0FF55H то (* Page Up *)
						document.PrevPage;
						UpdateProps;
						UpdateContentProps;
						ownerWindowUpdatePageNumber;
						Resized;
					аесли keySym = 0FF50H то (* Cursor Home *)
						document.FirstPage;
						UpdateProps;
						UpdateContentProps;
						ownerWindowUpdatePageNumber;
						Resized;
					аесли keySym = 0FF57H то (* Cursor End *)
						document.LastPage;
						UpdateProps;
						UpdateContentProps;
						ownerWindowUpdatePageNumber;
						Resized;
					аесли keySym = 0FF1BH то (* ESC *)
						ownerWindowExitFullScreen;
					иначе
					всё;

					Invalidate;
				иначе													(* Preview Mode *)
					если keySym = 0FF51H то (* Cursor Left *)
						document.PrevPage;
						ownerWindowUpdatePageNumber;
						Resized;
					аесли keySym = 0FF53H то (* Cursor Right *)
						document.NextPage;
						ownerWindowUpdatePageNumber;
						Resized;
					аесли keySym = 0FF1BH то (* ESC *)
						ownerWindowExitFullScreen;
					иначе
						(* KernelLog.Hex(keySym, 8); KernelLog.Ln; *)
					всё;
					Invalidate;
				всё;
			всё;
		кон KeyEvent;

		проц WillSnap*(sx,sy, ex, ey: вещ32; перем leftSnap, topSnap, rightSnap, bottomSnap: булево; перем resX, resY: вещ32): булево;
		перем
			result, point, rect: булево;
			cpage, cmpage: DTPData.PageObject;
			cguide: DTPData.GuideObject;
			mTop, mBottom, mLeft, mRight, tempmLeft, tempmRight,  mWidth, mHeight, nx, ny, mx, my: вещ32;
			gridInc : вещ32;
			pageNumber : цел32;
		нач
			result:= ложь; leftSnap := ложь; topSnap := ложь; rightSnap := ложь; bottomSnap := ложь;
			gridInc := gridDistance/gridDivision;
			если document # НУЛЬ то
				mTop := document.GetMarginTop(); mBottom:= document.GetPageHeight()-document.GetMarginBottom();
				mLeft := document.GetMarginLeft(); mRight := document.GetPageWidth()-document.GetMarginRight();
				mWidth := document.GetPageWidth(); mHeight := document.GetPageHeight();
				resX := 0; resY := 0;
				если mpageMode то
					cpage := document.GetCurrentMasterPage();
				иначе
					cpage := document.GetCurrentPage();
				всё;

				(* grid snap *)
				если snapToGrid то
					nx := sx+snapDistance; ny := sy+snapDistance;
					mx := ex+snapDistance; my := ey+snapDistance;
					(* vertical snap *)
					если (((nx/gridInc)-округлиВниз(nx/gridInc))*gridInc<2*snapDistance) то
						resX := округлиВниз(nx/gridInc)*gridInc; leftSnap := истина; rightSnap := ложь; result := истина;
					аесли (((mx/gridInc)-округлиВниз(mx/gridInc))*gridInc<2*snapDistance) то
						resX := округлиВниз(mx/gridInc)*gridInc; rightSnap := истина; leftSnap := ложь; result := истина;
					всё;
					(* horizontal snap *)
					если (((ny/gridInc)-округлиВниз(ny/gridInc))*gridInc<2*snapDistance) то
						resY := округлиВниз(ny/gridInc)*gridInc; topSnap := истина; bottomSnap := ложь; result := истина;
					аесли (((my/gridInc)-округлиВниз(my/gridInc))*gridInc<2*snapDistance) то
						resY := округлиВниз(my/gridInc)*gridInc; bottomSnap := истина; topSnap := ложь; result := истина;
					всё;
				всё;

				(* margin snap *)
				если document.GetFacingPages() то
					если mpageMode то pageNumber := document.GetCurrentMasterPageNumber(); иначе pageNumber := document.GetCurrentPageNumber(); всё;
					если  (pageNumber остОтДеленияНа 2 = 0) то
						tempmLeft := mWidth-mLeft;
						tempmRight := mWidth-mRight;
					иначе
						tempmLeft := mLeft;
						tempmRight := mRight;
					всё;
				иначе
					tempmLeft := mLeft;
					tempmRight := mRight;
				всё;
				если (tempmLeft>ex-snapDistance) и (tempmLeft<ex+snapDistance) то
					resX := tempmLeft; rightSnap := истина; leftSnap := ложь; result := истина;
				аесли (tempmRight>ex-snapDistance) и (tempmRight<ex+snapDistance) то
					resX := tempmRight; rightSnap := истина; leftSnap := ложь; result := истина;
				всё;
				если (tempmLeft>sx-snapDistance) и (tempmLeft<sx+snapDistance) то
					resX := tempmLeft; leftSnap := истина; rightSnap := ложь; result := истина;
				аесли (tempmRight>sx-snapDistance) и (tempmRight<sx+snapDistance) то
					resX := tempmRight; leftSnap := истина; rightSnap := ложь; result := истина;
				всё;
				если (mBottom>ey-snapDistance) и (mBottom<ey+snapDistance) то
					resY := mBottom; bottomSnap := истина; topSnap := ложь; result := истина;
				аесли (mTop>ey-snapDistance) и (mTop<ey+snapDistance) то
					resY := mTop; bottomSnap := истина; topSnap := ложь; result := истина;
				всё;
				если (mBottom>sy-snapDistance) и (mBottom<sy+snapDistance) то
					resY := mBottom; topSnap := истина; bottomSnap := ложь; result := истина;
				аесли (mTop>sy-snapDistance) и (mTop<sy+snapDistance) то
					resY := mTop; topSnap := истина; bottomSnap := ложь; result := истина;
				всё;

				(* guide snap *)
				point := (sx=ex) и (sy=ey);
				rect := (sx#ex) и (sy#ey);
				если (point или rect) то
					если ~mpageMode то
						(* master guides *)
						cmpage := cpage.GetMasterPage();
						если cmpage # НУЛЬ то
							cguide := cmpage.GetFirstGuide();
							нцПока (cguide # НУЛЬ) делай
								если cguide.GetHorizontal() то
									если (cguide.GetPosition()>sy-snapDistance) и (cguide.GetPosition()<sy+snapDistance) то
										resY := cguide.GetPosition(); topSnap := истина; bottomSnap:= ложь; result := истина;
									аесли (cguide.GetPosition()>ey-snapDistance) и (cguide.GetPosition()<ey+snapDistance) то
										resY := cguide.GetPosition(); bottomSnap := истина; topSnap:= ложь; result := истина;
									всё;
								всё;
								если ~cguide.GetHorizontal() то
									если (cguide.GetPosition()>sx-snapDistance) и (cguide.GetPosition()<sx+snapDistance) то
										resX := cguide.GetPosition(); leftSnap := истина; rightSnap := ложь; result := истина;
									аесли (cguide.GetPosition()>ex-snapDistance) и (cguide.GetPosition()<ex+snapDistance) то
										resX := cguide.GetPosition(); rightSnap := истина; leftSnap := ложь; result := истина;
									всё;
								всё;
								cguide := cguide.next;
							кц;
						всё;
					всё;
					cguide := cpage.GetFirstGuide();
					(* document guides *)
					нцПока (cguide # НУЛЬ) делай
						если cguide.GetHorizontal() то
							если (cguide.GetPosition()>sy-snapDistance) и (cguide.GetPosition()<sy+snapDistance) то
								resY := cguide.GetPosition(); topSnap := истина; bottomSnap:= ложь; result := истина;
							аесли (cguide.GetPosition()>ey-snapDistance) и (cguide.GetPosition()<ey+snapDistance) то
								resY := cguide.GetPosition(); bottomSnap := истина; topSnap:= ложь; result := истина;
							всё;
						всё;
						если ~cguide.GetHorizontal() то
							если (cguide.GetPosition()>sx-snapDistance) и (cguide.GetPosition()<sx+snapDistance) то
								resX := cguide.GetPosition(); leftSnap := истина; rightSnap := ложь; result := истина;
							аесли (cguide.GetPosition()>ex-snapDistance) и (cguide.GetPosition()<ex+snapDistance) то
								resX := cguide.GetPosition(); rightSnap := истина; leftSnap := ложь; result := истина;
							всё;
						всё;
						cguide := cguide.next;
					кц;
				всё;

				(* document snap *)
				если (0>sx-snapDistance) и (0<sx+snapDistance) то
					resX := 0; leftSnap := истина; rightSnap := ложь; result := истина;
				всё;
				если (mWidth>ex-snapDistance) и (mWidth<ex+snapDistance) то
					resX := mWidth; rightSnap := истина; leftSnap := ложь; result := истина;
				всё;
				если (0>sy-snapDistance) и (0<sy+snapDistance) то
					resY := 0; topSnap := истина; bottomSnap := ложь; result := истина;
				всё;
				если (mHeight>ey-snapDistance) и (mHeight<ey+snapDistance) то
					resY := mHeight; bottomSnap := истина; topSnap := ложь; result := истина;
				всё;

			всё;
			возврат result;
		кон WillSnap;

		проц IsInRuler*(x, y: размерМЗ): цел32;
		перем result: цел32;
		нач
			result := -2;
			если (WMRectangles.PointInRect(x, y, WMRectangles.MakeRect(RULERSIZE, 1, bounds.GetWidth(), RULERSIZE))) то
				result := 0;												(* Horizontal *)
			аесли (WMRectangles.PointInRect(x, y, WMRectangles.MakeRect(1, RULERSIZE, RULERSIZE, bounds.GetHeight()))) то
				result := 1;												(* Vertical *)
			иначе
				result := -1;
			всё;
			возврат result;
		кон IsInRuler;

		проц IsInFrameHandle*(x, y: размерМЗ): цел32;
		перем res, xs, ys, xe, ye, w, h: цел32;
			cpage: DTPData.PageObject;
			cframe: DTPData.FrameObject;
		нач
			если mpageMode то
				cpage := document.GetCurrentMasterPage();
			иначе
				cpage := document.GetCurrentPage();
			всё;
			cframe := cpage.GetCurrentFrame();
			res:= -1;
			xs := округлиВниз(cframe.GetX()*zoomFactor)+docOriginX;
			ys := округлиВниз(cframe.GetY()*zoomFactor)+docOriginY;
			w := округлиВниз(cframe.GetWidth()*zoomFactor);
			h := округлиВниз(cframe.GetHeight()*zoomFactor);
			xe := xs + w; ye := ys + h;
			если (WMRectangles.PointInRect(x, y, WMRectangles.MakeRect(xs-4, округлиВниз((ys+ye)/2)-2, xs+1, округлиВниз((ys+ye)/2)+2))) то
				res := 0;													(* left *)
			аесли (WMRectangles.PointInRect(x, y, WMRectangles.MakeRect(xs-4, ys-4, xs+1, ys+1))) то
				res := 1;													(* top-left *)
			аесли (WMRectangles.PointInRect(x, y, WMRectangles.MakeRect(округлиВниз((xs+xe)/2)-1, ys-4, округлиВниз((xs+xe)/2)+3, ys+1))) то
				res := 2;													(* top *)
			аесли (WMRectangles.PointInRect(x, y, WMRectangles.MakeRect(xe, ys-4, xe+5, ys+1))) то
				res := 3;													(* top-right *)
			аесли (WMRectangles.PointInRect(x, y, WMRectangles.MakeRect(xe, округлиВниз((ys+ye)/2)-2, xe+5, округлиВниз((ys+ye)/2)+2))) то
				res := 4;													(* right *)
			аесли (WMRectangles.PointInRect(x, y, WMRectangles.MakeRect(xe, ye, xe+5, ye+5))) то
				res := 5;													(* bottom-right *)
			аесли (WMRectangles.PointInRect(x, y, WMRectangles.MakeRect(округлиВниз((xs+xe)/2)-1, ye, округлиВниз((xs+xe)/2)+3, ye+5))) то
				res := 6;													(* bottom *)
			аесли (WMRectangles.PointInRect(x, y, WMRectangles.MakeRect(xs-4, ye, xs+1, ye+5))) то
				res := 7;													(* bottom-left *)
			аесли (WMRectangles.PointInRect(x, y, WMRectangles.MakeRect(xs+1, ys+1, xe-1, ye-1))) то
				res := 8;													(* inside *)
			иначе
			всё;
			возврат res;
		кон IsInFrameHandle;

		проц {перекрыта}Draw*(canvas : WMGraphics.Canvas);
		перем
		нач
			Draw^(canvas);
			если ~render то
				если (document # НУЛЬ) и ready то
					просей zoomMode из										(* zoom current view *)
							0: ZoomFitDoc;
						|	1: ZoomFitWidth;
						|	2: ZoomFitHeight;
						|	3: ZoomFitFrame;
						|	4: ZoomFitOriginal;
						|	5: ZoomFitUser;
					иначе
					всё;

					DrawDocument(canvas);				(* document paper *)
					DrawContent(canvas);					(* content objects (frames)(grid..) *)
					DrawHelpers(canvas);					(* guides, pagemargin *)
					DrawSelectedFrame(canvas);			(* current frame/guide *)
					DrawRuler(canvas);						(* document ruler *)
					DrawUserAction(canvas);				(* user actions *)
				всё;
			всё;

		кон Draw;

		проц DrawRuler(canvas : WMGraphics.Canvas);
		перем i, j: цел32;
			s : массив 8из симв8;
			sc : массив 1 из симв8;
			font : WMGraphics.Font;
		нач
			font := GetFont();

			canvas.Fill(WMRectangles.MakeRect(RULERSIZE+1,0,bounds.GetWidth(), RULERSIZE+1), 0222222FFH, WMGraphics.ModeCopy);
			canvas.Fill(WMRectangles.MakeRect(0,RULERSIZE+1,RULERSIZE+1, bounds.GetHeight()), 0222222FFH, WMGraphics.ModeCopy);

			canvas.Fill(WMRectangles.MakeRect(RULERSIZE,1,bounds.GetWidth(), RULERSIZE), цел32(0FFFFFFFFH), WMGraphics.ModeCopy);
			canvas.Fill(WMRectangles.MakeRect(1,RULERSIZE,RULERSIZE, bounds.GetHeight()), цел32(0FFFFFFFFH), WMGraphics.ModeCopy);
			(* canvas.Line(0,0,200,200, 0FF0000FFH, WMGraphics.ModeSrcOverDst); *)
			canvas.Line(docOriginX, 1, docOriginX, RULERSIZE-1, 0000000FFH, WMGraphics.ModeSrcOverDst);
			canvas.Line(1, docOriginY, RULERSIZE-1, docOriginY, 0000000FFH, WMGraphics.ModeSrcOverDst);

			если zoomFactor > 3 то
				(* horizontal ruler *)
				нцДля i := 0 до округлиВниз (2*bounds.GetWidth()/zoomFactor)-1 шаг 10 делай
					canvas.Line(docOriginX+округлиВниз(i*zoomFactor), 1, docOriginX+округлиВниз(i*zoomFactor), RULERSIZE-1, 0000000FFH, WMGraphics.ModeSrcOverDst);
					Strings.IntToStr(i, s);
					canvas.DrawString(docOriginX+округлиВниз(i*zoomFactor)+2, font.GetHeight()-3 , s);
				кц;
				нцДля i := 0 до округлиВниз (2*bounds.GetWidth()/zoomFactor)-1 делай
					если i остОтДеленияНа 5 = 0 то
						canvas.Line(docOriginX+округлиВниз(i*zoomFactor), RULERSIZE-6, docOriginX+округлиВниз(i*zoomFactor), RULERSIZE-1, 0000000FFH, WMGraphics.ModeSrcOverDst);
					иначе
						canvas.Line(docOriginX+округлиВниз(i*zoomFactor), RULERSIZE-3, docOriginX+округлиВниз(i*zoomFactor), RULERSIZE-1, 0000000FFH, WMGraphics.ModeSrcOverDst);
					всё;
				кц;
				(* vertical ruler *)
				нцДля i := 0 до округлиВниз (2*bounds.GetHeight()/zoomFactor)-1 шаг 10 делай
					canvas.Line(1, docOriginY+округлиВниз(i*zoomFactor), RULERSIZE-1, docOriginY+округлиВниз(i*zoomFactor), 0000000FFH, WMGraphics.ModeSrcOverDst);
					s := "       ";							(* remove old contents *)
					Strings.IntToStr(i, s);
					нцДля j := 0 до длинаМассива(s)-1 делай
						sc[0] := s[j];
						canvas.DrawString(2, docOriginY+округлиВниз(i*zoomFactor)+(j+1)*(font.GetHeight()-4)+1, sc);
					кц;
				кц;
				нцДля i := 0 до округлиВниз (2*bounds.GetHeight()/zoomFactor)-1 делай
					если i остОтДеленияНа 5 = 0 то
						canvas.Line(RULERSIZE-1, docOriginY+округлиВниз(i*zoomFactor), RULERSIZE-6, docOriginY+округлиВниз(i*zoomFactor), 0000000FFH, WMGraphics.ModeSrcOverDst);
					иначе
						canvas.Line(RULERSIZE-1, docOriginY+округлиВниз(i*zoomFactor), RULERSIZE-3, docOriginY+округлиВниз(i*zoomFactor), 0000000FFH, WMGraphics.ModeSrcOverDst);
					всё;
				кц;
			иначе
				(* horizontal ruler *)
				нцДля i := 0 до округлиВниз (2*bounds.GetWidth()/zoomFactor)-1 шаг 50 делай
					canvas.Line(docOriginX+округлиВниз(i*zoomFactor), 1, docOriginX+округлиВниз(i*zoomFactor), RULERSIZE-1, 0000000FFH, WMGraphics.ModeSrcOverDst);
					Strings.IntToStr(i, s);
					canvas.DrawString(docOriginX+округлиВниз(i*zoomFactor)+2, font.GetHeight()-3 , s);
				кц;
				нцДля i := 0 до округлиВниз (2*bounds.GetWidth()/zoomFactor)-1 шаг 2 делай
					если i остОтДеленияНа 10 = 0 то
						canvas.Line(docOriginX+округлиВниз(i*zoomFactor), RULERSIZE-6, docOriginX+округлиВниз(i*zoomFactor), RULERSIZE-1, 0000000FFH, WMGraphics.ModeSrcOverDst);
					иначе
						canvas.Line(docOriginX+округлиВниз(i*zoomFactor), RULERSIZE-3, docOriginX+округлиВниз(i*zoomFactor), RULERSIZE-1, 0000000FFH, WMGraphics.ModeSrcOverDst);
					всё;
				кц;
				(* vertical ruler *)
				нцДля i := 0 до округлиВниз (2*bounds.GetHeight()/zoomFactor)-1 шаг 50 делай
					canvas.Line(1, docOriginY+округлиВниз(i*zoomFactor), RULERSIZE-1, docOriginY+округлиВниз(i*zoomFactor), 0000000FFH, WMGraphics.ModeSrcOverDst);
					s := "       ";							(* remove old contents *)
					Strings.IntToStr(i, s);
					нцДля j := 0 до длинаМассива(s)-1 делай
						sc[0] := s[j];
						canvas.DrawString(2, docOriginY+округлиВниз(i*zoomFactor)+(j+1)*(font.GetHeight()-4)+1, sc);
					кц;
				кц;
				нцДля i := 0 до округлиВниз (2*bounds.GetHeight()/zoomFactor)-1 шаг 2 делай
					если i остОтДеленияНа 5 = 0 то
						canvas.Line(RULERSIZE-1, docOriginY+округлиВниз(i*zoomFactor), RULERSIZE-6, docOriginY+округлиВниз(i*zoomFactor), 0000000FFH, WMGraphics.ModeSrcOverDst);
					иначе
						canvas.Line(RULERSIZE-1, docOriginY+округлиВниз(i*zoomFactor), RULERSIZE-3, docOriginY+округлиВниз(i*zoomFactor), 0000000FFH, WMGraphics.ModeSrcOverDst);
					всё;
				кц;
			всё;
			canvas.Fill(WMRectangles.MakeRect(0,0,RULERSIZE, RULERSIZE), цел32(0888888FFH), WMGraphics.ModeCopy);


		кон DrawRuler;

		проц DrawDocument*(canvas : WMGraphics.Canvas);
		нач
			(* shadow *)
			canvas.Fill(WMRectangles.MakeRect(docOriginX+5, docOriginY+5, округлиВниз(document.GetPageWidth()*zoomFactor)+docOriginX+5, округлиВниз(document.GetPageHeight()*zoomFactor)+docOriginY+5), 0444444FFH, WMGraphics.ModeCopy);
			canvas.Fill(WMRectangles.MakeRect(docOriginX, docOriginY, округлиВниз(document.GetPageWidth()*zoomFactor)+docOriginX, округлиВниз(document.GetPageHeight()*zoomFactor)+docOriginY), цел32(0FFFFFFFFH), WMGraphics.ModeCopy);

			(* draw Grid in Background *)
			если mpageMode то DrawGrid(canvas); всё;

		кон DrawDocument;

		проц DrawGrid(canvas: WMGraphics.Canvas);
		перем
			w, h, mt, mb, ml, mr, subGridCounter : цел32;
			gridSubSize, i : вещ32;
		нач
			(* calc pixels *)
			w := округлиВниз(document.GetPageWidth()*zoomFactor);
			h := округлиВниз(document.GetPageHeight()*zoomFactor);
			mt := округлиВниз(document.GetMarginTop()*zoomFactor);
			mb := округлиВниз(document.GetMarginBottom()*zoomFactor);
			ml := округлиВниз(document.GetMarginLeft()*zoomFactor);
			mr := округлиВниз(document.GetMarginRight()*zoomFactor);

			если ~previewMode то
				(* grid *)
				если showGrid то
					gridSubSize := gridDistance/gridDivision;
					(* subGrid horizontal *)
					i := 0; subGridCounter := 0;
					нцПока i < document.GetPageHeight() делай
						если subGridCounter остОтДеленияНа gridDivision = 0 то			(* GridLine *)
							canvas.Line(docOriginX, docOriginY+округлиВниз(i*zoomFactor), docOriginX+w-1, docOriginY+округлиВниз(i*zoomFactor), GRIDCOLOR, WMGraphics.ModeSrcOverDst);
						иначе													(* SubGridLine *)
							canvas.Line(docOriginX, docOriginY+округлиВниз(i*zoomFactor), docOriginX+w-1, docOriginY+округлиВниз(i*zoomFactor), SUBGRIDCOLOR, WMGraphics.ModeSrcOverDst);
						всё;
						увел(subGridCounter); i := subGridCounter * gridSubSize;
					кц;
					(* subGrid vertical *)
					i := 0; subGridCounter := 0;
					нцПока i < document.GetPageWidth() делай
						если subGridCounter остОтДеленияНа gridDivision = 0 то			(* GridLine *)
							canvas.Line(docOriginX+округлиВниз(i*zoomFactor), docOriginY, docOriginX+округлиВниз(i*zoomFactor), docOriginY+h-1, GRIDCOLOR, WMGraphics.ModeSrcOverDst);
						иначе													(* SubGridLine *)
							canvas.Line(docOriginX+округлиВниз(i*zoomFactor), docOriginY, docOriginX+округлиВниз(i*zoomFactor), docOriginY+h-1, SUBGRIDCOLOR, WMGraphics.ModeSrcOverDst);
						всё;
						увел(subGridCounter); i := subGridCounter * gridSubSize;
					кц;
				всё;
			всё;

		кон DrawGrid;

		проц DrawHelpers(canvas : WMGraphics.Canvas);
		перем
			w, h, mt, mb, ml, mr, tempml, tempmr, pageNumber : цел32;
(*			cpage: DTPData.PageObject;
			cguide: DTPData.GuideObject;
*)			guidePos: вещ32; guideOrientation: булево;
		нач
			(* calc pixels *)
			w := округлиВниз(document.GetPageWidth()*zoomFactor);
			h := округлиВниз(document.GetPageHeight()*zoomFactor);
			mt := округлиВниз(document.GetMarginTop()*zoomFactor);
			mb := округлиВниз(document.GetMarginBottom()*zoomFactor);
			ml := округлиВниз(document.GetMarginLeft()*zoomFactor);
			mr := округлиВниз(document.GetMarginRight()*zoomFactor);

			если ~previewMode то
				если mpageMode то							(* draw current Master Guides *)
					cpage := document.GetCurrentMasterPage();
					cguide := cpage.GetFirstGuide();
					нцПока cguide # НУЛЬ делай
						guidePos := cguide.GetPosition(); guideOrientation:= cguide.GetHorizontal();
						если guideOrientation то
							canvas.Line(docOriginX, округлиВниз(guidePos*zoomFactor)+docOriginY, w+docOriginX, округлиВниз(guidePos*zoomFactor)+docOriginY, GUIDECOLOR, WMGraphics.ModeSrcOverDst);
						иначе
							canvas.Line(округлиВниз(guidePos*zoomFactor)+docOriginX, docOriginY, округлиВниз(guidePos*zoomFactor)+docOriginX, h+docOriginY, GUIDECOLOR, WMGraphics.ModeSrcOverDst);
						всё;
						cguide := cguide.next;
					кц;
				иначе											(* draw document guides & appropriate Master Guides *)
					(* master guides *)
					cpage := document.GetCurrentPage(); cpage := cpage.GetMasterPage();
					если cpage # НУЛЬ то
						cguide := cpage.GetFirstGuide();
						нцПока cguide # НУЛЬ делай
							guidePos := cguide.GetPosition(); guideOrientation:= cguide.GetHorizontal();
							если guideOrientation то
								canvas.Line(docOriginX, округлиВниз(guidePos*zoomFactor)+docOriginY, w+docOriginX, округлиВниз(guidePos*zoomFactor)+docOriginY, GUIDECOLOR, WMGraphics.ModeSrcOverDst);
							иначе
								canvas.Line(округлиВниз(guidePos*zoomFactor)+docOriginX, docOriginY, округлиВниз(guidePos*zoomFactor)+docOriginX, h+docOriginY, GUIDECOLOR, WMGraphics.ModeSrcOverDst);
							всё;
							cguide := cguide.next;
						кц;
					всё;

					(* document guides *)
					cpage := document.GetCurrentPage();
					cguide := cpage.GetFirstGuide();
					нцПока cguide # НУЛЬ делай
						guidePos := cguide.GetPosition(); guideOrientation:= cguide.GetHorizontal();
						если guideOrientation то
							canvas.Line(docOriginX, округлиВниз(guidePos*zoomFactor)+docOriginY, w+docOriginX, округлиВниз(guidePos*zoomFactor)+docOriginY, GUIDECOLOR, WMGraphics.ModeSrcOverDst);
						иначе
							canvas.Line(округлиВниз(guidePos*zoomFactor)+docOriginX, docOriginY, округлиВниз(guidePos*zoomFactor)+docOriginX, h+docOriginY, GUIDECOLOR, WMGraphics.ModeSrcOverDst);
						всё;
						cguide := cguide.next;
					кц;
				всё;

				(* margin *)
				если document.GetFacingPages() то
					если mpageMode то pageNumber := document.GetCurrentMasterPageNumber(); иначе pageNumber := document.GetCurrentPageNumber(); всё;
					если  (pageNumber остОтДеленияНа 2 = 0) то
						tempml := mr;
						tempmr := ml;
					иначе
						tempml := ml;
						tempmr := mr;
					всё;
				иначе
					tempml := ml;
					tempmr := mr;
				всё;
				canvas.Line(docOriginX+tempml, docOriginY+mt, docOriginX+w-tempmr, docOriginY+mt, BORDERCOLOR, WMGraphics.ModeSrcOverDst);
				canvas.Line(docOriginX+tempml, docOriginY+h-mb, docOriginX+w-tempmr, docOriginY+h-mb, BORDERCOLOR, WMGraphics.ModeSrcOverDst);
				canvas.Line(docOriginX+tempml, docOriginY+mt, docOriginX+tempml, docOriginY+h-mb, BORDERCOLOR, WMGraphics.ModeSrcOverDst);
				canvas.Line(docOriginX+w-tempmr, docOriginY+mt, docOriginX+w-tempmr, docOriginY+h-mb, BORDERCOLOR, WMGraphics.ModeSrcOverDst);
			всё;

		кон DrawHelpers;

		проц DrawContent*(canvas : WMGraphics.Canvas);
		перем
(*			cpage: DTPData.PageObject;
			cframe: DTPData.FrameObject;
*)			content: DTPData.ContentObject;
			x, y, w, h: вещ32;
			color: цел32;
		нач
			(* Draw current Page with (content)Frames, selected Frame *)
			color := FRAMECOLOR;

			если mpageMode то										(* master page *)
				cpage := document.GetCurrentMasterPage();
				cframe := cpage.GetFirstFrame();
				нцПока cframe # НУЛЬ делай									(* draw frames & their content *)
					x := cframe.GetX(); y := cframe.GetY();
					w := cframe.GetWidth(); h := cframe.GetHeight();

					(* draw content *)
					content := cframe.GetContent();
					если content # НУЛЬ то
						content.Draw(canvas, docOriginX+округлиВниз(x*zoomFactor), docOriginY+округлиВниз(y*zoomFactor), округлиВниз(w*zoomFactor), округлиВниз(h*zoomFactor), zoomFactor, quality, previewMode);
					всё;

					(* draw bounding box *)
					если ~previewMode то
						DrawRectangle(canvas, docOriginX+округлиВниз(x*zoomFactor), docOriginY+округлиВниз(y*zoomFactor), docOriginX+округлиВниз((x+w)*zoomFactor), docOriginY+округлиВниз((y+h)*zoomFactor), color);
					всё;

					cframe := cframe.next;
				кц;

			иначе														(* draw current page & app. master *)
				(* master page *)
				cpage := document.GetCurrentPage(); cpage := cpage.GetMasterPage();
				если cpage # НУЛЬ то										(* if there is a masterpage.. *)
					cframe := cpage.GetFirstFrame();
					нцПока cframe # НУЛЬ делай								(* draw frames & their content *)
						x := cframe.GetX(); y := cframe.GetY();
						w := cframe.GetWidth(); h := cframe.GetHeight();

						(* draw content *)
						content := cframe.GetContent();
						если content # НУЛЬ то
							content.Draw(canvas, docOriginX+округлиВниз(x*zoomFactor), docOriginY+округлиВниз(y*zoomFactor), округлиВниз(w*zoomFactor), округлиВниз(h*zoomFactor), zoomFactor, quality, previewMode);
						всё;

						(* draw bounding box *)
						если ~previewMode то
							DrawRectangle(canvas, docOriginX+округлиВниз(x*zoomFactor), docOriginY+округлиВниз(y*zoomFactor), docOriginX+округлиВниз((x+w)*zoomFactor), docOriginY+округлиВниз((y+h)*zoomFactor), MASTERFRAMECOLOR);
						всё;

						cframe := cframe.next;
					кц;
				всё;

				(* maybe call DrawGrid after MasterPage Again... *)
				если ~mpageMode то DrawGrid(canvas); всё;

				(* document page *)
				cpage := document.GetCurrentPage();
				cframe := cpage.GetFirstFrame();
				нцПока cframe # НУЛЬ делай									(* draw frames & their content *)
					x := cframe.GetX(); y := cframe.GetY();
					w := cframe.GetWidth(); h := cframe.GetHeight();

					(* draw content *)
					content := cframe.GetContent();
					если content # НУЛЬ то
						content.Draw(canvas, docOriginX+округлиВниз(x*zoomFactor), docOriginY+округлиВниз(y*zoomFactor), округлиВниз(w*zoomFactor), округлиВниз(h*zoomFactor), zoomFactor, quality, previewMode);
					всё;

					(* draw bounding box *)
					если ~previewMode то
						DrawRectangle(canvas, docOriginX+округлиВниз(x*zoomFactor), docOriginY+округлиВниз(y*zoomFactor), docOriginX+округлиВниз((x+w)*zoomFactor), docOriginY+округлиВниз((y+h)*zoomFactor), color);
					всё;

					cframe := cframe.next;
				кц;
			всё;

		кон DrawContent;

		проц DrawSelectedFrame(canvas : WMGraphics.Canvas);
		перем
(*			cpage: DTPData.PageObject;
			cframe: DTPData.FrameObject;
			cguide: DTPData.GuideObject;
*)			x, y, w, h, pos: вещ32;
			color: цел32;
			horizontal: булево;
		нач

			если mpageMode то
				cpage := document.GetCurrentMasterPage();
			иначе
				cpage := document.GetCurrentPage();
			всё;

			(* draw current frame (border) *)
			color := ACTIVEFRAMECOLOR;
			cframe := cpage.GetCurrentFrame();
			cguide := cpage.GetCurrentGuide();
			если cguide # НУЛЬ то
				pos := cguide.GetPosition();
				horizontal := cguide.GetHorizontal();
				если ~previewMode то
					если horizontal то
						canvas.Line(docOriginX, docOriginY+округлиВниз(pos*zoomFactor), docOriginX+округлиВниз(document.GetPageWidth()*zoomFactor), docOriginY+округлиВниз(pos*zoomFactor), color, WMGraphics.ModeSrcOverDst);
					иначе
						canvas.Line(docOriginX+округлиВниз(pos*zoomFactor), docOriginY, docOriginX+округлиВниз(pos*zoomFactor), docOriginY+округлиВниз(document.GetPageHeight()*zoomFactor), color, WMGraphics.ModeSrcOverDst);
					всё;
				всё;
			аесли cframe # НУЛЬ то
				x := cframe.GetX(); y := cframe.GetY();
				w := cframe.GetWidth(); h := cframe.GetHeight();
				если ~previewMode то
					DrawRectangle(canvas, docOriginX+округлиВниз(x*zoomFactor), docOriginY+округлиВниз(y*zoomFactor), docOriginX+округлиВниз((x+w)*zoomFactor), docOriginY+округлиВниз((y+h)*zoomFactor), color);
					если selectionON то
						DrawFrameHandles(canvas, docOriginX+округлиВниз(x*zoomFactor), docOriginY+округлиВниз(y*zoomFactor), docOriginX+округлиВниз((x+w)*zoomFactor), docOriginY+округлиВниз((y+h)*zoomFactor), color);
					всё
				всё
			иначе
			всё;

		кон DrawSelectedFrame;

		проц DrawRectangle(canvas: WMGraphics.Canvas; xs, ys, xe, ye, color: цел32);
		нач
				canvas.Line(xs,ys,xs,ye, color, WMGraphics.ModeSrcOverDst);
				canvas.Line(xs,ys,xe,ys, color, WMGraphics.ModeSrcOverDst);
				canvas.Line(xe,ys,xe,ye, color, WMGraphics.ModeSrcOverDst);
				canvas.Line(xs,ye,xe,ye, color, WMGraphics.ModeSrcOverDst);
		кон DrawRectangle;

		проц DrawFrameHandles(canvas: WMGraphics.Canvas; xs, ys, xe, ye, color: цел32);
		нач
				canvas.Fill(WMRectangles.MakeRect(xs-4, ys-4, xs+1, ys+1), color, WMGraphics.ModeSrcOverDst);
				canvas.Fill(WMRectangles.MakeRect(xe, ys-4, xe+5, ys+1), color, WMGraphics.ModeSrcOverDst);
				canvas.Fill(WMRectangles.MakeRect(xs-4, ye, xs+1, ye+5), color, WMGraphics.ModeSrcOverDst);
				canvas.Fill(WMRectangles.MakeRect(xe, ye, xe+5, ye+5), color, WMGraphics.ModeSrcOverDst);
				canvas.Fill(WMRectangles.MakeRect(xs-4, округлиВниз((ys+ye)/2)-2, xs+1, округлиВниз((ys+ye)/2)+2), color, WMGraphics.ModeSrcOverDst);
				canvas.Fill(WMRectangles.MakeRect(округлиВниз((xs+xe)/2)-1, ys-4, округлиВниз((xs+xe)/2)+3, ys+1), color, WMGraphics.ModeSrcOverDst);
				canvas.Fill(WMRectangles.MakeRect(xe, округлиВниз((ys+ye)/2)-2, xe+5, округлиВниз((ys+ye)/2)+2), color, WMGraphics.ModeSrcOverDst);
				canvas.Fill(WMRectangles.MakeRect(округлиВниз((xs+xe)/2)-1, ye, округлиВниз((xs+xe)/2)+3, ye+5), color, WMGraphics.ModeSrcOverDst);
		кон DrawFrameHandles;

		проц DrawUserAction(canvas: WMGraphics.Canvas);
		перем color: цел32;
			rx, ry: вещ32;
			snapL, snapT, snapR, snapB: булево;
		нач
			color := FRAMECOLOR;
			если ~previewMode то											(* Document Edit Mode *)
				если ~selectionON то										(* plugin tools *)
					если addobject то
						если down то
							если snapOnCreate то
								если tx0 >-1 то vx0 := округлиВниз(tx0*zoomFactor)+docOriginX; иначе vx0 := x0; всё;
								если ty0 >-1 то vy0 := округлиВниз(ty0*zoomFactor)+docOriginY; иначе vy0 := y0; всё;
							иначе
								vx0 := x0; vy0 := y0;
							всё;
							если WillSnap((x1-docOriginX)/zoomFactor, (y1-docOriginY)/zoomFactor, (x1-docOriginX)/zoomFactor, (y1-docOriginY)/zoomFactor, snapL, snapT, snapR, snapB, rx, ry) то

								если snapR или snapL то vx1 := округлиВниз(rx*zoomFactor)+docOriginX; иначе vx1 := x1; всё;
								если snapT или snapB то vy1 := округлиВниз(ry*zoomFactor)+docOriginY; иначе vy1 := y1; всё;
							иначе
								vx1 := x1; vy1 := y1;
							всё;

							(* create object *)
							canvas.Line(vx0,vy0,vx0,vy1, color, WMGraphics.ModeSrcOverDst);
							canvas.Line(vx0,vy0,vx1,vy0, color, WMGraphics.ModeSrcOverDst);
							canvas.Line(vx1,vy0,vx1,vy1, color, WMGraphics.ModeSrcOverDst);
							canvas.Line(vx0,vy1,vx1,vy1, color, WMGraphics.ModeSrcOverDst);
						всё;
					всё;
				иначе														(* selection tool *)
					если down то
						если addguide то									(* add guide *)
							если res2 = 0 то
								canvas.Line(docOriginX, y1,  округлиВниз(document.GetPageWidth()*zoomFactor)+docOriginX, y1, color, WMGraphics.ModeSrcOverDst);
							иначе
								canvas.Line(x1, docOriginY, x1, округлиВниз(document.GetPageHeight()*zoomFactor)+docOriginY, color, WMGraphics.ModeSrcOverDst);
							всё;
						всё;
					всё;
				всё;
			иначе														(* Preview Mode *)

			всё;

		кон DrawUserAction;

		проц InvalidateCurrentFrame*;
		нач
			Invalidate;
		кон InvalidateCurrentFrame;

		проц SetContentPropsPosition*(x, y: размерМЗ);
		нач
			propsX := x; propsY := y;
		кон SetContentPropsPosition;

		проц UpdateContentProps*;
		перем activeContent, content : DTPData.ContentObject;

		нач
			если activeFrame # НУЛЬ то
				activeContent := activeFrame.GetContent();
				activeContent.Hide;
			всё;
			если mpageMode то
				cpage := document.GetCurrentMasterPage();
			иначе
				cpage := document.GetCurrentPage();
			всё;
			cframe := cpage.GetCurrentFrame();
			если cframe # НУЛЬ то
				content := cframe.GetContent();
				content.Show(propsX, propsY); activeFrame := cframe;
			всё;
			ownerWindowSetFocus;
		кон UpdateContentProps;

		проц UpdateProps*;
		перем
			cpage: DTPData.PageObject;
			cframe: DTPData.FrameObject;
			cguide: DTPData.GuideObject;
		нач
			(* props := parentWindow.props; *)
			если props # НУЛЬ то
				(* document := parentWindow.GetDocument(); *)
				если document # НУЛЬ то
					если mpageMode то
						cpage := document.GetCurrentMasterPage();
					иначе
						cpage := document.GetCurrentPage();
					всё;
					cframe := cpage.GetCurrentFrame();
					cguide := cpage.GetCurrentGuide();
					если selectionON то									(* selection tool *)
						если (cframe = НУЛЬ) и (cguide = НУЛЬ) то				(* no frame/guide selected *)
							если addguide то
								props.SetActive;
								если res2 = 0 то
									props.SetCoordinates(0, (y1-docOriginY)/zoomFactor, 0,0);
								иначе
									props.SetCoordinates((x1-docOriginX)/zoomFactor, 0, 0, 0);
								всё;
							иначе
								props.SetInactive;
								props.InitValues;
							всё;
						аесли (cframe # НУЛЬ) то							(* frame selected *)
							props.SetActiveALL;
							если quality то
								props.SetProperties(cframe.GetX(), cframe.GetY(), cframe.GetWidth(), cframe.GetHeight(), cframe.GetName(), cframe.GetStyle(), cframe.GetWrap(), cframe.GetWrapTop(), cframe.GetWrapBottom(), cframe.GetWrapLeft(), cframe.GetWrapRight());
							иначе
								props.SetCoordinates(cframe.GetX(), cframe.GetY(), cframe.GetWidth(), cframe.GetHeight());
							всё;
						аесли (cguide # НУЛЬ) то
							props.SetActive;
							если cguide.GetHorizontal() то
								props.SetCoordinates(0, cguide.GetPosition(), 0, 0);
							иначе
								props.SetCoordinates(cguide.GetPosition(), 0, 0, 0);
							всё;
						иначе
						всё;
					иначе													(* plugins *)
						если down то
							props.SetActive;
							props.SetCoordinates((x0-docOriginX)/zoomFactor, (y0-docOriginY)/zoomFactor, (x1-x0)/zoomFactor, (y1-y0)/zoomFactor);
						иначе												(* display current frame *)
							cpage := document.GetCurrentPage();
							cframe := cpage.GetCurrentFrame();
							если (cframe # НУЛЬ) то							(* frame selected *)
								props.SetActiveALL;
								props.SetProperties(cframe.GetX(), cframe.GetY(), cframe.GetWidth(), cframe.GetHeight(), cframe.GetName(), cframe.GetStyle(), cframe.GetWrap(), cframe.GetWrapTop(), cframe.GetWrapBottom(), cframe.GetWrapLeft(), cframe.GetWrapRight());
							иначе
								props.SetInactive;
								props.InitValues;
							всё;
						всё;
					всё;
				всё;
			всё;
		кон UpdateProps;

		проц UpdateCoordinates*;
		перем
(*			cpage: DTPData.PageObject;
			cframe: DTPData.FrameObject;
			cguide: DTPData.GuideObject;
*)		нач
			(* props := parentWindow.props; *)
			если props # НУЛЬ то
				(* document := parentWindow.GetDocument(); *)
				если document # НУЛЬ то
					если mpageMode то
						cpage := document.GetCurrentMasterPage();
					иначе
						cpage := document.GetCurrentPage();
					всё;
					cframe := cpage.GetCurrentFrame();
					cguide := cpage.GetCurrentGuide();
					если (cframe = НУЛЬ) и (cguide = НУЛЬ) то
						props.SetCoordinates((x1-docOriginX)/zoomFactor, (y1-docOriginY)/zoomFactor, 0, 0);
					всё;
				всё;
			всё;
		кон UpdateCoordinates;

		проц CloseContentProps*;
		перем activeContent: DTPData.ContentObject;
		нач
			если activeFrame # НУЛЬ то
				activeContent := activeFrame.GetContent();
				activeContent.Close;
			всё;
		кон CloseContentProps;

	кон DrawPanel;

	PropertyWindow* = окласс(WMComponents.FormWindow);
	перем frameName : Strings.String;
		frameX,frameY, frameW, frameH : вещ32;
		frameStyle : DTPData.StyleObject;
		textwrapON : булево;
		twrapTop, twrapBottom, twrapLeft, twrapRight : вещ32;
		theCaller : DrawPanel;
		tempLabel* : WMStandardComponents.Label;

		cdoc: DTPData.Document;
		cpage: DTPData.PageObject;
		cframe: DTPData.FrameObject;
		cguide: DTPData.GuideObject;

		shown, active, activeALL : булево;
		leftPanel, rightPanel: WMStandardComponents.Panel;
		efx, efy, efw, efh, efn, efs, eftw, efwt, efwb, efwl, efwr: WMEditors.Editor;

		проц &New*(caller: DrawPanel);
		перем vc: WMComponents.VisualComponent;
		нач
			theCaller := caller;
			manager := WMWindowManager.GetDefaultManager();
			vc := CreatePropertyForm();
			InitValues;
			Init(vc.bounds.GetWidth(), vc.bounds.GetHeight(), истина);
			SetContent(vc);
			SetTitle(Strings.NewString("Frame"));
			shown := ложь; active := истина; activeALL := ложь;
			SetInactive;

		кон New;

		проц CreatePropertyForm(): WMComponents.VisualComponent;
		перем panel: WMStandardComponents.Panel;
			label: WMStandardComponents.Label;
			windowStyle : WMWindowManager.WindowStyle;
			panelColor : WMGraphics.Color;
		нач
			windowStyle := manager.GetStyle();
			panelColor := windowStyle.bgColor;

			нов(panel);
			(* panel.bounds.SetExtents(190, 230); *)
			panel.bounds.SetExtents(190, 130);
			panel.fillColor.Set(panelColor);
			panel.takesFocus.Set(истина);
			нов(leftPanel); leftPanel.bounds.SetWidth(90); leftPanel.alignment.Set(WMComponents.AlignLeft);
			panel.AddContent(leftPanel);
			нов(rightPanel); rightPanel.alignment.Set(WMComponents.AlignClient);
			panel.AddContent(rightPanel);

			нов(label); label.bounds.SetHeight(20); label.alignment.Set(WMComponents.AlignTop);
			label.SetCaption(" X:"); label.textColor.Set(0000000FFH);
			leftPanel.AddContent(label);
			нов(efx); efx.bounds.SetHeight(20); efx.alignment.Set(WMComponents.AlignTop);
			efx.tv.showBorder.Set(истина); efx.multiLine.Set(ложь); efx.fillColor.Set(0FFFFFFFFH);
			efx.tv.textAlignV.Set(WMGraphics.AlignCenter);
			efx.onEnter.Add(SetValueHandler); efx.tv.borders.Set(WMRectangles.MakeRect(3,3,1,1));
			rightPanel.AddContent(efx);

			нов(label); label.bounds.SetHeight(20); label.alignment.Set(WMComponents.AlignTop);
			label.SetCaption(" Y:"); label.textColor.Set(0000000FFH);
			leftPanel.AddContent(label);
			нов(efy); efy.bounds.SetHeight(20); efy.alignment.Set(WMComponents.AlignTop);
			efy.tv.showBorder.Set(истина); efy.multiLine.Set(ложь); efy.fillColor.Set(0FFFFFFFFH);
			efy.tv.textAlignV.Set(WMGraphics.AlignCenter);
			efy.onEnter.Add(SetValueHandler); efy.tv.borders.Set(WMRectangles.MakeRect(3,3,1,1));
			rightPanel.AddContent(efy);

			нов(label); label.bounds.SetHeight(20); label.alignment.Set(WMComponents.AlignTop);
			label.SetCaption(" Width:"); label.textColor.Set(0000000FFH);
			leftPanel.AddContent(label);
			нов(efw); efw.bounds.SetHeight(20); efw.alignment.Set(WMComponents.AlignTop);
			efw.tv.showBorder.Set(истина); efw.multiLine.Set(ложь); efw.fillColor.Set(0FFFFFFFFH);
			efw.tv.textAlignV.Set(WMGraphics.AlignCenter);
			efw.onEnter.Add(SetValueHandler); efw.tv.borders.Set(WMRectangles.MakeRect(3,3,1,1));
			rightPanel.AddContent(efw);

			нов(label); label.bounds.SetHeight(20); label.alignment.Set(WMComponents.AlignTop);
			label.SetCaption(" Height:"); label.textColor.Set(0000000FFH);
			leftPanel.AddContent(label);
			нов(efh); efh.bounds.SetHeight(20); efh.alignment.Set(WMComponents.AlignTop);
			efh.tv.showBorder.Set(истина); efh.multiLine.Set(ложь); efh.fillColor.Set(0FFFFFFFFH);
			efh.tv.textAlignV.Set(WMGraphics.AlignCenter);
			efh.onEnter.Add(SetValueHandler); efh.tv.borders.Set(WMRectangles.MakeRect(3,3,1,1));
			rightPanel.AddContent(efh);

			(* add spacer *)
			нов(label); label.bounds.SetHeight(10); label.alignment.Set(WMComponents.AlignTop);
			label.SetCaption("");
			leftPanel.AddContent(label);
			нов(label); label.bounds.SetHeight(10); label.alignment.Set(WMComponents.AlignTop);
			label.SetCaption("");
			rightPanel.AddContent(label);

			нов(label); label.bounds.SetHeight(20); label.alignment.Set(WMComponents.AlignTop);
			label.SetCaption(" Name:"); label.textColor.Set(0000000FFH);
			leftPanel.AddContent(label);
			нов(efn); efn.bounds.SetHeight(20); efn.alignment.Set(WMComponents.AlignTop);
			efn.tv.showBorder.Set(истина); efn.multiLine.Set(ложь); efn.fillColor.Set(0FFFFFFFFH);
			efn.tv.textAlignV.Set(WMGraphics.AlignCenter);
			efn.onEnter.Add(SetValueHandler); efn.tv.borders.Set(WMRectangles.MakeRect(3,3,1,1));
			rightPanel.AddContent(efn);

			нов(label); label.bounds.SetHeight(20); label.alignment.Set(WMComponents.AlignTop);
			label.SetCaption(" Style:"); label.textColor.Set(0000000FFH);
			(* leftPanel.AddContent(label); *)
			нов(efs); efs.bounds.SetHeight(20); efs.alignment.Set(WMComponents.AlignTop);
			efs.tv.showBorder.Set(истина); efs.multiLine.Set(ложь); efs.fillColor.Set(0FFFFFFFFH);
			efs.tv.textAlignV.Set(WMGraphics.AlignCenter);
			efs.onEnter.Add(SetValueHandler); efs.tv.borders.Set(WMRectangles.MakeRect(3,3,1,1));
			(* rightPanel.AddContent(efs); *)

			нов(label); label.bounds.SetHeight(20); label.alignment.Set(WMComponents.AlignTop);
			label.SetCaption(" TextWrapON:"); label.textColor.Set(0000000FFH);
			(* leftPanel.AddContent(label); *)
			нов(eftw); eftw.bounds.SetHeight(20); eftw.alignment.Set(WMComponents.AlignTop);
			eftw.tv.showBorder.Set(истина); eftw.multiLine.Set(ложь); eftw.fillColor.Set(0FFFFFFFFH);
			eftw.tv.textAlignV.Set(WMGraphics.AlignCenter);
			eftw.onEnter.Add(SetValueHandler); eftw.tv.borders.Set(WMRectangles.MakeRect(3,3,1,1));
			(* rightPanel.AddContent(eftw);	*)

			нов(label); label.bounds.SetHeight(20); label.alignment.Set(WMComponents.AlignTop);
			label.SetCaption(" TWTop:"); label.textColor.Set(0000000FFH);
			(* leftPanel.AddContent(label); *)
			нов(efwt); efwt.bounds.SetHeight(20); efwt.alignment.Set(WMComponents.AlignTop);
			efwt.tv.showBorder.Set(истина); efwt.multiLine.Set(ложь); efwt.fillColor.Set(0FFFFFFFFH);
			efwt.tv.textAlignV.Set(WMGraphics.AlignCenter);
			efwt.onEnter.Add(SetValueHandler); efwt.tv.borders.Set(WMRectangles.MakeRect(3,3,1,1));
			(* rightPanel.AddContent(efwt); *)

			нов(label); label.bounds.SetHeight(20); label.alignment.Set(WMComponents.AlignTop);
			label.SetCaption(" TWBottom:"); label.textColor.Set(0000000FFH);
			(* leftPanel.AddContent(label); *)
			нов(efwb); efwb.bounds.SetHeight(20); efwb.alignment.Set(WMComponents.AlignTop);
			efwb.tv.showBorder.Set(истина); efwb.multiLine.Set(ложь); efwb.fillColor.Set(0FFFFFFFFH);
			efwb.tv.textAlignV.Set(WMGraphics.AlignCenter);
			efwb.onEnter.Add(SetValueHandler); efwb.tv.borders.Set(WMRectangles.MakeRect(3,3,1,1));
			(* rightPanel.AddContent(efwb); *)

			нов(label); label.bounds.SetHeight(20); label.alignment.Set(WMComponents.AlignTop);
			label.SetCaption(" TWLeft:"); label.textColor.Set(0000000FFH);
			(* leftPanel.AddContent(label); *)
			нов(efwl); efwl.bounds.SetHeight(20); efwl.alignment.Set(WMComponents.AlignTop);
			efwl.tv.showBorder.Set(истина); efwl.multiLine.Set(ложь); efwl.fillColor.Set(0FFFFFFFFH);
			efwl.tv.textAlignV.Set(WMGraphics.AlignCenter);
			efwl.onEnter.Add(SetValueHandler); efwl.tv.borders.Set(WMRectangles.MakeRect(3,3,1,1));
			(* rightPanel.AddContent(efwl); *)

			нов(label); label.bounds.SetHeight(20); label.alignment.Set(WMComponents.AlignTop);
			label.SetCaption(" TWRight:"); label.textColor.Set(0000000FFH);
			(* leftPanel.AddContent(label); *)
			нов(efwr); efwr.bounds.SetHeight(20); efwr.alignment.Set(WMComponents.AlignTop);
			efwr.tv.showBorder.Set(истина); efwr.multiLine.Set(ложь); efwr.fillColor.Set(0FFFFFFFFH);
			efwr.tv.textAlignV.Set(WMGraphics.AlignCenter);
			efwr.onEnter.Add(SetValueHandler); efwr.tv.borders.Set(WMRectangles.MakeRect(3,3,1,1));
			(* rightPanel.AddContent(efwr); *)

			возврат panel;
		кон CreatePropertyForm;

		проц Show*;
		нач
			если ~shown то
				shown := истина;
				WMWindowManager.ExtAddWindow(сам, 820, 90,
					{WMWindowManager.FlagFrame, WMWindowManager.FlagStayOnTop, WMWindowManager.FlagClose, WMWindowManager.FlagMinimize});
			всё;
		кон Show;

		проц Hide*;
		нач
			если shown то
				shown := ложь;
				manager.Remove(сам);
			всё;
		кон Hide;

		проц SetActiveALL*;
		нач
			если ~activeALL то
				rightPanel.takesFocus.Set(истина); (* make field NONEDITABLE? *)
				efx.fillColor.Set(0FFFFFFFFH); efx.tv.defaultTextBgColor.Set(0FFFFFFFFH);
				efy.fillColor.Set(0FFFFFFFFH); efy.tv.defaultTextBgColor.Set(0FFFFFFFFH);
				efw.fillColor.Set(0FFFFFFFFH); efw.tv.defaultTextBgColor.Set(0FFFFFFFFH);
				efh.fillColor.Set(0FFFFFFFFH); efh.tv.defaultTextBgColor.Set(0FFFFFFFFH);
				efn.fillColor.Set(0FFFFFFFFH); efn.tv.defaultTextBgColor.Set(0FFFFFFFFH);
				efs.fillColor.Set(0FFFFFFFFH); efs.tv.defaultTextBgColor.Set(0FFFFFFFFH);
				eftw.fillColor.Set(0FFFFFFFFH); eftw.tv.defaultTextBgColor.Set(0FFFFFFFFH);
				efwt.fillColor.Set(0FFFFFFFFH); efwt.tv.defaultTextBgColor.Set(0FFFFFFFFH);
				efwb.fillColor.Set(0FFFFFFFFH); efwb.tv.defaultTextBgColor.Set(0FFFFFFFFH);
				efwl.fillColor.Set(0FFFFFFFFH); efwl.tv.defaultTextBgColor.Set(0FFFFFFFFH);
				efwr.fillColor.Set(0FFFFFFFFH); efwr.tv.defaultTextBgColor.Set(0FFFFFFFFH);
				rightPanel.Invalidate;
				activeALL := истина;
			всё;
		кон SetActiveALL;

		проц SetActive*;
		нач
			если ~active то
				rightPanel.takesFocus.Set(истина); (* make field NONEDITABLE? *)
				efx.fillColor.Set(0FFFFFFFFH); efx.tv.defaultTextBgColor.Set(0FFFFFFFFH);
				efy.fillColor.Set(0FFFFFFFFH); efy.tv.defaultTextBgColor.Set(0FFFFFFFFH);
				efw.fillColor.Set(0FFFFFFFFH); efw.tv.defaultTextBgColor.Set(0FFFFFFFFH);
				efh.fillColor.Set(0FFFFFFFFH); efh.tv.defaultTextBgColor.Set(0FFFFFFFFH);
(*				efn.fillColor.Set(0BBBBBBFFH); efn.tv.defaultTextBgColor.Set(0BBBBBBFFH);
				efs.fillColor.Set(0BBBBBBFFH); efs.tv.defaultTextBgColor.Set(0BBBBBBFFH);
				eftw.fillColor.Set(0BBBBBBFFH); eftw.tv.defaultTextBgColor.Set(0BBBBBBFFH);
				efwt.fillColor.Set(0BBBBBBFFH); efwt.tv.defaultTextBgColor.Set(0BBBBBBFFH);
				efwb.fillColor.Set(0BBBBBBFFH); efwb.tv.defaultTextBgColor.Set(0BBBBBBFFH);
				efwl.fillColor.Set(0BBBBBBFFH); efwl.tv.defaultTextBgColor.Set(0BBBBBBFFH);
				efwr.fillColor.Set(0BBBBBBFFH); efwr.tv.defaultTextBgColor.Set(0BBBBBBFFH);
*)				rightPanel.Invalidate;
				active := истина;
			всё;
		кон SetActive;

		проц SetInactive*;
		нач
			если active или activeALL то
				rightPanel.takesFocus.Set(ложь); (* make field EDITABLE? *)
				efx.fillColor.Set(0BBBBBBFFH); efx.tv.defaultTextBgColor.Set(0BBBBBBFFH);
				efy.fillColor.Set(0BBBBBBFFH); efy.tv.defaultTextBgColor.Set(0BBBBBBFFH);
				efw.fillColor.Set(0BBBBBBFFH); efw.tv.defaultTextBgColor.Set(0BBBBBBFFH);
				efh.fillColor.Set(0BBBBBBFFH); efh.tv.defaultTextBgColor.Set(0BBBBBBFFH);
				efn.fillColor.Set(0BBBBBBFFH); efn.tv.defaultTextBgColor.Set(0BBBBBBFFH);
				efs.fillColor.Set(0BBBBBBFFH); efs.tv.defaultTextBgColor.Set(0BBBBBBFFH);
				eftw.fillColor.Set(0BBBBBBFFH); eftw.tv.defaultTextBgColor.Set(0BBBBBBFFH);
				efwt.fillColor.Set(0BBBBBBFFH); efwt.tv.defaultTextBgColor.Set(0BBBBBBFFH);
				efwb.fillColor.Set(0BBBBBBFFH); efwb.tv.defaultTextBgColor.Set(0BBBBBBFFH);
				efwl.fillColor.Set(0BBBBBBFFH); efwl.tv.defaultTextBgColor.Set(0BBBBBBFFH);
				efwr.fillColor.Set(0BBBBBBFFH); efwr.tv.defaultTextBgColor.Set(0BBBBBBFFH);
				rightPanel.Invalidate;
				active := ложь; activeALL := ложь;
			всё;
		кон SetInactive;

		проц SetProperties*(x, y, w, h: вещ32; name: Strings.String; style: DTPData.StyleObject; tw: булево; twt, twb, twl, twr: вещ32);
		перем propString: массив 32 из симв8;
		нач
			frameX := x; frameY := y; frameW := w; frameH := h;
			frameName := name;
			frameStyle := style;
			textwrapON := tw;
			twrapTop := twt; twrapBottom := twb; twrapLeft := twl; twrapRight := twr;

			Strings.FloatToStr(frameX, 0, 4, 0, propString);
			efx.SetAsString(propString);
			Strings.FloatToStr(frameY, 0, 4, 0, propString);
			efy.SetAsString(propString);
			Strings.FloatToStr(frameW, 0, 4, 0, propString);
			efw.SetAsString(propString);
			Strings.FloatToStr(frameH, 0, 4, 0, propString);
			efh.SetAsString(propString);

			копируйСтрокуДо0(frameName^, propString);
			efn.SetAsString(propString);

			(* style.. *)

			Strings.BoolToStr(textwrapON, propString);
			eftw.SetAsString(propString);
			Strings.FloatToStr(twrapTop, 0, 4, 0, propString);
			efwt.SetAsString(propString);
			Strings.FloatToStr(twrapBottom, 0, 4, 0, propString);
			efwb.SetAsString(propString);
			Strings.FloatToStr(twrapLeft, 0, 4, 0, propString);
			efwl.SetAsString(propString);
			Strings.FloatToStr(twrapRight, 0, 4, 0, propString);
			efwr.SetAsString(propString);

		кон SetProperties;

		проц SetCoordinates*(x, y, w, h: вещ32);
		перем propString: массив 32 из симв8;
		нач
			frameX := x; frameY := y; frameW := w; frameH := h;

			Strings.FloatToStr(frameX, 0, 4, 0, propString);
			efx.SetAsString(propString);
			Strings.FloatToStr(frameY, 0, 4, 0, propString);
			efy.SetAsString(propString);
			Strings.FloatToStr(frameW, 0, 4, 0, propString);
			efw.SetAsString(propString);
			Strings.FloatToStr(frameH, 0, 4, 0, propString);
			efh.SetAsString(propString);

		кон SetCoordinates;

		проц InitValues*;
		перем propString: массив 32 из симв8;
		нач
			propString := "";
			efx.SetAsString(propString);
			efy.SetAsString(propString);
			efw.SetAsString(propString);
			efh.SetAsString(propString);
			efn.SetAsString(propString);
			efs.SetAsString(propString);
			eftw.SetAsString(propString);
			efwt.SetAsString(propString);
			efwb.SetAsString(propString);
			efwl.SetAsString(propString);
			efwr.SetAsString(propString);

		кон InitValues;

		проц SetValueHandler(sender, data: динамическиТипизированныйУкль);
		перем
			plreal, plreal2, plreal3, plreal4 : вещ64;
			pstring, pstring2, pstring3, pstring4 : массив 128 из симв8;
			pbool : булево;
			content : DTPData.ContentObject;
		нач
			cdoc := theCaller.GetDocument();
			если theCaller.mpageMode то
				cpage := cdoc.GetCurrentMasterPage();
			иначе
				cpage := cdoc.GetCurrentPage();
			всё;
			cframe := cpage.GetCurrentFrame();
			cguide := cpage.GetCurrentGuide();
			если cframe # НУЛЬ то									(* update frame values *)
				если (sender = efx) то
					efx.GetAsString(pstring); Strings.StrToFloat(pstring, plreal);
					efy.GetAsString(pstring2); Strings.StrToFloat(pstring2, plreal2);
					cframe.SetPosition(устарПреобразуйКБолееУзкомуЦел(plreal), устарПреобразуйКБолееУзкомуЦел(plreal2));
				аесли (sender = efy) то
					efx.GetAsString(pstring); Strings.StrToFloat(pstring, plreal);
					efy.GetAsString(pstring2); Strings.StrToFloat(pstring2, plreal2);
					cframe.SetPosition(устарПреобразуйКБолееУзкомуЦел(plreal), устарПреобразуйКБолееУзкомуЦел(plreal2));
				аесли (sender = efw) то
					efw.GetAsString(pstring); Strings.StrToFloat(pstring, plreal);
					efh.GetAsString(pstring2); Strings.StrToFloat(pstring2, plreal2);
					cframe.SetSize(устарПреобразуйКБолееУзкомуЦел(plreal), устарПреобразуйКБолееУзкомуЦел(plreal2));
				аесли (sender = efh) то
					efw.GetAsString(pstring); Strings.StrToFloat(pstring, plreal);
					efh.GetAsString(pstring2); Strings.StrToFloat(pstring2, plreal2);
					cframe.SetSize(устарПреобразуйКБолееУзкомуЦел(plreal), устарПреобразуйКБолееУзкомуЦел(plreal2));
				аесли (sender = efn) то
					efn.GetAsString(pstring);
					content := cdoc.GetContentByName(pstring);
					если (content = НУЛЬ) то
						cframe.SetName(Strings.NewString(pstring));
						content := cframe.GetContent();
						если content # НУЛЬ то content.contentName := Strings.NewString(pstring); всё;
					иначе
						cframe.SetName(Strings.NewString("already exists"));
						content := cframe.GetContent();
						если content # НУЛЬ то content.contentName := Strings.NewString(pstring); всё;
						efn.SetAsString("already exists");
					всё;

				аесли (sender = efs) то

				аесли (sender = eftw) то
					eftw.GetAsString(pstring); Strings.StrToBool(pstring, pbool);
					cframe.SetWrap(pbool);
				аесли (sender = efwt) или (sender = efwb) или (sender = efwl) или (sender = efwr) то
					efwt.GetAsString(pstring); Strings.StrToFloat(pstring, plreal);
					efwb.GetAsString(pstring2); Strings.StrToFloat(pstring2, plreal2);
					efwl.GetAsString(pstring3); Strings.StrToFloat(pstring3, plreal3);
					efwr.GetAsString(pstring4); Strings.StrToFloat(pstring4, plreal4);
					cframe.SetWrapSize(устарПреобразуйКБолееУзкомуЦел(plreal), устарПреобразуйКБолееУзкомуЦел(plreal2), устарПреобразуйКБолееУзкомуЦел(plreal3), устарПреобразуйКБолееУзкомуЦел(plreal4));
				иначе

				всё;
			аесли cguide # НУЛЬ то									(* update guide values *)
				если cguide.GetHorizontal() то
					efy.GetAsString(pstring); Strings.StrToFloat(pstring, plreal);
					cguide.SetPosition(устарПреобразуйКБолееУзкомуЦел(plreal));
				иначе
					efx.GetAsString(pstring); Strings.StrToFloat(pstring, plreal);
					cguide.SetPosition(устарПреобразуйКБолееУзкомуЦел(plreal));
				всё;
			иначе
			всё;
			theCaller.Invalidate;
		кон SetValueHandler;

		проц {перекрыта}Close*;
		нач
			theCaller.propertyOpen := ложь;
			Hide;
			Close^;
		кон Close;

	кон PropertyWindow;

(* New  Object Dialog Window *)
(*	NewObjectDialog* = OBJECT(WMComponents.FormWindow)
	VAR content: WMComponents.VisualComponent;
		result: SIGNED32;
		objectWidthField, objectHeightField: WMEditors.Editor;
		shown: BOOLEAN;
		theCaller: DrawPanel;

		PROCEDURE &New(caller: DrawPanel);
		BEGIN
			theCaller := caller;
			content := CreateDialog();
			Init(content.bounds.GetWidth(), content.bounds.GetHeight(), FALSE);
			SetContent(content);
			SetTitle(Strings.NewString("New Object"));
			manager := WMWindowManager.GetDefaultManager();

		END New;

		PROCEDURE Show*(VAR w, h: FLOAT32): BOOLEAN;
		VAR resultString: ARRAY 8 OF CHAR;
			resW, resH: FLOAT64;
		BEGIN
				result := -1;
				WMWindowManager.ExtAddWindow(SELF, 200, 100, {WMWindowManager.FlagFrame, WMWindowManager.FlagStayOnTop});
				manager.SetFocus(SELF);
				BEGIN {EXCLUSIVE}
					AWAIT (result >= 0)
				END;
				manager.Remove(SELF);
				IF result = 0 THEN
					objectWidthField.GetAsString(resultString);
					Strings.StrToFloat(resultString, resW); w := SHORT(resW);
					objectHeightField.GetAsString(resultString);
					Strings.StrToFloat(resultString, resH); h := SHORT(resH);
					RETURN TRUE;
				ELSE h := 0; w := 0;
					RETURN FALSE;
				END;


		END Show;

		PROCEDURE CreateDialog(): WMStandardComponents.Panel;
		VAR label: WMStandardComponents.Label;
			panel, buttonPanel, paramPanel, editorsPanel, labelPanel : WMStandardComponents.Panel;
			cancel, ok : WMStandardComponents.Button;
		BEGIN

			NEW(panel); panel.bounds.SetExtents(300, 200); panel.fillColor.Set(09999FFFFH);
			panel.takesFocus.Set(TRUE);

			NEW(buttonPanel); buttonPanel.bounds.SetHeight(40); buttonPanel.alignment.Set(WMComponents.AlignBottom);
			panel.AddContent(buttonPanel);

			NEW(ok); ok.caption.SetAOC("OK"); ok.alignment.Set(WMComponents.AlignRight);
			buttonPanel.AddContent(ok); ok.onClick.Add(Ok);

			NEW(cancel); cancel.caption.SetAOC("Cancel"); cancel.alignment.Set(WMComponents.AlignRight);
			buttonPanel.AddContent(cancel); cancel.onClick.Add(Cancel);

			NEW(paramPanel); paramPanel.alignment.Set(WMComponents.AlignClient);
			panel.AddContent(paramPanel);

			NEW(editorsPanel); editorsPanel.bounds.SetWidth(100); editorsPanel.alignment.Set(WMComponents.AlignRight);
			paramPanel.AddContent(editorsPanel);

			NEW(labelPanel); labelPanel.alignment.Set(WMComponents.AlignClient);
			paramPanel.AddContent(labelPanel);

			NEW(label); label.bounds.SetHeight(20); label.alignment.Set(WMComponents.AlignTop); label.SetCaption(" Object Width [mm]:");
			labelPanel.AddContent(label);

			NEW(objectWidthField); objectWidthField.bounds.SetHeight(20); objectWidthField.alignment.Set(WMComponents.AlignTop);
			objectWidthField.tv.showBorder.Set(TRUE); objectWidthField.multiLine.Set(FALSE); objectWidthField.fillColor.Set(0FFFFFFFFH);
			objectWidthField.tv.textAlignV.Set(WMGraphics.AlignCenter);
			editorsPanel.AddContent(objectWidthField);

			NEW(label); label.bounds.SetHeight(20); label.alignment.Set(WMComponents.AlignTop); label.SetCaption(" Object Height [mm]:");
			labelPanel.AddContent(label);

			NEW(objectHeightField); objectHeightField.bounds.SetHeight(20); objectHeightField.alignment.Set(WMComponents.AlignTop);
			objectHeightField.tv.showBorder.Set(TRUE); objectHeightField.multiLine.Set(FALSE); objectHeightField.fillColor.Set(0FFFFFFFFH);
			objectHeghtField.tv.textAlignV.Set(WMGraphics.AlignCenter);
			editorsPanel.AddContent(objectHeightField);

			RETURN panel;
		END CreateDialog;

		PROCEDURE Ok(sender, data : ANY);
		BEGIN {EXCLUSIVE}
			result := 0;
			theCaller.newObjOpen := FALSE;
		END Ok;

		PROCEDURE Cancel*(sender, data : ANY);
		BEGIN {EXCLUSIVE}
			result := 1;
			theCaller.newObjOpen := FALSE;
		END Cancel;

	BEGIN

	END NewObjectDialog;
*)

кон DTPView.
