модуль FoxTRMInstructionSet; (** AUTHOR "fof"; PURPOSE "Tiny Register Machine Instruction Set"; *)

использует Commands, Options, Потоки, Sections := FoxSections, BinaryCode := FoxBinaryCode, Global := FoxGlobal, Basic := FoxBasic, D := Debugging, ObjectFile, Disassembler := FoxDisassembler,
	Files, BitSets;

конст
	checkMnemonic=истина;
	maxMnemonicNameLength=8;
	maxNumberInstructions=100;

	(*	mnemonics , unsorted
		FoxProgTools.Enum -e -l=8
		opMOV opNOT
		opADD opFADD
		opSUB opFSUB
		opAND opBIC opOR opXOR
		opMUL opFMUL
		opLDH opROR opBLR opBR opSPSR opIRET opLD opST opBL
		opBEQ opBNE opBAE opBB opBN opBNN opBO opBNO opBA opBBE opBGE opBLT opBGT opBLE opBT opBF
		opBZS opBZC opBCS opBCC opBNS opBNC opBVS opBVC opHADD opFHADD
		numberMnemonics
		~
	*)

	(*Variable instruction width related. All other bitcaounts derived.*)
	(*instructionW=24;*) (*Number of bits an instruction word holds. default 18*)
	regselW=3; (*number of bits to select a register. default 3*)
	opcodeW=4;(*Number of bits for the opcode. default 4*)
	conditionW=4; (*Number of bits fot the branch condition*)

	opMOV*= 0; opNOT*= 1; opADD*= 2; opFADD*= 3; opSUB*= 4; opFSUB*= 5; opAND*= 6; opBIC*= 7;
	opOR*= 8; opXOR*= 9; opMUL*= 10; opFMUL*= 11; opLDH*= 12; opROR*= 13; opBLR*= 14; opBR*= 15;
	opSPSR*= 16; opIRET*= 17; opLD*= 18; opST*= 19; opBL*= 20; opBEQ*= 21; opBNE*= 22; opBAE*= 23;
	opBB*= 24; opBN*= 25; opBNN*= 26; opBO*= 27; opBNO*= 28; opBA*= 29; opBBE*= 30; opBGE*= 31;
	opBLT*= 32; opBGT*= 33; opBLE*= 34; opBT*= 35; opBF*= 36; opBZS*= 37; opBZC*= 38; opBCS*= 39;
	opBCC*= 40; opBNS*= 41; opBNC*= 42; opBVS*= 43; opBVC*= 44; opHADD*= 45; opFHADD*= 46; numberMnemonics*= 47;

	(*	operand format types *)
	None*=-1; (* no operand *)
	Rd=0; (* destination register,  encoded at bits 11..13  *)
	Rs=1; (* source register,  encoded at bits 0..2 *)
	VRd=2; (* vector destination register,  encoded at bits 11..13 *)
	VRs=3; (* vector source register, encoded at bits 0..2  *)
	Imm10=4; (* 10 bit immediate, unsigned, encoded at bits 0..9 *)  (*gets wider with wider instruction word.*)
	SignedImm10=5; (* 10 bit immediate, signed, encoded at bits 0..9 *)
	Imm14=6; (* 14 bit signed immediate, encoded at bits 0..13  *)
	MemRegImm7=7; (* memory operand of the form  [reg +imm] with 7 bit immediate, encoded at reg = 0..2, imm= 3..9  *)
	VRd0=8; (* vector register, being restricted to register number 0 *)

	ZeroRegister* = 7;

	(* operand types *)
	Register*=1;
	Immediate*=2;
	Memory*=3;

	(* special registers *)
	LR*=7; (* pc link register *)
	SP*=6; (* stack pointer register *)
	globalP*=5; (* global variable link register *)
	FP*=4; (* frame pointer register *)

	(*
		registers 0 .. 7 : general purpose registers (integer, 32 bit)
		registers 16..23: vector registers
	*)

тип
	OperandType = цел16;
	OperandFormatType = цел16;
	RegisterIndex = цел32;

	InstructionFormat* = запись
		mnemonic-: цел32;
		code, mask: мнвоНаБитахМЗ;
		capabilities-: мнвоНаБитахМЗ; (* what kind of capabilities an architecture must have to support this instruction *)
		op1, op2: OperandFormatType;
	кон;

	Mnemonic* = запись
		name-: массив maxMnemonicNameLength из симв8;
		number-: цел32;
		firstInstructionFormat, lastInstructionFormat: цел32;
	кон;

	NumberedName=запись (* for sorting mnemonics *)
		name: массив maxMnemonicNameLength из симв8;
		number: цел32;
	кон;

	Operand*=запись
		type-: OperandType;
		size: цел32; (* size in bits *)
		register-: RegisterIndex; (* register index *)
		imm-: цел32; (* value *)
		fixup-: BinaryCode.Fixup;
	кон;

	Instruction*=запись
		format-: цел32;
		op1-, op2-: Operand;
	кон;

	InstructionSet *=окласс
		перем mnemonics-: массив numberMnemonics из Mnemonic;
		mnemonicsSorted-: массив numberMnemonics из NumberedName;
		instructionFormats-: массив maxNumberInstructions из InstructionFormat;
		numberInstructionFormats-: цел32;
		inverseCondition-: массив numberMnemonics из цел32;
		instructionW-: цел32;

		RelativeBranchFixupBits-: цел32;
		BranchAndLinkFixupBits-: цел32;
		ImmediateFixupBits-: цел32;
		MemoryOffsetFixupBits-: цел32;

		проц & InitInstructionSet * (instructionWidth: цел32);
		нач
			утв(instructionWidth>0);
			instructionW:=instructionWidth;
			RelativeBranchFixupBits:=instructionW-opcodeW-regselW-1;
			BranchAndLinkFixupBits:=instructionW-opcodeW;
			ImmediateFixupBits:=instructionW-opcodeW-regselW-1;
			MemoryOffsetFixupBits:=instructionW-11;  (*!todo: look up how that actually comes to pass*)
			InitInstructions();
		кон InitInstructionSet;
		(*
		public functions:
		makeinstruction
		isvalidinstruction
		encode
		decode
		emitinst
		emit
		findmnem
		findreg
		initreg
		initimm
		initmem
		initfix
		addfix
		initop
		dumpop
		dumpinst
		dumpbits
		dumpinsformat
		disas
		*)

	проц FindInstructionFormat(mnem: цел32; op1, op2: Operand): цел32;
	перем i: цел32; instructionFormat: InstructionFormat;

		проц Matches(operand: Operand; operandFormatType: OperandType): булево;
		нач
			просей operand.type из
				Register : возврат (operandFormatType в мнвоНаБитахМЗ({Rd, Rs})) и (operand.register < 16) или (operandFormatType в мнвоНаБитахМЗ({VRd,VRs})) и (operand.register >= 16)
				или (operandFormatType = VRd0) и (operand.register = 16)
				;
				| Immediate : возврат operandFormatType в мнвоНаБитахМЗ({Imm10, SignedImm10, Imm14});
				| Memory : возврат (operandFormatType=MemRegImm7);
				| None : возврат operandFormatType = None;
			всё;
		кон Matches;

	нач
		i := mnemonics[mnem].firstInstructionFormat;
		нцПока i <= mnemonics[mnem].lastInstructionFormat делай
			instructionFormat := instructionFormats[i];
			если Matches(op1, instructionFormat.op1) и Matches(op2, instructionFormat.op2) то
				возврат i
			всё;
			увел(i);
		кц;
		D.String("could not find instruction for "); D.String(mnemonics[mnem].name); D.String(" ");
		DumpOperand(D.Log, op1); D.String(", ");
		DumpOperand(D.Log, op2); D.String(", ");
		D.Ln;

		i := mnemonics[mnem].firstInstructionFormat;
		D.Int(i,0);D.Ln;
		нцПока i <= mnemonics[mnem].lastInstructionFormat делай
		D.Int(i,0);D.Ln;
			instructionFormat := instructionFormats[i];
			если ~Matches(op1, instructionFormat.op1) то
				D.String("op1 doesn't match");
			всё;
			если ~Matches(op2, instructionFormat.op2) то
				D.String("op2 doesn't match");
			всё;
			если Matches(op1, instructionFormat.op1) и Matches(op2, instructionFormat.op2) то
				D.String("MATCH!");
			иначе
				D.String("NO MATCH!");
			всё;
			D.Log.пВК_ПС;
			увел(i);
		кц;
		D.Update;

		возврат None;
	кон FindInstructionFormat;

	проц MakeInstruction*(перем instruction: Instruction; mnemonic: цел32; op1, op2: Operand);
	перем instructionFormat: цел32;
	нач
		instructionFormat := FindInstructionFormat(mnemonic, op1, op2);
		instruction.format := instructionFormat;
		instruction.op1 := op1;
		instruction.op2 := op2;
	кон MakeInstruction;

	проц IsValidInstruction*(конст instruction: Instruction): булево;
	нач возврат instruction.format # None
	кон IsValidInstruction;

	проц Encode*(конст instruction: Instruction): цел32;
	перем codeSet: мнвоНаБитахМЗ; instructionFormat: InstructionFormat; error: булево;

		проц Unsigned(val: цел32; from, to: цел32);
		перем i: цел32;
		нач
			утв ( from <= to );
			нцДля i := from до to делай
				если нечётноеЛи¿(val) то включиВоМнвоНаБитах(codeSet, i) всё;
				val := val DIV 2;
			кц;
			если val # 0 то error := истина всё;
			утв(val = 0);
		кон Unsigned;

		проц Signed(val: цел32; from, to: цел32);
		перем i: цел32;
		нач
			утв ( from <= to );
			нцДля i := from до to-1 делай
				если нечётноеЛи¿(val) то включиВоМнвоНаБитах(codeSet, i) всё;
				val := val DIV 2;
			кц;

			если val = -1 то включиВоМнвоНаБитах(codeSet, to)
			аесли val # 0 то СТОП(100) (* overflow *)
			всё;
		кон Signed;

		проц EncodeOperand(op: Operand; type: OperandFormatType);
		перем imm: цел32;

			проц Fixup(from, to: цел32);
			перем patterns: ObjectFile.FixupPatterns; displacement: цел32; mode: цел8;
			нач
				нов(patterns, 1);
				patterns[0].offset := from; patterns[0].bits := to-from+1;
				если (opBL <= instructionFormat.mnemonic) и (instructionFormat.mnemonic <= opBF) то
					mode := BinaryCode.Relative;
					displacement := (op.fixup.displacement-1)(цел32);
				иначе
					mode := BinaryCode.Absolute;
					displacement := (op.fixup.displacement)(цел32);
				всё;
				op.fixup.InitFixup(mode, 0, op.fixup.symbol, op.fixup.symbolOffset, displacement, 0, patterns);
			кон Fixup;

		нач
			imm := op.imm; (* for debugging *)
			просей type из
				None: (* do nothing *)
				|Rd: Unsigned(op.register,instructionW-opcodeW-regselW,instructionW-opcodeW-1);
				|Rs: Unsigned(op.register, 0, regselW-1);
				|VRd: Unsigned(op.register остОтДеленияНа 16,instructionW-opcodeW-regselW,instructionW-opcodeW-1);
				|VRd0: Unsigned(0, instructionW-opcodeW-regselW,instructionW-opcodeW-1);
				|VRs: Unsigned(op.register остОтДеленияНа 16,0,regselW-1);
				|Imm10: Unsigned(op.imm, 0, instructionW-opcodeW-regselW-2);
					если op.fixup # НУЛЬ то Fixup(0, instructionW-opcodeW-regselW-2) всё;
				|SignedImm10: Signed(op.imm, 0, instructionW-opcodeW-regselW-2);
					если op.fixup # НУЛЬ то Fixup(0, instructionW-opcodeW-regselW-2) всё;
				|Imm14: Signed(op.imm, 0, BranchAndLinkFixupBits-1);
					если op.fixup # НУЛЬ то Fixup(0, BranchAndLinkFixupBits-1) всё;
				|MemRegImm7: Unsigned(op.register, 0, 2); Unsigned(op.imm, regselW, instructionW-opcodeW-regselW-2);
					если op.fixup # НУЛЬ то Fixup(regselW, instructionW-opcodeW-regselW-2) всё;
			всё;

		кон EncodeOperand;

	нач
		утв(instruction.format # None);
		instructionFormat := instructionFormats[instruction.format];
		codeSet := instructionFormat.code;
		EncodeOperand(instruction.op1, instructionFormat.op1);
		EncodeOperand(instruction.op2, instructionFormat.op2);
		возврат SetToNumber(codeSet);
	кон Encode;

	проц Decode*(code: цел32; перем instruction: Instruction);
	перем instructionFormat: InstructionFormat; i: цел32; codeSet: мнвоНаБитахМЗ;

		проц Unsigned(from, to: цел32): цел32;
		перем val, l0i: цел32;
		нач
			val := 0;
			нцДля l0i := to до from шаг -1 делай
				val := val*2;
				если l0i в codeSet то увел(val) всё;
			кц;
			возврат val
		кон Unsigned;

		проц Signed(from, to: цел32): цел32;
		перем val, l1i: цел32; negative:булево;
		нач
			val := 0;
			negative := to в codeSet; (* two's complement negate *)
			нцДля l1i := to-1 до from шаг -1 делай
				val := val*2;
				если (l1i в codeSet) то
					если ~negative то увел(val) всё;
				аесли negative то
					увел(val)
				всё;
			кц;
			если negative то увел(val); val := -val всё;
			возврат val
		кон Signed;

		проц Matches(конст l2instructionFormat: InstructionFormat): булево;
		нач
			возврат l2instructionFormat.mask*codeSet = l2instructionFormat.code * l2instructionFormat.mask;
		кон Matches;

		проц DecodeOperand(перем op: Operand; type: OperandFormatType);
		нач
			InitOperand(op);
			просей type из
				None: op.type := None;
				|Rd: InitRegister(op,Unsigned(instructionW-opcodeW-regselW,instructionW-opcodeW-1));
				|Rs: InitRegister(op,Unsigned(0,regselW-1));
				|VRd: InitRegister(op,Unsigned(instructionW-opcodeW-regselW,instructionW-opcodeW-1)+16);
				|VRs: InitRegister(op,Unsigned(0,regselW-1)+16);
				|Imm10: InitImmediate(op,ImmediateFixupBits,Unsigned(0,ImmediateFixupBits-1));
				|SignedImm10: InitImmediate(op,ImmediateFixupBits,Signed(0,ImmediateFixupBits-1));
				|Imm14: InitImmediate(op,BranchAndLinkFixupBits,Signed(0,BranchAndLinkFixupBits-1));
				|MemRegImm7: InitMemory(op,Unsigned(0,regselW-1), Unsigned(regselW, ImmediateFixupBits-1));  (*load/store offsets*)
			всё;
		кон DecodeOperand;

	нач
		codeSet := NumberToSet(code);
		i := 0;
		нцПока ~Matches(instructionFormats[i]) делай
			увел(i);
		кц;
		instructionFormat := instructionFormats[i];
		instruction.format := i;
		DecodeOperand(instruction.op1, instructionFormat.op1);
		DecodeOperand(instruction.op2, instructionFormat.op2);
	кон Decode;

	проц EmitInstruction*(конст instruction: Instruction; mnem: цел32; code: BinaryCode.Section);
	перем encoding: цел32;

		проц PatchFixup(op: Operand; type: OperandFormatType);
		нач
			если op.fixup # НУЛЬ то
				op.fixup.SetFixupOffset(code.pc);
				code.fixupList.AddFixup(op.fixup);
			всё;
		кон PatchFixup;

		проц PatchFixups;
		перем instructionFormat: InstructionFormat;
		нач
			instructionFormat := instructionFormats[instruction.format];
			PatchFixup(instruction.op1, instructionFormat.op1);
			PatchFixup(instruction.op2, instructionFormat.op2);
		кон PatchFixups;

	нач
		если (code.comments # НУЛЬ) то
			DumpInstruction(code.comments, instruction);
			code.comments.пВК_ПС;
			code.comments.ПротолкниБуферВПоток;
		всё;
		encoding := Encode(instruction);
		PatchFixups();
		code.PutBits(encoding, instructionW);
		(*make sure it is really a section set up to take code and not for example data.*)
		утв(code.os.unit =instructionW); утв(code.os.bits.GetSize() остОтДеленияНа instructionW = 0);
	кон EmitInstruction;

	проц Emit*(mnem: цел32; конст op1, op2: Operand; code: BinaryCode.Section);
	перем instruction: Instruction;
	нач
		MakeInstruction(instruction, mnem, op1, op2);
		EmitInstruction(instruction, mnem, code);
	кон Emit;

	(* perform a binary search for the index of the specified mnemonic *)
	проц FindMnemonic* (конст mnem: массив из симв8): цел32;
	перем l, r, m: цел32;
	нач
		(*
		IF mnem = "LD" THEN
			IF vectorSupport THEN RETURN opLD ELSE RETURN opLDS END;
		ELSIF mnem = "ST" THEN
			IF vectorSupport THEN RETURN opST ELSE RETURN opSTS END;
		END;
		*)

		l := 0;
		r := numberMnemonics;
		нцПока l # r делай
			m := (l + r) DIV 2;
			если mnem < mnemonicsSorted[m].name то r := m;
			аесли mnem > mnemonicsSorted[m].name то l := m + 1;
			иначе возврат mnemonicsSorted[m].number;
			всё
		кц;
		возврат None;
	кон FindMnemonic;

	проц FindRegister*(конст name: массив из симв8): цел8;
	нач
		если name[0] = "R" то
			если name[2] = 0X то
				если ("0" <= name[1]) и (name[1] <= "9") то
					возврат устарПреобразуйКБолееУзкомуЦел(кодСимв8(name[1])-кодСимв8("0"));
				иначе возврат None
				всё;
			аесли ("0"<=name[2]) и (name[2] <= "5") то
				если name[1] = "1" то
					возврат устарПреобразуйКБолееУзкомуЦел(кодСимв8(name[2])-кодСимв8("0")+10);
				иначе возврат None
				всё;
			иначе возврат None
			всё;
		аесли name[0] = "V" то
			если name[1] = "R" то
				если ("0" <= name[2]) и (name[2] <= "8") то
					возврат устарПреобразуйКБолееУзкомуЦел(кодСимв8(name[2])-кодСимв8("0"))+16;
				аесли name[2] = 0X то (* VR as shortcut for VR0 *)
					возврат 16
				иначе
					возврат None
				всё;
			всё;
			возврат None;
		аесли name = "SP" то
			возврат SP
		аесли name = "LR" то
			возврат LR
		иначе
			возврат None
		всё;
	кон FindRegister;

	проц NumberToSet(code: цел32): мнвоНаБитахМЗ;
	перем i: цел32; set: мнвоНаБитахМЗ;
	нач
		утв(матМаксимум(мнвоНаБитахМЗ) >= 31);
		set := {};
		нцДля i := 0 до 31 делай
			если нечётноеЛи¿(code) то включиВоМнвоНаБитах(set, i) всё;
			code := code DIV 2;
		кц;
		возврат set
	кон NumberToSet;

	проц SetToNumber(set: мнвоНаБитахМЗ): цел32;
	перем i, num: цел32;
	нач
		утв(матМаксимум(мнвоНаБитахМЗ) >= 31);
		num := 0;
		нцДля i := 0 до 31 делай
			если i в set то увел(num, арифмСдвиг(1, i)) всё;
		кц;
		возврат num
	кон SetToNumber;

	(** setup instruction and mnemonic tables **)
	проц InitInstructions;
	перем curMnemonic: цел32;
		checkMnemonics: массив numberMnemonics из булево;
		isimmP,isfloatP,isvecP: цел32; (*shorthands for positions iside the instruction word*)
		isSpecialBR:цел32;
		opcodeP,capabilityP,currOpCode, brModesP, brCondP:мнвоНаБитахМЗ;

		проц SortMnemonics(lo, hi: цел32);
		перем i, j: цел32; x, t: NumberedName;
		нач
			i := lo; j := hi;
			x := mnemonicsSorted[(lo+hi) DIV 2];
			нцПока (i <= j) делай
				нцПока (mnemonicsSorted[i].name < x.name) делай увел(i) кц;
				нцПока (x.name <  mnemonicsSorted[j].name) делай умень(j) кц;
				если (i <= j) то
					t := mnemonicsSorted[i]; mnemonicsSorted[i] := mnemonicsSorted[j]; mnemonicsSorted[j] := t;
					увел(i); умень(j)
				всё
			кц;
			если (lo < j) то SortMnemonics(lo, j) всё;
			если (i < hi) то SortMnemonics(i, hi) всё
		кон SortMnemonics;

		проц AddMnemonic(number: цел32; конст name: массив из симв8);
		нач
			утв(number<numberMnemonics);
			если checkMnemonic то checkMnemonics[number] := истина всё;

			curMnemonic := number;
			копируйСтрокуДо0 (name, mnemonics[number].name);
			копируйСтрокуДо0 (name, mnemonicsSorted[number].name);
			mnemonicsSorted[number].number := number;
			mnemonics[number].firstInstructionFormat := numberInstructionFormats;
		кон AddMnemonic;

		проц AddAlias(alias,number: цел32; конст name: массив из симв8);
		нач
			если checkMnemonic то checkMnemonics[alias] := истина всё;

			копируйСтрокуДо0(name, mnemonicsSorted[alias].name);
			копируйСтрокуДо0(name, mnemonics[alias].name);
			mnemonicsSorted[alias].number := alias;
			mnemonics[alias].firstInstructionFormat := mnemonics[number].firstInstructionFormat;
		кон AddAlias;

		проц EndMnemonic;
		нач
			mnemonics[curMnemonic].lastInstructionFormat := numberInstructionFormats-1;
		кон EndMnemonic;

		проц AddInstruction(code, mask: мнвоНаБитахМЗ; op1, op2: OperandType; capabilities: мнвоНаБитахМЗ);
		перем instructionFormat: InstructionFormat;
		нач
			instructionFormat.mnemonic := curMnemonic;
			instructionFormat.code := code;
			instructionFormat.mask := mask;
			instructionFormat.op1 := op1;
			instructionFormat.op2 := op2;
			instructionFormat.capabilities:= capabilities;
			instructionFormats[numberInstructionFormats] := instructionFormat;
			увел(numberInstructionFormats);
		кон AddInstruction;

		проц CheckMnemonics;
		перем i : цел32;
		нач
			нцДля i := 0 до numberMnemonics-1 делай
				утв(checkMnemonics[i]);
			кц;
		кон CheckMnemonics;

		проц Inverse(mnem1, mnem2: цел32);
		нач
			inverseCondition[mnem1] := mnem2;
			inverseCondition[mnem2] := mnem1
		кон Inverse;

		(*Turn a number into a set of bits at the start of an instruction word*)
		проц makeOpcode(num: цел32) :мнвоНаБитахМЗ;
		перем shifted: цел32;
		нач
			(*left shift then convert to set*)
			shifted:=логСдвиг(num,( instructionW-opcodeW ) );
			возврат NumberToSet(shifted);
		кон makeOpcode;

		проц makeCondition(num:цел32):мнвоНаБитахМЗ;
		перем shifted: цел32;
		нач
			shifted:=логСдвиг(num,( instructionW-opcodeW-conditionW) );
			возврат NumberToSet(shifted);
		кон makeCondition;

	нач
		нцДля curMnemonic := 0 до numberMnemonics-1 делай
			checkMnemonics[curMnemonic] := ложь;
			inverseCondition[curMnemonic] := -1;
		кц;

		curMnemonic := -1;
		numberInstructionFormats := 0;

		(*
			oooo ddd 0 nnnnnnnnnn
			oooo ddd 1 xxxxxxxsss
		*)

		isimmP:=instructionW-1-opcodeW-regselW; (*18bit inW=> bit 10. If this bit is NOT set, there is an immediate.*)
		isfloatP:=isimmP-2; (*18 bit insW => bit 8*)
		isvecP:=isimmP-1; (*18 bit insW=> bit 9*)
		isSpecialBR:=isimmP;

		opcodeP:=мнвоНаБитахМЗ({(instructionW-opcodeW)..(instructionW-1)}); (*normally 14..17*)
		capabilityP:=мнвоНаБитахМЗ({isfloatP-1..isimmP}); (*normally 7..10*)
		brModesP:=мнвоНаБитахМЗ({(instructionW-opcodeW-regselW-3)..(instructionW-opcodeW-regselW-1)}); (*18bit=> 8..10*)
		brCondP:=мнвоНаБитахМЗ({(instructionW-opcodeW-4)..(instructionW-opcodeW-1)}); (*18bit => 10..13*)

		(*Note the actual opcode is the first argument in addinstruction, independent of mnemonic number *)

		(*Note: mov with isimm=1 and bit 3 becomes LDH*)
		currOpCode:=makeOpcode(0);
		AddMnemonic(opMOV, "MOV");
		AddInstruction({}, opcodeP+мнвоНаБитахМЗ({isimmP}), Rd, Imm10,{});
		AddInstruction(мнвоНаБитахМЗ({isimmP}), {3}+capabilityP+opcodeP, Rd, Rs,{});
		AddInstruction(мнвоНаБитахМЗ({isvecP, isimmP}), capabilityP+opcodeP, VRd, VRs,мнвоНаБитахМЗ({Global.VectorCapability})); (* TODO index *)
		AddInstruction(мнвоНаБитахМЗ({isvecP, isimmP}), capabilityP+opcodeP, Rd, VRs,мнвоНаБитахМЗ({Global.VectorCapability})); (* TODO index *)
		EndMnemonic;

		(* LDH: oooo = 0000 *)
		AddMnemonic(opLDH, "LDH");
		AddInstruction(мнвоНаБитахМЗ({3, isimmP}), {3}+capabilityP+opcodeP, Rd, None,{});
		AddInstruction(мнвоНаБитахМЗ({3, isvecP, isimmP}), {3}+capabilityP+opcodeP, VRd, None,мнвоНаБитахМЗ({Global.VectorCapability})); (* TODO index *)
		EndMnemonic;

		(* NOT: oooo = 0001 *)
		currOpCode:=makeOpcode(1);
		AddMnemonic(opNOT, "NOT");
		AddInstruction(currOpCode,						мнвоНаБитахМЗ({isimmP})+opcodeP, Rd, Imm10,{});
		AddInstruction(мнвоНаБитахМЗ({isimmP})+currOpCode,			capabilityP+opcodeP, Rd, Rs,{});
		AddInstruction(мнвоНаБитахМЗ({isimmP,isfloatP})+currOpCode,	capabilityP+opcodeP, VRd, VRs,мнвоНаБитахМЗ({Global.VectorCapability}));
		EndMnemonic;

		(* ADD: oooo = 0010 *)
		currOpCode:=makeOpcode(2);
		AddMnemonic(opADD, "ADD");
		AddInstruction(currOpCode, мнвоНаБитахМЗ({isimmP})+opcodeP, Rd, Imm10,{});
		AddInstruction(currOpCode+мнвоНаБитахМЗ({isimmP}), capabilityP+opcodeP, Rd, Rs,{});
		AddInstruction(currOpCode+мнвоНаБитахМЗ({isimmP,isvecP}), capabilityP+opcodeP, VRd, VRs,мнвоНаБитахМЗ({Global.VectorCapability}));
		EndMnemonic;

		(* bit 9 indicates a usage of vector registers, bit 8 indicates floating point instructions *)
		AddMnemonic(opFADD, "FADD");
		AddInstruction(currOpCode+мнвоНаБитахМЗ({isimmP,isfloatP}), capabilityP+opcodeP, Rd, Rs,мнвоНаБитахМЗ({Global.FloatingPointCapability}));
		AddInstruction(currOpCode+мнвоНаБитахМЗ({isimmP,isfloatP,isvecP}), capabilityP+opcodeP, VRd, VRs,мнвоНаБитахМЗ({Global.FloatingPointCapability,Global.VectorCapability}));
		EndMnemonic;

		(*No idea what bit 7 does. Appears to be a capability that is defunct in hardware.*)
		AddMnemonic(opHADD, "HADD");
		AddInstruction(currOpCode+мнвоНаБитахМЗ({isimmP,isfloatP,7}), capabilityP+opcodeP, Rd, VRs,мнвоНаБитахМЗ({Global.VectorCapability}));
		EndMnemonic;

		AddMnemonic(opFHADD, "FHADD");
		AddInstruction(currOpCode+мнвоНаБитахМЗ({isimmP,isfloatP,isvecP,7}), capabilityP+opcodeP, Rd, VRs,мнвоНаБитахМЗ({Global.FloatingPointCapability, Global.VectorCapability}));
		EndMnemonic;

		(* SUB: oooo = 0011 *)
		currOpCode:=makeOpcode(3);
		AddMnemonic(opSUB, "SUB");
		AddInstruction(currOpCode, мнвоНаБитахМЗ({isimmP})+opcodeP, Rd, Imm10,{});
		AddInstruction(currOpCode+мнвоНаБитахМЗ({isimmP}), capabilityP+opcodeP, Rd, Rs,{});
		AddInstruction(currOpCode+мнвоНаБитахМЗ({isimmP,isvecP}), capabilityP+opcodeP, VRd, VRs,мнвоНаБитахМЗ({Global.VectorCapability}));
		EndMnemonic;

		AddMnemonic(opFSUB, "FSUB");
		AddInstruction(currOpCode+мнвоНаБитахМЗ({isimmP,isfloatP}), capabilityP+opcodeP, Rd, Rs,мнвоНаБитахМЗ({Global.FloatingPointCapability}));
		AddInstruction(currOpCode+мнвоНаБитахМЗ({isimmP,isfloatP,isvecP}), capabilityP+opcodeP, VRd, VRs,мнвоНаБитахМЗ({Global.FloatingPointCapability, Global.VectorCapability}));
		EndMnemonic;

		(* AND: oooo = 0100 *)
		currOpCode:=makeOpcode(4);
		AddMnemonic(opAND, "AND");
		AddInstruction(currOpCode, мнвоНаБитахМЗ({isimmP})+opcodeP, Rd, Imm10,{});
		AddInstruction(currOpCode+мнвоНаБитахМЗ({isimmP}), capabilityP+opcodeP, Rd, Rs,{});
		AddInstruction(currOpCode+мнвоНаБитахМЗ({isimmP,isvecP}), capabilityP+opcodeP, VRd, VRs,мнвоНаБитахМЗ({Global.VectorCapability}));
		EndMnemonic;

		(* BIC: oooo = 0101 *)
		currOpCode:=makeOpcode(5);
		AddMnemonic(opBIC, "BIC");
		AddInstruction(currOpCode, мнвоНаБитахМЗ({isimmP})+opcodeP, Rd, Imm10,{});
		AddInstruction(currOpCode+мнвоНаБитахМЗ({isimmP}), capabilityP+opcodeP, Rd, Rs,{});
		AddInstruction(currOpCode+мнвоНаБитахМЗ({isvecP,isimmP}), capabilityP+opcodeP, VRd, VRs,мнвоНаБитахМЗ({Global.VectorCapability}));
		EndMnemonic;

		(* OR: oooo = 0110 *)
		currOpCode:=makeOpcode(6);
		AddMnemonic(opOR, "OR");
		AddInstruction(currOpCode, мнвоНаБитахМЗ({isimmP})+opcodeP, Rd, Imm10,{});
		AddInstruction(currOpCode+мнвоНаБитахМЗ({isimmP}), capabilityP+opcodeP, Rd, Rs,{});
		AddInstruction(currOpCode+мнвоНаБитахМЗ({isimmP,isvecP}), capabilityP+opcodeP, VRd, VRs,{Global.VectorCapability});
		EndMnemonic;

		(* XOR: oooo = 0111 *)
		currOpCode:=makeOpcode(7);
		AddMnemonic(opXOR, "XOR");
		AddInstruction(currOpCode, мнвоНаБитахМЗ({isimmP})+opcodeP, Rd, Imm10,{});
		AddInstruction(currOpCode+мнвоНаБитахМЗ({isimmP}), capabilityP+opcodeP, Rd, Rs,{});
		AddInstruction(currOpCode+мнвоНаБитахМЗ({isimmP,isvecP}), capabilityP+opcodeP, VRd, VRs,мнвоНаБитахМЗ({Global.VectorCapability}));
		EndMnemonic;

		(* MUL: oooo = 1000 *)
		currOpCode:=makeOpcode(8);
		AddMnemonic(opMUL, "MUL");
		AddInstruction(currOpCode, мнвоНаБитахМЗ({isimmP})+opcodeP, Rd, Imm10,{});
		AddInstruction(currOpCode+мнвоНаБитахМЗ({isimmP}), capabilityP+opcodeP, Rd, Rs,{});
		AddInstruction(currOpCode+мнвоНаБитахМЗ({isimmP,isvecP}), capabilityP+opcodeP, VRd, VRs,мнвоНаБитахМЗ({Global.VectorCapability}));
		EndMnemonic;

		AddMnemonic(opFMUL, "FMUL");
		AddInstruction(currOpCode+мнвоНаБитахМЗ({isimmP,isfloatP}), capabilityP+opcodeP, Rd, Rs,мнвоНаБитахМЗ({Global.FloatingPointCapability}));
		AddInstruction(currOpCode+мнвоНаБитахМЗ({isfloatP,isvecP,isimmP}), capabilityP+opcodeP, VRd, VRs,мнвоНаБитахМЗ({Global.FloatingPointCapability,Global.VectorCapability}));
		EndMnemonic;

		(*opcode 9 wuld be div, is disabled.*)

          (* ROR: oooo = 1010 *)
          currOpCode:=makeOpcode(10);
		AddMnemonic(opROR, "ROR");
		AddInstruction(currOpCode, мнвоНаБитахМЗ({isimmP})+opcodeP, Rd, Imm10,{});
		AddInstruction(currOpCode+мнвоНаБитахМЗ({isimmP}), мнвоНаБитахМЗ({isimmP})+opcodeP, Rd, Rs,{});
		AddInstruction(currOpCode+мнвоНаБитахМЗ({isimmP,isvecP}), capabilityP+opcodeP, VRd, VRs,мнвоНаБитахМЗ({Global.VectorCapability}));
		AddInstruction(currOpCode+мнвоНаБитахМЗ({isfloatP,isvecP,isimmP}), capabilityP+opcodeP, VRd0, Rs,мнвоНаБитахМЗ({Global.VectorCapability}));
		EndMnemonic;

		(* BR: oooo = 1011 *)
		currOpCode:=makeOpcode(11);
		AddMnemonic(opBR, "BR");
		AddInstruction(currOpCode+мнвоНаБитахМЗ({isSpecialBR}), brModesP+opcodeP, Rs, None,{});
		EndMnemonic;

		(* SPSR: oooo = 1011 *)
		AddMnemonic(opSPSR, "SPSR");
		AddInstruction(currOpCode, мнвоНаБитахМЗ({isSpecialBR})+opcodeP, Imm10, None,{});
		EndMnemonic;

		(* BLR: oooo = 1011 *)
		(* BLR Rd, Rs <--> Rd := PC+1; PC := Rs *)
		AddMnemonic(opBLR, "BLR");
		AddInstruction(currOpCode+мнвоНаБитахМЗ({isSpecialBR,isSpecialBR-1}), brModesP+opcodeP, Rd, Rs,{});
		EndMnemonic;

		(* RTI: oooo = 1011 *)
		AddMnemonic(opIRET, "IRET");
		AddInstruction(currOpCode+мнвоНаБитахМЗ({isSpecialBR,isSpecialBR-2}), brModesP+opcodeP, Rs, None,{});
		EndMnemonic;

		(* LD: 1100 ddd xnnnnnnn sss *)
		currOpCode:=makeOpcode(12);
		AddMnemonic(opLD, "LD");
		AddInstruction(currOpCode, мнвоНаБитахМЗ({isimmP})+opcodeP, Rd, MemRegImm7,{});
		AddInstruction(currOpCode+мнвоНаБитахМЗ({isimmP}), мнвоНаБитахМЗ({isimmP})+opcodeP, VRd, MemRegImm7,мнвоНаБитахМЗ({Global.VectorCapability}));
		EndMnemonic;

          (* ST: 1101 ddd xnnnnnnn sss *)
          currOpCode:=makeOpcode(13);
		AddMnemonic(opST, "ST");
		AddInstruction(currOpCode, мнвоНаБитахМЗ({isimmP})+opcodeP, Rd, MemRegImm7,{});
		AddInstruction(currOpCode+мнвоНаБитахМЗ({isimmP}), мнвоНаБитахМЗ({isimmP})+opcodeP, VRd, MemRegImm7,мнвоНаБитахМЗ({Global.VectorCapability}));
		EndMnemonic;

		(* BC
			1110 cond nnnnnnnnnn

			cond
			0000	Z	Zero / equal	BEQ
			0001	~Z	Non-zero / unequal	BNE
			0010	C	Carry / above or equal (unsigned)	BAE
			0011	~C	No carry / below (unsigned)	BB
			0100	N	Negative	BN
			0101	~N	Not negative	BNN
			0110	V	Overflow	BO
			0111	~V	No overflow	BNO
			1000	~(~C | Z)	Carry and no zero / above (unsigned)	BA
			1001	~C | Z	No carry or zero / below or equal (unsigned)	BBE
			1010	~(N V)	N=V / greater or equal (signed)	BGE
			1011	N V	N V / less (signed)	BLT
			1100	~((N V) | Z)	greater or equal and ~ZF / greater (signed)	BGT
			1101	(N V) | Z	less or Z / less or equal (signed)	BLE
			1110	TRUE	Always	BT
			1111	FALSE	Never	BF
		*)
		currOpCode:=makeOpcode(14);
		AddMnemonic(opBEQ, "BEQ");	AddInstruction(currOpCode+makeCondition(0), opcodeP+brCondP, SignedImm10, None,{}); EndMnemonic;
		AddMnemonic(opBNE, "BNE");	AddInstruction(currOpCode+makeCondition(1), opcodeP+brCondP, SignedImm10, None,{}); EndMnemonic;

		AddMnemonic(opBAE, "BAE");	AddInstruction(currOpCode+makeCondition(2), opcodeP+brCondP, SignedImm10, None,{}); EndMnemonic;
		AddMnemonic(opBB, "BB");	AddInstruction(currOpCode+makeCondition(3), opcodeP+brCondP, SignedImm10, None,{}); EndMnemonic;

		AddMnemonic(opBN, "BN");	AddInstruction(currOpCode+makeCondition(4), opcodeP+brCondP, SignedImm10, None,{}); EndMnemonic;
		AddMnemonic(opBNN, "BNN");	AddInstruction(currOpCode+makeCondition(5), opcodeP+brCondP, SignedImm10, None,{}); EndMnemonic;

		AddMnemonic(opBO, "BO");	AddInstruction(currOpCode+makeCondition(6), opcodeP+brCondP, SignedImm10, None,{}); EndMnemonic;
		AddMnemonic(opBNO, "BNO");	AddInstruction(currOpCode+makeCondition(7), opcodeP+brCondP, SignedImm10, None,{}); EndMnemonic;

		AddMnemonic(opBA, "BA");		AddInstruction(currOpCode+makeCondition(8), opcodeP+brCondP, SignedImm10, None,{}); EndMnemonic;
		AddMnemonic(opBBE, "BBE");	AddInstruction(currOpCode+makeCondition(9), opcodeP+brCondP, SignedImm10, None,{}); EndMnemonic;

		AddMnemonic(opBGE, "BGE");	AddInstruction(currOpCode+makeCondition(10), opcodeP+brCondP, SignedImm10, None,{}); EndMnemonic;
		AddMnemonic(opBLT, "BLT");	AddInstruction(currOpCode+makeCondition(11), opcodeP+brCondP, SignedImm10, None,{}); EndMnemonic;

		AddMnemonic(opBGT, "BGT");	AddInstruction(currOpCode+makeCondition(12), opcodeP+brCondP, SignedImm10, None,{}); EndMnemonic;
		AddMnemonic(opBLE, "BLE");	AddInstruction(currOpCode+makeCondition(13), opcodeP+brCondP, SignedImm10, None,{}); EndMnemonic;

		AddMnemonic(opBT, "BT");		AddInstruction(currOpCode+makeCondition(14), opcodeP+brCondP, SignedImm10, None,{}); EndMnemonic;
		AddMnemonic(opBF, "BF");		AddInstruction(currOpCode+makeCondition(15), opcodeP+brCondP, SignedImm10, None,{}); EndMnemonic;

		Inverse(opBEQ, opBNE);
		Inverse(opBAE, opBB);
		Inverse(opBN, opBNN);
		Inverse(opBO, opBNO);
		Inverse(opBA, opBBE);
		Inverse(opBGE, opBLT);
		Inverse(opBGT, opBLE);
		Inverse(opBT, opBF);

		AddAlias(opBZS,opBEQ,"BZS");
		AddAlias(opBZC,opBNE,"BZC");
		AddAlias(opBCS,opBAE,"BCS");
		AddAlias(opBCC,opBB,"BCC");
		AddAlias(opBNS,opBN,"BNS");
		AddAlias(opBNC,opBNN,"BNC");
		AddAlias(opBVS,opBO,"BVS");
		AddAlias(opBVC,opBNO,"BVC");

		(* BL: 1111 nnnnnnnnnnnnnn *)
		currOpCode:=makeOpcode(15);
		AddMnemonic(opBL, "BL");
		AddInstruction(currOpCode, opcodeP, Imm14, None,{});
		EndMnemonic;

		SortMnemonics(0, numberMnemonics-1);

		если checkMnemonic то CheckMnemonics всё;
	кон InitInstructions;

	проц InitRegister*(перем operand: Operand; reg: цел32);
	нач
		operand.type := Register;
		operand.register := устарПреобразуйКБолееУзкомуЦел(reg);
	кон InitRegister;

	проц InitImmediate*(перем operand: Operand; bits: цел32; imm: цел32);
	нач
		operand.type := Immediate;
		operand.size := bits;
		operand.imm := imm;
	кон InitImmediate;

	проц InitMemory*(перем operand: Operand; reg1: RegisterIndex; imm: цел32);
	нач
		operand.type := Memory;
		operand.register := reg1;
		operand.imm := imm;

		если reg1 < 0 то
			operand.register := ZeroRegister;
		всё;
	кон InitMemory;

	(* generate immediate operand with fixup *)
	проц InitFixup*(перем operand: Operand; bits: цел8; fixup: BinaryCode.Fixup (*symbol: Sections.Section; offset, displacement: SIGNED32 *));
	нач
		operand.type := Immediate;
		operand.imm := 0;
		operand.size := bits;
		operand.fixup := fixup;
		(*
		operand.fixup := BinaryCode.NewFixup(BinaryCode.Absolute, 0, symbol, offset, displacement, 0, NIL);
		*)
		(*
		operand.symbol := symbol;
		operand.symbolOffset := offset;
		operand.displacement := displacement;
		*)
	кон InitFixup;

	проц AddFixup*(перем operand: Operand; fixup: BinaryCode.Fixup);
	нач
		утв(operand.type в мнвоНаБитахМЗ({Immediate, Memory}));
		operand.fixup := fixup
	кон AddFixup;

	проц InitOperand*(перем operand: Operand);
	нач
		operand.type := None;
		operand.register := None;
		operand.imm := 0;
		operand.fixup := НУЛЬ;
		(*
		operand.symbol := NIL;
		operand.symbolOffset := 0;
		operand.displacement := 0;
		*)
	кон InitOperand;

	проц DumpOperand*(w: Потоки.Писарь; конст operand: Operand);
	нач
		если operand.type = None то возврат всё;
		просей operand.type из
		Register: если operand.register >= 16 то w.пСтроку8("V"); всё; w.пСтроку8("R"); w.пЦел64(operand.register остОтДеленияНа 16, 1);
		|Immediate:
			если operand.fixup # НУЛЬ то
				operand.fixup.Dump(w);
			иначе
				w.пЦел64(operand.imm, 1);
			всё;
		|Memory:
			w.пСтроку8("[");
			если operand.register # 7 то
				w.пСтроку8("R"); w.пЦел64(operand.register, 1);
				если operand.fixup # НУЛЬ то w.пСтроку8("+"); operand.fixup.Dump(w)
				аесли operand.imm > 0 то w.пСтроку8("+"); w.пЦел64(operand.imm, 1)
				аесли operand.imm < 0 то w.пСтроку8("-"); w.пЦел64(-operand.imm, 1)
				всё;
			иначе
				w.пЦел64(operand.imm, 1)
			всё;
			w.пСтроку8("]");
		всё;
	кон DumpOperand;

	проц DumpInstruction*(w: Потоки.Писарь; конст instruction: Instruction);
	перем instructionFormat: InstructionFormat; first: булево;

		проц DumpOp(op: Operand);
		нач
			если op.type = None то возврат всё;
			если first то w.пСтроку8(" "); first := ложь; иначе w.пСтроку8(", ") всё;
			DumpOperand(w, op);
		кон DumpOp;

	нач
		если instruction.format = None то
			w.пСтроку8(" no format")
		иначе
			instructionFormat := instructionFormats[instruction.format];
			w.пСтроку8(mnemonics[instructionFormat.mnemonic].name);
			first := истина;
			DumpOp(instruction.op1);
			DumpOp(instruction.op2);
		всё;
	кон DumpInstruction;

	проц DumpBits*(w: Потоки.Писарь; set: мнвоНаБитахМЗ; numberBits: цел32);
	перем i: цел32;
	нач
		нцДля i := numberBits-1 до 0 шаг -1 делай
			если i в set то w.пСтроку8("1") иначе w.пСтроку8("0") всё;
		кц;
	кон DumpBits;

	проц DumpInstructionFormats*(context: Commands.Context);
	перем i, j, k, mnemNum: цел32; instr: InstructionFormat; first: булево; mnemonic: Mnemonic; options: Options.Options; sorted: булево;

		проц DumpType(type: цел16);
		нач
			если type = None то возврат всё;
			если first то context.out.пСтроку8(" "); first := ложь; иначе context.out.пСтроку8(", ") всё;
			просей type из
				|Rd: context.out.пСтроку8("Rd")
				|Rs: context.out.пСтроку8("Rs")
				|Imm10: context.out.пСтроку8("imm10");
				|SignedImm10: context.out.пСтроку8("SignedImm10");
				|Imm14: context.out.пСтроку8("imm14");
				|MemRegImm7: context.out.пСтроку8("MemRegImm7");
			иначе
				context.out.пСтроку8("error: type not found: DumpType ("); context.out.пЦел64(type, 0); context.out.пСтроку8(")");
				context.out.пВК_ПС;
			всё;
		кон DumpType;

	нач
		нов(options);
		options.Add("s", "sorted", Options.Flag);
		если options.Parse(context.arg, context.error) то
			sorted := options.GetFlag("s");
			нцДля i := 0 до numberMnemonics-1 делай
				если sorted то
					mnemNum := mnemonicsSorted[i].number
				иначе
					mnemNum := i
				всё;
				mnemonic := mnemonics[mnemNum];

				нцДля j := mnemonic.firstInstructionFormat до mnemonic.lastInstructionFormat делай
					instr := instructionFormats[j];
					утв(mnemNum = instr.mnemonic);
					context.out.пЦел64(j, 2); context.out.пСтроку8(" ");
					context.out.пСтроку8(mnemonic.name);
					k := 0; first := истина;
					DumpType(instr.op1);
					DumpType(instr.op2);
					context.out.пВК_ПС; context.out.пСтроку8(" mask = "); DumpBits(context.out, instr.mask, 18);
					context.out.пВК_ПС; context.out.пСтроку8(" code = "); DumpBits(context.out, instr.code, 18);
					context.out.пВК_ПС;
				кц;
			кц;
		всё;
	кон DumpInstructionFormats;

	кон InstructionSet;

	проц Hex(ch: симв8): цел32;
	нач
		если (ch <= 'F') и (ch >= 'A') то возврат кодСимв8(ch)-кодСимв8('A')+10
		аесли (ch <= 'f') и (ch >= 'a') то возврат кодСимв8(ch)-кодСимв8('a')+10
		аесли (ch>='0') и (ch <='9') то возврат кодСимв8(ch)-кодСимв8('0')
		иначе СТОП(100)
		всё;
	кон Hex;

	проц ReadCode(file: Files.File): BitSets.BitSet;
	перем r: Files.Reader;  val, val2: цел32;line: массив 10 из симв8; lineNr: цел32; bitSet: BitSets.BitSet; i: цел32;
	нач
	(*todo: probably screws up on anything but 18 bit double packed*)
		если file = НУЛЬ то возврат НУЛЬ всё;
		lineNr := 0;
		нов(r, file, 0);
		нов(bitSet,0);

		нцПока r.ЗапасиБайтыИзПотокаВБуфереИДайИхКоличество()>0 делай
			r.чСтроку8ДоКонцаСтрокиТекстаВключительно(line);
			val:=0;
			i:=0;
			нцПока кодСимв8(line[i])>0 делай(*read entire line*)
				val:=val*10H;
				val:=val+Hex(line[i]);
				увел(i);
			кц;
			увел(lineNr);
			bitSet.Resize(lineNr*36);(*bitset is treated as series of 36 bit slots into which the individual words fit left aligned.*)
			bitSet.SetBits((lineNr-1)*36,decodeInstance.instructionW,val); (*extract word*)
		кц;

		возврат bitSet
	кон ReadCode;

	проц ReadData(file: Files.File): BitSets.BitSet;
	перем r: Files.Reader;  val, val2: цел32;line: массив 10 из симв8; lineNr: цел32; bitSet: BitSets.BitSet; i: цел32;
	нач
		если file = НУЛЬ то возврат НУЛЬ всё;
		lineNr := 0;
		нов(r, file, 0);
		нов(bitSet,0);
		нцПока r.ЗапасиБайтыИзПотокаВБуфереИДайИхКоличество()>0 делай
			r.чСтроку8ДоКонцаСтрокиТекстаВключительно(line);
			val := 0;
			нцДля i := 0 до 7 делай
				val := val*10H;
				val := val + Hex(line[i]);
			кц;
			увел(lineNr);
			bitSet.Resize(lineNr*32);
			bitSet.SetBits((lineNr-1)*32, 32, val);
		кц;
		возврат bitSet
	кон ReadData;

	проц Disassemble*(context: Commands.Context);
	тип
		Disasm = окласс (Disassembler.Disassembler)

			проц {перекрыта}DisassembleInstruction(bitSet: BitSets.BitSet; перем adr: Disassembler.Unit; maxInstructionSize: Disassembler.Unit; w:Потоки.Писарь);
			перем instruction: Instruction; value: целМЗ; mnemonic: целМЗ;
			нач
				(* maxInstructionSize can be ignored here *)
				value := bitSet.GetBits(adr*36,decodeInstance.instructionW);    (*bitset treated as series of 36 bit slots, individual words left aligned.*)
				decodeInstance.Decode(value, instruction);
				decodeInstance.DumpInstruction(w, instruction);
				если instruction.format # None то
					mnemonic := decodeInstance.instructionFormats[instruction.format].mnemonic;
					если (mnemonic >= opBEQ) и (mnemonic <= opBF) или (mnemonic = opBL) то
						WriteReference(instruction.op1.imm+adr+1, истина, w);
					аесли (mnemonic = opLD) или (mnemonic = opST) то
						если (instruction.op2.register = ZeroRegister) то
							WriteReference(instruction.op2.imm, ложь, w);
						всё;
					всё;
				всё;
				увел(adr);
			кон DisassembleInstruction;

		кон Disasm;

	перем disassembler: Disasm; codeFileName, dataFileName, logFileName: Files.FileName; codeFile, dataFile, logFile: Files.File;code, data: BitSets.BitSet; options: Options.Options;
		address: целМЗ;
		instructionWidth: целМЗ;
	нач
		если context.arg.ПропустиБелоеПолеИЧитайЦепочкуСимволов8ДоБелогоПоляИлиВКавычках(codeFileName) то
			codeFile := Files.Old(codeFileName);
			если codeFile = НУЛЬ то context.out.пСтроку8("file not found "); context.out.пСтроку8(codeFileName); возврат всё;
			если context.arg.ПропустиБелоеПолеИЧитайЦепочкуСимволов8ДоБелогоПоляИлиВКавычках(dataFileName) то
				dataFile := Files.Old(dataFileName)
			иначе
				dataFile := НУЛЬ;
			всё;
			нов(options);
			options.Add("l","logFile", Options.String);
			options.Add("a","address",Options.Integer);
			options.Add("w","instructionWidth",Options.Integer);
			если options.Parse(context.arg, context.error) то
				если ~options.GetInteger("w",instructionWidth) то instructionWidth:=18 всё;
				трассируй(instructionWidth);
				если ~options.GetInteger("a", address) то address := 0 всё;
				нов(decodeInstance,instructionWidth);
				нов(disassembler, context.out);
				code := ReadCode(codeFile);
				data := ReadData(dataFile);
				если options.GetString("logFile",logFileName) то
					logFile := Files.Old(logFileName);
				иначе
					logFile := disassembler.GetLogFile(codeFileName)
				всё;
				disassembler.Disassemble(code, data, 36, 32, logFile, address);
			всё;
		всё;
	кон Disassemble;

перем
	decodeInstance: InstructionSet;
нач
	нов(decodeInstance,18);
кон FoxTRMInstructionSet.

System.FreeDownTo FoxTRMInstructionSet ~
FoxTRMInstructionSet.DumpInstructionFormats -s ~
FoxTRMInstructionSet.Test ~

FoxTRMInstructionSet.Disassemble disastest.mem ~

FoxTRMInstructionSet.Disassemble ins.mem ~
