модуль FoxГенЗагСлов; (**  (С) Денис Будяк 2020 *)

использует
	Scanner := FoxScanner, SyntaxTree := FoxSyntaxTree, Global := FoxGlobal,
	Basic := FoxBasic, Потоки, D:=Debugging, УтилитыДляПереводаКода := FoxУтилитыДляПереводаКода, 
	НИЗКОУР, ПрецедентыПереводов, Strings, ХешТаблИзСтрокиВЦел64, UCS32;

конст
	(* Режимы порождения *)
	СловарьПереводов*=7;  
	ПереименованияДубликатов*=8;

	DebugPosition=ложь;
тип

	Printer*= окласс (SyntaxTree.Посетитель)
	перем
		w-: Basic.Writer; 
		mode: цел32; (* См. константы СловарьПереводов и т.п. чуть выше *) 
		singleStatement: булево;
		currentScope: SyntaxTree.ВнутренняяОбластьВидимости; ws: Потоки.ПисарьВСтроку8ФиксированногоРазмера;
		info: булево; printCase: Scanner.ВариантыПеревода; (* Значения Scanner.ВариантыПеревода.Uppercase, Scanner.Lowercase, Scanner.ВариантыПеревода.Русский *)
		useCase: булево; (* TRUE to enable case conversion in "Identifier" *)
		currentModule: SyntaxTree.ДеревоМодуля; (* заполняется в начале пр-ры Module *)
		обрабатываемModifier: булево; (* в Modifier могут (наверное) возникать 
			новые слова в виде выражений. Этот выключатель говорит о том, что нужно 
			их включать в словарь, но тут ещё нужно уточнять *)		
		растеняющиеПриставкиПоИменам-: ХешТаблИзСтрокиВЦел64.ХешТабл;  (* а надо бы его поместить в компилятор, 
			или даже в СборщикВыпускаЯОС, а почему - я уже забыл *)

		alertCount, commentCount: цел32;
		заготовкиПереводаТолькоДляИнтерфейса*: булево;

		проц Keyword(конст a: массив из симв8);
		перем симв : Scanner.ВидЛексемы;
		нач
			симв := Scanner.keywordsUpper.ДайВидЛексемыПоСтроке(a);
			KeywordСимв(симв) кон Keyword;
			
		проц KeywordСимв(симв: Scanner.ВидЛексемы);
		перем str: массив 64 из симв8; 
		нач
			утв(симв # 0);
			просей printCase из
				| Scanner.ВариантыПеревода.Uppercase:
					Scanner.keywordsUpper.ДайСтрокуПоВидуЛексемы(симв, str);
				| Scanner.ВариантыПеревода.Русский:
					Scanner.keywords_Русские.ДайСтрокуПоВидуЛексемы(симв, str) всё;
			w.BeginKeyword;
			w.пСтроку8("<!--");
			w.пСтроку8(str);
			w.пСтроку8("-->");
			w.EndKeyword;
		кон KeywordСимв;
		
		проц AlertString(конст s: массив из симв8);
		нач
			D.String(s); D.Ln;
			(* w.BeginAlert; w.String(s); w.EndAlert; *)
		кон AlertString;

		проц Indent(нота = '$' : массив из симв8);
		нач (* Это полезно при отладке w.String(нота); *) w.пВК_ПС;
		кон Indent;

		проц Identifier*(x: SyntaxTree.ИдентификаторВ_исходнике);
		перем str: Scanner.СтрокаИдентификатора;
		нач
			Basic.GetString(x.И,str);
			w.пСтроку8(str);
		кон Identifier;


		(* PROCEDURE IdentifierString(x: ARRAY OF CHAR);
		BEGIN
			w.String(x);
		END IdentifierString; *)

		проц QualifiedIdentifier*(x: SyntaxTree.СоставнойИдентификаторВ_исходнике);
		нач
			если info то
				w.пСтроку8("«QualifiedIdentifier»") всё;
			если x.начало.И # SyntaxTree.образцовыйНеверныйИдентификатор.И то Identifier(x.начало); w.пСтроку8("."); всё;
			Identifier(x.конец);
		кон QualifiedIdentifier;

		проц Type*(x: SyntaxTree.Выражениеˉтип);
		нач
			если x= НУЛЬ то
				AlertString("nil type");
			иначе
				ПосетиУзелИзСемьиВыраженияˉтипа(x);
			всё;
		кон Type;

		проц {перекрыта}ПосетиВыражениеˉтип*(x: SyntaxTree.Выражениеˉтип);
		нач
			если x = SyntaxTree.выражениеˉтипОбъявленияИмпортаМодуля то w.пСтроку8("importType")
			аесли x = SyntaxTree.выражениеˉтипОбъявленияТипа то w.пСтроку8("typeDeclarationType");
			иначе
				AlertString("InvalidType");
			всё;
		кон ПосетиВыражениеˉтип;

		проц {перекрыта}ПосетиВыражˉтипИзРодаПримитивных*(x: SyntaxTree.ВыражˉтипИзРодаПримитивных);
		нач
			если x.объявлениеТипа # НУЛЬ то
				Identifier(x.объявлениеТипа.имя);
			иначе
				Identifier(x.имя);
			всё
		кон ПосетиВыражˉтипИзРодаПримитивных;

		проц {перекрыта}ПосетиВыражˉтипБулево*(x: SyntaxTree.ВыражˉтипБулево);
		нач
			ПосетиВыражˉтипИзРодаПримитивных(x);
		кон ПосетиВыражˉтипБулево;

		проц {перекрыта}ПосетиВыражˉтипИзРодаБайт*(x: SyntaxTree.МнвоType);
		нач
			ПосетиВыражˉтипИзРодаПримитивных(x);
		кон ПосетиВыражˉтипИзРодаБайт;

		проц {перекрыта}ПосетиВыражˉтипSIZE*(x: SyntaxTree.ВыражˉтипSIZE);
		нач
			ПосетиВыражˉтипИзРодаПримитивных(x);
		кон ПосетиВыражˉтипSIZE;

		проц {перекрыта}ПосетиВыражˉтипИзРодаЛитер*(x: SyntaxTree.ВыражˉтипИзРодаЛитер);
		нач
			ПосетиВыражˉтипИзРодаПримитивных(x);
		кон ПосетиВыражˉтипИзРодаЛитер;

		проц {перекрыта}ПосетиВыражˉтипИзРодаЧиселЦел*(x: SyntaxTree.ВыражˉтипИзРодаЧиселЦел);
		нач
			ПосетиВыражˉтипИзРодаПримитивных(x);
		кон ПосетиВыражˉтипИзРодаЧиселЦел;

		проц {перекрыта}ПосетиВыражˉтипИзРодаЧиселВещ*(x: SyntaxTree.ВыражˉтипИзРодаЧиселВещ);
		нач
			ПосетиВыражˉтипИзРодаПримитивных(x);
		кон ПосетиВыражˉтипИзРодаЧиселВещ;

		проц {перекрыта}ПосетиВыражˉтипИзРодаЧиселКомплексных*(x: SyntaxTree.ВыражˉтипИзРодаЧиселКомплексных);
		нач
			ПосетиВыражˉтипИзРодаПримитивных(x);
		кон ПосетиВыражˉтипИзРодаЧиселКомплексных;

		проц {перекрыта}ПосетиВыражˉтипНизкоурБайт*(x: SyntaxTree.ВыражˉтипНизкоурБайт);
		нач
			ПосетиВыражˉтипИзРодаПримитивных(x);
		кон ПосетиВыражˉтипНизкоурБайт;

		проц {перекрыта}ПосетиВыражˉтипИзРодаТиповˉНаименований*(x: SyntaxTree.ВыражˉтипИзРодаТиповˉНаименований);
		нач
			если x.резОсмысления = SyntaxTree.образцовоеНеверноеВыражениеˉтип то
				AlertString("(*unresolved*)"); возврат
			аесли x.составнойИдентификатор = НУЛЬ то
				AlertString("NIL (* missing qualified identifier *)"); возврат всё;
			(* если info то
				w.пСтроку8("VisitQualifiedType:") всё; *)
			если x.резОсмысления = НУЛЬ то
				AlertString("«не найденный тип»");
				возврат всё;
			useCase := (x.резОсмысления суть SyntaxTree.ВыражˉтипИзРодаПримитивных) и (x.гдеНаписано.УровеньВложенностиОбластиВидимости() = 0);
			если useCase то
				w.пСтроку8("«Это якобы базовый тип»"); (* никогда не случается *)
				СТОП(3330); (* я думал, что эта ветка должна обрабатываться в VisitBasicType, но что-то пошло не так *)
			всё;
			(* QualifiedIdentifier(x.qualifiedIdentifier); *)
		кон ПосетиВыражˉтипИзРодаТиповˉНаименований;

		проц {перекрыта}ПосетиВыражˉтипИзРодаСтрок*(x: SyntaxTree.ВыражˉтипИзРодаСтрок);
		нач
			w.пСтроку8("STRING"); w.пСтроку8("(* len = "); w.пЦел64(x.длина,1); w.пСтроку8(" *)");
		кон ПосетиВыражˉтипИзРодаСтрок;

		проц {перекрыта}ПосетиВыражˉтипИзРодаПеречислений*(x: SyntaxTree.ВыражˉтипИзРодаПеречислений);
		перем e: SyntaxTree.ОбъявлениеКонстанты; 
		нач
			если x.типЧленов # НУЛЬ то
				Type(x.типЧленов);
			всё;
			e := x.внутренняяОбластьВидимости.первоеОбъявлениеКонстанты; 
			нцПока (e # НУЛЬ) делай
				ПосетиОбъявлениеКонстанты(e);
				e := e.следщОК;
			кц;
		кон ПосетиВыражˉтипИзРодаПеречислений;

		проц {перекрыта}ПосетиВыражˉтипИзРодаДиапазонов*(x: SyntaxTree.ВыражˉтипИзРодаДиапазонов);
		нач ПосетиВыражˉтипИзРодаПримитивных(x);
		кон ПосетиВыражˉтипИзРодаДиапазонов;

		проц {перекрыта}ПосетиВыражˉтипИзРодаМассивов*(x: SyntaxTree.ВыражˉтипИзРодаМассивов);
		нач
			если x.длина # НУЛЬ то Expression(x.длина); всё;
			Type(x.типЭлементов);
		кон ПосетиВыражˉтипИзРодаМассивов;

		проц {перекрыта}ПосетиВыражˉтипНУЛЬ*(x: SyntaxTree.ВыражˉтипНУЛЬ);
		нач
			w.пСтроку8("NILTYPE");
		кон ПосетиВыражˉтипНУЛЬ;

		проц {перекрыта}ПосетиВыражˉтипАДРЕС*(x: SyntaxTree.ВыражˉтипАДРЕС);
		нач
			w.пСтроку8("ADDRESSTYPE");
		кон ПосетиВыражˉтипАДРЕС;

		проц {перекрыта}ПосетиВыражˉтипБазовыйОобъект*(x: SyntaxTree.ВыражˉтипБазовыйОобъект);
		нач
			ПосетиВыражˉтипИзРодаПримитивных(x);
		кон ПосетиВыражˉтипБазовыйОобъект;

		проц {перекрыта}ПосетиВыражˉтипДинамическиТипизированныйУкль*(x: SyntaxTree.ВыражˉтипДинамическиТипизированныйУкль);
		нач
			ПосетиВыражˉтипИзРодаПримитивных(x);
		кон ПосетиВыражˉтипДинамическиТипизированныйУкль;

		проц {перекрыта}ПосетиВыражˉтипИзРодаМатМассивов*(x: SyntaxTree.ВыражˉтипИзРодаМатМассивов);
		нач
			если ~(x.форма = SyntaxTree.формаМассиваТензорный) то 
			иначе
				если ~(x.длина = НУЛЬ) то
					Expression(x.длина);
				всё;
				нцПока(x.типЭлемента # НУЛЬ) и (x.типЭлемента суть SyntaxTree.ВыражˉтипИзРодаМатМассивов) делай
					x := x.типЭлемента(SyntaxTree.ВыражˉтипИзРодаМатМассивов);
					если ~(x.длина = НУЛЬ) то
						Expression(x.длина);
					всё;
				кц;
			всё;
			если x.типЭлемента # НУЛЬ то
				Type(x.типЭлемента);
			всё;
		кон ПосетиВыражˉтипИзРодаМатМассивов;

		проц PointerFlags(x: SyntaxTree.ВыражˉтипИзРодаУклей);
		нач
			если x.модификаторы # НУЛЬ то
				Modifiers(x.модификаторы)
			всё;
		кон PointerFlags;

		проц ObjectFlags ( rec: SyntaxTree.ВыражˉтипИзРодаЗаписей; x: SyntaxTree.ВыражˉтипИзРодаУклей);
		нач
			если x.модификаторы # НУЛЬ то
				Modifiers(x.модификаторы)
			всё;
		кон ObjectFlags;

		проц {перекрыта}ПосетиВыражˉтипИзРодаУклей*(x: SyntaxTree.ВыражˉтипИзРодаУклей);
		перем pointerBase: SyntaxTree.Выражениеˉтип;
		нач
			если x.типУказуемого = НУЛЬ то
				w.BeginAlert; Keyword("POINTER TO NIL"); w.EndAlert;
			иначе
				pointerBase := x.типУказуемого;
				если x.скрытыйЛи¿ то
					Type(x.типУказуемого);
				аесли (pointerBase суть SyntaxTree.ВыражˉтипИзРодаЗаписей) и (pointerBase(SyntaxTree.ВыражˉтипИзРодаЗаписей).ообъектЛи¿) то
					ПосетиВыражˉтипИзРодаЗаписей(pointerBase(SyntaxTree.ВыражˉтипИзРодаЗаписей))
				иначе
					PointerFlags(x); 
					если info то
						(* PodrobnajaPechatq.Pech(w,x.pointerBase); w.Update() *) всё;
					Type(x.типУказуемого);
				всё;
			всё;
		кон ПосетиВыражˉтипИзРодаУклей;

		проц {перекрыта}ПосетиВыражˉтипИзРодаПортовВводаВывода*(x: SyntaxTree.ВыражˉтипИзРодаПортовВводаВывода);
		нач
			Keyword("PORT");
			если x.направление = SyntaxTree.OutPort то
				w.пСтроку8(" "); Keyword("OUT")
			иначе
				утв(x.направление = SyntaxTree.InPort);
				w.пСтроку8(" "); Keyword("IN");
			всё;
			если x.sizeExpression # НУЛЬ то
				w.пСтроку8(" ("); Expression(x.sizeExpression); w.пСтроку8(")");
			всё;
		кон ПосетиВыражˉтипИзРодаПортовВводаВывода;

		проц {перекрыта}ПосетиВыражˉтипИзРодаАктивныхЯчеек*(x: SyntaxTree.ВыражˉтипИзРодаАктивныхЯчеек);
		нач
			если x.являетсяЛиСетьюЯчеек¿ то
				Keyword("CELLNET"); w.пСтроку8(" ");
			иначе
				Keyword("CELL"); w.пСтроку8(" ");
			всё;
			Modifiers(x.модификаторы);
			если x.первыйПараметр # НУЛЬ то ParameterList(x.первыйПараметр) всё;
			Scope(x.внутренняяОбластьВидимости);

			если (x.внутренняяОбластьВидимости суть SyntaxTree.ВнутренняяОбластьВидимостиТипаИзРодаАктивныхЯчеек) и (x.внутренняяОбластьВидимости(SyntaxTree.ВнутренняяОбластьВидимостиТипаИзРодаАктивныхЯчеек).процедураˉтело # НУЛЬ) то
				Body(x.внутренняяОбластьВидимости(SyntaxTree.ВнутренняяОбластьВидимостиТипаИзРодаАктивныхЯчеек).процедураˉтело.внутренняяОбластьВидимости.Тело)
			всё;
		кон ПосетиВыражˉтипИзРодаАктивныхЯчеек;

			проц {перекрыта}ПосетиВыражˉтипИзРодаЗаписей*(x: SyntaxTree.ВыражˉтипИзРодаЗаписей);
			перем prevScope: SyntaxTree.ВнутренняяОбластьВидимости;
			нач
			если x.ообъектЛи¿ то
				если x.выражˉтипУкляВКоторомОпределёнДанныйТип # НУЛЬ то ObjectFlags(x, x.выражˉтипУкляВКоторомОпределёнДанныйТип)
				всё;
				Scope(x.внутренняяОбластьВидимости);

				если (x.внутренняяОбластьВидимости.процедураˉтело # НУЛЬ) то
					Body(x.внутренняяОбластьВидимости.процедураˉтело.внутренняяОбластьВидимости.Тело)
				всё;
			иначе
				Modifiers(x.модификатор);
				prevScope := currentScope;
				currentScope := x.внутренняяОбластьВидимости;
				VariableList(x.внутренняяОбластьВидимости.первоеОбъявлениеПеременной);
				если x.внутренняяОбластьВидимости.другойСписокПроцедур # НУЛЬ то w.пВК_ПС; ProcedureList(x.внутренняяОбластьВидимости.другойСписокПроцедур) всё;
				currentScope := prevScope;
				если (x.выражˉтипУкляВКоторомОпределёнДанныйТип = НУЛЬ) и (x.внутренняяОбластьВидимости.другойСписокПроцедур # НУЛЬ) то 
					w.пСтроку8("</Scope><!-- вписано руками из-за визитора -->");
					w.DecIndent;
					w.пВК_ПС; ProcedureList(x.внутренняяОбластьВидимости.другойСписокПроцедур);
					Indent; w.пСтроку8("<Scope><!-- руками из-за визитора - 2-->");
					w.IncIndent;
					всё;
			всё;
		кон ПосетиВыражˉтипИзРодаЗаписей;

		проц Flag(ивти: SyntaxTree.ИндВТаблИдент; перем first: булево);
		перем name: SyntaxTree.СтрокаИдентификатора; identifier: SyntaxTree.ИдентификаторВ_исходнике;
		нач
			если first то w.пСтроку8("{") иначе w.пСтроку8(", ") всё;
			first := ложь;
			identifier := Global.GetIdentifier(ивти,printCase);
			Basic.GetString(identifier.И,name);
			w.пСтроку8(name);
		кон Flag;

		проц FlagEnd(first: булево);
		нач
			если ~first то w.пСтроку8("} ") всё;
		кон FlagEnd;

		проц Value(identifier: SyntaxTree.ИндВТаблИдент; value: цел64; перем first: булево);
		нач
			Flag(identifier,first);
			w.пСтроку8("("); w.пЦел64(value,1); w.пСтроку8(")");
		кон Value;

		проц {перекрыта}ПосетиВыражˉтипИзРодаПроцедур*(x: SyntaxTree.ВыражˉтипИзРодаПроцедур);
		перем first: булево;
		нач
			если x.выравниваниеСтека > 1 то Value(Global.NameAlignStack,x.выравниваниеСтека,first) всё;
			если (x.модификаторы # НУЛЬ) и info то
				Modifiers(x.модификаторы);
			всё;
			(*
			CallingConvention(x.callingConvention);
			IF x.isDelegate THEN w.String("{DELEGATE}") END;
			*)
			если (x.первыйПараметр # НУЛЬ) или (x.типВозврата # НУЛЬ) то
				w.IncIndent;
				ParameterList(x.первыйПараметр);
				w.DecIndent;
			всё;
			если x.типВозврата # НУЛЬ то
				Type(x.типВозврата)
			всё;
		кон ПосетиВыражˉтипИзРодаПроцедур;

		(*** expressions ****)

		проц ExpressionList(x: SyntaxTree.СписокВыражˉзначенийЧерезЗапятую);
		перем i: размерМЗ;  expression: SyntaxTree.Выражениеˉзначение;
		нач
			нцДля i := 0 до x.Длина() - 1 делай
				expression := x.ДайВыражение( i );  Expression(expression);
			кц;
		кон ExpressionList;

		проц Expression*(x: SyntaxTree.Выражениеˉзначение);
		нач
			если DebugPosition то трассируй(x.начВ_тексте.start, x.начВ_тексте.end, x.конВ_тексте.start, x.конВ_тексте.end) всё;
			если x = НУЛЬ то
				AlertString("nil expression");
			аесли обрабатываемModifier то
				ПосетиУзелИзСемьиВыраженияˉзначения(x);
			всё;
			(* w.Update; *)
		кон Expression;

		проц {перекрыта}ПосетиВыражениеˉзначение*(x: SyntaxTree.Выражениеˉзначение);
		нач
			AlertString("InvalidExpression");
		кон ПосетиВыражениеˉзначение;

		проц {перекрыта}ПосетиВыражˉзначениеКонструкторБайта*(x: SyntaxTree.ВыражˉзначениеКонструкторБайта);
		нач ExpressionList(x.состав) кон ПосетиВыражˉзначениеКонструкторБайта;

		проц {перекрыта}ПосетиВыражˉзначениеКонструкторМатМассива*(x: SyntaxTree.ВыражˉзначениеКонструкторМатМассива);
		нач ExpressionList(x.состав) кон ПосетиВыражˉзначениеКонструкторМатМассива;

		проц {перекрыта}ПосетиВыражˉзначениеУнарнаяОперация*(x: SyntaxTree.ВыражˉзначениеУнарнаяОперация);
		нач
			Expression(x.операнд);
		кон ПосетиВыражˉзначениеУнарнаяОперация;

		проц {перекрыта}ПосетиВыражˉзначениеБинарнаяОперация*(x: SyntaxTree.ВыражˉзначениеБинарнаяОперация);
		нач
			Expression(x.лев);
			Expression(x.прав);
		кон ПосетиВыражˉзначениеБинарнаяОперация;

		проц {перекрыта}ПосетиВыражˉзначениеКонструкторДиапазона*(x: SyntaxTree.ВыражˉзначениеКонструкторДиапазона);
		нач
			если x.нетПервого и x.нетПоследнего и x.нетШага то
				(* ничего не делаем *)
			иначе
				если ~x.нетПервого то Expression(x.первое) всё;
				если ~x.нетПоследнего то Expression(x.последнее) всё;
				если ~x.нетШага то
					Expression(x.Шаг)
				всё
			всё;
		кон ПосетиВыражˉзначениеКонструкторДиапазона;

		проц {перекрыта}ПосетиВыражˉзначениеКонструкторТензорногоДиапазона*(x: SyntaxTree.ВыражˉзначениеКонструкторТензорногоДиапазона);
		нач
		кон ПосетиВыражˉзначениеКонструкторТензорногоДиапазона;

		проц {перекрыта}ПосетиВыражˉзначениеПреобразованиеТипа*(x: SyntaxTree.ВыражˉзначениеПреобразованиеТипа);
		нач
			Expression(x.аргумент);
		кон ПосетиВыражˉзначениеПреобразованиеТипа;

		проц {перекрыта}ПосетиВыражˉобращение*(x: SyntaxTree.Выражˉобращение);
		нач
			AlertString("InvalidDesignator");
		кон ПосетиВыражˉобращение;

		проц {перекрыта}ПосетиОбращение˛разобранноеКакОбрК_имени*(x: SyntaxTree.Обращение˛разобранноеКакОбрК_имени);
		нач
		кон ПосетиОбращение˛разобранноеКакОбрК_имени;

		проц {перекрыта}ПосетиОбращение˛разобранноеКакОбрК_члену*(x: SyntaxTree.Обращение˛разобранноеКакОбрК_члену);
		нач
			Expression(x.лев);
		кон ПосетиОбращение˛разобранноеКакОбрК_члену;

		проц {перекрыта}ПосетиОбращение˛разобранноеКакОбрК_элтуВ_квадрСкобках*(x: SyntaxTree.Обращение˛разобранноеКакОбрК_элтуВ_квадрСкобках);
		нач
			Expression(x.лев);
			ExpressionList(x.параметры);
		кон ПосетиОбращение˛разобранноеКакОбрК_элтуВ_квадрСкобках;

		проц {перекрыта}ПосетиОбращение˛разобранноеКакВызовВ_круглСкобках*(x: SyntaxTree.Обращение˛разобранноеКакВызовВ_круглСкобках);
		нач
			Expression(x.лев);
			ExpressionList(x.параметры);
		кон ПосетиОбращение˛разобранноеКакВызовВ_круглСкобках;

		проц {перекрыта}ПосетиОбращение˛осмысленноеКакОбрПоИндексу*(x: SyntaxTree.Обращение˛осмысленноеКакОбрПоИндексу);
		нач
			Expression(x.лев);
			ExpressionList(x.параметры);
		кон ПосетиОбращение˛осмысленноеКакОбрПоИндексу;

		проц {перекрыта}ПосетиОбращение˛разобранноеКакОбрЧерезКарет*(x: SyntaxTree.Обращение˛разобранноеКакОбрЧерезКарет);
		нач
			Expression(x.лев);
		кон ПосетиОбращение˛разобранноеКакОбрЧерезКарет;

		проц {перекрыта}ПосетиОбращение˛осмысленноеКакОбрК_именованнойСущности*(x: SyntaxTree.Обращение˛осмысленноеКакОбрК_именованнойСущности);
		нач
			если (x.лев # НУЛЬ) и ~x.лев.скрытВ_активнойЯчейке то
			Expression(x.лев); 
			всё;
			если ~(x.Объявление суть SyntaxTree.ОбъявлениеОперации) то
				(* Тут всё равно будет вопрос, что делать с Modifier-ами *)
				Identifier(x.Объявление.имя);
			всё;
		кон ПосетиОбращение˛осмысленноеКакОбрК_именованнойСущности;

		проц {перекрыта}ПосетиОбращение˛осмысленноеКакВызовМетодаПредка*(x: SyntaxTree.Обращение˛осмысленноеКакВызовМетодаПредка);
		нач
			Expression(x.лев);
			w.пСтроку8( "^" );
		кон ПосетиОбращение˛осмысленноеКакВызовМетодаПредка;

		проц {перекрыта}ПосетиОбращение˛осмысленноеКакОбрК_себе*(x: SyntaxTree.Обращение˛осмысленноеКакОбрК_себе);
		нач
			утв(x.лев = НУЛЬ);
		кон ПосетиОбращение˛осмысленноеКакОбрК_себе;

		проц {перекрыта}ПосетиОбращение˛осмысленноеКакОбрК_псевдоПеременной«результат»*(x: SyntaxTree.Обращение˛осмысленноеКакОбрК_псевдоПеременной«результат»);
		нач
			утв(x.лев = НУЛЬ);
		кон ПосетиОбращение˛осмысленноеКакОбрК_псевдоПеременной«результат»;

		проц {перекрыта}ПосетиОбращение˛осмысленноеКакРазыменованиеУкля*(x: SyntaxTree.Обращение˛осмысленноеКакРазыменованиеУкля);
		нач
			Expression(x.лев);
			w.пСтроку8( "^" );
		кон ПосетиОбращение˛осмысленноеКакРазыменованиеУкля;

		проц {перекрыта}ПосетиОбращение˛осмысленноеКакОхранаТипа*(x: SyntaxTree.Обращение˛осмысленноеКакОхранаТипа);
		нач
			Expression(x.лев);
			w.пСтроку8("(");
			если x.имяОхраняемогоТипаДляПечати # НУЛЬ то Expression(x.имяОхраняемогоТипаДляПечати) иначе Type(x.типОсмысленный) всё;
			w.пСтроку8(")");
		кон ПосетиОбращение˛осмысленноеКакОхранаТипа;

		проц {перекрыта}ПосетиОбращение˛осмысленноеКакВызовПроцедуры*(x: SyntaxTree.Обращение˛осмысленноеКакВызовПроцедуры);
		нач
			Expression(x.лев);
			w.пСтроку8("("); ExpressionList(x.параметры); w.пСтроку8(")");
		кон ПосетиОбращение˛осмысленноеКакВызовПроцедуры;

		проц {перекрыта}ПосетиОбращение˛осмысленноеКакВызовПодставляемойПроцедуры*(x: SyntaxTree.Обращение˛осмысленноеКакВызовПодставляемойПроцедуры);
		нач
			Scope(x.Тело.областьВидимости);
			ПосетиПредписание«тело»без«выходя»(x.Тело);
		кон ПосетиОбращение˛осмысленноеКакВызовПодставляемойПроцедуры;

		проц {перекрыта}ПосетиОбращение˛осмысленноеКакВызовВстроеннойПроцедуры*(x: SyntaxTree.Обращение˛осмысленноеКакВызовВстроеннойПроцедуры);
		нач
			если x.лев # НУЛЬ то
				Expression(x.лев);
			иначе
				w.пСтроку8("BUILTIN(");
				w.пЦел64(x.номерВстроеннойПроцедуры,1);
				w.пСтроку8(")");
			всё;
			w.пСтроку8("("); ExpressionList(x.параметры); w.пСтроку8(")");
		кон ПосетиОбращение˛осмысленноеКакВызовВстроеннойПроцедуры;

		проц {перекрыта}ПосетиЗначение˛известноеВоВремяКомпиляции*(x: SyntaxTree.Значение˛известноеВоВремяКомпиляции);
		нач
			AlertString("InvalidValue");
		кон ПосетиЗначение˛известноеВоВремяКомпиляции;

		проц {перекрыта}ПосетиЗначение˛известноеВоВремяКомпиляции˛булево*(x: SyntaxTree.Значение˛известноеВоВремяКомпиляции˛булево);
		нач
			если Scanner.ВариантыПеревода.Uppercase = printCase то
				если x.значение то w.пСтроку8("TRUE" ) иначе w.пСтроку8( "FALSE" ) всё
			аесли Scanner.ВариантыПеревода.Русский = printCase то
				если x.значение то w.пСтроку8("правда" ) иначе w.пСтроку8( "ложь" ) всё
			иначе
				если x.значение то w.пСтроку8("true" ) иначе w.пСтроку8( "false" ) всё
			всё
		кон ПосетиЗначение˛известноеВоВремяКомпиляции˛булево;

		проц {перекрыта}ПосетиЗначение˛известноеВоВремяКомпиляции˛целое*(x: SyntaxTree.Значение˛известноеВоВремяКомпиляции˛целое);
		нач
			w.пЦел64(x.значение,1);
		кон ПосетиЗначение˛известноеВоВремяКомпиляции˛целое;

		проц {перекрыта}ПосетиЗначение˛известноеВоВремяКомпиляции˛символ*(x: SyntaxTree.Значение˛известноеВоВремяКомпиляции˛символ);
		нач
		кон ПосетиЗначение˛известноеВоВремяКомпиляции˛символ;

		проц {перекрыта}ПосетиЗначение˛известноеВоВремяКомпиляции˛символ32*(x: SyntaxTree.Значение˛известноеВоВремяКомпиляции˛символ32);
		нач
		кон ПосетиЗначение˛известноеВоВремяКомпиляции˛символ32;


		проц {перекрыта}ПосетиЗначение˛известноеВоВремяКомпиляции˛байт*(x: SyntaxTree.Значение˛известноеВоВремяКомпиляции˛байт);
		перем i: цел32;
		нач
			w.пСтроку8("{");
			i := 0;
			нцПока (i<матМаксимум(Basic.Set)) и ~(i в x.значение)  делай
				увел(i);
			кц;
			если i<матМаксимум(Basic.Set) то
				w.пЦел64(i,1);
				увел(i);
				нцПока i < матМаксимум(Basic.Set) делай
					если i в x.значение то w.пСтроку8(","); w.пЦел64(i,1); всё;
					увел(i)
				кц
			всё;
			w.пСтроку8("}");
		кон ПосетиЗначение˛известноеВоВремяКомпиляции˛байт;

		проц {перекрыта}ПосетиЗначение˛известноеВоВремяКомпиляции˛матМассив*(x: SyntaxTree.Значение˛известноеВоВремяКомпиляции˛матМассив);
		нач
			ПосетиВыражˉзначениеКонструкторМатМассива(x.значение);
		кон ПосетиЗначение˛известноеВоВремяКомпиляции˛матМассив;

		проц FormatedFloat(value: вещ64; subtype: цел32);
		перем string: массив 128 из симв8; i: цел32;
		нач
			если subtype = Scanner.Real то
				ws.ПерейдиКМестуВПотоке(0); ws.пВещ64(value,11(*mantissa X.XXXXXXX *)+5(*exponent E+XXX *)); ws.ДайПрочитанное˛сколькоПоместитсяИСимвол0(string);
				i := 0;
				нцПока(i<длинаМассива(string)) и (string[i] # 0X) делай
					если string[i] = "D" то string[i] := "E" всё;
					увел(i);
				кц;
				w.пСтроку8(string);
			аесли subtype = Scanner.Longreal то
				ws.ПерейдиКМестуВПотоке(0); ws.пВещ64(value,20(*mantissa X.X..(16)..X *)+5(*exponent E+XXX *) ); ws.ДайПрочитанное˛сколькоПоместитсяИСимвол0(string);
				i := 0;
				нцПока(i<длинаМассива(string)) и (string[i] # 0X) делай
					если string[i] = "E" то string[i] := "D" всё;
					увел(i);
				кц;
				w.пСтроку8(string);
			иначе
				w.пВещ64(value,31)
			всё;
		кон FormatedFloat;

		проц {перекрыта}ПосетиЗначение˛известноеВоВремяКомпиляции˛вещ*(x: SyntaxTree.Значение˛известноеВоВремяКомпиляции˛вещ);
		нач FormatedFloat(x.значение, x.кодПодтипа)
		кон ПосетиЗначение˛известноеВоВремяКомпиляции˛вещ;

		проц {перекрыта}ПосетиЗначение˛известноеВоВремяКомпиляции˛комплексное*(x: SyntaxTree.Значение˛известноеВоВремяКомпиляции˛комплексное);
		нач
			если (x.значениеRe = 0) и (x.значениеIm = 1) то
				w.пСтроку8("IMAG")
			иначе
				w.пСтроку8("(");
				FormatedFloat(x.значениеRe, x.кодПодтипа)	;
				w.пСтроку8(" ");
				если x.значениеIm > 0 то w.пСтроку8("+") всё;
				FormatedFloat(x.значениеIm, x.кодПодтипа);
				w.пСтроку8("*IMAG)")
			всё
		кон ПосетиЗначение˛известноеВоВремяКомпиляции˛комплексное;

		проц {перекрыта}ПосетиЗначение˛известноеВоВремяКомпиляции˛строковое*(x: SyntaxTree.Значение˛известноеВоВремяКомпиляции˛строковое);
		перем i: цел32; ch: симв8;
		нач
			i := 0;
			w.пСимв8('\');
			w.пСимв8('"');
			нцПока (i < длинаМассива( x.значение )) и (x.значение[i] # 0X) делай
				ch := x.значение[i];
				если ch = Scanner.CR то w.пСтроку8("\n")
				аесли ch = Scanner.LF то (* ignore *)
				аесли ch = Scanner.TAB то w.пСтроку8("\t")
				аесли ch = '\' то w.пСтроку8("\\")
				аесли ch = '"' то w.пСтроку8(\"""\); (* " *)
				иначе w.пСимв8(ch)
				всё;
				увел( i );
			кц;
			w.пСимв8('"');
			w.пСимв8('\');
		кон ПосетиЗначение˛известноеВоВремяКомпиляции˛строковое;

		проц {перекрыта}ПосетиЗначение˛известноеВоВремяКомпиляции˛НУЛЬ*(x: SyntaxTree.Значение˛известноеВоВремяКомпиляции˛НУЛЬ);
		нач 
		если info то BeginComment; Type(x.типОсмысленный); EndComment; всё;
		кон ПосетиЗначение˛известноеВоВремяКомпиляции˛НУЛЬ;

		проц {перекрыта}ПосетиЗначение˛известноеВоВремяКомпиляции˛перечисления*(x: SyntaxTree.Значение˛известноеВоВремяКомпиляции˛перечисления);
		нач w.пЦел64(x.значение,1);
		кон ПосетиЗначение˛известноеВоВремяКомпиляции˛перечисления;

		проц {перекрыта}ПосетиЗначение˛известноеВоВремяКомпиляции˛процедурногоТипа*(x: SyntaxTree.Значение˛известноеВоВремяКомпиляции˛процедурногоТипа);
		нач
			Symbol(x.значение);
		кон ПосетиЗначение˛известноеВоВремяКомпиляции˛процедурногоТипа;

		(**** symbols ****)

		проц Symbol*(x: SyntaxTree.ОбъявлениеИменованнойСущности);
		нач
			если x = НУЛЬ то
				AlertString("nil symbol");
			иначе
				ПосетиУзелИзСемьиОбъявления(x);
			всё
		кон Symbol;

		проц {перекрыта}ПосетиОбъявлениеИменованнойСущности*(x: SyntaxTree.ОбъявлениеИменованнойСущности);
		нач
			AlertString("InvalidSymbol"); (* См. VSymbol *)
		кон ПосетиОбъявлениеИменованнойСущности;

		проц Visible(symbol: SyntaxTree.ОбъявлениеИменованнойСущности): булево;
		нач
			возврат истина (* (SyntaxTree.Public * symbol.access # {}) OR (mode > SymbolFile) *)
				(* using only exported symbols does not work since there might be dependencies ... *)
		кон Visible;
		
		проц Exported(symbol: SyntaxTree.ОбъявлениеИменованнойСущности): булево;
		нач
			возврат symbol.праваДоступа * {SyntaxTree.ЧтениеВПотомках, SyntaxTree.ЗаписьВПотомках, SyntaxTree.ЧтениеОбщедоступно, SyntaxTree.ЗаписьОбщедоступна} # {}
		кон Exported;


		проц ВычислиИНапишиЗаготовкуРусскогоИмени(ч: SyntaxTree.ОбъявлениеИменованнойСущности);
		перем И, п: Basic.String; прецеденты : Strings.String;
		нач
			просейТип ч:
			| SyntaxTree.ДеревоМодуля делай
				если УтилитыДляПереводаКода.НеАнглийскийИдентификаторSyntaxTree(ч.имя) то
			Identifier(ч.имя);
					возврат всё;
			| SyntaxTree.ОбъявлениеПроцедуры делай
					если (ч.перекрытаяПроцедураОпредка # НУЛЬ) и (ч.перекрытаяПроцедураОпредка # ч) то
						(* r.PechKL(ч.super); *)
						И := ч.перекрытаяПроцедураОпредка.имя.И;
						п := ч.перекрытаяПроцедураОпредка.имя.п;
						(* условие - дикий костыль, но иначе не выходит *)
						утв((п # Basic.emptyString) и (п # Basic.invalidString));
						если (п # Basic.emptyString) и
								((п # И) или (п = И) и УтилитыДляПереводаКода.НеАнглийскийИдентификаторSyntaxTree(ч.имя)) то
							Basic.ПечString(w,ч.перекрытаяПроцедураОпредка.имя.п);
							возврат 
						иначе 
							AlertString("Процедура перекрыта, а перевод предка не сделан или совпадает с английским, ищи «поправь»!");
							w.пСтроку8("«поправь»");
							возврат всё всё
			иначе 
				если УтилитыДляПереводаКода.НеАнглийскийИдентификаторSyntaxTree(ч.имя) то
					Identifier(ч.имя); 
					возврат всё всё;
			прецеденты := ПрецедентыПереводов.ДайПрецедентыДляСтроки(ч.имя.И);
			если прецеденты # НУЛЬ то w.пСтроку8(прецеденты^) всё;
		кон ВычислиИНапишиЗаготовкуРусскогоИмени;
		
		
		проц ПишиСимволВСловарьПереводов(ч : SyntaxTree.ОбъявлениеИменованнойСущности);
		нач
			w.пСтроку8('<Scope en="');
			Identifier(ч.имя);
			w.пСтроку8('" ru="');
			ВычислиИНапишиЗаготовкуРусскогоИмени(ч);
			w.пСтроку8('"');
			если Exported(ч) то w.пСтроку8(' ee="1"') всё;
			w.пСтроку8(">");
			w.IncIndent кон ПишиСимволВСловарьПереводов;

		
		проц ДайНовыйРастеняющийНомер(Имя: SyntaxTree.ИдентификаторВ_исходнике) : цел64;
		перем Стр: Scanner.СтрокаИдентификатора; С32 : UCS32.PStringJQ; З: цел64;
		нач
			Basic.GetString(Имя.И,Стр);
			С32 := UCS32.U8vNovJQ(Стр);
			если растеняющиеПриставкиПоИменам.ЕстьЛиКлюч¿(С32^) то
				З := растеняющиеПриставкиПоИменам.Дай(С32^);
				увел(З);
			иначе
				З := 1 всё;
			растеняющиеПриставкиПоИменам.Сунь(С32^, З);
			возврат З;			
		кон ДайНовыйРастеняющийНомер;

		проц ПишиСимволВПереименованияДубликатов(ч : SyntaxTree.ОбъявлениеИменованнойСущности);
		перем И, п: Basic.String;
		нач
			w.пСтроку8("<Scope ");
			если ~ч.затеняетЛиОдноимённыйВышестоящий то
				w.пСтроку8('imja="');
				Identifier(ч.имя);
				w.пСтроку8('"');
			иначе
				w.пСтроку8('iz="');
				Identifier(ч.имя);
				w.пСтроку8('" v="');
				w.пСтроку8("l"); 
				w.пЦел64(ДайНовыйРастеняющийНомер(ч.имя),0);
				Identifier(ч.имя);
				просейТип ч:
				| SyntaxTree.ОбъявлениеПроцедуры делай
					(* вряд ли есть смысл в проверке на затенение и перекрытие, но 
						пусть будет *)
					если (ч.перекрытаяПроцедураОпредка # НУЛЬ) и (ч.перекрытаяПроцедураОпредка # ч) то
						И := ч.перекрытаяПроцедураОпредка.имя.И;
						п := ч.перекрытаяПроцедураОпредка.имя.п;
						утв((п # Basic.emptyString) и (п # Basic.invalidString));
						если ~(п # Basic.emptyString) и
								((п # И) или (п = И) и УтилитыДляПереводаКода.НеАнглийскийИдентификаторSyntaxTree(ч.имя)) то
							AlertString("Процедура перекрыта и есть проблемы с затенением, ищи «поправь»!");
							w.пСтроку8(" «поправь»") всё всё
				иначе всё;
				w.пСтроку8('"')
			всё; 
				(** Стоит знать, что мы переименовываем экспортируемую сущность *)
				если Exported(ч) то w.пСтроку8(' ee="1"') всё;
			w.пСтроку8(">");
			w.IncIndent;
			кон ПишиСимволВПереименованияДубликатов;

		
		проц PrintSymbol(ч: SyntaxTree.ОбъявлениеИменованнойСущности);
		нач
			если mode = СловарьПереводов то
				ПишиСимволВСловарьПереводов(ч)
			аесли mode = ПереименованияДубликатов то
				ПишиСимволВПереименованияДубликатов(ч) 
			иначе
				СТОП(3462) всё кон PrintSymbol;
		
		
		проц PrintProcedure(x: SyntaxTree.ОбъявлениеПроцедуры);
		нач
			PrintSymbol(x);
		кон PrintProcedure;
		
		
		проц PrintEndSymbol(x: SyntaxTree.ОбъявлениеИменованнойСущности);
		нач
			если x.затеняетЛиОдноимённыйВышестоящий и (mode # ПереименованияДубликатов) то
				AlertString("Затенение одноимённого вышестоящего - словарь не годен. Ищи в документации процесс растенения"); 
				СТОП(305) всё;
			w.пСтроку8('</Scope>');
			w.DecIndent;
			(* w.Ln; *)
		кон PrintEndSymbol;

		проц {перекрыта}ПосетиОбъявлениеТипаˉнаименования*(x: SyntaxTree.ОбъявлениеТипаˉнаименования);
		нач
			если Visible(x) и (~ заготовкиПереводаТолькоДляИнтерфейса или Exported(x)) то
				если (x.праваДоступа # SyntaxTree.Скрытый) то
					PrintSymbol(x);
					если x.праваДоступа # SyntaxTree.Скрытый то
						Type(x.выражениеˉтип);
					всё;
					PrintEndSymbol(x);
				всё;
			всё;
		кон ПосетиОбъявлениеТипаˉнаименования;

		проц TypeDeclarationList(x: SyntaxTree.ОбъявлениеТипаˉнаименования);
		нач
			нцПока(x # НУЛЬ) делай
				Indent('ё');
				Symbol(x);
				x := x.следщОТН;
			кц;
		кон TypeDeclarationList;

		проц {перекрыта}ПосетиОбъявлениеКонстанты*(x: SyntaxTree.ОбъявлениеКонстанты);
		нач
			если Visible(x) и (~ заготовкиПереводаТолькоДляИнтерфейса или Exported(x)) то
				если x.праваДоступа # SyntaxTree.Скрытый то
					PrintSymbol(x);
					если x.выражениеˉзначение # НУЛЬ то
						Expression(x.выражениеˉзначение)	всё;
					PrintEndSymbol(x) всё всё;
		кон ПосетиОбъявлениеКонстанты;

		проц ConstantList(x: SyntaxTree.ОбъявлениеКонстанты);
		нач
			Indent('ё');  
			нцПока(x # НУЛЬ) делай
				если (x.праваДоступа # SyntaxTree.Скрытый) то
					Indent('й');
					Symbol(x);
				всё;
				x := x.следщОК;
			кц;
		кон ConstantList;

		проц {перекрыта}ПосетиОбъявлениеПеременной*(x: SyntaxTree.ОбъявлениеПеременной);
		нач
			если Visible(x) и (~ заготовкиПереводаТолькоДляИнтерфейса или Exported(x)) то
				если (x.праваДоступа # SyntaxTree.Скрытый) то
					PrintSymbol(x);
					если x.инициализатор # НУЛЬ то
						Expression (x.инициализатор);
					всё;
					Type(x.Тип);
					PrintEndSymbol(x);
					всё;
				всё;
		кон ПосетиОбъявлениеПеременной;

		проц VariableList(x: SyntaxTree.ОбъявлениеПеременной);
		перем next: SyntaxTree.ОбъявлениеПеременной;

			проц Flags(l0x: SyntaxTree.ОбъявлениеПеременной);
			перем first: булево;
			нач
				first := истина;
				если l0x.fixed то
					Value(Global.NameFixed,l0x.выравнивание,first)
				аесли l0x.выравнивание > 1 то
					Value(Global.NameAligned,l0x.выравнивание,first)
				аесли l0x.поСмещениюЛи¿ то
					Value(Global.NameFictive, l0x.СмещениеДляПоляПоСмещению, first);
				всё;
				если l0x.неОтслУборщикомЛи¿ то
					Flag(Global.NameUntraced,first)
				всё;
				FlagEnd(first);
			кон Flags;

		нач
			нцПока(x # НУЛЬ) делай
				next := x.следщОП;
				если (x.праваДоступа # SyntaxTree.Скрытый) и ( ~ заготовкиПереводаТолькоДляИнтерфейса или Exported(x)) то 
					Indent('ч');
					PrintSymbol(x); 
						Flags(x);
					если x.инициализатор # НУЛЬ то
							Expression (x.инициализатор) всё;
					если x.праваДоступа # SyntaxTree.Скрытый то
							Type(x.Тип) всё;
					PrintEndSymbol(x) всё;
				x := next;
			кц;
		кон VariableList;

		проц AliasList(x: SyntaxTree.ОбъявлениеAlias);
		нач
			(* видимо, это ALIAS OF, его нету в исходниках A2 *)	
		кон AliasList;

		проц {перекрыта}ПосетиОбъявлениеПараметра*(x: SyntaxTree.ОбъявлениеПараметра);
		нач
			если (x.праваДоступа # SyntaxTree.Скрытый) то
				PrintSymbol(x);
				если x.модификаторы # НУЛЬ то Modifiers(x.модификаторы); всё;
				если x.значениеПоУмолчанию # НУЛЬ то
					Expression(x.значениеПоУмолчанию);
				всё;
				Type(x.Тип);
			всё;
			PrintEndSymbol(x);
		кон ПосетиОбъявлениеПараметра;

		проц ParameterList*(x: SyntaxTree.ОбъявлениеПараметра);
		перем next: SyntaxTree.ОбъявлениеПараметра; 

			проц Flags(l1x: SyntaxTree.ОбъявлениеПараметра);
			нач
				если l1x.модификаторы # НУЛЬ то
					Modifiers(l1x.модификаторы)
				всё;
			кон Flags;

		нач
			нцПока(x # НУЛЬ) делай
				next := x.следщОП;
				если (x.праваДоступа # SyntaxTree.Скрытый) то
					Indent('щ');
					PrintSymbol(x); 
						Flags(x);
					если x.значениеПоУмолчанию # НУЛЬ то
							Expression(x.значениеПоУмолчанию) всё;
					если x.праваДоступа # SyntaxTree.Скрытый то
							Type(x.Тип) всё;
					PrintEndSymbol(x) всё;
				x := next;
			кц;
		кон ParameterList;

		(* PROCEDURE Access(access: SET);
		BEGIN
			IF SyntaxTree.PublicWrite IN access THEN w.String(" PublicWrite") END;
			IF SyntaxTree.ProtectedWrite IN access THEN w.String(" ProtectedWrite") END;
			IF SyntaxTree.InternalWrite IN access THEN w.String(" InternalWrite") END;
			IF SyntaxTree.PublicRead IN access THEN w.String(" PublicRead") END;
			IF SyntaxTree.ProtectedRead IN access THEN w.String(" ProtectedRead") END;
			IF SyntaxTree.InternalRead IN access THEN w.String(" InternalRead") END;
		END Access; *)

		проц {перекрыта}ПосетиОбъявлениеПроцедуры*(x: SyntaxTree.ОбъявлениеПроцедуры);
		перем type: SyntaxTree.ВыражˉтипИзРодаПроцедур; 
		нач
			если Visible(x) и (~ заготовкиПереводаТолькоДляИнтерфейса или Exported(x)) то

				type := x.Тип(SyntaxTree.ВыражˉтипИзРодаПроцедур);

				(* Сами параметры лежат в области определения процедуры, но если выражения
					для них породят что-то новое, то оно лежит где? *)
				если (type.параметрˉсам # НУЛЬ) и ~(type.параметрˉсам.имя.И = "@Self") то
					ParameterList(type.параметрˉсам);
				всё;

				PrintProcedure(x);
				если (type.первыйПараметр # НУЛЬ)  или (type.типВозврата # НУЛЬ ) то  (* print parentheses only if not parameterless procedure *)
					ParameterList(type.первыйПараметр);
				всё;
				если type.типВозврата # НУЛЬ то
					(* Если вдруг здесь будет определено что-то новое, то оно находится ли
						в области видимости процедуры? Вряд ли *)
					Type(type.типВозврата);
				всё;
				если x.имяОтКомпоновщика = НУЛЬ то
					ProcedureScope(x.внутренняяОбластьВидимости);
				всё;
				PrintEndSymbol(x);
			всё;
		кон ПосетиОбъявлениеПроцедуры;

		проц {перекрыта}ПосетиОбъявлениеОперации*(x: SyntaxTree.ОбъявлениеОперации);
		перем type: SyntaxTree.ВыражˉтипИзРодаПроцедур;
			first: булево;
		нач
			если Visible(x) и (~ заготовкиПереводаТолькоДляИнтерфейса или Exported(x)) то
				Indent('ъ');
				first := истина;

				type := x.Тип(SyntaxTree.ВыражˉтипИзРодаПроцедур);
				PrintSymbol(x);
				ParameterList(type.первыйПараметр);
				если type.типВозврата # НУЛЬ то
					Type(type.типВозврата);
				всё;

				если x.имяОтКомпоновщика = НУЛЬ то
					ProcedureScope(x.внутренняяОбластьВидимости);
				всё;
				PrintEndSymbol(x);
			всё
		кон ПосетиОбъявлениеОперации;

		проц ProcedureList(list: SyntaxTree.СписокОбъявленийПроцедур);
		перем x: SyntaxTree.ОбъявлениеПроцедуры; i: размерМЗ; type: SyntaxTree.ВыражˉтипИзРодаПроцедур;
		нач
			нцДля i := 0 до list.Длина()-1 делай
				x := list.ДайПоИндексу(i);
				если (x.праваДоступа # SyntaxTree.Скрытый) и ~(x.процедураˉтелоЛи¿)
				то
					type := x.Тип(SyntaxTree.ВыражˉтипИзРодаПроцедур);
					если (type.параметрˉсам = НУЛЬ) или (type.параметрˉсам.имя.И = "@Self") и (currentScope суть SyntaxTree.ВнутренняяОбластьВидимостиТипаИзРодаЗаписей)
						или ~ (type.параметрˉсам.имя.И = "@Self") и ~(currentScope суть SyntaxTree.ВнутренняяОбластьВидимостиТипаИзРодаЗаписей)
					то
						Symbol(x);
					всё;
				всё;
				если (i# list.Длина()-1) и (x.праваДоступа # SyntaxTree.Скрытый) то w.пВК_ПС всё;
			кц;
		кон ProcedureList;

		проц {перекрыта}ПосетиОбъявлениеИспользованияМодуля*(x: SyntaxTree.ОбъявлениеИмпортаМодуля);
		перем context: SyntaxTree.ИдентификаторВ_исходнике; 
		нач
			если x.имяМодуля.И # x.имя.И то
				Indent;
				w.пСтроку8("<!--ModuleImport ");
				Identifier(x.имя);  w.пСтроку8( " := " );
				Identifier(x.имяМодуля); 
				w.пСтроку8("-->") всё;
			если (x.областьВидимостиГдеОбъявлено = НУЛЬ) или (x.областьВидимостиГдеОбъявлено.модульˉвладелец = НУЛЬ) то 
				context := SyntaxTree.образцовыйНеверныйИдентификатор 
			иначе 
				context := x.областьВидимостиГдеОбъявлено.модульˉвладелец.контекстA2 всё;
			(* Здесь были параметры для параметризованного модуля *)
			(* Здесь был контекст *)
		кон ПосетиОбъявлениеИспользованияМодуля;

		проц ImportList(x: SyntaxTree.ОбъявлениеИмпортаМодуля);
		нач
			нцПока(x # НУЛЬ) делай
				Symbol(x);
				x := x.следщОИМ;
			кц;
		кон ImportList;

		проц {перекрыта}ПосетиОбъявлениеВстроеннойПроцедуры*(x: SyntaxTree.ОбъявлениеВстроеннойПроцедуры);
		нач
			Identifier(x.имя);
		кон ПосетиОбъявлениеВстроеннойПроцедуры;

		проц BuiltinList(x: SyntaxTree.ОбъявлениеВстроеннойПроцедуры);
		нач
			нцПока(x # НУЛЬ) делай
				ПосетиОбъявлениеВстроеннойПроцедуры(x);
				x := x.следщОВП;
			кц;
		кон BuiltinList;

		проц BeginComment;
		нач
			w.BeginComment; w.пСтроку8("(*");
		кон BeginComment;

		проц EndComment;
		нач
			w.пСтроку8("*)");w.EndComment
		кон EndComment;

		(*** scopes ****)

		проц Scope*(x: SyntaxTree.ВнутренняяОбластьВидимости);
		перем prevScope: SyntaxTree.ВнутренняяОбластьВидимости;
		нач
			prevScope := currentScope;
			currentScope := x;
			(* ASSERT(currentScope.outerScope = prevScope); (* sanity check *) *)
			просейТип x: SyntaxTree.ВнутренняяОбластьВидимостиТипаИзРодаАктивныхЯчеек делай
				если x.первыйИмпорт # НУЛЬ то ImportList(x.первыйИмпорт) всё;
			иначе
			всё;
			если x.первоеОбъявлениеКонстанты # НУЛЬ то ConstantList(x.первоеОбъявлениеКонстанты); всё;
			если x.первоеОбъявлениеТипаˉнаименования # НУЛЬ то TypeDeclarationList(x.первоеОбъявлениеТипаˉнаименования); всё;
			если x.первоеОбъявлениеПеременной # НУЛЬ то VariableList(x.первоеОбъявлениеПеременной);  всё;
			если x.первыйAlias # НУЛЬ то AliasList(x.первыйAlias) всё;
			если x.другойСписокПроцедур # НУЛЬ то w.пВК_ПС; ProcedureList(x.другойСписокПроцедур) всё;
			currentScope := prevScope;
		кон Scope;

		проц ProcedureScope(x: SyntaxTree.ВнутренняяОбластьВидимостиПроцедуры);
		перем prevScope: SyntaxTree.ВнутренняяОбластьВидимости;
		нач
			prevScope := currentScope;
			currentScope := x;
			Scope(x);
			если x.Тело # НУЛЬ то Body(x.Тело) всё;
			currentScope := prevScope;
		кон ProcedureScope;

		проц Statement*(x: SyntaxTree.Предписание);
		нач
			если x = НУЛЬ то
				AlertString("nil statement")
			иначе
				если DebugPosition то трассируй(x.начВ_тексте.start, x.начВ_тексте.end, x.конВ_тексте.start, x.конВ_тексте.end) всё;
				ПосетиУзелИзСемьиПредписания(x);
			всё
		кон Statement;

		проц StatementSequence*(x: SyntaxTree.ПоследовательностьПредписаний);
		перем statement: SyntaxTree.Предписание;  i: размерМЗ;
		нач
			если singleStatement то
				w.пСтроку8("...")
			иначе
				нцДля i := 0 до x.Длина() - 1 делай
					statement := x.ДайПредписание( i );
					Statement(statement);
				кц;
			всё;
		кон StatementSequence;

		проц {перекрыта}ПосетиПредписание*(x: SyntaxTree.Предписание);
		нач
			AlertString("InvalidStatement");
		кон ПосетиПредписание;

		проц {перекрыта}ПосетиПредписаниеВызватьПроцедуру*(x: SyntaxTree.ПредписаниеВызватьПроцедуру);
		нач
			Expression(x.узелВызова);
		кон ПосетиПредписаниеВызватьПроцедуру;

		проц {перекрыта}ПосетиПредписаниеПрисвоитьЗначение*(x: SyntaxTree.ПредписаниеПрисвоитьЗначение);
		нач
			Expression(x.куда); Expression(x.что);
		кон ПосетиПредписаниеПрисвоитьЗначение;

		проц {перекрыта}ПосетиПредписаниеВвестиˉВывестиЧерезПорт*(x: SyntaxTree.ПредписаниеВвестиˉВывестиЧерезПорт);
		нач
			Expression(x.левыйОперанд);
			Expression(x.правыйОперанд);
		кон ПосетиПредписаниеВвестиˉВывестиЧерезПорт;

		проц IfPart(x: SyntaxTree.ВеткаПредписания«если»);
		нач
			если DebugPosition то трассируй(x.начВ_тексте.start, x.начВ_тексте.end, x.конВ_тексте.start, x.конВ_тексте.end) всё;
			Expression(x.условие);
			StatementSequence(x.действия);
		кон IfPart;

		проц {перекрыта}ПосетиПредписание«если»*(x: SyntaxTree.Предписание«если»);
		перем i: размерМЗ;  elsif: SyntaxTree.ВеткаПредписания«если»;
		нач
			IfPart(x.веткаЕсли);
			нцДля i := 0 до x.ElsifParts() - 1 делай
				elsif := x.ДайВеткуАесли( i );
				IfPart(elsif);
			кц;
			если x.веткаИначе # НУЛЬ то
				StatementSequence(x.веткаИначе);
			всё;
		кон ПосетиПредписание«если»;

		проц WithPart(x: SyntaxTree.ВеткаПредписания«просейТип»);
		нач
			Type(x.условие);
			StatementSequence(x.statements);
		кон WithPart;

		проц {перекрыта}ПосетиВеткуПредписания«просейТип»*(x: SyntaxTree.Предписание«просейТип»);
		перем i: размерМЗ;
		нач
			Expression(x.чтоПросеиваем);
			WithPart(x.ДайВетку(0));
			нцДля i := 1 до x.ДайВеткиДляТипов()-1 делай
				WithPart(x.ДайВетку(i));
			кц;
			если x.веткаИначе # НУЛЬ то
				StatementSequence(x.веткаИначе);
			всё;
		кон ПосетиВеткуПредписания«просейТип»;

		проц CasePart(x: SyntaxTree.ВеткаПредписания«просей»);
		нач
			ExpressionList(x.составУсловия);
			StatementSequence(x.действия);
		кон CasePart;

		проц {перекрыта}ПосетиПредписание«просей»*(x: SyntaxTree.Предписание«просей»);
		перем i: размерМЗ;  case: SyntaxTree.ВеткаПредписания«просей»;
		нач
			Expression(x.чтоПросеиваем);
			нцДля i := 0 до x.ДайВеткиУсловий() - 1 делай
				case := x.ДайВетку( i );
				CasePart(case);
			кц;
			если x.ветка«Иначе» # НУЛЬ то
				StatementSequence(x.ветка«Иначе»);
			всё;
			Indent('Ё');
		кон ПосетиПредписание«просей»;

		проц {перекрыта}ПосетиПредписание«циклПока»*(x: SyntaxTree.Предписание«циклПока»);
		нач
			Expression(x.условие);
			StatementSequence(x.действия);
		кон ПосетиПредписание«циклПока»;

		проц {перекрыта}ПосетиПредписание«циклДо»*(x: SyntaxTree.Предписание«циклДо»);
		нач
			StatementSequence(x.действия);
			Expression(x.условие);
		кон ПосетиПредписание«циклДо»;

		проц {перекрыта}ПосетиПредписание«циклДля»*(x: SyntaxTree.Предписание«циклДля»);
		нач
			Expression(x.Счётчик);
			Expression(x.От);
			Expression(x.До);
			если x.Шаг # НУЛЬ то
				Expression(x.Шаг);
			всё;
			StatementSequence(x.Действия);
			Indent('Й');
		кон ПосетиПредписание«циклДля»;

		проц {перекрыта}ПосетиПредписание«цикл»*(x: SyntaxTree.Предписание«цикл»);
		нач
			StatementSequence(x.Действия);
		кон ПосетиПредписание«цикл»;

		проц {перекрыта}ПосетиПредписаниеExitableBlock*(x: SyntaxTree.ПредписаниеExitableBlock);
		нач
			w.IncIndent;  
			StatementSequence(x.Действия); 
			w.DecIndent;
		кон ПосетиПредписаниеExitableBlock;

		проц {перекрыта}ПосетиПредписание«прервиЦикл»*(x: SyntaxTree.Предписание«прервиЦикл»);
		нач
		кон ПосетиПредписание«прервиЦикл»;

		проц {перекрыта}ПосетиПредписание«возврат»*(x: SyntaxTree.Предписание«возврат»);
		нач
			если x.возвращаемоеЗначение # НУЛЬ то Expression(x.возвращаемоеЗначение) всё
		кон ПосетиПредписание«возврат»;

		проц {перекрыта}ПосетиПредписание«дождись»*(x: SyntaxTree.Предписание«дождись»);
		нач
			Expression(x.условие);
		кон ПосетиПредписание«дождись»;

		проц Modifiers(x: SyntaxTree.Модификатор);
		перем (* name: Scanner.СтрокаИдентификатора; *) first: булево; savОбрабатываемModifier : булево;
		нач
			first := истина;
			нцПока x # НУЛЬ делай
				(* Indent; w.String("<!-- Modifier ");
				Basic.GetString(x.identifier.И,name);
				w.String(name);
				w.String("-->"); w.Ln; *)
				если x.выражение # НУЛЬ то
					savОбрабатываемModifier := обрабатываемModifier;
					обрабатываемModifier := истина;
					Expression(x.выражение);
					обрабатываемModifier := savОбрабатываемModifier;
				всё;
				x := x.следщМодификатор;
			кц;
		кон Modifiers;
		проц {перекрыта}ПосетиПредписание«тело»без«выходя»*(x: SyntaxTree.Предписание«тело»без«выходя»);
		нач
			Modifiers(x.модификаторы);
			если x.действия # НУЛЬ то StatementSequence(x.действия);  всё;
			Indent('Щ'); 
		кон ПосетиПредписание«тело»без«выходя»;
		
		(* В коде могут встретиться новые слова, наверное. Но мы пока это игнорируем *)
		проц Code(x: SyntaxTree.Предписание«машКод»);
		(* VAR  i: SIGNED32; ch: CHAR; cr: BOOLEAN; procedure: SyntaxTree.Procedure; procedureType: SyntaxTree.ProcedureType;
		CONST CR=0DX; *)
		нач
			(* IF (currentScope # NIL) & (currentScope IS SyntaxTree.ProcedureScope) THEN
				procedure := currentScope(SyntaxTree.ProcedureScope).ownerProcedure;
				procedureType := procedure.type(SyntaxTree.ProcedureType);
			END;
			IF (mode >= SourceCode) OR (procedure = NIL) OR (procedure.access * SyntaxTree.Public # {}) & (procedure.isInline OR procedure.isOberonInline) THEN
				(*
				IF x.inlineCode # NIL THEN
					unit := 8;
					w.String(" D"); w.Int(unit,1);
					i := 0; size := x.inlineCode.GetSize();
					WHILE i < size DO
						value := x.inlineCode.GetBits(i,unit);
						w.String(" "); w.Int(value,1);
						INC(i,unit);
					END;
				ELS*)
				IF (x.sourceCode # NIL) THEN
					i := 0;
					ch := x.sourceCode[0];
					WHILE (ch # 0X) DO
						IF ch = CR THEN
							cr := TRUE;
						ELSE
							IF cr THEN Indent; cr := FALSE END;
							w.Char(ch);
						END;
						INC(i); ch := x.sourceCode[i];
					END;
				END;
				(*
				IF x.inlineCode # NIL THEN
					w.String("; ");
					size := x.inlineCode.GetSize() DIV 8;
					FOR i := 0 TO size-1 DO
						value := x.inlineCode.GetBits(i*8,8);
						w.Hex(value,-2); w.String(" ");
					END;
				END;
				*)
			END; *)
		кон Code;

		проц {перекрыта}ПосетиПредписание«машКод»*(x: SyntaxTree.Предписание«машКод»);
		нач
			Code(x);
		кон ПосетиПредписание«машКод»;

		проц Body(x: SyntaxTree.Предписание«тело»);
		нач
			если x.МашКод # НУЛЬ то
				Indent('П'); 
					Code(x.МашКод);
			иначе
				Modifiers(x.модификаторы);
					если x.действия # НУЛЬ то
						StatementSequence(x.действия);
					всё;
					если x.действияЧасти«выходя» # НУЛЬ то
						StatementSequence(x.действияЧасти«выходя»);
					всё;
				всё;
			(* "END" written by caller *)
		кон Body;

		проц {перекрыта}ПосетиДеревоМодуля*(x: SyntaxTree.ДеревоМодуля);
		нач Module(x)
		кон ПосетиДеревоМодуля;

		(* Мы не поддерживаем шаблоны *)
		проц TemplateParameter(x: SyntaxTree.TemplateParameter);
		нач
			СТОП(200)
		кон TemplateParameter;


		проц Module*(x: SyntaxTree.ДеревоМодуля);
		перем i: размерМЗ;
		нач
			currentModule := x;

			если x = НУЛЬ то
				AlertString("(* no module *)");
				возврат всё;
			currentScope := x.внутренняяОбластьВидимостиМодуля.охватывающаяОбластьВидимости;
			
			если mode = ПереименованияДубликатов то
				w.пСтроку8('<Module imja="');
				Identifier(x.имя);
				w.пСтроку8('">');
			иначе
				w.пСтроку8('<Module en="');
				Identifier(x.имя);
				w.пСтроку8('" ru="');
				ВычислиИНапишиЗаготовкуРусскогоИмени(x);
				w.пСтроку8('" rx="1" dyn="1">');
				если x.параметрыШаблона # НУЛЬ то
					нцДля i := 0 до x.параметрыШаблона.Length()-1 делай
						TemplateParameter(x.параметрыШаблона.Дай(i));
					кц;
				всё;
				если (x.контекстA2.И # SyntaxTree.образцовыйНеверныйИдентификатор.И) и (x.контекстA2.И#Global.A2Name.И) то
					Identifier(x.контекстA2)
				всё;

				если (x.Тип суть SyntaxTree.ВыражˉтипИзРодаАктивныхЯчеек) и (x.Тип(SyntaxTree.ВыражˉтипИзРодаАктивныхЯчеек).первыйПараметр # НУЛЬ) то (* for actors *)
					ParameterList(x.Тип(SyntaxTree.ВыражˉтипИзРодаАктивныхЯчеек).первыйПараметр);
				всё всё;

				w.IncIndent;
				если x.внутренняяОбластьВидимостиМодуля.первыйИмпорт # НУЛЬ то
					ImportList(x.внутренняяОбластьВидимостиМодуля.первыйИмпорт)
				всё;
				Scope(x.внутренняяОбластьВидимостиМодуля);
				если x.внутренняяОбластьВидимостиМодуля.первоеОбъявлениеВстроеннойПроцедуры # НУЛЬ то
					BuiltinList(x.внутренняяОбластьВидимостиМодуля.первоеОбъявлениеВстроеннойПроцедуры)
				всё;

				если (x.внутренняяОбластьВидимостиМодуля.процедураˉтело # НУЛЬ) и (x.внутренняяОбластьВидимостиМодуля.процедураˉтело.внутренняяОбластьВидимости.Тело # НУЛЬ) то
				Body(x.внутренняяОбластьВидимостиМодуля.процедураˉтело.внутренняяОбластьВидимости.Тело)
				всё;
				w.DecIndent;
				Indent; 
				w.пСтроку8("</Module>");
				w.ПротолкниБуферВПоток;
		кон Module;



		проц SingleStatement*(b: булево);
		нач singleStatement := b
		кон SingleStatement;

		проц &Init*(l2w: Потоки.Писарь; l3mode: цел32; 	вхЗаготовкиПереводаТолькоДляИнтерфейса: булево; l4info: булево; l5printCase: Scanner.ВариантыПеревода);
		нач
			сам.w := Basic.GetWriter(l2w);
			сам.mode := l3mode; нов(ws,128); сам.info := l4info;
			сам.printCase := l5printCase;
			commentCount := 0; alertCount := 0; singleStatement := ложь;
			заготовкиПереводаТолькоДляИнтерфейса := вхЗаготовкиПереводаТолькоДляИнтерфейса;
			нов(сам.растеняющиеПриставкиПоИменам,50);
		кон Init;

	кон Printer;

(* debugging helper *)
перем
	debug: Printer;

	проц NewPrinter*(w: Потоки.Писарь; mode: цел32; вхЗаготовкиПереводаТолькоДляИнтерфейса: булево; info: булево; printCase : Scanner.ВариантыПеревода): Printer;
	перем p: Printer;
	нач
		нов(p,w,mode,вхЗаготовкиПереводаТолькоДляИнтерфейса,info,printCase); возврат p
	кон NewPrinter;

	проц Info*(конст info: массив из симв8; a: динамическиТипизированныйУкль);
	перем symbol: SyntaxTree.ОбъявлениеИменованнойСущности; scope: SyntaxTree.ВнутренняяОбластьВидимости;
	нач
		debug.w := Basic.GetWriter(D.Log);
		D.Ln;
		D.Str(" --------> ");
		D.Str(info);
		D.Str(" ");
		D.Hex(НИЗКОУР.подмениТипЗначения(адресВПамяти,a),8);
		D.Str(" : ");

		если a = НУЛЬ то
			D.Str("NIL");
		аесли a суть SyntaxTree.Выражениеˉзначение то
			debug.Expression(a(SyntaxTree.Выражениеˉзначение));
			Info("with type",a(SyntaxTree.Выражениеˉзначение).типОсмысленный);
		аесли a суть SyntaxTree.Выражениеˉтип то
			если a суть SyntaxTree.ВыражˉтипИзРодаТиповˉНаименований то
				D.Str("[QualifiedType] ");
			всё;
			debug.Type(a(SyntaxTree.Выражениеˉтип))
		аесли a суть SyntaxTree.ОбъявлениеИменованнойСущности то
			debug.Symbol(a(SyntaxTree.ОбъявлениеИменованнойСущности))
		аесли a суть SyntaxTree.Предписание то
			debug.Statement(a(SyntaxTree.Предписание))
		аесли a суть SyntaxTree.ПоследовательностьПредписаний то
			debug.StatementSequence(a(SyntaxTree.ПоследовательностьПредписаний));
		аесли a суть SyntaxTree.ВнутренняяОбластьВидимости то
			scope := a(SyntaxTree.ВнутренняяОбластьВидимости);
			нцПока(scope # НУЛЬ) делай
				D.Ln; D.Str("      ");
				если scope суть SyntaxTree.ВнутренняяОбластьВидимостиМодуля то D.Str("ModuleScope: ")
				аесли scope суть SyntaxTree.ВнутренняяОбластьВидимостиПроцедуры то D.Str("ProcedureScope: ");
				аесли scope суть SyntaxTree.ВнутренняяОбластьВидимостиТипаИзРодаЗаписей то D.Str("RecordScope: ");
				иначе D.Str("Scope: ");
				всё;
				symbol := scope.первоеОбъявление;
				нцПока(symbol # НУЛЬ) делай
					debug.Identifier(symbol.имя); D.Str(" ");
					symbol := symbol.следщОИС;
				кц;
				scope := scope.охватывающаяОбластьВидимости;
			кц;
		(*
		ELSIF a IS SyntaxTree.Identifier THEN
			debug.Identifier(a(SyntaxTree.Identifier));
		*)
		аесли a суть SyntaxTree.СоставнойИдентификаторВ_исходнике то
			debug.QualifiedIdentifier(a(SyntaxTree.СоставнойИдентификаторВ_исходнике));
		аесли a суть SyntaxTree.ДеревоМодуля то
			debug.Module(a(SyntaxTree.ДеревоМодуля))
		иначе
			debug.w.пСтроку8("unknown");
		всё;
		D.Update();
	кон Info;

	проц Init;
	нач
		нов(debug,D.Log,СловарьПереводов,истина, истина, Scanner.ВариантыПеревода.Uppercase);
	кон Init;

нач
	Init;
кон FoxГенЗагСлов.

