(* Aos, Copyright 2001, Pieter Muller, ETH Zurich *)

модуль FSTools; (** AUTHOR "be"; PURPOSE "Files Tools"; *)
(**
 * Usage:
 *
 *	FSTools.Mount prefix alias [volpar] ["|" fspar] ~		Mount the specified volume.
 *	FSTools.Unmount prefix [\f] ~							Unmount the specified volume. Use /f to force unmounting.
 *
 *	FSTools.SetDefault prefix ~							Set the specified volume as default volume.
 *	FSTools.Watch ~										Diplays a list of all mounted file systems
 *
 *	FSTools.CopyFiles [-ioq] {sourcefile " => " destfile} ~	Copy the specified files to
 *	FSTools.RenameFiles [-i] {oldname " => " newname} ~	Rename files
 *	FSTools.DeleteFiles [-i] {file} ~						Delete the specified files
 * 	FSTools.Directory [-ts] ~								Show Directory (t: show creation times, s: show file sizes)
 *
 *	FSTools.Safe ~ 										disallow pattern matching
 *	FSTools.Unsafe ~ 										allow pattern matching
 *
 *	Options i, o and q:
 *
 *	i: 	ignore errors, e.g. continue with deletion of files if a file could not be deleted
 *	o:	force overwriting existing files
 *	q:	quiet mode
 *
 * Examples:
 *
 *	FSTools.Mount FAT FatFS IDE0#4~
 * 	FSTools.Unmount FAT~
 *
 *	FSTools.CopyFiles AOS:Configuration.XML => FAT:Configuration.XML AOS:Test.Mod => FAT:Test.Mod ~
 *	FSTools.RenameFiles Configuration.XML => Configuration.Bak ~
 *	FSTools.DeleteFiles Test.Mod Bimbo.Mod ~
 *	FSTools.Directory -s ~
 *
 * Pattern matching:
 *
 *	Supported by: CopyFiles, RenameFiles, DeleteFiles and Directory
 *
 *	WARNING: If no prefix is specified, the source mask if checked against all files on all mounted volumes, i.e. the command
 *				FSTools.DeleteFiles * ~ would DELETE ALL FILES ON ALL MOUNTED partitions.
 *
 *	The source mask may contain an arbitrary number of '*' (matches any string) and '?' (matches any character) characters.
 *	For operations that have a target, the target mask semantics is the following:
 *
 *		- '?' characters are not allowed in the target mask
 *		- '*' characters are not allowed in the prefix and path
 *		- every occurence of the character '*' is replaced by ...
 *				... the source file name if there is no '.' character on the left side of the '*' character
 *				... the source file extension if there is at least one '.' character on the left side of the '*' character
 *
 *	Notes:
 *		- Files treats the right-most '.*' as file extension, e.g. the file extension of 'AosBimbo.Test.00.Bak.Mod' is '.Mod'
 *
 *)

использует Modules, Commands, Options, Потоки, Files, Configuration, Dates, Strings, UCS32;

конст
	MaxNameLen* = 512; (* Maximum file name length including path and 0X-termination *)
	(* В случае изменения этой константы ищи везде слово FSToolsMaxNameLen *)

	InitialFilelistSize = 1024;

	(* Layout for Directory operation *)
	Column1 = 30;
	FormatDateTime = "dd.mm.yyyy hh:nn:ss";

	Error = -1;

	CR = 0DX;  LF = 0AX;

тип
	String = Strings.String;

	EnumProc = проц(context : Commands.Context);

перем
	unsafeMode : булево;

проц ExpandAlias(конст alias : массив из симв8; перем genvol, genfs: массив из симв8);
перем t: массив 64 из симв8; i, j: цел32; res: целМЗ;
нач
	genvol[0] := 0X; genfs[0] := 0X;
	t := "Files.Alias.";
	i := 0; нцПока t[i] # 0X делай увел(i) кц;
	j := 0; нцПока alias[j] # 0X делай t[i] := alias[j]; увел(i); увел(j) кц;
	t[i] := 0X;

	Configuration.Get(t, t, res);

	i := 0;
	нцПока (t[i] # 0X) и (t[i] # ";") делай genvol[i] := t[i]; увел(i) кц;
	genvol[i] := 0X;

	если (t[i] = ";") то
		j := 0; увел(i);
		нцПока (t[i] # 0X) делай genfs[j] := t[i]; увел(j); увел(i) кц;
		genfs[j] := 0X
	всё
кон ExpandAlias;

проц GetFileSystemFactory(конст name : массив из симв8; error : Потоки.Писарь) : Files.FileSystemFactory;
перем
	factory : Files.FileSystemFactory;
	moduleName, procedureName : Modules.Name; msg : массив 128 из симв8; res : целМЗ;
нач
	factory := НУЛЬ;
	Commands.Split(name, moduleName, procedureName, res, msg);
	если (res = Commands.Ok) то
		дайПроцПоИмени(moduleName, procedureName, factory);
		если factory = НУЛЬ то
			error.пСтроку8('failed to get file system factory with name "'); error.пСтроку8(name); error.пСтроку8('"!'); error.пВК_ПС;
		всё;
	иначе
		error.пСтроку8(msg); error.пВК_ПС;
	всё;
	возврат factory;
кон GetFileSystemFactory;

проц Mount*(context : Commands.Context); (** prefix alias [volpar] ["|" fspar] ~ *)
перем
	factory : Files.FileSystemFactory;
	parvol, parfs: Files.Parameters; i, res: цел32;
	alias, genvol, genfs : массив 64 из симв8; prefix: Files.Prefix;
нач
	если context.arg.ПропустиБелоеПолеИЧитайЦепочкуСимволов8ДоБелогоПоляИлиВКавычках(prefix) и context.arg.ПропустиБелоеПолеИЧитайЦепочкуСимволов8ДоБелогоПоляИлиВКавычках(alias) то
		ExpandAlias(alias, genvol, genfs);
		если (Files.This(prefix) # НУЛЬ) то
			context.error.пСтроку8(prefix); context.error.пСтроку8("; already used"); context.error.пВК_ПС;
			context.result := Commands.CommandError;
		аесли (genvol = "") или (genfs = "") то
			context.error.пСтроку8(prefix); context.error.пСтроку8(": unknown alias "); context.error.пСтроку8(alias); context.error.пВК_ПС;
			context.result := Commands.CommandError;
		иначе
			если genvol # "NIL" то
				нов(parvol, context.in, context.arg, context.out, context.error, context.caller);
				parvol.vol := НУЛЬ; res := 0;
				копируйСтрокуДо0(prefix, parvol.prefix);
				factory := GetFileSystemFactory(genvol, context.error);
				если (factory # НУЛЬ) то
					factory(parvol);
				всё;
				если (factory = НУЛЬ) или (parvol.vol = НУЛЬ) то res := 1; всё;
			иначе
				i := 0
			всё;
			если (res = Commands.Ok) то
				нов(parfs, context.in, context.arg, context.out, context.error, context.caller);
				если (parvol # НУЛЬ) то parfs.vol := parvol.vol; иначе parfs.vol := НУЛЬ; всё;
				копируйСтрокуДо0(prefix, parfs.prefix);
				factory := GetFileSystemFactory(genfs, context.error);
				если (factory # НУЛЬ) то
					factory(parfs);
					если (Files.This(prefix) = НУЛЬ) то
						res := 1
					иначе
						context.out.пСтроку8(prefix); context.out.пСтроку8(": mounted"); context.out.пВК_ПС;
					всё;
				иначе
					res := 1;
				всё;

				если (res # 0) и (parvol # НУЛЬ) и (parvol.vol # НУЛЬ) то
					parvol.vol.Finalize()	(* unmount volume *)
				всё
			иначе
				context.result := Commands.CommandError;
			всё
		всё;
	иначе
		context.error.пСтроку8('Expected parameters: prefix alias ([volpar] ["|" fspar]'); context.error.пВК_ПС;
		context.result := Commands.CommandParseError;
	всё;
кон Mount;

проц Unmount*(context : Commands.Context); (** prefix[\f] *)
перем prefix: Files.Prefix; fs: Files.FileSystem; i: цел32; force: булево; option : массив 8 из симв8; ch : симв8;
нач
	context.arg.ПропустиБелоеПоле;
	i := 0; ch := context.arg.ПодглядиСимв8();
	нцПока (i < длинаМассива(prefix)-1) и (ch # ":") и (ch # "\") и (ch > " ") и (context.arg.кодВозвратаПоследнейОперации = Потоки.Успех) делай
		context.arg.чСимв8(ch); (* consume ch *)
		prefix[i] := ch;
		увел(i);
		ch := context.arg.ПодглядиСимв8();
	кц;
	prefix[i] := 0X;

	если (ch = ":") то context.arg.чСимв8(ch); (* consume ":" *) всё;

	context.arg.ПропустиБелоеПоле; context.arg.чЦепочкуСимволов8ДоБелогоПоляИлиВКавычках(option);
	force := option = "\F";
	fs := Files.This(prefix);
	если fs # НУЛЬ то
		если (fs.vol = НУЛЬ) или force или ~(Files.Boot в fs.vol.flags) то
			Files.Remove(fs);
			context.out.пСтроку8(prefix); context.out.пСимв8(":");
			context.out.пСтроку8(" unmounted"); context.out.пВК_ПС;
		иначе
			context.error.пСтроку8(prefix); context.error.пСимв8(":");
			context.error.пСтроку8(" can't unmount boot volume. Use \f parameter to force unmounting."); context.error.пВК_ПС;
			context.result := Commands.CommandError;
		всё
	иначе
		context.error.пСтроку8(prefix); context.error.пСимв8(":"); context.error.пСтроку8(" not found"); context.error.пВК_ПС;
		context.result := Commands.CommandError;
	всё
кон Unmount;

проц SetDefault*(context : Commands.Context); (** prefix *)
перем prefix: Files.Prefix; fs: Files.FileSystem; i: размерМЗ; ft: Files.FileSystemTable;
нач
	context.arg.ПропустиБелоеПоле; context.arg.чЦепочкуСимволов8ДоБелогоПоляИлиВКавычках(prefix);
	fs := Files.This(prefix);
	если fs # НУЛЬ то
		Files.Promote(fs);
		Files.GetList(ft);
		если ft # НУЛЬ то
			context.out.пСтроку8("Path: ");
			нцДля i := 0 до длинаМассива(ft)-1 делай
				context.out.пСтроку8(ft[i].prefix);  context.out.пСтроку8(" "); context.out.пВК_ПС;
			кц
		всё
	иначе
		context.error.пСтроку8(prefix);  context.error.пСтроку8(": not found"); context.error.пВК_ПС;
		context.result := Commands.CommandError;
	всё;
кон SetDefault;

(* using the NIST standard for Kibi, Mebi & Gibi: http://physics.nist.gov/cuu/Units/binary.html *)
проц WriteK( k: Files.Size; out : Потоки.Писарь);
перем suffix: массив 3 из симв8;
нач
	если k < 10*1024 то копируйСтрокуДо0("Ki", suffix)
	аесли k < 10*1024*1024 то копируйСтрокуДо0("Mi", suffix); k := k DIV 1024
	иначе копируйСтрокуДо0("Gi", suffix); k := k DIV (1024*1024)
	всё;
	out.пЦел64(k, 1); out.пСтроку8(suffix); out.пСтроку8("B");
кон WriteK;

проц Watch*(context : Commands.Context); (** ~ *)
перем prefix : Files.Prefix; free, total: цел32; i: размерМЗ; fs: Files.FileSystem; ft: Files.FileSystemTable; found : булево;
нач
	prefix := "";
	context.arg.ПропустиБелоеПоле; context.arg.чЦепочкуСимволов8ДоБелогоПоляИлиВКавычках(prefix);
	found := ложь;
	Files.GetList(ft);
	если ft # НУЛЬ то
		нцДля i := 0 до длинаМассива(ft)-1 делай
			fs := ft[i];
			если (prefix = "") или (prefix = fs.prefix) то
				found := истина;
				context.out.пСтроку8(fs.prefix);  context.out.пСтроку8(": "); context.out.пСтроку8(fs.desc);
				если fs.vol # НУЛЬ то
					context.out.пСтроку8(" on "); context.out.пСтроку8(fs.vol.name);
					если Files.ReadOnly в fs.vol.flags то context.out.пСтроку8(" (read-only)") всё;
					если Files.Removable в fs.vol.flags то context.out.пСтроку8(" (removable)") всё;
					если Files.Boot в fs.vol.flags то context.out.пСтроку8(" (boot)") всё;
					context.out.пВК_ПС; context.out.пСтроку8("   ");
					free := округлиВниз(fs.vol.Available()/1024.0D0 * fs.vol.blockSize);
					total := округлиВниз(fs.vol.size/1024.0D0 * fs.vol.blockSize);
					WriteK(free, context.out); context.out.пСтроку8(" of ");
					WriteK(total, context.out); context.out.пСтроку8(" free")
				всё;
				context.out.пВК_ПС
			всё;
		кц;
	всё;
	если ~found то
		если (prefix = "") то
			context.error.пСтроку8("No file systems found.");
		иначе
			context.error.пСтроку8("File system "); context.error.пСтроку8(prefix); context.error.пСтроку8(" not found.");
		всё;
		context.error.пВК_ПС; context.result := Commands.CommandError;
	всё;
кон Watch;

(** File operations *)

(* Simple text formatting (assuming the use of fixed fonts) *)
проц Align(out : Потоки.Писарь; конст string : массив из симв8);
перем spaces, i : размерМЗ;
нач
	spaces := Column1 - Strings.Length(string); если spaces < 0 то spaces := 0; всё;
	нцДля i := 0 до spaces-1 делай out.пСимв8(" "); кц;
кон Align;

проц Directory*(context : Commands.Context); (** [Options] [pattern] *)
перем
	options : Options.Options;
	string, pattern : массив 256 из симв8;
	enum : Files.Enumerator;
	flags, fileflags : мнвоНаБитахМЗ;
	count : размерМЗ;
	time, date : цел32;
	total, size : Files.Size;
	name : массив MaxNameLen из симв8;
	dt : Dates.DateTime;
нач
	нов(options);
	options.Add("s", "size", Options.Flag);
	options.Add("t", "time", Options.Flag);
	если options.Parse(context.arg, context.error) то
		flags := {};
		если options.GetFlag("size") то включиВоМнвоНаБитах(flags, Files.EnumSize); всё;
		если options.GetFlag("time") то включиВоМнвоНаБитах(flags, Files.EnumTime); всё;

		если ~context.arg.ПропустиБелоеПолеИЧитайЦепочкуСимволов8ДоБелогоПоляИлиВКавычках(pattern) то
			pattern := "";
		всё;
		нов(enum); enum.Open(pattern, flags);
		count := 0; total := 0;
		нцПока enum.GetEntry(name, fileflags, time, date, size) делай
			увел(count);
			context.out.пСтроку8(name);

			если Files.EnumSize в flags то
				Align(context.out, name);  context.out.пЦел64(size, 10); context.out.пСимв8("B");
				увел(total, size)
			всё;

			если Files.EnumTime в flags то
				если Files.EnumSize в flags то context.out.пСтроку8("    "); иначе Align(context.out, name); всё;
				dt := Dates.OberonToDateTime(date, time);
				Strings.FormatDateTime(FormatDateTime, dt, string);
				context.out.пСтроку8(string);
			всё;
			context.out.пВК_ПС;
		кц;
		enum.Close;
		если count > 1 то
			context.out.пЦел64(count, 0); context.out.пСтроку8(" files ");
			если Files.EnumSize в flags то
				context.out.пСтроку8("use "); WriteK((total+1023) DIV 1024, context.out);
			всё
		всё;
		context.out.пВК_ПС;
	иначе
		context.result := Commands.CommandParseError;
	всё;
кон Directory;

проц EnumerateDirectory(
	enum : Files.Enumerator;
	enumProc : EnumProc;
	options : Options.Options;
	context : Commands.Context;
	конст filemask : массив из симв8;
	конст arguments : массив из симв8);
перем
	name : Files.FileName;
	flags : мнвоНаБитахМЗ; time, date : цел32;
	size: Files.Size; subDirEnum : Files.Enumerator;

	проц PrepareContext(context : Commands.Context; конст currentFile, arguments : массив из симв8);
	конст PlaceHolder = "<#filename#>";
	перем thisArguments : Strings.String; position : размерМЗ;
	нач
		нов(thisArguments, Strings.Length(arguments) + 1024);
		копируйСтрокуДо0(arguments, thisArguments^);
		(* replace PlaceHolder string  by current file's name *)
		position := Strings.Pos(PlaceHolder, arguments);
		нцПока (position >= 0) делай
			Strings.Delete(thisArguments^, position, Strings.Length(PlaceHolder));
			Strings.Insert(name, thisArguments^, position);
			position := Strings.Pos(PlaceHolder, thisArguments^);
		кц;
		context.arg(Потоки.ЧтецИзСтроки).новЧтецИзСтроки(Strings.Length(thisArguments^));
		context.arg(Потоки.ЧтецИзСтроки).ПримиСтроку8ДляЧтения(thisArguments^);
	кон PrepareContext;

нач
	утв((enum # НУЛЬ) и (enumProc # НУЛЬ) и (options # НУЛЬ) и (context # НУЛЬ));
	нцПока enum.GetEntry(name, flags, time, date, size) делай
		если ~(Files.Directory в flags) и Strings.Match(filemask, name) то
			PrepareContext(context, name, arguments);
			enumProc(context);
			context.out.ПротолкниБуферВПоток;
			context.error.ПротолкниБуферВПоток;
		аесли options.GetFlag("subdirectories") то
			если options.GetFlag("directories") то
				Strings.Append(name, Files.PathDelimiter);
				PrepareContext(context, name, arguments);
				enumProc(context);
				Strings.Append(name, filemask);
			всё;
			нов(subDirEnum);
			subDirEnum.Open(name, {});
			EnumerateDirectory(subDirEnum, enumProc, options, context, filemask, arguments);
			subDirEnum.Close;
		всё;
	кц;
	enum.Close;
кон EnumerateDirectory;

проц Enumerate*(context : Commands.Context); (** [Options] pattern commandProc ~ *)
перем
	options : Options.Options;
	pattern, path,  filemask : Files.FileName;
	commandProcStr, msg : массив 128 из симв8;
	arguments : Strings.String;
	enumProc : EnumProc;
	moduleName, procedureName : Modules.Name;
	enum : Files.Enumerator;
	enumContext : Commands.Context;
	arg : Потоки.ЧтецИзСтроки;
	res : целМЗ;
	ignore: размерМЗ;
нач
	нов(options);
	options.Add("s", "subdirectories", Options.Flag);
	options.Add("d", "directories", Options.Flag);
	если options.Parse(context.arg, context.error) то
		если context.arg.ПропустиБелоеПолеИЧитайЦепочкуСимволов8ДоБелогоПоляИлиВКавычках(pattern) и context.arg.ПропустиБелоеПолеИЧитайЦепочкуСимволов8ДоБелогоПоляИлиВКавычках(commandProcStr) то
			Commands.Split(commandProcStr, moduleName, procedureName, res, msg);
			если (res = Commands.Ok) то
				дайПроцПоИмени(moduleName, procedureName, enumProc);
				если (enumProc # НУЛЬ) то
					Files.SplitPath(pattern, path, filemask);
					нов(enum);
					enum.Open(path, {});
					нов(arg, 4096);
					нов(arguments, context.arg.ЗапасиБайтыИзПотокаВБуфереИДайИхКоличество()); Strings.Truncate(arguments^, 0);
					context.arg.чБайты(arguments^, 0, context.arg.ЗапасиБайтыИзПотокаВБуфереИДайИхКоличество(), ignore); (* ignore res *)
					нов(enumContext, context.in, arg, context.out, context.error, context.caller);

					EnumerateDirectory(enum, enumProc, options, enumContext, filemask, arguments^);
					enum.Close;
				иначе
					context.error.пСтроку8("Procedure "); context.error.пСтроку8(commandProcStr); context.error.пСтроку8(" not found");
					context.error.пВК_ПС; context.result := Commands.CommandError;
				всё;
			иначе
				context.error.пСтроку8("Command procedure error, res: "); context.error.пЦел64(res, 0);
				context.error.пСтроку8(" ("); context.error.пСтроку8(msg); context.error.пСтроку8(")");
				context.error.пВК_ПС; context.result := Commands.CommandError;
			всё;
		иначе
			context.error.пСтроку8("FSTools.Enumerate [Options] pattern ~"); context.error.пВК_ПС;
			context.result := Commands.CommandParseError;
		всё;
	иначе
		context.result := Commands.CommandParseError;
	всё;
кон Enumerate;

(** Create a new file and optionally fill it with content
	Option c: Transform <LF> into <CR><LF>
	Option r: Remove whitespace at beginning of line
	Option a: Append to file instead of creating new file
*)
проц CreateFile*(context : Commands.Context); (** [Options] filename [content] ~ *)
перем
	options : Options.Options; cr, removeWhitespace : булево;
	file : Files.File; filename : Files.FileName; writer : Files.Writer; ch : симв8; pos: Files.Position;
нач
	нов(options);
	options.Add("c", "cr", Options.Flag);
	options.Add("r", "remove", Options.Flag);
	options.Add("a", "append", Options.Flag);
	если options.Parse(context.arg, context.error) то
		если context.arg.ПропустиБелоеПолеИЧитайЦепочкуСимволов8ДоБелогоПоляИлиВКавычках(filename) то
			cr := options.GetFlag("cr");
			removeWhitespace := options.GetFlag("remove");
			file := НУЛЬ;
			если options.GetFlag("append") то
				file := Files.Old(filename);
			всё;
			если file = НУЛЬ то
				file := Files.New(filename);
				pos := 0;
			иначе
				pos := file.Length();
			всё;
			Files.OpenWriter(writer, file, pos);
			если removeWhitespace то context.arg.ПропустиБелоеПоле; всё;
			нцПока (context.arg.кодВозвратаПоследнейОперации = Потоки.Успех) делай
				ch := context.arg.чИДайСимв8();
				если (ch = LF) то
					если cr то writer.пСимв8(CR); всё;
					если removeWhitespace то context.arg.ПропустиБелоеПоле; всё;
				всё;
				если ch # 0X то
					writer.пСимв8(ch);
				всё;
			кц;
			writer.ПротолкниБуферВПоток;
			Files.Register(file);
			context.out.пСтроку8("Created file "); context.out.пСтроку8(filename); context.out.пВК_ПС;
		иначе
			context.out.пСтроку8("FSTools.CreateFile filename [content] ~"); context.out.пВК_ПС;
			context.result := Commands.CommandParseError;
		всё;
	иначе
		context.result := Commands.CommandParseError;
	всё;
кон CreateFile;

проц CopyTo*(context : Commands.Context); (** targetpath sourcepath {filename} ~ *)
перем targetPath, sourcePath, targetFullname, sourceFullname,  filename : Files.FileName; overwrite : булево; nofFilesCopied, nofErrors: цел32; res : целМЗ;
нач
	context.arg.ПропустиБелоеПоле; context.arg.чЦепочкуСимволов8ДоБелогоПоляИлиВКавычках(targetPath);
	context.arg.ПропустиБелоеПоле; context.arg.чЦепочкуСимволов8ДоБелогоПоляИлиВКавычках(sourcePath);

	nofFilesCopied := 0; nofErrors := 0;
	нцПока context.arg.ПропустиБелоеПолеИЧитайЦепочкуСимволов8ДоБелогоПоляИлиВКавычках(filename) делай
		копируйСтрокуДо0(targetPath, targetFullname); Strings.Append(targetFullname, filename);
		копируйСтрокуДо0(sourcePath, sourceFullname); Strings.Append(sourceFullname, filename);
		overwrite := истина;
		Files.CopyFile(sourceFullname, targetFullname, overwrite, res);
		если (res = Files.Ok) то
			увел(nofFilesCopied);
		иначе
			увел(nofErrors);
			context.error.пСтроку8("Error: Could not copy file "); context.error.пСтроку8(sourceFullname);
			context.error.пСтроку8(" to "); context.error.пСтроку8(targetFullname); context.error.пСтроку8(", res: ");
			context.error.пЦел64(res, 0); context.error.пВК_ПС;
			context.result := Commands.CommandError;
			возврат;
		всё;
	кц;
	context.out.пЦел64(nofFilesCopied, 0); context.out.пСтроку8(" files copied");
	если (nofErrors > 0) то
		context.out.пСтроку8(" ("); context.out.пЦел64(nofErrors, 0); context.out.пСтроку8(" errors)");
		context.result := Commands.CommandError;
	всё;
	context.out.пВК_ПС;
кон CopyTo;

(** Copy files *)
проц CopyFiles*(context : Commands.Context); (** [Options] {source  => destination} ~ *)
перем
	source, destination : СписокИмёнФайлов;
	overwritten, error, ignoreErrors, quiet : булево;
	nofFiles, n : цел64; res: целМЗ;
	options: Options.Options;
нач
	нов(options);
	options.Add("o", "overwrite", Options.Flag); (* overwrite target file if it exists *)
	options.Add("i", "ignore", Options.Flag); (* continue on errors *)
	options.Add("n", "nolist", Options.Flag); (* only allow two arguments *)
	options.Add("q", "quiet", Options.Flag); (* do not print copied file names *)
	если options.Parse(context.arg, context.error) то
		ignoreErrors := options.GetFlag("ignore");
		если options.GetFlag("nolist") то (* source target *)
			nofFiles := GetSimpleFileLists(context, source, destination);
		иначе (* {source => target} *)
			nofFiles := GetFileLists(context, source, destination);
		всё;
		если nofFiles # Error то
			quiet := options.GetFlag("quiet");
			если ~quiet то context.out.пСтроку8("Copying files..."); context.out.пВК_ПС; context.out.ПротолкниБуферВПоток всё;
			n := 0;
			нцПока(n < source.разм) и (n < destination.разм) и (ignoreErrors или ~error) делай
				если ~quiet то
					context.out.пСтроку8("   Copy "); context.out.пСтроку8(source.э[n]^); context.out.пСтроку8(" => ");
					context.out.пСтроку8(destination.э[n]^); context.out.пСтроку8(" ... ");
					context.out.ПротолкниБуферВПоток;
				всё;
				overwritten := options.GetFlag("overwrite");
				Files.CopyFile(source.э[n]^, destination.э[n]^, overwritten, res);
				если res = Files.Ok то
					если ~quiet то
						context.out.пСтроку8("done");
						если overwritten то context.out.пСтроку8(" (overwritten)"); всё;
						context.out.пСимв8("."); context.out.пВК_ПС;
						context.out.ПротолкниБуферВПоток;
					всё;
					увел(n);
				иначе
					если quiet то
						context.out.пСтроку8("   Copy "); context.out.пСтроку8(source.э[n]^); context.out.пСтроку8(" => ");
						context.out.пСтроку8(destination.э[n]^);
					всё;
					context.error.пСтроку8("failed "); ShowRes(context.error, res); context.error.пВК_ПС;
					context.error.ПротолкниБуферВПоток;
					error := истина;
					если ~ignoreErrors то context.result := Commands.CommandError всё;
				всё;
			кц;
		всё;
		если nofFiles # Error то
			context.out.пЦел64(n, 0); context.out.пСтроку8(" of "); context.out.пЦел64(nofFiles, 0);  context.out.пСтроку8(" files copied."); context.out.пВК_ПС;
		иначе
			context.out.пСтроку8("No files copied."); context.out.пВК_ПС;
			если ~ignoreErrors то context.result := Commands.CommandError всё;
		всё;
	всё;
кон CopyFiles;

проц GenerateName(конст prefix: массив из симв8; index: цел32; перем str: массив из симв8);
перем startTime: Dates.DateTime; num: массив 32 из симв8;
нач
	startTime := Dates.Now();
	Strings.FormatDateTime("_yyyymmdd__hhnnss",startTime,str);
	Strings.Concat(prefix,str,str);
	если index # 0 то
		Strings.IntToStr(index,num);
		Strings.Append(str,"_");
		Strings.Concat(str,num,str);
	всё;
	Strings.Concat(str,".bak",str);
кон GenerateName;

проц Backup*(context: Commands.Context);
перем index: цел32; fileList: СписокИмёнФайлов; nofFiles, n: цел64; res: целМЗ; str: Files.FileName; overwritten: булево;
нач
	overwritten := ложь;
	nofFiles := GetFileList(context, fileList);
	n := 0;
	нцПока n < fileList.разм делай
		index := -1;
		нцДо
			увел(index);
			GenerateName(fileList.э[n]^, index, str);
		кцПри Files.Old(str) = НУЛЬ;
		Files.CopyFile(fileList.э[n]^, str, overwritten, res);
		context.out.пСтроку8("backed up "); context.out.пСтроку8(fileList.э[n]^); context.out.пСтроку8(" in "); context.out.пСтроку8(str); context.out.пВК_ПС;
		утв(~overwritten);
		увел(n);
	кц;
кон Backup;

(** Delete files *)
проц DeleteFiles*(context : Commands.Context); (** [Options] {file} ~ *)
перем
	filelist : СписокИмёнФайлов;
	error, ignoreErrors, silent : булево;
	nofFiles, n, ndone : цел64; res: целМЗ;
	options : Options.Options;
нач
	нов(options);
	options.Add("i", "ignore", Options.Flag);
	options.Add("s", "silent", Options.Flag);
	если options.Parse(context.arg, context.error) то
		ignoreErrors := options.GetFlag("ignore");
		silent := options.GetFlag("silent");
		nofFiles := GetFileList(context, filelist);
		если (nofFiles > 0) то
			context.out.пСтроку8("Deleting files..."); context.out.пВК_ПС;
			n := 0; ndone := 0;
			нцПока(n < filelist.разм) и (ignoreErrors или ~error) делай
				res := 0;
				если ~silent то context.out.пСтроку8("   Delete "); context.out.пСтроку8(filelist.э[n]^); context.out.пСтроку8(" ... "); context.out.ПротолкниБуферВПоток; всё;
				Files.Delete(filelist.э[n]^, res);
				если res = Files.Ok то
					если ~silent то context.out.пСтроку8("done."); context.out.пВК_ПС; всё;
					увел(ndone);
				иначе
					если silent то
						 context.out.пСтроку8("   Delete "); context.out.пСтроку8(filelist.э[n]^); context.out.пСтроку8(" ... "); context.out.ПротолкниБуферВПоток;
					всё;
					context.out.пСтроку8("failed "); ShowRes(context.out, res); context.out.пВК_ПС;
					error := истина;
					если ~ignoreErrors то context.result := Commands.CommandError всё;
				всё;
				увел(n);
				context.out.ПротолкниБуферВПоток;
			кц;
			context.out.пЦел64(ndone, 0); context.out.пСтроку8(" of "); context.out.пЦел64(nofFiles, 0); context.out.пСтроку8(" files deleted."); context.out.пВК_ПС;
		аесли (nofFiles = 0) то
			context.out.пСтроку8("No files matching the mask found."); context.out.пВК_ПС;
		иначе
			context.error.пСтроку8("Syntax Error: No files deleted"); context.error.пВК_ПС;
			если ~ignoreErrors то context.result := Commands.CommandError всё;
		всё;
	всё;
кон DeleteFiles;

(** Rename files. *)
проц RenameFiles*(context : Commands.Context); (** [Options] {source => destination} ~ *)
перем
	source, target : СписокИмёнФайлов;
	error, ignoreErrors : булево;
	nofFiles, n : цел64; res: целМЗ;
	options : Options.Options;
нач
	нов(options);
	options.Add("i", "ignore", Options.Flag); (* continue on errors *)
	options.Add("n", "nolist", Options.Flag);
	если options.Parse(context.arg, context.error) то
		ignoreErrors := options.GetFlag("ignore");
		если options.GetFlag("nolist") то
			nofFiles := GetSimpleFileLists(context, source, target);
		иначе
			nofFiles := GetFileLists(context, source, target);
		всё;
		если nofFiles # Error то
			context.out.пСтроку8("Renaming files..."); context.out.пВК_ПС;
			n := 0;
			нцПока( n < source.разм ) и ( n < target.разм) и (ignoreErrors или ~error) делай
				res := 0;
				context.out.пСтроку8("   Rename "); context.out.пСтроку8(source.э[n]^); context.out.пСтроку8(" => "); context.out.пСтроку8(target.э[n]^); context.out.пСтроку8(" ... ");
				Files.Rename(source.э[n]^, target.э[n]^, res);
				если res # Files.Ok то
					context.error.пСтроку8("failed "); ShowRes(context.error, res); context.error.пВК_ПС;
					error := истина;
					если ~ignoreErrors то context.result := Commands.CommandError всё;
				иначе
					context.out.пСтроку8("done."); context.out.пВК_ПС;
					увел(n);
				всё;
			кц;
		всё;
		если nofFiles # Error то
			context.out.пЦел64(n, 0); context.out.пСтроку8(" of "); context.out.пЦел64(nofFiles, 0); context.out.пСтроку8(" files renamed."); context.out.пВК_ПС;
		иначе
			context.out.пСтроку8("No files renamed."); context.out.пВК_ПС;
			если ~ignoreErrors то context.result := Commands.CommandError всё;
		всё;
	всё;
кон RenameFiles;

проц CreateDirectory*(context : Commands.Context); (* path ~ *)
перем path : Files.FileName; res : целМЗ;
нач
	если context.arg.ПропустиБелоеПолеИЧитайЦепочкуСимволов8ДоБелогоПоляИлиВКавычках(path) то
		Files.CreateDirectory(path, res);
		если (res # Files.Ok) то
			context.out.пСтроку8("Could not create directory '"); context.out.пСтроку8(path); context.out.пСтроку8("', res: ");
			ShowRes(context.out, res); context.out.пВК_ПС;
			context.result := Commands.CommandError;
		всё;
	иначе
		context.error.пСтроку8("Usage: FSTools.CreateDirectory <path> ~"); context.error.пВК_ПС;
		context.result := Commands.CommandParseError;
	всё;
кон CreateDirectory;

проц DeleteDirectory*(context : Commands.Context); (* path ~ *)
перем path : Files.FileName; res : целМЗ;
нач
	если context.arg.ПропустиБелоеПолеИЧитайЦепочкуСимволов8ДоБелогоПоляИлиВКавычках(path) то
		Files.RemoveDirectory(path, ложь, res);
		если (res # Files.Ok) то
			context.out.пСтроку8("Could not delete directory '"); context.out.пСтроку8(path); context.out.пСтроку8("', res: ");
			ShowRes(context.out, res); context.out.пВК_ПС;
			context.result := Commands.CommandError;
		всё;
	иначе
		context.error.пСтроку8("Usage: FSTools.DeleteDirectory <path> ~"); context.error.пВК_ПС;
		context.result := Commands.CommandParseError;
	всё;
кон DeleteDirectory;

(** Compare filenames of two directories and display files that are not present in both directories *)
проц CompareDirectories*(context : Commands.Context); (** directory1 directory2 ~ *)
перем
	fileList1, fileList2 : СписокИмёнФайлов;
	length1, length2 : цел64;
	dirname1, dirname2 : Files.FileName;
	index1, index2 : цел32;
	differences : цел32;

	проц GetSortedFileList(конст dirname : массив из симв8) : СписокИмёнФайлов;
	перем mask : Files.FileName; fileList : СписокИмёнФайлов;
	нач
		копируйСтрокуДо0(dirname, mask);
		Strings.Append(mask, Files.PathDelimiter);
		Strings.Append(mask, "*");
		нов(fileList, 128);
		InsertFiles(mask, fileList);
		fileList.SortFileList();
		утв(fileList # НУЛЬ);
		возврат fileList;
	кон GetSortedFileList;

	проц CompareEntries(конст entry1, entry2 : массив из симв8) : цел32;
	перем result : цел32; prefix : Files.Prefix; filename1, filename2, pathname, path : Files.FileName;
	нач
		Files.SplitName(entry1, prefix, pathname);
		Files.SplitPath(pathname, path, filename1);
		Files.SplitName(entry2, prefix, pathname);
		Files.SplitPath(pathname, path, filename2);
		если (filename1 < filename2) то result := -1;
		аесли (filename1 > filename2) то result := 1;
		иначе result := 0;
		всё;
		возврат result;
	кон CompareEntries;

нач
	context.arg.ПропустиБелоеПоле; context.arg.чЦепочкуСимволов8ДоБелогоПоляИлиВКавычках(dirname1);
	context.arg.ПропустиБелоеПоле; context.arg.чЦепочкуСимволов8ДоБелогоПоляИлиВКавычках(dirname2);
	differences := 0;
	fileList1 := GetSortedFileList(dirname1);
	length1 := fileList1.разм;
	fileList2 := GetSortedFileList(dirname2);
	length2 := fileList2.разм;
	context.out.пСтроку8(dirname1); context.out.пСтроку8(": "); context.out.пЦел64(length1, 0); context.out.пСтроку8(" entries"); context.out.пВК_ПС;
	context.out.пСтроку8(dirname2); context.out.пСтроку8(": "); context.out.пЦел64(length2, 0); context.out.пСтроку8(" entries"); context.out.пВК_ПС;
	index1 := 0; index2 := 0;
	нцПока (index1 < length1) делай
		нцПока (index2 < length2) и (CompareEntries(fileList1.э[index1]^, fileList2.э[index2]^) > 0) делай
			context.out.пСтроку8(fileList2.э[index2]^); context.out.пВК_ПС;
			увел(differences);
			увел(index2);
		кц;
		если (index2 < length2) и (CompareEntries(fileList1.э[index1]^, fileList2.э[index2]^) = 0)то
			увел(index2);
		иначе
			увел(differences);
			context.out.пСтроку8(fileList1.э[index1]^); context.out.пВК_ПС;
		всё;
		увел(index1);
	кц;
	нцПока (index2 < length2) делай
		context.out.пСтроку8(fileList2.э[index2]^); context.out.пВК_ПС;
		увел(differences);
		увел(index2);
	кц;
	если (differences = 0) то
		context.out.пСтроку8("Directories contain the same entries"); context.out.пВК_ПС;
	всё;
кон CompareDirectories;

(** Compare two files by byte-wise comparison of contents *)
проц CompareFiles*(context : Commands.Context); (* filename1 filename2 ~ *)
перем filename : Files.FileName; file1, file2 : Files.File; reader1, reader2 : Files.Reader; ch1, ch2 : симв8;
нач
	context.arg.ПропустиБелоеПоле; context.arg.чЦепочкуСимволов8ДоБелогоПоляИлиВКавычках(filename);
	file1 := Files.Old(filename);
	если (file1# НУЛЬ) то
		context.arg.ПропустиБелоеПоле; context.arg.чЦепочкуСимволов8ДоБелогоПоляИлиВКавычках(filename);
		file2 := Files.Old(filename);
		если (file2 # НУЛЬ) то
			если (file1.Length() = file2.Length()) то
				нов(reader1, file1, 0);
				нов(reader2, file2, 0);
				нцДо
					reader1.чСимв8(ch1);
					reader2.чСимв8(ch2);
				кцПри (ch1 # ch2) или (reader1.кодВозвратаПоследнейОперации # Files.Ok) или (reader2.кодВозвратаПоследнейОперации # Files.Ok);

				если (ch1 = ch2) и (reader1.кодВозвратаПоследнейОперации = reader2.кодВозвратаПоследнейОперации) и (reader1.кодВозвратаПоследнейОперации = Потоки.КонецФайла) то
					context.out.пСтроку8("Files are equal"); context.out.пВК_ПС;
				иначе
					context.out.пСтроку8("Content mismatch"); context.out.пВК_ПС;
				всё;
			иначе
				context.out.пСтроку8("Length mismatch"); context.out.пВК_ПС;
			всё;
		иначе
			context.error.пСтроку8("File "); context.error.пСтроку8(filename); context.error.пСтроку8(" not found");
			context.error.пВК_ПС; context.result := Commands.CommandError;
		всё;
	иначе
		context.error.пСтроку8("File "); context.error.пСтроку8(filename); context.error.пСтроку8(" not found");
		context.error.пВК_ПС; context.result := Commands.CommandParseError;
	всё;
кон CompareFiles;

тип
	СписокИмёнФайлов* = окласс
	перем
		разм-: цел64; (* число элементов *)
		э-: укль на массив из String; (* элементы *)
		
	проц &новСписокИмёнФайлов*(начРазмер : бцел32);
	нач нов(э,начРазмер) кон новСписокИмёнФайлов;
	
	(* ПримиУкльНаU8 размещает в списке прямо заданный указатель, 
		при этом возникает разделение данных между источником и списком *)
	проц ПримиУкльНаU8*(конст имяФайла: Strings.String);
	нач 
			если разм >= длинаМассива(э) то ResizeFilelist(); всё;
			э[разм] := имяФайла;
			увел(разм) кон ПримиУкльНаU8;

	проц ПримиU8*(конст имяФайла: массив из симв8);
	нач 
			если разм >= длинаМассива(э) то ResizeFilelist(); всё;
			э[разм] := Strings.NewString(имяФайла);
			увел(разм) кон ПримиU8;
		
	проц ResizeFilelist*();
	перем temp : укль на массив из String; i : размерМЗ;
	нач
		нов(temp, 2 * длинаМассива(э));
		нцДля i := 0 до длинаМассива(э)-1 делай
			temp[i] := э[i] 	кц;
		э := temp кон ResizeFilelist;

	проц SortFileList*();
	перем i, j : цел64; temp : Strings.String;
	нач
		(* bubble sort *)
		если разм < 2 то возврат всё;
		нцДля i := 0 до разм-1 делай
			нцДля j := 0 до разм-2 делай
				если э[j]^ > э[j+1]^ то
					temp := э[j+1];
					э[j+1] := э[j];
					э[j] := temp всё кц кц кон SortFileList;

 кон СписокИмёнФайлов;


(* Checks whether a file list entry contains mask characters and adds the corresponding files if it does *)
проц InsertFiles*(конст mask : массив из симв8; перем filelist : СписокИмёнФайлов);
перем
	enum : Files.Enumerator;
	fileflags : мнвоНаБитахМЗ;
	time, date : цел32;
	size: Files.Size;
	name : массив MaxNameLen из симв8;
нач
	нов(enum); enum.Open(mask, {});
	нцПока enum.GetEntry(name, fileflags, time, date, size) делай
		если (fileflags * {Files.Directory} = {}) то
			filelist.ПримиU8(name) всё кц;
	enum.Close кон InsertFiles;

(* Count the number of occurences of the character 'ch' in the string 'string'. Case-Sensitive! *)
проц CountCharacters(конст string : массив из симв8; ch : симв8) : размерМЗ;
перем count, i : размерМЗ;
нач
	count := 0;
	нцДля i := 0 до длинаМассива(string)-1 делай
		если string[i] = ch то увел(count); всё;
	кц;
	возврат count;
кон CountCharacters;

(* Split full name into prefix, path, filename and file extension *)
проц SplitFullName(конст fullname : массив из симв8; перем prefix, path, filename, extension : массив из симв8);
перем pathname, name : массив 1024 из симв8;
нач
	Files.SplitName(fullname, prefix, pathname);
	Files.SplitPath(pathname, path, name);
	Files.SplitExtension(name, filename, extension);
кон SplitFullName;

проц IsValidTargetMask(context : Commands.Context; конст mask : массив из симв8) : булево;
перем
	prefix : массив Files.PrefixLength из симв8;
	filename, extension : массив Files.NameLength из симв8;
	path : массив 512 из симв8;
нач
	SplitFullName(mask, prefix, path, filename, extension);

	если (CountCharacters(mask, "?") > 0) то
		context.error.пСтроку8("Syntax Error in "); context.error.пСтроку8(mask); context.error.пСтроку8(": '?' matching characters not implemented for target mask"); context.error.пВК_ПС;
		context.result := Commands.CommandError;
		возврат ложь;
	всё;

	если (CountCharacters(prefix, "*") # 0) или (CountCharacters(path, "*") # 0) то
		context.error.пСтроку8("Syntax Error in "); context.error.пСтроку8(mask); context.error.пСтроку8(": Target prefix/path may not contain '*' characters"); context.error.пВК_ПС;
		context.result := Commands.CommandError;
		возврат ложь;
	всё;

	возврат истина;
кон IsValidTargetMask;

(* If the user does not specify a prefix or path for a mask, the mask will include all directories and subdirectories.
	Since this is too dangerous for file operations as delete, we only allow pattern operations if a prefix
	or path is specified within the pattern or the unsafe mode is set *)
проц AllowMaskInSafeMode(конст mask : массив из симв8) : булево;
перем prefix : Files.Prefix; pathname, path, filename : Files.FileName;
нач
	Files.SplitName(mask, prefix, pathname);
	Files.SplitPath(pathname, path, filename);
	возврат (prefix # "") или ((path # "") и (path # Files.PathDelimiter));
кон AllowMaskInSafeMode;

проц GetTargetName(конст sourceMask, targetMask, sourceName : массив из симв8) : String;
перем
	targetName : массив 1024 из симв8;
	srcPrefix, srcPath, srcFilename, srcExtension : массив 512 из симв8;
	isExtension : булево;
	i, j, index : размерМЗ;
нач
	SplitFullName(sourceName, srcPrefix, srcPath, srcFilename, srcExtension);
	index := 0;
	нцДля i := 0 до длинаМассива(targetMask)-1 делай
		если (targetMask[i] = ".") и (targetMask[i+1]#".") и (targetMask[i+1]#"/") то
			isExtension := истина;
			targetName[index] := targetMask[i];
			увел(index);
		аесли targetMask[i] = "*" то
			если isExtension то
				j := 0; нцПока (j < длинаМассива(srcExtension)) и (srcExtension[j] # 0X) делай targetName[index] := srcExtension[j]; увел(index); увел(j); кц;
			иначе
				j := 0; нцПока (j < длинаМассива(srcFilename)) и (srcFilename[j] # 0X) делай targetName[index] := srcFilename[j]; увел(index); увел(j); кц;
			всё;
		иначе
			targetName[index] := targetMask[i];
			увел(index);
		всё;
	кц;
	если index < длинаМассива(targetName) то targetName[index] := 0X; всё;
	возврат Strings.NewString(targetName);
кон GetTargetName;

проц InsertFilesAndFixDestination(context : Commands.Context; конст sourceMask, targetMask : массив из симв8; перем source, target : СписокИмёнФайлов) : булево;
перем
	enum : Files.Enumerator;
	fileflags : мнвоНаБитахМЗ;
	time, date : цел32;
	size : Files.Size;
	name : массив MaxNameLen из симв8;
нач
	если ~IsValidTargetMask(context, targetMask) то возврат ложь; всё;
	нов(enum); enum.Open(sourceMask, {});
	нцПока enum.GetEntry(name, fileflags, time, date, size) делай
		если (fileflags * {Files.Directory} = {}) то
			source.ПримиU8(name);
			target.ПримиУкльНаU8(GetTargetName(sourceMask, targetMask, name));
		всё;
	кц;
	enum.Close;
	возврат истина;
кон InsertFilesAndFixDestination;

(* Функция IsMask возвращает истину, если маска содержит метасимволы. Нужно при этом учесть, 
	что строка без метасимволов тоже является маской, которой соответствует 0 или 1 файл, 
	но данная функция этого не поймёт *)
проц IsMask(конст string : массив из симв8) : булево;
нач
	возврат Strings.ContainsChar(string, "*", ложь) или Strings.ContainsChar(string, "?", ложь);
кон IsMask;


проц GetFileList(context : Commands.Context; перем filelist : СписокИмёнФайлов) : цел64;
перем filename : массив MaxNameLen из симв8; done, error : булево; count : цел64;
нач
	нов(filelist, InitialFilelistSize);
	нцПока ~done и ~error делай
		если context.arg.ПропустиБелоеПолеИЧитайЦепочкуСимволов8ДоБелогоПоляИлиВКавычках(filename) то
			если IsMask(filename) то
				если ~(AllowMaskInSafeMode(filename) или unsafeMode) то
					ShowUnsafeMessage(context.out); 
					возврат 0 всё;
				InsertFiles(filename, filelist);
			иначе
				filelist.ПримиU8(filename);
			всё;
		аесли context.arg.кодВозвратаПоследнейОперации = Потоки.КонецФайла то
			done := истина;
		иначе
			context.error.пСтроку8("Command parsing error (res: "); context.error.пЦел64(context.arg.кодВозвратаПоследнейОперации, 0); context.error.пСтроку8(")");
			error := истина; context.result := Commands.CommandError;
		всё;
	кц;
	если error то count := Error иначе count := filelist.разм; всё;
	возврат count;
кон GetFileList;

проц GetSimpleFileLists(context : Commands.Context; перем source, target : СписокИмёнФайлов) : цел32;
перем sourceFilename, targetFilename : Files.FileName; count : цел32;
нач
	если context.arg.ПропустиБелоеПолеИЧитайЦепочкуСимволов8ДоБелогоПоляИлиВКавычках(sourceFilename) и context.arg.ПропустиБелоеПолеИЧитайЦепочкуСимволов8ДоБелогоПоляИлиВКавычках(targetFilename) то
		count := 1;
		если IsMask(sourceFilename) или IsMask(targetFilename) то
			если ~(AllowMaskInSafeMode(sourceFilename) или unsafeMode) то ShowUnsafeMessage(context.out); возврат 0; всё;
			если ~InsertFilesAndFixDestination(context, sourceFilename, targetFilename, source, target) то всё;
		иначе
			нов(source, 1); нов(target, 1);
			source.ПримиU8(sourceFilename);
			target.ПримиU8(targetFilename);
		всё;
	иначе
		count := Error;
		context.error.пСтроку8("Expected two filenames as arguments"); context.error.пВК_ПС;
		context.result := Commands.CommandError;
	всё;
	возврат count;
кон GetSimpleFileLists;




проц ДобавьВСписокФайлыПоМаске*(sourceMask : String; target : СписокИмёнФайлов);
перем
	enum : Files.Enumerator;
	fileflags : мнвоНаБитахМЗ;
	time, date : цел32;
	size : Files.Size;
	name : массив MaxNameLen из симв8;
нач
	нов(enum); enum.Open(sourceMask^, {});
	нцПока enum.GetEntry(name, fileflags, time, date, size) делай
		если (fileflags * {Files.Directory} = {}) то
			target.ПримиU8(name) всё кц;
	enum.Close кон ДобавьВСписокФайлыПоМаске;

проц GetFileLists(context : Commands.Context;  перем source, target : СписокИмёнФайлов) : цел64;
перем
	filename : массив MaxNameLen из симв8; done, error : булево; count : цел64;
	sourceString, targetString : String;
нач
	нов(source, InitialFilelistSize); нов(target, InitialFilelistSize);
	нцПока ~done и ~error делай
		если context.arg.ПропустиБелоеПолеИЧитайЦепочкуСимволов8ДоБелогоПоляИлиВКавычках(filename) то
			sourceString := Strings.NewString(filename);
			если context.arg.ПропустиБелоеПолеИЧитайЦепочкуСимволов8ДоБелогоПоляИлиВКавычках(filename) и Strings.Match(filename, "=>") то
				если context.arg.ПропустиБелоеПолеИЧитайЦепочкуСимволов8ДоБелогоПоляИлиВКавычках(filename) то
					targetString := Strings.NewString(filename);
					если IsMask(sourceString^) или IsMask(targetString^) то
						если ~(AllowMaskInSafeMode(sourceString^) или unsafeMode) то ShowUnsafeMessage(context.out); возврат 0; всё;
						если ~InsertFilesAndFixDestination(context, sourceString^, targetString^, source, target) то всё;
					иначе
						source.ПримиУкльНаU8(sourceString);
						target.ПримиУкльНаU8(targetString);
					всё;
				иначе
					context.error.пСтроку8("Command parsing error (res: "); context.error.пЦел64(context.arg.кодВозвратаПоследнейОперации, 0); context.error.пСтроку8(")");
					context.error.пВК_ПС;
					error := истина;
				всё;
			иначе
				context.error.пСтроку8("Command parsing error: Expected => token, found: "); context.error.пСтроку8(filename);
				context.error.пВК_ПС;
				error := истина;
			всё;
		аесли context.arg.кодВозвратаПоследнейОперации = Потоки.КонецФайла то
			done := истина;
		иначе
			context.error.пСтроку8("Command parsing error (res: "); context.error.пЦел64(context.arg.кодВозвратаПоследнейОперации, 0); context.error.пСтроку8(")");
			context.error.пВК_ПС;
			error := истина;
		всё;
	кц;
	если error то 
		count := Error; context.result := Commands.CommandError 
	иначе 
		count := source.разм всё;
	возврат count;
кон GetFileLists;

проц Safe*(context : Commands.Context);
нач
	unsafeMode := ложь;
	context.out.пСтроку8("FSTools: SAFE mode."); context.out.пВК_ПС;
кон Safe;

проц Unsafe*(context : Commands.Context);
нач
	unsafeMode := истина;
	context.out.пСтроку8("FSTools: UNSAFE mode now. BE CAREFUL!"); context.out.пВК_ПС;
кон Unsafe;

проц ShowUnsafeMessage(out : Потоки.Писарь);
нач
	out.пСтроку8("FSTools: Pattern matching is disabled in SAFE mode. Press FSTools.Unsafe ~ to enable pattern matching."); out.пВК_ПС;
кон ShowUnsafeMessage;

проц ShowRes(out : Потоки.Писарь; res : целМЗ);
нач
	out.пСтроку8("(");
	просей res из
		Files.VolumeReadOnly: out.пСтроку8("Target volume is read-only");
		|Files.FsNotFound: out.пСтроку8("File system not found");
		|Files.FileAlreadyExists: out.пСтроку8("File already exists");
		|Files.BadFileName: out.пСтроку8("Bad file name");
		|Files.FileNotFound: out.пСтроку8("File not found");
	иначе
		out.пСтроку8("res: "); out.пЦел64(res, 0);
	всё;
	out.пСтроку8(")");
кон ShowRes;

(** Close files -- paradox: open (old) file and call Close method. Intended for systems in a host environment to explicitely release a file handle. *)
проц CloseFiles*(context : Commands.Context); (** [Options] {file} ~ *)
перем
	filelist : СписокИмёнФайлов;
	nofFiles, n : цел64; ndone : цел32;
	file: Files.File;
нач
	nofFiles := GetFileList(context, filelist);
	ndone := 0;
	нцДля n := 0 до filelist.разм - 1 делай
		file := Files.Old(filelist.э[n]^);
		если file # НУЛЬ то file.Close всё;
		увел(n);
	кц;
кон CloseFiles;


(* returns if a file or directory exists. If yes, then fullname is set to filename *)
проц ExistsUCS32*(конст name: UCS32.StringJQ; перем fullName: UCS32.StringJQ; перем flags: мнвоНаБитахМЗ): булево;
перем rez : булево; nameUTF8, fullNameUTF8 : массив MaxNameLen*6 из симв8; 
нач
	UCS32.COPYJQvU8(name, nameUTF8);
	UCS32.COPYJQvU8(fullName, fullNameUTF8);
	rez := Files.Exists(nameUTF8, fullNameUTF8, flags);
	UCS32.COPYU8vJQ(fullNameUTF8, fullName);
	возврат rez кон ExistsUCS32;


(* returns if a file or directory exists. If yes, then fullname is set to filename *)
проц Exists*(конст name: массив из симв8; перем fullName: массив из симв8; перем flags: мнвоНаБитахМЗ): булево;
нач
	возврат Files.Exists(name, fullName, flags);
кон Exists;

кон FSTools.

System.Free FSTools ~

FSTools.DeleteFiles X:*.Bak ~

FSTools.SplitFile BootManager.Bin 0200H BootManagerMBR.Bin BootManagerTail.Bin ~

FSTools.Directory Test.Mod ~
