(* ETH Oberon, Copyright 2001 ETH Zuerich Institut fuer Computersysteme, ETH Zentrum, CH-8092 Zuerich.
Refer to the "General ETH Oberon System Source License" contract available at: http://www.oberon.ethz.ch/ *)

модуль GfxPaths; (** portable *)	(* eos  *)
(** AUTHOR "eos"; PURPOSE "Two_dimensional paths consisting of lines, arcs and bezier curves"; *)

	(*
		9.2.98 - made behaviour of EnumSpline similar to that of EnumArc and EnumBezier (produces no Enter/Exit)
		11.2.98 - eliminated offset parameter in Enter elements, optimized data structure (now always pair in CoordBlock)
		12.2.98 - added length functions
		18.3.98 - fixed bug in EnumQuery (kept wrong code for next line)
		13.5.98 - fixed bug in EnumBezier (wrong calculation; used x instead of y)
		15.9.98 - minor cleanup: removed position, Save/Restore, GetBBox; simplified scanner interface
		26.11.98 - added procedure Close
		26.1.99 - added procedure Split
		21.5.99 - fixed major bug in Reverse (no update of destination path fields)
		12.7.99 - fixed another bug in Reverse (wrong direction when reverting Exit element)
		12.7.99 - approximate arc with line if radius is smaller than flatness
		18.02.2000 - simpler initial step without sqrt in EnumArc
		18.02.2000 - more robust bezier code (deals with folded curves and cusps)
		27.02.2000 - fixed arc code for starting points that are not on the ellipse
		04.05.2000 - fixed solve; one execution path never set number of solutions (noticed by gf)
	*)

	использует
		Math, GfxMatrix;


	конст
		Stop* = 0; Enter* = 1; Line* = 2; Arc* = 3; Bezier* = 4; Exit* = 5;	(** path element types **)

		ElemBlockSize = 16;	(* base of number of path elements *)
		CoordBlockSize = 32;	(* base of number of path coordinates *)

		MaxSplinePoints* = 128;	(** maximal number of control points in a spline **)

		Left = 0; Right = 1; Bottom = 2; Top = 3;	(* clip codes *)


	тип
		(* internal path structures *)
		ElemBlock = укль на ElemBlockDesc;
		ElemBlockDesc = запись
			next: ElemBlock;
			elem: массив ElemBlockSize из цел8;
			coords: цел16;
		кон;

		CoordBlock = укль на CoordBlockDesc;
		CoordBlockDesc = запись
			next: CoordBlock;
			x, y: массив CoordBlockSize из вещ32;
		кон;

		(** path abstraction **)
		Path* = укль на PathDesc;
		PathDesc* = запись
			elems*, coords*: цел16;	(** number of elements/coordinate pairs in path **)
			firstEB, lastEB: ElemBlock;	(* path element types *)
			firstCB, lastCB: CoordBlock;	(* path element coordinates *)
		кон;

		(** path scanner **)
		Scanner* = запись
			path*: Path;	(** visited path **)
			pos*: цел16;	(** element position **)
			elem*: цел16;	(** current path element **)
			x*, y*: вещ32;	(** current end coordinates **)
			dx*, dy*: вещ32;	(** direction vector **)
			x0*, y0*, x1*, y1*, x2*, y2*: вещ32;	(** additional control point coordinates **)
			curEB: ElemBlock;	(* current element block *)
			curCB: CoordBlock;	(* current coordinate block *)
			epos, cpos: цел16;	(* next element and coordinate position within current block *)
		кон;

		(** path enumeration **)
		EnumData* = запись
			elem*: цел16;	(** current path element **)
			x*, y*, dx*, dy*, x0*, y0*, x1*, y1*, x2*, y2*: вещ32;	(** element parameters **)
		кон;

		Enumerator* = проц (перем data: EnumData);

		ProjectData = запись (EnumData)
			px, py: вещ32;	(* point coordinates *)
			rx, ry: вещ32;	(* projection coordinates *)
			sx, sy: вещ32;	(* previous coordinates *)
			dist: вещ32;	(* distance of projection to original point *)
		кон;

		QueryData = запись (EnumData)
			llx, lly, urx, ury: вещ32;	(* query rectangle *)
			sx, sy: вещ32;	(* previous coordinates *)
			code: мнвоНаБитахМЗ;	(* clip code of previous point *)
			sum: цел32;	(* number of ray crossings for inside test *)
			hit, thorough: булево;
		кон;

		LengthData = запись (EnumData)
			sx, sy: вещ32;	(* previous coordinates *)
			len: вещ32;
		кон;

		DirData = запись (EnumData)
			cx, cy: вещ32;
			sdx, sdy: вещ32;
			edx, edy: вещ32;
		кон;

		SplitData = запись (EnumData)
			head, tail: Path;
			offset: вещ32;
			sx, sy: вещ32;
			sdx, sdy: вещ32
		кон;


	(**
		A paths consists of any number of subpaths, where each subpath starts with a Enter element, followed by
		any number of curve elements, and terminated by an Exit element.

		Enter
			(x, y) is the starting point for the following curve element
			(dx, dy) is the tangent vector at the end of an adjacent subpath or (0, 0) if there is none

		Line
			(x, y) is the end point of the line and the starting point of any subsequent curve

		Arc
			(x, y) is the end point of the arc and the starting point of any subsequent curve (may coincide with the
					current point, resulting in a circle or ellipse)
			(x0, y0) is the center of the circle/ellipse this arc is part of
			(x1, y1) is the end point of the first half axis vector
			(x2, y2) is the end point of the first half axis vector (not necessarily perpendicular to the first HAV)

		Bezier
			(x, y) is the end point of the cubic bezier curve and the starting point of any subsequent curve
			(x1, y1) is the first control point of the cubic bezier curve
			(x1, y1) is the second control point of the cubic bezier curve

		Exit
			(dx, dy) is the tangent vector at the starting point of an adjacent subpath or (0, 0) if there is none
	**)


	перем
		Coords: массив Exit+1 из цел8;	(* number of coordinate pairs for each element type *)


	(**--- Path Construction ---**)

	проц AddElem (path: Path; elem: цел8);
		перем elems: цел16; eb: ElemBlock;
	нач
		elems := path.elems остОтДеленияНа ElemBlockSize;
		если (elems = 0) и (path.elems > 0) то
			нов(eb); path.lastEB.next := eb; path.lastEB := eb;
		всё;
		path.lastEB.elem[elems] := elem;
		увел(path.elems)
	кон AddElem;

	проц AddCoord (path: Path; x, y: вещ32);
		перем coords: цел16; cb: CoordBlock;
	нач
		coords := path.coords остОтДеленияНа CoordBlockSize;
		если (coords = 0) и (path.coords > 0) то
			нов(cb); path.lastCB.next := cb; path.lastCB := cb
		всё;
		path.lastCB.x[coords] := x; path.lastCB.y[coords] := y;
		увел(path.coords); увел(path.lastEB.coords)
	кон AddCoord;

	(** discard previous contents and start new path **)
	проц Clear* (path: Path);
	нач
		если path.firstEB = НУЛЬ то нов(path.firstEB) всё;
		path.lastEB := path.firstEB; path.lastEB.next := НУЛЬ;
		если path.firstCB = НУЛЬ то нов(path.firstCB) всё;
		path.lastCB := path.firstCB; path.lastCB.next := НУЛЬ;
		path.elems := 0; path.coords := 0;
		path.firstEB.coords := 0
	кон Clear;

	(** append enter element **)
	проц AddEnter* (path: Path; x, y, dx, dy: вещ32);
	нач
		AddElem(path, Enter);
		AddCoord(path, dx, dy);
		AddCoord(path, x, y)
	кон AddEnter;

	(** append line element **)
	проц AddLine* (path: Path; x, y: вещ32);
	нач
		AddElem(path, Line);
		AddCoord(path, x, y)
	кон AddLine;

	(** append arc element **)
	проц AddArc* (path: Path; x, y, x0, y0, x1, y1, x2, y2: вещ32);
	нач
		AddElem(path, Arc);
		AddCoord(path, x0, y0);
		AddCoord(path, x1, y1);
		AddCoord(path, x2, y2);
		AddCoord(path, x, y)
	кон AddArc;

	(** append bezier element **)
	проц AddBezier* (path: Path; x, y, x1, y1, x2, y2: вещ32);
	нач
		AddElem(path, Bezier);
		AddCoord(path, x1, y1);
		AddCoord(path, x2, y2);
		AddCoord(path, x, y)
	кон AddBezier;

	(** append exit element **)
	проц AddExit* (path: Path; dx, dy: вещ32);
	нач
		AddElem(path, Exit);
		AddCoord(path, dx, dy)
	кон AddExit;

	(** append subpath for axis-aligned rectangle **)
	проц AddRect* (path: Path; llx, lly, urx, ury: вещ32);
	нач
		AddEnter(path, llx, lly, 0, lly - ury);
		AddLine(path, urx, lly); AddLine(path, urx, ury); AddLine(path, llx, ury); AddLine(path, llx, lly);
		AddExit(path, urx - llx, 0)
	кон AddRect;

	(** append one path to another **)
	проц Append* (to, from: Path);
		перем pos, epos, cpos, n: цел16; eb: ElemBlock; cb: CoordBlock; elem: цел8;
	нач
		pos := 0; epos := 0; cpos := 0; eb := from.firstEB; cb := from.firstCB;
		нцПока pos < from.elems делай
			если epos = ElemBlockSize то
				eb := eb.next; epos := 0
			всё;
			elem := eb.elem[epos]; увел(epos);
			AddElem(to, elem);
			n := Coords[elem];
			нцПока n > 0 делай
				если cpos = CoordBlockSize то
					cb := cb.next; cpos := 0
				всё;
				AddCoord(to, cb.x[cpos], cb.y[cpos]);
				увел(cpos); умень(n)
			кц;
			увел(pos)
		кц
	кон Append;


	(**--- Path Scanners ---**)

	(**
		Path scanners can be used to iterate over a path under client control. The scanner's elem field specifies what
		the current element is, whereas the remaining fields contain the parameters for that element. A Stop element
		indicates that the end of the path has been reached.
	**)

	(** open scanner on path and load parameters of element at given position **)
	проц Open* (перем s: Scanner; path: Path; pos: цел16);
		проц get (перем x, y: вещ32);
		нач
			если s.cpos = CoordBlockSize то
				s.curCB := s.curCB.next; s.cpos := 0
			всё;
			x := s.curCB.x[s.cpos]; y := s.curCB.y[s.cpos]; увел(s.cpos)
		кон get;
	нач
		s.path := path;
		s.curEB := path.firstEB; s.curCB := path.firstCB;
		s.pos := pos; s.epos := pos; s.cpos := 0;
		нцПока s.epos > ElemBlockSize делай
			умень(s.epos, ElemBlockSize);
			увел(s.cpos, s.curEB.coords);
			s.curEB := s.curEB.next
		кц;
		pos := 0;
		нцПока pos < s.epos делай
			s.cpos := s.cpos + Coords[s.curEB.elem[pos]]; увел(pos)
		кц;
		нцПока s.cpos > CoordBlockSize делай
			умень(s.cpos, CoordBlockSize);
			s.curCB := s.curCB.next
		кц;
		если s.pos = path.elems то
			s.elem := Stop
		иначе
			если s.epos = ElemBlockSize то	(* at end of current block *)
				s.curEB := s.curEB.next; s.epos := 0
			всё;
			s.elem := s.curEB.elem[s.epos]; увел(s.epos);
			просей s.elem из
			| Enter: get(s.dx, s.dy); get(s.x, s.y)
			| Line: get(s.x, s.y)
			| Arc: get(s.x0, s.y0); get(s.x1, s.y1); get(s.x2, s.y2); get(s.x, s.y)
			| Bezier: get(s.x1, s.y1); get(s.x2, s.y2); get(s.x, s.y)
			| Exit: get(s.dx, s.dy)
			всё
		всё
	кон Open;

	(** advance to next element and load its parameters **)
	проц Scan* (перем s: Scanner);
		проц get (перем x, y: вещ32);
		нач
			если s.cpos = CoordBlockSize то
				s.curCB := s.curCB.next; s.cpos := 0
			всё;
			x := s.curCB.x[s.cpos]; y := s.curCB.y[s.cpos]; увел(s.cpos)
		кон get;
	нач
		если s.pos < s.path.elems то
			увел(s.pos);
			если s.pos = s.path.elems то
				s.elem := Stop
			иначе
				если s.epos = ElemBlockSize то	(* at end of current block *)
					s.curEB := s.curEB.next; s.epos := 0
				всё;
				s.elem := s.curEB.elem[s.epos]; увел(s.epos);
				просей s.elem из
				| Enter: get(s.dx, s.dy); get(s.x, s.y)
				| Exit: get(s.dx, s.dy)
				| Line: get(s.x, s.y)
				| Arc: get(s.x0, s.y0); get(s.x1, s.y1); get(s.x2, s.y2); get(s.x, s.y)
				| Bezier: get(s.x1, s.y1); get(s.x2, s.y2); get(s.x, s.y)
				всё
			всё
		всё
	кон Scan;


	(**--- Enumerating (Flattened) Paths ---**)

	(**
		In addition to being scanned, path elements may also be enumerated. The advantage of enumerating path
		elements is that arcs and bezier curves can be enumerated as a sequence of lines approximating the original
		curve. Besides, natural splines can enumerated in terms of regular path elements.
	**)

	(** enumerate arc as a sequence of lines with maximal error 'flatness'; current point must be in (data.x, data.y) **)
	проц EnumArc* (x0, y0, x1, y1, x2, y2, x, y, flatness: вещ32; enum: Enumerator; перем data: EnumData);
		конст
			eps = 1.0E-3;
		перем
			lx, ly, sense, xs, ys, xe, ye, dt, p2, tmp, p1, dx1, dx2, dy1, dy2, sx, sy, tx, ty, limit, dx, dy, tlen, ex, ey: вещ32;
			positive: булево;
	нач
		(* algorithm: D. Fellner & C. Helmberg, Robust Rendering of General Ellipses and Elliptical Arcs, ACM TOG July 1993 *)
		data.elem := Line;
		x1 := x1 - x0; y1 := y1 - y0;
		x2 := x2 - x0; y2 := y2 - y0;
		если матМодуль(x1 * y2 - y1 * x2) <= eps * матМодуль(x1 * x2 + y1 * y2) то	(* approximate with line *)
			data.x := x; data.y := y; enum(data);
			возврат
		всё;

		lx := матМодуль(x1) + матМодуль(x2); ly := матМодуль(y1) + матМодуль(y2);
		если (lx <= ly) и (lx <= flatness) или (ly <= lx) и (ly <= flatness) то	(* radius smaller than flatness *)
			data.x := x; data.y := y; enum(data);
			возврат
		всё;

		если flatness < eps то flatness := eps всё;
		если x1 * y2 > y1 * x2 то sense := 1 иначе sense := -1 всё;
		xs := data.x - x0; ys := data.y - y0;
		xe := x - x0; ye := y - y0;
		если lx >= ly то dt := flatness/lx
		иначе dt := flatness/ly
		всё;

		(* find first point on arc *)
		p2 := xs * y2 - ys * x2;
		если матМодуль(p2) < eps то	(* (x2, y2) on start vector *)
			tmp := x1; x1 := x2; x2 := -tmp;
			tmp := y1; y1 := y2; y2 := -tmp;
			p1 := 0
		иначе
			p1 := xs * y1 - ys * x1
		всё;
		если матМодуль(p1) < eps то	(* (x1, y1) on start vector *)
			если xs * x1 + ys * y1 < -eps то	(* on opposite side of origin *)
				x1 := -x1; y1 := -y1;
				x2 := -x2; y2 := -y2
			всё;
			если матМодуль(x1 - xs) + матМодуль(y1 - ys) > flatness то
				data.x := x0 + x1; data.y := y0 + y1;
				enum(data)
			всё;
			dx1 := 0; dx2 := 0; dy1 := 0; dy2 := 0
		иначе	(* search start point on ellipse *)
			если (p1 > 0) = (p2 > 0) то
				tmp := x1; x1 := x2; x2 := -tmp;
				tmp := y1; y1 := y2; y2 := -tmp;
				p1 := p2
			всё;
			если p1 * sense > 0 то
				x1 := -x1; y1 := -y1;
				x2 := -x2; y2 := -y2
			всё;
			dx1 := 0; dx2 := 0; dy1 := 0; dy2 := 0;
			нцДо
				tmp := dx1;
				dx1 := (x2 - 0.5 * dx2) * dt; dx2 := (x1 + 0.5 * tmp) * dt;
				x1 := x1 + dx1; x2 := x2 - dx2;
				tmp := dy1;
				dy1 := (y2 - 0.5 * dy2) * dt; dy2 := (y1 + 0.5 * tmp) * dt;
				y1 := y1 + dy1; y2 := y2 - dy2
			кцПри (xs * y1 - ys * x1) * sense >= 0;
			data.x := x0 + x1; data.y := y0 + y1;
			enum(data)
		всё;

		sx := x1; sy := y1;	(* start point of current line *)
		tx := 0; ty := 0;	(* (approximate) tangent vector at start point *)
		limit := flatness * flatness;
		positive := ((ye * x1 - xe * y1) * sense > 0);
		нц
			tmp := dx1;
			dx1 := (x2 - 0.5 * dx2) * dt; dx2 := (x1 + 0.5 * tmp) * dt;
			x1 := x1 + dx1; x2 := x2 - dx2;
			tmp := dy1;
			dy1 := (y2 - 0.5 * dy2) * dt; dy2 := (y1 + 0.5 * tmp) * dt;
			y1 := y1 + dy1; y2 := y2 - dy2;
			p1 := (ye * x1 - xe * y1) * sense;
			если p1 > 0 то
				positive := истина
			аесли positive то
				прервиЦикл
			всё;
			dx := x1 - sx; dy := y1 - sy;
			если (tx = 0) и (ty = 0) то	(* first point *)
				tx := dx; ty := dy; tlen := tx * tx + ty * ty
			иначе
				tmp := dx * ty - dy * tx;
				если (tmp * tmp)/tlen > limit то	(* distance from new point to tangent vector is greater than flatness *)
					sx := ex; sy := ey;
					data.x := x0 + sx; data.y := y0 + sy;
					enum(data);
					tx := dx; ty := dy; tlen := tx * tx + ty * ty
				всё
			всё;
			ex := x1; ey := y1
		кц;
		data.x := x; data.y := y;
		enum(data)
	кон EnumArc;

	(** enumerate bezier curve as a sequence of lines with maximal error 'flatness'; current point must be in (data.x, data.y) **)
	проц EnumBezier* (x1, y1, x2, y2, x, y, flatness: вещ32; enum: Enumerator; перем data: EnumData);
		конст eps = 1.0E-8;
		перем f2, ax, bx, t, x01, x11, x12, x22, x23, y01, y11, y12, y22, y23: вещ32;

		проц subdiv (t, x0, x1, x2, x3: вещ32; перем a1, a2, m, b1, b2: вещ32);
			перем s, x12: вещ32;
		нач
			s := 1-t;
			a1 := s * x0 + t * x1; b2 := s * x2 + t * x3; x12 := s * x1 + t * x2;
			a2 := s * a1 + t * x12; b1 := s * x12 + t * b2;
			m := s * a2 + t * b1
		кон subdiv;

		проц draw (x1, y1, x2, y2, x, y: вещ32);
			перем x01, x11, x12, x22, x23, y01, y11, y12, y22, y23, dx, dy, ex, ey, cp: вещ32;
		нач
			subdiv(0.5, data.x, x1, x2, x, x01, x11, x12, x22, x23);
			subdiv(0.5, data.y, y1, y2, y, y01, y11, y12, y22, y23);
			dx := x12 - data.x; dy := y12 - data.y;
			ex := x - data.x; ey := y - data.y;
			cp := dx*ey - dy*ex;
			если cp*cp <= f2 * (ex*ex + ey*ey) то	(* flat enough *)
				data.x := x; data.y := y; enum(data)
			иначе
				draw(x01, y01, x11, y11, x12, y12);
				draw(x22, y22, x23, y23, x, y)
			всё
		кон draw;

		проц solve (a, b, c: вещ32; перем t1, t2: вещ32; перем n: цел16);
			перем d, e, t: вещ32;
		нач
			n := 0; d := b * b - a * c;
			если d >= 0 то
				d := Math.sqrt(d); e := -b + d;
				если (a * e > 0) и (матМодуль(e) < матМодуль(a)) то
					t1 := e/a; n := 1;
					e := -b - d;
					если (d > 0) и (a * e > 0) и (матМодуль(e) < матМодуль(a)) то
						t2 := e/a; n := 2;
						если t2 < t1 то t := t1; t1 := t2; t2 := t всё
					всё
				иначе
					e := -b - d;
					если (a * e > 0) и (матМодуль(e) < матМодуль(a)) то
						t1 := e/a; n := 1
					всё
				всё
			всё;
			утв((n = 0) или (n = 1) и (0 < t1) и (t1 < 1) или (n = 2) и (0 < t1) и (t1 < t2) и (t2 < 1))
		кон solve;

		проц norm2y (x1, y1, x2, y2, x, y: вещ32);
			перем t1, t2, x01, x11, x12, x22, x23, y01, y11, y12, y22, y23: вещ32; n: цел16;
		нач
			solve(y - data.y + 3*(y1 - y2), data.y - 2*y1 + y2, y1 - data.y, t1, t2, n);
			если n = 0 то
				draw(x1, y1, x2, y2, x, y)
			иначе
				subdiv(t1, data.x, x1, x2, x, x01, x11, x12, x22, x23);
				subdiv(t1, data.y, y1, y2, y, y01, y11, y12, y22, y23);
				draw(x01, y01, x11, y11, x12, y12);
				если n = 2 то
					t2 := (t2 - t1)/(1-t1);
					subdiv(t2, data.x, x22, x23, x, x01, x11, x12, x22, x23);
					subdiv(t2, data.y, y22, y23, y, y01, y11, y12, y22, y23);
					draw(x01, y01, x11, y11, x12, y12)
				всё;
				draw(x22, y22, x23, y23, x, y)
			всё
		кон norm2y;

		проц norm2x (x1, y1, x2, y2, x, y: вещ32);
			перем t1, t2, x01, x11, x12, x22, x23, y01, y11, y12, y22, y23: вещ32; n: цел16;
		нач
			solve(x - data.x + 3*(x1 - x2), data.x - 2*x1 + x2, x1 - data.x, t1, t2, n);
			если n = 0 то
				norm2y(x1, y1, x2, y2, x, y)
			иначе
				subdiv(t1, data.x, x1, x2, x, x01, x11, x12, x22, x23);
				subdiv(t1, data.y, y1, y2, y, y01, y11, y12, y22, y23);
				norm2y(x01, y01, x11, y11, x12, y12);
				если n = 2 то
					t2 := (t2 - t1)/(1-t1);
					subdiv(t2, data.x, x22, x23, x, x01, x11, x12, x22, x23);
					subdiv(t2, data.y, y22, y23, y, y01, y11, y12, y22, y23);
					norm2y(x01, y01, x11, y11, x12, y12)
				всё;
				norm2y(x22, y22, x23, y23, x, y)
			всё
		кон norm2x;

		проц norm1y (x1, y1, x2, y2, x, y: вещ32);
			перем ay, by, t, x01, x11, x12, x22, x23, y01, y11, y12, y22, y23: вещ32;
		нач
			ay := y - data.y + 3*(y1 - y2); by := data.y - 2*y1 + y2;
			если (ay * by < 0) и (матМодуль(by) < матМодуль(ay)) то
				t := -by/ay;
				subdiv(t, data.x, x1, x2, x, x01, x11, x12, x22, x23);
				subdiv(t, data.y, y1, y2, y, y01, y11, y12, y22, y23);
				norm2x(x01, y01, x11, y11, x12, y12);
				norm2x(x22, y22, x23, y23, x, y)
			иначе
				norm2x(x1, y1, x2, y2, x, y)
			всё
		кон norm1y;

	нач
		data.elem := Line;
		f2 := flatness * flatness;
		если f2 < eps то f2 := eps всё;
		ax := x - data.x + 3*(x1 - x2); bx := data.x - 2*x1 + x2;
		если (ax * bx < 0) и (матМодуль(bx) < матМодуль(ax)) то
			t := -bx/ax;
			subdiv(t, data.x, x1, x2, x, x01, x11, x12, x22, x23);
			subdiv(t, data.y, y1, y2, y, y01, y11, y12, y22, y23);
			norm1y(x01, y01, x11, y11, x12, y12);
			norm1y(x22, y22, x23, y23, x, y)
		иначе
			norm1y(x1, y1, x2, y2, x, y)
		всё
	кон EnumBezier;

	(*
	 * The code for the spline evaluation has been adapted from Beat Stamm's Graphic module. It handles natural open
	 * and closed splines.
	 *)

	проц SolveClosed (n: цел32; перем x, y, d: массив из вещ32);
		перем hn, dn, d0, d1, t1, t2: вещ32; a, b, c, u: массив MaxSplinePoints из вещ32; i: цел32;
	нач
		hn := 1/(x[n - 1] - x[n - 2]); dn := 3 * (y[n - 1] - y[n - 2]) * hn * hn;
		b[0] := 1/(x[1] - x[0]); a[0] := hn + 2*b[0]; c[0] := b[0];
		d0 := 3 * (y[1] - y[0]) * b[0] * b[0]; d[0] := dn + d0;
		u[0] := 1;
		i := 1;
		нцПока i < n - 2 делай
			b[i] := 1/(x[i + 1] - x[i]); a[i] := 2 * (c[i - 1] + b[i]); c[i] := b[i];
			d1 := 3 * (y[i + 1] - y[i]) * b[i] * b[i]; d[i] := d0 + d1; d0 := d1;
			u[i] := 0;
			увел(i)
		кц;
		a[i] := 2 * b[i - 1] + hn; d[i] := dn + d0; u[i] := 1;

		i := 0;
		нцПока i < n - 2 делай
			c[i] := c[i]/a[i];
			a[i + 1] := a[i + 1] - c[i] * b[i];
			увел(i)
		кц;
		i := 1;
		нцПока i < n - 1 делай
			t1 := c[i - 1];
			t2 := t1 * d[i - 1];
			d[i] := d[i] - t2;
			t2 := t1 * u[i - 1];
			u[i] := u[i] - t2;
			увел(i)
		кц;
		d[n - 2] := d[n - 2]/a[n - 2];
		u[n - 2] := u[n - 2]/a[n - 2];
		i := n - 3;
		нцПока i >= 0 делай
			t1 := b[i] * d[i + 1];
			d[i] := (d[i] - t1)/a[i];
			t1 := b[i] * u[i + 1];
			u[i] := (u[i] - t1)/a[i];
			умень(i)
		кц;

		d0 := (d[0] + d[n - 2])/(u[0] + u[n - 2] + x[n - 1] - x[n - 2]);
		i := 0;
		нцПока i < n - 1 делай
			d[i] := d[i] - d0 * u[i];
			увел(i)
		кц;
		d[n - 1] := d[0]
	кон SolveClosed;

	проц Solve (n: цел32; перем x, y, d: массив из вещ32);
		перем a, b, c: массив MaxSplinePoints из вещ32; d0, d1, t: вещ32; i: цел32;
	нач
		b[0] := 1/(x[1] - x[0]); a[0] := 2*b[0]; c[0] := b[0];
		d0 := 3 * (y[1] - y[0]) * b[0] * b[0]; d[0] := d0;
		i := 1;
		нцПока i < n - 1 делай
			b[i] := 1/(x[i + 1] - x[i]); a[i] := 2 * (c[i - 1] + b[i]); c[i] := b[i];
			d1 := 3 * (y[i + 1] - y[i]) * b[i] * b[i]; d[i] := d0 + d1; d0 := d1;
			увел(i)
		кц;
		a[i] := 2 * b[i - 1]; d[i] := d0;

		i := 0;
		нцПока i < n - 1 делай
			c[i] := c[i]/a[i];
			a[i + 1] := a[i + 1] - c[i] * b[i];
			увел(i)
		кц;
		i := 1;
		нцПока i < n делай
			t := c[i - 1] * d[i - 1];
			d[i] := d[i] - t;
			увел(i)
		кц;
		d[n - 1] := d[n - 1]/a[n - 1];
		i := n - 2;
		нцПока i >= 0 делай
			t := b[i] * d[i + 1];
			d[i] := (d[i] - t)/a[i];
			умень(i)
		кц
	кон Solve;

	(** enumerate natural spline as sequence of path elements; current point must be in (data.x, data.y) **)
	проц EnumSpline* (перем x, y: массив из вещ32; n: цел32; closed: булево; enum: Enumerator; перем data: EnumData);
		перем s, xp, yp: массив MaxSplinePoints из вещ32; i: цел32; dx, dy, ds, ds2, bx, by, t: вещ32;
	нач
		утв((n >= 2) и (n <= MaxSplinePoints));
		утв(~closed или (x[0] = x[n - 1]) и (y[0] = y[n - 1]));
		если ~closed и (n = 2) то
			data.elem := Line; data.x := x[1]; data.y := y[1]; enum(data)
		аесли closed и (n = 3) то
			data.elem := Arc; data.x0 := 0.5*(x[0] + x[1]); data.y0 := 0.5*(y[0] + y[1]); data.x1 := x[0]; data.y1 := y[0];
			data.x2 := data.x0 + (data.y0 - data.y); data.y2 := data.y0 + (data.x - data.x0); enum(data)
		иначе
			(* use arc length for parametrizing the spline *)
			s[0] := 0.0;
			i := 1;
			нцПока i < n делай
				dx := x[i] - x[i - 1]; dy := y[i] - y[i - 1];
				s[i] := s[i - 1] + Math.sqrt(dx * dx + dy * dy) + 0.01;	(* make sure s[i] > s[i - 1] *)
				увел(i)
			кц;

			(* calculate derivatives *)
			если closed то
				SolveClosed(n, s, x, xp);
				SolveClosed(n, s, y, yp)
			иначе
				Solve(n, s, x, xp);
				Solve(n, s, y, yp)
			всё;
			data.elem := Bezier;
			i := 1;
			нцПока i < n делай
				ds := 1.0/(s[i] - s[i - 1]); ds2 := ds * ds;
				dx := ds * (x[i] - x[i - 1]);
				dy := ds * (y[i] - y[i - 1]);
				bx := ds * (3*dx - 2*xp[i - 1] - xp[i]);
				by := ds * (3*dy - 2*yp[i - 1] - yp[i]);
				t := 1/ds;
				data.x1 := x[i - 1] + (1/3)*xp[i - 1]*t;
				data.y1 := y[i - 1] + (1/3)*yp[i - 1]*t;
				t := 1/ds2;
				data.x2 := 2*data.x1 - x[i - 1] + (1/3) * bx * t;
				data.y2 := 2*data.y1 - y[i - 1] + (1/3) * by * t;
				data.x := x[i]; data.y := y[i];
				enum(data);
				увел(i)
			кц
		всё
	кон EnumSpline;

	(** enumerate path elements **)
	проц Enumerate* (path: Path; enum: Enumerator; перем data: EnumData);
		перем eb: ElemBlock; cb: CoordBlock; pos, epos, cpos: цел16;

		проц get (перем x, y: вещ32);
		нач
			если cpos = CoordBlockSize то
				cb := cb.next; cpos := 0
			всё;
			x := cb.x[cpos]; y := cb.y[cpos]; увел(cpos)
		кон get;

	нач
		eb := path.firstEB; cb := path.firstCB;
		pos := 0; epos := 0; cpos := 0;
		нцПока pos < path.elems делай
			если epos = ElemBlockSize то
				eb := eb.next; epos := 0
			всё;
			data.elem := eb.elem[epos];
			просей data.elem из
			| Enter: get(data.dx, data.dy); get(data.x, data.y)
			| Line: get(data.x, data.y)
			| Arc: get(data.x0, data.y0); get(data.x1, data.y1); get(data.x2, data.y2); get(data.x, data.y)
			| Bezier: get(data.x1, data.y1); get(data.x2, data.y2); get(data.x, data.y)
			| Exit: get(data.dx, data.dy)
			всё;
			enum(data);
			увел(pos); увел(epos)
		кц
	кон Enumerate;

	(** enumerate flattened path, i.e. arcs and bezier curves will be approximated with lines **)
	проц EnumFlattened* (path: Path; flatness: вещ32; enum: Enumerator; перем data: EnumData);
		перем eb: ElemBlock; cb: CoordBlock; pos, epos, cpos: цел16; x0, y0, x1, y1, x2, y2, x, y: вещ32;

		проц get (перем x, y: вещ32);
		нач
			если cpos = CoordBlockSize то
				cb := cb.next; cpos := 0
			всё;
			x := cb.x[cpos]; y := cb.y[cpos]; увел(cpos)
		кон get;

	нач
		eb := path.firstEB; cb := path.firstCB;
		pos := 0; epos := 0; cpos := 0;
		нцПока pos < path.elems делай
			если epos = ElemBlockSize то
				eb := eb.next; epos := 0
			всё;
			data.elem := eb.elem[epos];
			просей data.elem из
			| Enter:
				get(data.dx, data.dy); get(data.x, data.y);
				enum(data)
			| Line:
				get(data.x, data.y);
				enum(data)
			| Arc:
				get(x0, y0); get(x1, y1); get(x2, y2); get(x, y);
				EnumArc(x0, y0, x1, y1, x2, y2, x, y, flatness, enum, data)
			| Bezier:
				get(x1, y1); get(x2, y2); get(x, y);
				EnumBezier(x1, y1, x2, y2, x, y, flatness, enum, data);
				(* why this? data.elem := Line; data.x := x; data.y := y; enum(data) *)
			| Exit:
				get(data.dx, data.dy);
				enum(data)
			всё;
			увел(pos); увел(epos)
		кц
	кон EnumFlattened;


	(**--- Path Queries ---**)

	(** return whether path is empty **)
	проц Empty* (path: Path): булево;
	нач
		возврат path.elems = 0
	кон Empty;

	проц Code (перем data: QueryData; x, y: вещ32): мнвоНаБитахМЗ;
		перем code: мнвоНаБитахМЗ;
	нач
		code := {};
		если x < data.llx то включиВоМнвоНаБитах(code, Left)
		аесли x > data.urx то включиВоМнвоНаБитах(code, Right)
		всё;
		если y < data.lly то включиВоМнвоНаБитах(code, Bottom)
		аесли y > data.ury то включиВоМнвоНаБитах(code, Top)
		всё;
		возврат code
	кон Code;

	проц EnumQuery (перем data: EnumData);
		перем x, y: вещ32; code, cc: мнвоНаБитахМЗ;
	нач
		(*
			The procedure uses a simplified version of the Cohen-Sutherland clipping algorithm. The endpoint of
			the current line is consecutively clipped against all sides of the rectangle until both points of the line
			are outside the rectangle with respect to one single rectangle border or until the clipped endpoint
			is inside the rectangle.
		*)
		просейТип data: QueryData делай
			если ~data.hit то
				если data.elem = Enter то
					data.code := Code(data, data.x, data.y);
					если data.code = {} то	(* point inside rectangle *)
						data.hit := истина
					иначе
						data.sx := data.x; data.sy := data.y
					всё
				аесли (data.elem = Line) и ((data.x # data.sx) или (data.y # data.sy)) то
					x := data.x; y := data.y;
					нц
						code := Code(data, x, y);
						если code = {} то	(* point inside rectangle *)
							data.hit := истина;
							прервиЦикл
						всё;
						cc := data.code * code;
						если cc # {} то	(* no intersection with rectangle *)
							если data.thorough то
								(*
									For every line crossing the rectangle's middle y coordinate, accumulate how often the rectangle's
									midpoint lies to the left/right of the line
								*)
								y := 0.5*(data.lly + data.ury);
								если (data.sy <= y) и (y < data.y) или (data.y <= y) и (y < data.sy) то
									x := 0.5*(data.llx + data.urx);
									если (data.x - data.sx) * (y - data.sy) >= (data.y - data.sy) * (x - data.sx) то
										увел(data.sum)
									иначе
										умень(data.sum)
									всё
								всё
							всё;
							data.code := Code(data, data.x, data.y); data.sx := data.x; data.sy := data.y;
							прервиЦикл
						всё;
						если Left в code то
							y := data.sy + (y - data.sy) * (data.llx - data.sx)/(x - data.sx);
							x := data.llx
						аесли Right в code то
							y := data.sy + (y - data.sy) * (data.urx - data.sx)/(x - data.sx);
							x := data.urx
						аесли Bottom в code то
							x := data.sx + (x - data.sx) * (data.lly - data.sy)/(y - data.sy);
							y := data.lly
						иначе	(* Top IN code *)
							x := data.sx + (x - data.sx) * (data.ury - data.sy)/(y - data.sy);
							y := data.ury
						всё
					кц
				всё
			всё
		всё
	кон EnumQuery;

	(** return whether rectangle is completely inside (closed) path **)
	проц InPath* (llx, lly, urx, ury: вещ32; path: Path; evenOdd: булево): булево;
		перем data: QueryData;
	нач
		data.thorough := истина; data.sum := 0; data.hit := ложь; data.llx := llx; data.lly := lly; data.urx := urx; data.ury := ury;
		EnumFlattened(path, 1, EnumQuery, data);
		возврат data.hit или evenOdd и нечётноеЛи¿(матМодуль(data.sum) DIV 2) или ~evenOdd и (data.sum # 0)
	кон InPath;

	(** return whether rectangle intersects path **)
	проц OnPath* (llx, lly, urx, ury: вещ32; path: Path): булево;
		перем data: QueryData;
	нач
		data.thorough := ложь; data.hit := ложь; data.llx := llx; data.lly := lly; data.urx := urx; data.ury := ury;
		EnumFlattened(path, 1, EnumQuery, data);
		возврат data.hit
	кон OnPath;

	проц EnumBoxElem (перем data: EnumData);
	нач
		просейТип data: QueryData делай
			если data.elem в {Enter, Line} то
				если data.x < data.llx то data.llx := data.x всё;
				если data.x > data.urx то data.urx := data.x всё;
				если data.y < data.lly то data.lly := data.y всё;
				если data.y > data.ury то data.ury := data.y всё
			всё
		всё
	кон EnumBoxElem;

	(** calculate bounding box of path **)
	проц GetBox* (path: Path; перем llx, lly, urx, ury: вещ32);
		перем data: QueryData;
	нач
		data.llx := матМаксимум(вещ32); data.lly := матМаксимум(вещ32); data.urx := матМинимум(вещ32); data.ury := матМинимум(вещ32);
		EnumFlattened(path, 1, EnumBoxElem, data);
		llx := data.llx; lly := data.lly; urx := data.urx; ury := data.ury
	кон GetBox;

	(** calculate line length **)
	проц LineLength* (x0, y0, x1, y1: вещ32): вещ32;
		перем dx, dy: вещ32;
	нач
		dx := x1 - x0; dy := y1 - y0;
		возврат Math.sqrt(dx * dx + dy * dy)
	кон LineLength;

	проц EnumLength (перем data: EnumData);
		перем dx, dy: вещ32;
	нач
		просейТип data: LengthData делай
			если data.elem = Line то
				dx := data.x - data.sx; dy := data.y - data.sy;
				data.len := data.len + Math.sqrt(dx * dx + dy * dy)
			всё;
			data.sx := data.x; data.sy := data.y
		всё
	кон EnumLength;

	(** calculate arc length **)
	проц ArcLength* (sx, sy, ex, ey, x0, y0, x1, y1, x2, y2, flatness: вещ32): вещ32;
		перем data: LengthData;
	нач
		data.x := sx; data.y := sy; data.sx := sx; data.sy := sy; data.len := 0;
		EnumArc(x0, y0, x1, y1, x2, y2, ex, ey, flatness, EnumLength, data);
		возврат data.len
	кон ArcLength;

	(** calculate bezier length **)
	проц BezierLength* (x0, y0, x1, y1, x2, y2, x3, y3, flatness: вещ32): вещ32;
		перем data: LengthData;
	нач
		data.x := x0; data.y := y0; data.sx := x0; data.sy := y0; data.len := 0;
		EnumBezier(x1, y1, x2, y2, x3, y3, flatness, EnumLength, data);
		возврат data.len
	кон BezierLength;

	(** calculate path length **)
	проц Length* (path: Path; flatness: вещ32): вещ32;
		перем data: LengthData;
	нач
		data.len := 0;
		EnumFlattened(path, flatness, EnumLength, data);
		возврат data.len
	кон Length;


	(**--- Path Operations ---**)

	(** put reversed source path into destination path; dst remains unchanged if src is empty **)
	проц Reverse* (src, dst: Path);
		перем
			elems, sepos, scpos, depos, dcpos: цел16; dstEB, nextEB, srcEB, eb: ElemBlock;
			dstCB, nextCB, srcCB: CoordBlock; dx, dy, x, y, x0, y0, x1, y1, x2, y2: вещ32;

		проц get (перем x, y: вещ32);
		нач
			если scpos = CoordBlockSize то
				srcCB := srcCB.next; scpos := 0
			всё;
			x := srcCB.x[scpos]; y := srcCB.y[scpos]; увел(scpos)
		кон get;

		проц put (x, y: вещ32);
			перем cb: CoordBlock;
		нач
			если dcpos = 0 то
				если nextCB # НУЛЬ то cb := nextCB; nextCB := cb.next
				иначе нов(cb)
				всё;
				cb.next := dstCB; dstCB := cb;
				dcpos := CoordBlockSize
			всё;
			умень(dcpos); увел(dstEB.coords);
			dstCB.x[dcpos] := x; dstCB.y[dcpos] := y
		кон put;

	нач
		утв(src # dst, 100);
		elems := src.elems;
		если elems > 0 то
			если dst.firstEB # НУЛЬ то dstEB := dst.firstEB; dstEB.coords := 0; nextEB := dstEB.next; dstEB.next := НУЛЬ
			иначе нов(dstEB); nextEB := НУЛЬ
			всё;
			если dst.firstCB # НУЛЬ то dstCB := dst.firstCB; nextCB := dstCB.next; dstCB.next := НУЛЬ
			иначе нов(dstCB); nextCB := НУЛЬ
			всё;
			dst.lastEB := dstEB; dst.lastCB := dstCB;
			srcEB := src.firstEB; srcCB := src.firstCB;
			sepos := 0; scpos := 0;
			depos := (src.elems-1) остОтДеленияНа ElemBlockSize + 1; dcpos := (src.coords-1) остОтДеленияНа CoordBlockSize + 1;
			нцДо
				(*
					store reverted path in dst:
						- segment end points become end points of their inverted successors
						- order of control points is reversed
						- directions are inverted
				*)
				если sepos = ElemBlockSize то
					srcEB := srcEB.next; sepos := 0
				всё;
				если depos = 0 то
					если nextEB # НУЛЬ то eb := nextEB; eb.coords := 0; nextEB := eb.next
					иначе нов(eb)
					всё;
					eb.next := dstEB; dstEB := eb;
					depos := ElemBlockSize
				всё;
				умень(depos);
				просей srcEB.elem[sepos] из
				| Enter:
					dstEB.elem[depos] := Exit;
					get(dx, dy); get(x, y);
					put(-dx, -dy); put(x, y)
				| Line:
					dstEB.elem[depos] := Line;
					get(x, y);
					put(x, y)
				| Arc:
					dstEB.elem[depos] := Arc;
					get(x0, y0); get(x1, y1); get(x2, y2); get(x, y);
					put(x1, y1); put(x2, y2); put(x0, y0); put(x, y)
				| Bezier:
					dstEB.elem[depos] := Bezier;
					get(x1, y1); get(x2, y2); get(x, y);
					put(x1, y1); put(x2, y2); put(x, y)
				| Exit:
					dstEB.elem[depos] := Enter;
					get(dx, dy);
					put(-dx, -dy)
				всё;
				увел(sepos); умень(elems)
			кцПри elems = 0;
			dst.firstEB := dstEB; dst.firstCB := dstCB;
			dst.elems := src.elems; dst.coords := src.coords
		всё
	кон Reverse;

	(** return copy of source path in destination path **)
	проц Copy* (src, dst: Path);
		перем srcEB, dstEB: ElemBlock; n: цел16; srcCB, dstCB: CoordBlock;
	нач
		если src # dst то
			если dst.firstEB = НУЛЬ то нов(dst.firstEB) всё;
			srcEB := src.firstEB; dstEB := dst.firstEB;
			нц
				если srcEB = src.lastEB то n := (src.elems-1) остОтДеленияНа ElemBlockSize + 1
				иначе n := ElemBlockSize
				всё;
				нцПока n > 0 делай
					умень(n); dstEB.elem[n] := srcEB.elem[n]
				кц;
				dstEB.coords := srcEB.coords;
				если srcEB = src.lastEB то прервиЦикл всё;
				если dstEB.next = НУЛЬ то нов(dstEB.next) всё;
				srcEB := srcEB.next; dstEB := dstEB.next
			кц;
			dst.lastEB := dstEB; dstEB.next := НУЛЬ;

			если dst.firstCB = НУЛЬ то нов(dst.firstCB) всё;
			srcCB := src.firstCB; dstCB := dst.firstCB;
			нц
				если srcCB = src.lastCB то n := (src.coords-1) остОтДеленияНа CoordBlockSize + 1
				иначе n := CoordBlockSize
				всё;
				нцПока n > 0 делай
					умень(n); dstCB.x[n] := srcCB.x[n]; dstCB.y[n] := srcCB.y[n]
				кц;
				если srcCB = src.lastCB то прервиЦикл всё;
				если dstCB.next = НУЛЬ то нов(dstCB.next) всё;
				srcCB := srcCB.next; dstCB := dstCB.next
			кц;
			dst.lastCB := dstCB; dstCB.next := НУЛЬ;
			dst.elems := src.elems; dst.coords := src.coords
		всё
	кон Copy;

	(** apply transformation to all coordinates in path **)
	проц Apply* (path: Path; перем mat: GfxMatrix.Matrix);
		перем eb: ElemBlock; cb: CoordBlock; pos, epos, cpos: цел16;

		проц point (перем b: CoordBlock; перем idx: цел16);
		нач
			если idx = CoordBlockSize то
				b := b.next; idx := 0
			всё;
			GfxMatrix.Apply(mat, b.x[idx], b.y[idx], b.x[idx], b.y[idx]);
			увел(idx)
		кон point;

		проц vector (перем b: CoordBlock; перем idx: цел16);
		нач
			если idx = CoordBlockSize то
				b := b.next; idx := 0
			всё;
			GfxMatrix.ApplyToVector(mat, b.x[idx], b.y[idx], b.x[idx], b.y[idx]);
			увел(idx)
		кон vector;

	нач
		eb := path.firstEB; cb := path.firstCB;
		pos := 0; epos := 0; cpos := 0;
		нцПока pos < path.elems делай
			если epos = ElemBlockSize то
				eb := eb.next; epos := 0
			всё;
			просей eb.elem[epos] из
			| Enter: vector(cb, cpos); point(cb, cpos)
			| Line: point(cb, cpos)
			| Arc: point(cb, cpos); point(cb, cpos); point(cb, cpos); point(cb, cpos)
			| Bezier: point(cb, cpos); point(cb, cpos); point(cb, cpos)
			| Exit: vector(cb, cpos)
			всё;
			увел(pos); увел(epos)
		кц
	кон Apply;

	проц GetDir (перем data: EnumData);
	нач
		просейТип data: DirData делай
			если (data.sdx = 0) и (data.sdy = 0) то
				data.sdx := data.x - data.cx; data.sdy := data.y - data.cy
			всё;
			data.edx := data.x - data.cx; data.edy := data.y - data.cy;
			data.cx := data.x; data.cy := data.y
		всё
	кон GetDir;

	(** try to close disconnected enter/exit points by modifying their direction vectors **)
	проц Close* (path: Path);
		конст
			eps = 0.001;

		перем
			pos, epos, cpos, p, spos: цел16; eb: ElemBlock; cb, b, sb: CoordBlock; dx, dy, cx, cy, sx, sy, sdx, sdy, x, y, edx, edy: вещ32;
			data: DirData;

		проц get (перем x, y: вещ32);
		нач
			если cpos = CoordBlockSize то
				cb := cb.next; cpos := 0
			всё;
			x := cb.x[cpos]; y := cb.y[cpos];
			увел(cpos)
		кон get;

	нач
		pos := 0; epos := 0; cpos := 0; eb := path.firstEB; cb := path.firstCB;
		нцПока pos < path.elems делай
			если epos = ElemBlockSize то
				eb := eb.next; epos := 0
			всё;
			просей eb.elem[epos] из
			| Enter:
				b := cb; p := cpos;
				get(dx, dy); get(cx, cy);
				если (dx = 0) и (dy = 0) то
					sb := b; spos := p; sx := cx; sy := cy; sdx := 0; sdy := 0
				всё
			| Line:
				get(x, y); dx := x - cx; dy := y - cy; cx := x; cy := y;
				если (sdx = 0) и (sdy = 0) то
					sdx := dx; sdy := dy
				всё
			| Arc:
				data.sdx := 0; data.sdy := 0; data.cx := cx; data.cy := cy; data.x := cx; data.y := cy;
				get(data.x0, data.y0); get(data.x1, data.y1); get(data.x2, data.y2); get(cx, cy);
				EnumArc(data.x0, data.y0, data.x1, data.y1, data.x2, data.y2, cx, cy, 1.0, GetDir, data);
				если (sdx = 0) и (sdy = 0) то
					sdx := data.sdx; sdy := data.sdy
				всё;
				dx := data.edx; dy := data.edy
			| Bezier:
				get(x, y);
				если (sdx = 0) и (sdy = 0) то
					sdx := x - cx; sdy := y - cy
				всё;
				get(x, y); get(cx, cy); dx := cx - x; dy := cy - y
			| Exit:
				b := cb; p := cpos;
				get(edx, edy);
				если (edx = 0) и (edy = 0) и (матМодуль(x - sx) <= eps) и (матМодуль(y - sy) <= eps) то
					если spos = CoordBlockSize то
						sb := sb.next; spos := 0
					всё;
					sb.x[spos] := dx; sb.y[spos] := dy;
					если p = CoordBlockSize то
						b := b.next; p := 0
					всё;
					b.x[p] := sdx; b.y[p] := sdy
				всё
			всё;
			увел(pos); увел(epos)
		кц
	кон Close;

	проц EnumSplit (перем data: EnumData);
		перем dx, dy, d, s, sx, sy: вещ32;
	нач
		просейТип data: SplitData делай
			просей data.elem из
			| Enter:
				если data.offset > 0 то AddEnter(data.head, data.x, data.y, data.dx, data.dy)
				иначе AddEnter(data.tail, data.x, data.y, data.dx, data.dy)
				всё;
				data.sx := data.x; data.sy := data.y
			| Line:
				если data.offset > 0 то	(* still appending to head *)
					dx := data.x - data.sx; dy := data.y - data.sy; d := Math.sqrt(dx * dx + dy * dy);
					если d > 0 то
						если d < data.offset то	(* doesn't reach split offset *)
							AddLine(data.head, data.x, data.y);
							data.offset := data.offset - d; data.sx := data.x; data.sy := data.y
						аесли d > data.offset то	(* split within line *)
							s := data.offset/d;
							sx := data.sx + s * dx; sy := data.sy + s * dy;
							AddLine(data.head, sx, sy); AddExit(data.head, dx, dy);	(* leave head... *)
							AddEnter(data.tail, sx, sy, dx, dy); AddLine(data.tail, data.x, data.y);	(* ...and enter tail *)
							data.offset := data.offset - d	(* now < 0 *)
						иначе	(* d = offset: delay until next line/exit *)
							data.offset := 0; data.sx := data.x; data.sy := data.y; data.sdx := dx; data.sdy := dy
						всё
					всё
				аесли data.offset < 0 то	(* appending to tail *)
					AddLine(data.tail, data.x, data.y)
				иначе	(* split point at previous line end point *)
					AddLine(data.head, data.sx, data.sy); AddExit(data.head, dx, dy);	(* leave head... *)
					AddEnter(data.tail, data.sx, data.sy, data.sdx, data.sdy);	(* ...and enter tail *)
					AddLine(data.tail, data.x, data.y);
					data.offset := -1
				всё
			| Exit:
				если data.offset > 0 то AddExit(data.head, data.dx, data.dy)
				аесли data.offset < 0 то AddExit(data.tail, data.dx, data.dy)
				иначе AddLine(data.head, data.sx, data.sy); AddExit(data.head, data.dx, data.dy); data.offset := -1
				всё
			всё
		всё
	кон EnumSplit;

	(** split subpath in two at given offset (resulting subpaths may be flattened in the process) **)
	проц Split* (path: Path; offset: вещ32; head, tail: Path);
		перем data: SplitData;
	нач
		если offset <= 0 то
			Copy(path, tail); Clear(head)
		аесли offset >= Length(path, 1) то
			Copy(path, head); Clear(tail)
		иначе
			Clear(head); Clear(tail);
			data.offset := offset; data.head := head; data.tail := tail;
			EnumFlattened(path, 1, EnumSplit, data)
		всё
	кон Split;


	(**--- Geometry Support ---**)

	(** compute intersection of two lines **)
	проц IntersectLines* (x1, y1, dx1, dy1, x2, y2, dx2, dy2: вещ32; перем x, y: вещ32);
		перем d, t: вещ32;
	нач
		d := dx1 * dy2 - dy1 * dx2;
		t := (x2 - x1) * dy2 - (y2 - y1) * dx2;
		если (матМодуль(d) >= 1) или (матМодуль(d) * матМаксимум(вещ32) >= матМодуль(t)) то
			t := t/d;
			x := x1 + t * dx1; y := y1 + t * dy1
		иначе
			x := 0.5*(x2 - x1); y := 0.5*(y2 - y1)
		всё
	кон IntersectLines;

	(** compute intersection(s) of line with circle; returns number of solutions in nsol **)
	проц IntersectLineCircle* (sx, sy, tx, ty, mx, my, r: вещ32; перем x1, y1, x2, y2: вещ32; перем nsol: цел32);
		перем dx, dy, cx, cy, a2, b, c, d, t: вещ32;
	нач
		dx := tx - sx; dy := ty - sy;
		cx := sx - mx; cy := sy - my;
		a2 := 2 * (dx * dx + dy * dy);
		b := 2 * (dx * cx + dy * cy);
		c := cx * cx + cy * cy - r * r;
		d := b * b - 2 * a2 * c;
		если d < 0 то
			nsol := 0
		иначе
			d := Math.sqrt(d);
			если (d >= b) и (d - b <= a2) то
				t := (d - b)/a2;
				x1 := sx + t * dx; y1 := sy + t * dy;
				если (b + d <= 0) и (b + d >= -a2) то
					t := (b + d)/a2;
					x2 := sx - t * dx; y2 := sy - t * dy;
					nsol := 2
				иначе
					nsol := 1
				всё
			аесли (b + d <= 0) и (b + d >= -a2) то
				t := (b + d)/a2;
				x2 := sx - t * dx; y2 := sy - t * dy;
				nsol := 1
			всё
		всё
	кон IntersectLineCircle;

	(** return projection of point onto line **)
	проц ProjectToLine* (px, py, qx, qy, x, y: вещ32; перем u, v: вещ32);
		перем vx, vy, vv, wx, wy, w, d: вещ32;
	нач
		vx := qx - px; vy := qy - py;
		vv := vx * vx + vy * vy;
		wx := x - px; wy := y - py;
		w := wx * vx + wy * vy;
		если (vv >= 1) или (vv * матМаксимум(вещ32) >= матМодуль(w)) то
			d := w/vv;
			u := px + d * vx; v := py + d * vy
		иначе
			u := px; v := py
		всё
	кон ProjectToLine;

	(** return projection of point onto ellipse at origin **)
	проц ProjectToEllipse* (ax, ay, bx, by, x, y: вещ32; перем u, v: вещ32);
		перем a, sina, cosa, b, shear, l: вещ32;
	нач
		если матМодуль(ax * by - ay * bx) < 1.0E-10 то
			u := 0.0; v := 0.0
		иначе	(* find parameters to rotate, shear and scale ellipse to unit circle *)
			a := Math.sqrt(ax * ax + ay * ay);
			sina := ay/a; cosa := ax/a;
			b := cosa * by - sina * bx;
			shear := (cosa * bx + sina * by)/b;
			v := cosa * y - sina * x;
			u := (cosa * x + sina * y - shear * v)/a;
			v := v/b;
			l := Math.sqrt(u * u + v * v);
			u := u/l; v := v/l;

			(* map u, v back to original coordinates *)
			y := v * b;
			x := u * a + shear * y;
			u := cosa * x - sina * y;
			v := sina * x + cosa * y
		всё
	кон ProjectToEllipse;

	проц EnumProject (перем data: EnumData);
		перем x, y, dx, dy, d:вещ32;
	нач
		просейТип data: ProjectData делай
			если data.elem = Enter то
				data.sx := data.x; data.sy := data.y
			аесли data.elem = Line то
				ProjectToLine(data.sx, data.sy, data.x, data.y, data.px, data.py, x, y);
				dx := data.px - x; dy := data.py - y;
				d := dx * dx + dy * dy;
				если d < data.dist то
					dx := data.x - data.sx; dy := data.y - data.sy;
					если ((x - data.sx) * dx + (y - data.sy) * dy >= 0) и ((data.x - x) * dx + (data.y - y) * dy >= 0) то
						data.rx := x; data.ry := y; data.dist := d
					всё
				всё;
				data.sx := data.x; data.sy := data.y
			всё
		всё
	кон EnumProject;

	(** return projection of point onto path **)
	проц ProjectToPath* (path: Path; x, y: вещ32; перем u, v: вещ32);
		перем data: ProjectData;
	нач
		data.px := x; data.py := y; data.dist := матМаксимум(вещ32); data.rx := матМаксимум(вещ32); data.ry := матМаксимум(вещ32);
		EnumFlattened(path, 1, EnumProject, data);
		u := data.rx; v := data.ry
	кон ProjectToPath;


нач
	Coords[Enter] := 2; Coords[Line] := 1; Coords[Arc] := 4; Coords[Bezier] := 3; Coords[Exit] := 1
кон GfxPaths.
