модуль Linker;	(* AUTHOR "negelef"; PURPOSE "Object File Linker"; *)

использует Commands, Options, Diagnostics, Files, GenericLinker, ObjectFile, BitSets, Strings, Потоки, UCS32, 
	ПереводыЭлементовКода, УтилитыДляПереводаКода := LisУтилитыДляПереводаКода;

тип
	ExportName = массив 128 из симв8;

	PatchBlock*= укль на запись
		baseAdr: цел32;
		addresses: размерМЗ;
		address: массив 1024 из цел32;
		next: PatchBlock;
	кон;

	RelocationInfo= окласс
	конст blockSize=4096;
	перем
		patchBlock: PatchBlock;

		проц & Init;
		нач
			patchBlock := НУЛЬ;
		кон Init;

		проц GetPatchBlock(adr: цел32): PatchBlock;
		перем p, t: PatchBlock;
		нач
			t := patchBlock;
			если (patchBlock = НУЛЬ) или (patchBlock.baseAdr > adr) то
				нов(p); p.next := patchBlock; patchBlock := p; p.baseAdr := adr;
			аесли patchBlock.baseAdr = adr то p := patchBlock
			иначе
				t := patchBlock;
				нцПока (t.next # НУЛЬ) и (t.next.baseAdr <= adr) делай
					t := t.next;
				кц;
				если t.baseAdr = adr то p := t
				иначе
					нов(p); p.next := t.next; t.next := p; p.baseAdr := adr
				всё;
			всё;
			возврат p
		кон GetPatchBlock;

		проц AddReloc(adr: цел32);
		перем aligned: цел32; p: PatchBlock;
		нач
			aligned := adr - adr остОтДеленияНа blockSize;
			p := GetPatchBlock(aligned);
			p.address[p.addresses] := adr (*- aligned*); увел(p.addresses);
		кон AddReloc;

	кон RelocationInfo;

	ExportInfo=окласс
	перем
		exports: цел32;
		name: ExportName;
		symbolNames: укль на массив из ExportName;
		exportNames: укль на массив из ExportName;
		exportAddresses: укль на массив из GenericLinker.Address;

		проц &Init;
		нач
			exports := 0;
		кон Init;

		проц Swap(i,j: цел32);
		перем name1: ExportName; adr: GenericLinker.Address;
		нач
			name1 := exportNames[i]; exportNames[i] := exportNames[j]; exportNames[j] := name1;
			name1 := symbolNames[i]; symbolNames[i] := symbolNames[j]; symbolNames[j] := name1;
			adr := exportAddresses[i]; exportAddresses[i] := exportAddresses[j]; exportAddresses[j] := adr;
		кон Swap;

		проц QuickSort(lo, hi: цел32);
		перем
			i, j,m: цел32;
		нач
			i := lo; j := hi; m := (lo + hi) DIV 2;

			нцПока i <= j делай
				нцПока exportNames[i] < exportNames[m] делай увел(i) кц;
				нцПока exportNames[m] < exportNames[j] делай умень(j) кц;

				если i <= j то
					если m = i то  m := j (* pivot will be moved by Swap *)
					аесли m = j то  m := i (* pivot will be moved by Swap *)
					всё;
					Swap(i,j);
					увел(i); умень(j)
				всё
			кц;

			если lo < j то QuickSort( lo, j) всё;
			если i < hi то QuickSort(i, hi) всё
		кон QuickSort;

		проц Sort;
		нач
			QuickSort(0, exports-1)
		кон Sort;

	кон ExportInfo;

	Arrangement* = окласс (GenericLinker.Arrangement);
	перем
		displacement: GenericLinker.Address;
		bits: BitSets.BitSet;
		maxUnitSize: ObjectFile.Bits;

		exportInfo: ExportInfo;
		relocInfo: RelocationInfo;

	проц & InitArrangement* (displacement1: GenericLinker.Address);
	нач
		сам.displacement := displacement1; maxUnitSize := 1; нов (bits, 0); exportInfo := НУЛЬ; нов(relocInfo);
	кон InitArrangement;

	проц {перекрыта}Allocate* (конст section: ObjectFile.Section): GenericLinker.Address;
	перем address, alignment: ObjectFile.Bits; i, j: размерМЗ; name: ObjectFile.SegmentedName;
	нач
		если section.unit > maxUnitSize то maxUnitSize := section.unit всё;
		если section.fixed то
			address := ObjectFile.Bits((section.alignment - displacement) * section.unit);
		иначе
			address := bits.GetSize (); alignment := section.alignment * section.unit;
			если alignment = 0 то alignment := section.unit; всё;
			увел (address, (alignment - address остОтДеленияНа alignment) остОтДеленияНа alignment);
		всё;
		если bits.GetSize () < section.bits.GetSize () + address то
			bits.Resize (address + section.bits.GetSize ());
		всё;
		(*dest pos is for some reason negative*)
		утв(address>=0);
		BitSets.CopyBits (section.bits, 0, bits, address, section.bits.GetSize ());

		если exportInfo # НУЛЬ то
			нцДля i := 0 до exportInfo.exports-1 делай
				ObjectFile.StringToSegmentedName(exportInfo.symbolNames[i], name);
				если name = section.identifier.name то
					exportInfo.exportAddresses[i] := address DIV section.unit + displacement;
				всё;
				нцДля j := 0 до section.aliases - 1 делай
					если name = section.alias[j].identifier.name то
						exportInfo.exportAddresses[i] := address DIV section.unit + section.alias[j].offset + displacement;
					всё;
				кц;
			кц
		всё;

		возврат address DIV section.unit + displacement;
	кон Allocate;

	проц SizeInBits*(): ObjectFile.Bits;
	нач возврат bits.GetSize()
	кон SizeInBits;

	проц {перекрыта}Patch* (pos, value: GenericLinker.Address; offset, bits1, unit: ObjectFile.Bits);
	нач сам.bits.SetBits ((pos - displacement) * unit + offset, bits1, value);
	кон Patch;

	проц {перекрыта}CheckReloc*(target: GenericLinker.Address; pattern: ObjectFile.Pattern; конст patch: ObjectFile.Patch);
	нач
		если (pattern.mode = ObjectFile.Absolute) и (relocInfo # НУЛЬ) то
			relocInfo.AddReloc(цел32(target+patch.offset));
		всё;
	кон CheckReloc;

кон Arrangement;

тип FileFormat = проц (linker: GenericLinker.Linker; arrangement: Arrangement; writer: Files.Writer);

перем defaults: Options.Defaults;
	processing, finished: GenericLinker.Block;

проц Align(this, to: размерМЗ): размерМЗ;
нач
	this := this + (-this) остОтДеленияНа to;
	возврат this;
кон Align;

проц ReadObjectFile*(конст moduleNameWanted, path, extension: массив из симв8; linker: GenericLinker.Linker; moduleList: GenericLinker.HashTableSegmentedName;
	английскиеИменаЛи¿:булево);
перем fileName: Files.FileName; file: Files.File; reader: Files.Reader; i: размерМЗ;
offers, requires: ObjectFile.NameList;name: массив ObjectFile.SegmentedNameLen из симв8; sn: ObjectFile.SegmentedName; moduleName: ПереводыЭлементовКода.СтрокаИдентификатора;
нач
	УтилитыДляПереводаКода.ПереведиИмяМодуляДляВызова(ПереводыЭлементовКода.модули,moduleNameWanted,moduleName,английскиеИменаЛи¿);
	sn := moduleName;
	если (moduleList # НУЛЬ) и (moduleList.Get(sn) = finished) то
		linker.Warning(moduleName, "duplicate");
		возврат;
	аесли (moduleList # НУЛЬ) и (moduleList.Get(sn) = processing) то
		linker.Error(moduleName, "cyclic import");
		возврат;
	всё;

	если path # "" то Files.JoinPath (path, moduleName, fileName); иначе копируйСтрокуДо0(moduleName,fileName); всё;
	file := Files.Old (fileName);
	если file = НУЛЬ то (* try with extension *)
		Files.JoinExtension (fileName, extension, fileName);
		file := Files.Old (fileName);
	всё;
	если file = НУЛЬ то (* try without extension *)

	всё;
	если file = НУЛЬ то linker.Error (fileName, "failed to open file"); возврат; всё;
	Files.OpenReader (reader, file, 0);

	GenericLinker.OffersRequires(reader, offers, requires);
	если (moduleList # НУЛЬ) и (offers # НУЛЬ) то
		нцДля i := 0 до длинаМассива(offers)-1 делай
			moduleList.Put(offers[i],processing);
		кц;
	всё;

	если (moduleList # НУЛЬ) и (requires # НУЛЬ) то
		нцДля i := 0 до длинаМассива(requires)-1 делай
			если moduleList.Get(requires[i]) = НУЛЬ то
				name := requires[i];
				(*linker.Information(name, "auto");*)
				ReadObjectFile(name,path,extension, linker, moduleList, английскиеИменаЛи¿);
				если linker.error то возврат всё;
			аесли moduleList.Get(requires[i]) = processing то
				name := requires[i];
				Strings.Append(name, moduleName);
				linker.Error(name, "cyclic import!");
				возврат;
			всё;
		кц;
	всё;
	linker.Information (moduleName, "processing");

	reader.ПерейдиКМестуВПотоке(0);
	GenericLinker.Load (reader, linker);
	linker.EnterBlocks();
	если (moduleList # НУЛЬ) и (offers # НУЛЬ) то
		нцДля i := 0 до длинаМассива(offers)-1 делай
			moduleList.Put(offers[i],finished);
		кц;
	всё;
	если reader.кодВозвратаПоследнейОперации # Files.Ok то linker.Error (fileName, "failed to parse"); всё;
кон ReadObjectFile;

проц WriteRelocations( arr: Arrangement; w: Files.Writer );
перем pb: PatchBlock; i, relocations: размерМЗ; binsize: Files.Position;
нач
	binsize := w.МестоВПотоке();
	pb := arr.relocInfo.patchBlock; relocations := 0;
	нцПока pb # НУЛЬ делай
		нцДля i := 0 до pb.addresses -1 делай
			w.пЦел32_мз( pb.address[i] );  увел( relocations );
		кц;
		pb := pb.next;
	кц;
	(* now patch header (cf  Unix.Glue.Mod)  *)
	w.ПерейдиКМестуВПотоке( 24 );
	w.пЦел32_мз( binsize(цел32) );
	w.пЦел32_мз( relocations(цел32) );
кон WriteRelocations;

проц WriteOutputFile* (arrangement: Arrangement; конст fileName: Files.FileName; linker: GenericLinker.Linker; fileFormat: FileFormat);
перем file: Files.File; writer: Files.Writer; msg: массив 64 из симв8; number: массив 32 из симв8;
нач
	file := Files.New (fileName);
	Files.OpenWriter (writer, file, 0);
	fileFormat (linker, arrangement, writer);
	writer.ПротолкниБуферВПоток; Files.Register (file);
	msg := "written ";
	Strings.IntToStr(arrangement.SizeInBits(), number);
	Strings.Append(msg, number);
	Strings.Append(msg, " bits (= ");
	Strings.IntToStr(arrangement.SizeInBits() DIV arrangement.maxUnitSize, number);
	Strings.Append(msg, number);
	Strings.Append(msg, " units).");
	linker.Information (fileName, msg);
кон WriteOutputFile;

проц WriteBinaryFile (linker: GenericLinker.Linker; arrangement: Arrangement; writer: Files.Writer);
перем i: ObjectFile.Bits;
нач
	нцДля i := 0 до arrangement.bits.GetSize () - 1 шаг 8 делай
		writer.пСимв8 (симв8ИзКода (arrangement.bits.GetBits (i, 8)));
	кц;
кон WriteBinaryFile;

проц WriteUnixBinaryFile (linker: GenericLinker.Linker; arrangement: Arrangement; writer: Files.Writer);
перем i: ObjectFile.Bits;
нач
	нцДля i := 0 до arrangement.bits.GetSize () - 1 шаг 8 делай
		writer.пСимв8 (симв8ИзКода (arrangement.bits.GetBits (i, 8)));
	кц;
	WriteRelocations( arrangement, writer )
кон WriteUnixBinaryFile;

проц WriteTRMFile (arrangement: Arrangement; writer: Files.Writer; bitsPerLine, lines: размерМЗ);
перем i, j, size, end, nonZeroInLeadingNibble: размерМЗ;

	проц GetBits(pos: размерМЗ): целМЗ;
	нач
		если pos >= size то возврат 0
		аесли pos+4 > size то возврат arrangement.bits.GetBits(pos,size-pos)
		иначе возврат arrangement.bits.GetBits(pos,4)
		всё;
	кон GetBits;

	проц GetFirstNibble(pos: размерМЗ): целМЗ;
	нач
		возврат arrangement.bits.GetBits(pos,nonZeroInLeadingNibble);
	кон GetFirstNibble;

нач
	(*allow line size not divisible by 4 by padding the line to a multiple of 4 bits with leading zeros*)
	size := arrangement.bits.GetSize();

	end := (size-1) DIV bitsPerLine + 1;

	(*
	D.String("bits per line: ");D.Int(bitsPerLine,0);
	D.String("  number of bits: ");D.Int(size,0);
	D.String("  number of words: ");D.Int(end,0);D.Ln;
	*)

	nonZeroInLeadingNibble:=bitsPerLine остОтДеленияНа 4;
	нцДля i := 0 до end-1 делай
		(*be aware we are writing msb first here*)
		(*padded first nibble*)
		если nonZeroInLeadingNibble > 0 то
			writer.пСимв8(ObjectFile.NibbleToCharacter(GetFirstNibble(i*bitsPerLine+bitsPerLine-nonZeroInLeadingNibble) ) ) ;
		всё;
		(*rest of the instruction word*)
		нцДля j := bitsPerLine DIV 4 -1 до 0 шаг -1 делай
			writer.пСимв8(ObjectFile.NibbleToCharacter(GetBits(i*bitsPerLine+j*4)));
		кц;
		writer.пВК_ПС;
	кц;
	если end > 0 то (* allow at least one block, if size = 0 *)
		lines := (((end-1) DIV lines)+1)*lines; (* round up to next multiple of lines *)
	всё;
	нцДля i := end до lines -1 делай
		нцДля j:=1 до (bitsPerLine-1) DIV 4 + 1 шаг 1 делай
			writer.пСимв8('F');
		кц;

		writer.пВК_ПС;
	кц;
кон WriteTRMFile;

проц WriteTRMCodeFile* (linker: GenericLinker.Linker; arrangement: Arrangement; writer: Files.Writer);
нач
	WriteTRMFile (arrangement, writer, arrangement.maxUnitSize, 1024);
кон WriteTRMCodeFile;

проц WriteTRMDataFile* (linker: GenericLinker.Linker; arrangement: Arrangement; writer: Files.Writer);
нач WriteTRMFile (arrangement, writer, 32,512);
кон WriteTRMDataFile;

проц WritePEFile (linker: GenericLinker.Linker; arrangement: Arrangement; writer: Files.Writer; bitmode, subSystem: цел16; isDLL: булево);
конст DOSText = "This program cannot be run in DOS mode.$";
конст DOSHeaderSize = 64; DOSCodeSize = 14; DOSTextSize = 40; DOSStubSize = ((DOSHeaderSize + DOSCodeSize + DOSTextSize + 15) DIV 16) * 16;
конст FileAlignment = 200H; SectionAlignment = 1000H; HeaderSize = 24; SectionHeaderSize = 40; DirectoryEntries = 16;
перем OptionalHeaderSize, CodeSize, AlignedCodeSize, HeadersSize, BaseCodeAddress: размерМЗ; BaseAddress: цел32; exportInfo: ExportInfo; relocInfo: RelocationInfo;
	pos: размерМЗ;

	проц Reserve (size: размерМЗ);
	нач увел(pos, size); нцПока size # 0 делай writer.пСимв8 (0X); умень (size); кц;
	кон Reserve;

	проц WriteBYTE (value: размерМЗ);
	нач writer.пСимв8 (симв8ИзКода (value)); увел(pos);
	кон WriteBYTE;

	проц WriteWORD (value: размерМЗ);
	нач WriteBYTE (value остОтДеленияНа 100H); WriteBYTE (value DIV 100H);
	кон WriteWORD;

	проц WriteDWORD (value: размерМЗ);
	нач WriteWORD (value остОтДеленияНа 10000H); WriteWORD (value DIV 10000H);
	кон WriteDWORD;

	проц WritePTR (value: GenericLinker.Address);
	нач WriteDWORD (цел32(value)); если bitmode = 64 то WriteDWORD (0) всё;
	кон WritePTR;

	проц WriteString(s: массив из симв8);
	нач
		writer.пСтроку8(s); увел(pos, Strings.Length(s));
	кон WriteString;

	проц WriteString0(s: массив из симв8);
	нач
		WriteString(s); WriteBYTE(0);
	кон WriteString0;

	проц AlignTo(alignment: размерМЗ);
	нач alignment := Align(pos, alignment); Reserve(alignment - pos);
	кон AlignTo;

	проц ReserveTo(p: размерМЗ);
	нач утв(p >= pos); Reserve(p-pos);
	кон ReserveTo;

	проц HasExports(): булево;
	нач
		возврат (exportInfo # НУЛЬ) и (exportInfo.exports # 0)
	кон HasExports;

	проц ExportTableSize(): размерМЗ;
	перем i,offset: размерМЗ;
	нач
		если ~HasExports() то возврат 0 всё;

		offset := 40 + Strings.Length(exportInfo.name)+1;
		нцДля i := 0 до exportInfo.exports-1 делай
			увел(offset, Strings.Length(exportInfo.exportNames[i])+1);
			увел(offset, 10);
		кц;
		возврат offset
	кон ExportTableSize;

	проц AlignedExportTableSize(): размерМЗ;
	нач
		возврат Align(ExportTableSize(), SectionAlignment);
	кон AlignedExportTableSize;

	проц HasRelocs(): булево;
	нач
		возврат (relocInfo # НУЛЬ) и (relocInfo.patchBlock # НУЛЬ)
	кон HasRelocs;

	проц RelocTableSize(): размерМЗ;
	перем p: PatchBlock; size: размерМЗ;
	нач
		если ~HasRelocs() то возврат 0 всё;
		size := 0;
		p := relocInfo.patchBlock;
		нцПока p # НУЛЬ делай
			увел(size, 8 + p.addresses * 2);
			если нечётноеЛи¿(p.addresses) то увел(size, 2) всё;
			p := p.next
		кц;
		возврат size
	кон RelocTableSize;

	проц AlignedRelocTableSize(): размерМЗ;
	нач возврат Align(RelocTableSize(), SectionAlignment);
	кон AlignedRelocTableSize;

	(*PROCEDURE SectionHeaderOffset(): SIZE;
	BEGIN RETURN DOSStubSize + HeaderSize + OptionalHeaderSize
	END SectionHeaderOffset;*)

	проц WriteDOSStub;
	нач
		WriteWORD (5A4DH);	(* e_magic *)
		WriteWORD (DOSStubSize);	(* e_cblp *)
		WriteWORD (1);	(* e_cp *)
		WriteWORD (0);	(* e_crlc *)
		WriteWORD (DOSHeaderSize DIV 16);	(* e_cparhdr *)
		WriteWORD (0);	(* e_minalloc *)
		WriteWORD (0);	(* e_maxalloc *)
		WriteWORD (0);	(* e_ss *)
		WriteWORD (0);	(* e_sp *)
		WriteWORD (0);	(* e_csum *)
		WriteWORD (0);	(* e_ip *)
		WriteWORD (0);	(* e_cs *)
		WriteWORD (DOSHeaderSize);	(* e_lfarlc *)
		WriteWORD (0);	(* e_ovno *)
		Reserve (32);	(* e_res *)
		WriteDWORD (DOSStubSize);	(* e_lfanew *)

		WriteBYTE (00EH); WriteBYTE (01FH); WriteBYTE (0BAH); WriteWORD (DOSCodeSize);
		WriteBYTE (0B4H); WriteBYTE (009H); WriteBYTE (0CDH); WriteBYTE (021H); WriteBYTE (0B8H);
		WriteBYTE (001H); WriteBYTE (04CH); WriteBYTE (0CDH); WriteBYTE (021H); WriteString (DOSText);

		Reserve (DOSStubSize - DOSHeaderSize - DOSCodeSize - DOSTextSize);
	кон WriteDOSStub;

	проц WriteHeader;
	перем characteristics, sections: цел32;
	нач
		WriteDWORD (000004550H);	(* Signature *)
		если bitmode = 64 то
			WriteWORD (08664H);	(* Machine *)
		иначе
			WriteWORD (0014CH);	(* Machine *)
		всё;
		sections := 1;
		если HasRelocs() то увел(sections) всё;
		если HasExports()то увел(sections) всё;
		WriteWORD (sections);	(* NumberOfSections *)
		WriteDWORD (0);	(* TimeDateStamp *)
		WriteDWORD (0);	(* PointerToSymbolTable *)
		WriteDWORD (0);	(* NumberOfSymbols *)
		WriteWORD (OptionalHeaderSize);	(* SizeOfOptionalHeader *)

		characteristics := 222H;
		если ~HasRelocs() то characteristics := characteristics + 1 всё;
		если isDLL то characteristics := characteristics + 2000H всё;
		если bitmode#64 то characteristics := characteristics + 100H всё;

		WriteWORD(characteristics);
	кон WriteHeader;

	проц WriteOptionalHeader;
	перем ImageSize: размерМЗ;
	нач
		ImageSize := Align(BaseCodeAddress+AlignedCodeSize+AlignedExportTableSize()+AlignedRelocTableSize(), SectionAlignment);

		(* 0 *) если bitmode = 64 то
			WriteWORD (0020BH);	(* Magic *)
		иначе
			WriteWORD (0010BH);	(* Magic *)
		всё;
		(* 2 *) WriteBYTE (0);	(* MajorLinkerVersion *)
		(* 3 *) WriteBYTE (0);	(* MinorLinkerVersion *)
		(* 4 *) WriteDWORD (CodeSize);	(* SizeOfCode *)
		(* 8 *) WriteDWORD (0);	(* SizeOfInitializedData *)
		(* 12 *) WriteDWORD (0);	(* SizeOfUninitializedData *)
		(* 16 *) WriteDWORD (BaseCodeAddress);	(* AddressOfEntryPoint *)
		(* 20 *) WriteDWORD (BaseCodeAddress);	(* BaseOfCode *)
		(* 24 *) если bitmode # 64 то
			WriteDWORD (ImageSize);	(* BaseOfData *)
		всё;
		(* 28 / 24 *) WritePTR (arrangement.displacement - BaseCodeAddress);	(* ImageBase *)
		(* 32 *) WriteDWORD (SectionAlignment);	(* SectionAlignment *)
		(* 36 *)WriteDWORD (FileAlignment);	(* FileAlignment *)
		(* 40 *)WriteWORD (4);	(* MajorOperatingSystemVersion *)
		(* 42 *)WriteWORD (0);	(* MinorOperatingSystemVersion *)
		(* 44 *)WriteWORD (0);	(* MajorImageVersion *)
		(* 46 *)WriteWORD (0);	(* MinorImageVersion *)
		(* 48 *)WriteWORD (4);	(* MajorSubsystemVersion *)
		(* 50 *)WriteWORD (0);	(* MinorSubsystemVersion *)
		(* 52 *)WriteDWORD (0);	(* Win32VersionValue *)
		(* 56 *)WriteDWORD (ImageSize);	(* SizeOfImage *)
		(* 60 *)WriteDWORD (HeadersSize);	(* SizeOfHeaders *)
		(* 64 *)WriteDWORD (0);	(* CheckSum *)
		(* 68 *)WriteWORD (subSystem);	(* Subsystem *)
		(* 70 *)если isDLL то WriteWORD (40H);	(* DllCharacteristics *)
				иначе WriteWORD(0)
				всё;
		(* 72 *)WritePTR (0100000H);	(* SizeOfStackReserve *)
		(* 76 / 80 *)WritePTR (01000H);	(* SizeOfStackCommit *)
		(* 80 / 88 *)WritePTR (0100000H);	(* SizeOfHeapReserve *)
		(* 84 / 96 *)WritePTR (01000H);	(* SizeOfHeapCommit *)
		(* 88 / 104 *)WriteDWORD (0);			(* LoaderFlags *)
		(* 92 / 108  *)WriteDWORD (DirectoryEntries);	(* NumberOfRvaAndSizes *)

		если HasExports() то
		(* 96 / 112 *) WriteDWORD(BaseCodeAddress + AlignedCodeSize); WriteDWORD(ExportTableSize());  (* location and size of export table *)
		иначе Reserve(8)
		всё;
		(* 104 / 120 *) WriteDWORD (BaseCodeAddress +8) ; WriteDWORD (40); (* location and size of of idata section *)
		Reserve (3 * 8);
		если HasRelocs() то
			WriteDWORD (BaseCodeAddress + AlignedCodeSize+AlignedExportTableSize()) ; WriteDWORD (RelocTableSize()); (* location and size of of reloc section *)
		иначе Reserve(8)
		всё;
		Reserve ((DirectoryEntries - 6) * 8);
	кон WriteOptionalHeader;

	проц WriteSections;
	перем ExportNameTableAddress, i, offset: размерМЗ; p: PatchBlock;
	нач

		(* code section header *)
		(* 0 *) WriteString (".text"); Reserve (3);	(* Name *)
		(* 8 *) WriteDWORD (CodeSize);	(* VirtualSize *)
		(* 12 *) WriteDWORD (BaseCodeAddress);	(* VirtualAddress *)
		(* 16 *) WriteDWORD (AlignedCodeSize);	(* SizeOfRawData *)
		(* 20 *) WriteDWORD (BaseCodeAddress);	(* PointerToRawData *)
		(* 24 *) WriteDWORD (0);	(* PointerToRelocations *)
		(* 28 *) WriteDWORD (0);	(* PointerToLinenumbers *)
		(* 32 *) WriteWORD (0);	(* NumberOfRelocations *)
		(* 34 *) WriteWORD (0);	(* NumberOfLinenumbers *)
		(* 36 *) WriteDWORD (цел32 (0E0000020H));	(* Characteristics *)

		если HasExports() то
			(* export table header *)
			(* 0 *) WriteString(".edata"); Reserve(2); (* name *)
			(* 8 *) WriteDWORD(ExportTableSize()); (* virtual size *)
			(* 12 *) WriteDWORD(BaseCodeAddress + AlignedCodeSize (* address *));
			(* 16 *) WriteDWORD(AlignedExportTableSize()); (* raw data size *)
			(* 20 *) WriteDWORD(BaseCodeAddress + AlignedCodeSize); (* raw data pointer *)
			(* 24 *) WriteDWORD (0);	(* PointerToRelocations *)
			(* 28 *) WriteDWORD (0);	(* PointerToLinenumbers *)
			(* 32 *) WriteWORD (0);	(* NumberOfRelocations *)
			(* 34 *) WriteWORD (0);	(* NumberOfLinenumbers *)
			(* 36 *) WriteDWORD (цел32 (040000000H));	(* Characteristics *)
		всё;

		если HasRelocs() то
			(* reloc table header *)
			(* 0 *) WriteString(".reloc"); Reserve(2); (* name *)
			(* 8 *) WriteDWORD(RelocTableSize()); (* virtual size *)
			(* 12 *) WriteDWORD(BaseCodeAddress + AlignedCodeSize + AlignedExportTableSize() (* address *));
			(* 16 *) WriteDWORD(AlignedRelocTableSize()); (* raw data size *)
			(* 20 *) WriteDWORD(BaseCodeAddress + AlignedCodeSize+ AlignedExportTableSize()); (* raw data pointer *)
			(* 24 *) WriteDWORD (0);	(* PointerToRelocations *)
			(* 28 *) WriteDWORD (0);	(* PointerToLinenumbers *)
			(* 32 *) WriteWORD (0);	(* NumberOfRelocations *)
			(* 34 *) WriteWORD (0);	(* NumberOfLinenumbers *)
			(* 36 *) WriteDWORD (цел32 (040000000H));	(* Characteristics *)
		всё;

		(* 40 / 80 / 120 *) ReserveTo(BaseCodeAddress);

		(**** code section *****)
		(* BaseCodeAddress *)
		WriteBinaryFile (linker, arrangement, writer); увел(pos, arrangement.bits.GetSize () DIV 8);
		(* BaseCodeAddress +CodeSize *)
		Reserve (AlignedCodeSize-CodeSize);
		(* BaseCodeAddress + AlignedCodeSize *)

		если HasExports() то
			(***** export section *****)
			(* BaseCodeAddress + AlignedCodeSize  *)
			(* 0 *) WriteDWORD(0); (* reserved *)
			(* 4 *) WriteDWORD(0); (* time / date *)
			(* 6 *) WriteWORD(0); (* major version *)
			(* 8 *) WriteWORD(0); (* minor version *)
			(* 12 *) WriteDWORD(BaseCodeAddress+AlignedCodeSize + 40 + 10* exportInfo.exports); (* RVA of DLL name *)
			(* 16 *) WriteDWORD(1); (* start ordinal number *)
			(* 20 *) WriteDWORD(exportInfo.exports); (* number of entries in export table *)
			(* 24 *) WriteDWORD(exportInfo.exports); (* number of entries in name pointer table *)
			(* 28 *) WriteDWORD(BaseCodeAddress+AlignedCodeSize + 40 ); (* export address table RVA *)
			(* 32 *) WriteDWORD(BaseCodeAddress+AlignedCodeSize + 40 + 4* exportInfo.exports); (* name pointer RVA *)
			(* 36 *) WriteDWORD(BaseCodeAddress+AlignedCodeSize + 40 + 8* exportInfo.exports); (* ordinal table RVA *)
			(* 40 *)

			(* export address table *)
			нцДля i := 0 до exportInfo.exports-1 делай
				утв(exportInfo.exportAddresses[i] # 0);
				WriteDWORD(цел32(exportInfo.exportAddresses[i]-BaseAddress+BaseCodeAddress)); (* RVA ! *)
			кц;

			(* export name pointer table *)
			(* 40 + 4 * Number exports *)
			ExportNameTableAddress := BaseCodeAddress + AlignedCodeSize + 40 + 10* exportInfo.exports ;
			offset := Strings.Length(exportInfo.name)+1;
			нцДля i := 0 до exportInfo.exports-1 делай
				WriteDWORD(ExportNameTableAddress + offset);
				увел(offset, Strings.Length(exportInfo.exportNames[i])+1);
			кц;

			(* export ordinal table *)
			(* 40 + 8* NumberExports  *)
			нцДля i := 0 до exportInfo.exports-1 делай
				WriteWORD(i);
			кц;

			(* 40 + 10* NumberExports *)
			(* export name table *)
			WriteString0(exportInfo.name);
			нцДля i := 0 до exportInfo.exports-1 делай
				WriteString0(exportInfo.exportNames[i]); (* 0x terminated *)
			кц;
			Reserve(AlignedExportTableSize() - ExportTableSize());
		всё;

		если HasRelocs() то
			p := relocInfo.patchBlock;
			нцПока p # НУЛЬ делай
				WriteDWORD(p.baseAdr -BaseAddress+BaseCodeAddress) (* RVA  of block *);
				WriteDWORD(8+p.addresses*2+2*(p.addresses остОтДеленияНа 2)); (* number bytes of this block *)
				нцДля i := 0 до p.addresses-1 делай
					WriteWORD(p.address[i] - p.baseAdr+ 3000H);(* block-relative addresses, highlow *)
				кц;
				AlignTo(4);
				p := p.next;
			кц;
			Reserve(AlignedRelocTableSize() - RelocTableSize());
		всё;
	кон WriteSections;

нач
	pos := 0;
	exportInfo := arrangement.exportInfo;
	relocInfo := arrangement.relocInfo;
	если HasExports() то exportInfo.Sort всё;
	BaseAddress := цел32(arrangement.displacement); (* ASSERT (arrangement.displacement = BaseAddress); *)
	OptionalHeaderSize := 96 + DirectoryEntries * 8;
	если bitmode = 64 то увел (OptionalHeaderSize, 16); всё;
	CodeSize := arrangement.bits.GetSize () DIV 8;
	AlignedCodeSize := Align(CodeSize, SectionAlignment);
	HeadersSize :=  Align(DOSStubSize + HeaderSize + OptionalHeaderSize + SectionHeaderSize, FileAlignment);
	BaseCodeAddress := Align(HeadersSize, SectionAlignment);

	WriteDOSStub; WriteHeader; WriteOptionalHeader; WriteSections;
кон WritePEFile;

проц WriteDLL32File (linker: GenericLinker.Linker; arrangement: Arrangement; writer: Files.Writer);
нач WritePEFile (linker, arrangement, writer, 32, 2, истина);
кон WriteDLL32File;

проц WriteDLL64File (linker: GenericLinker.Linker; arrangement: Arrangement; writer: Files.Writer);
нач WritePEFile (linker, arrangement, writer, 64, 2, истина);
кон WriteDLL64File;

проц WritePE32File (linker: GenericLinker.Linker; arrangement: Arrangement; writer: Files.Writer);
нач WritePEFile (linker, arrangement, writer, 32, 2, ложь);
кон WritePE32File;

проц WritePE64File (linker: GenericLinker.Linker; arrangement: Arrangement; writer: Files.Writer);
нач WritePEFile (linker, arrangement, writer, 64, 2, ложь);
кон WritePE64File;

проц WritePE32CUIFile (linker: GenericLinker.Linker; arrangement: Arrangement; writer: Files.Writer);
нач WritePEFile (linker, arrangement, writer, 32, 3, ложь);
кон WritePE32CUIFile;

проц WritePE64CUIFile (linker: GenericLinker.Linker; arrangement: Arrangement; writer: Files.Writer);
нач WritePEFile (linker, arrangement, writer, 64, 3, ложь);
кон WritePE64CUIFile;

проц WriteEFI32File (linker: GenericLinker.Linker; arrangement: Arrangement; writer: Files.Writer);
нач WritePEFile (linker, arrangement, writer, 32, 10, ложь);
кон WriteEFI32File;

проц WriteEFI64File (linker: GenericLinker.Linker; arrangement: Arrangement; writer: Files.Writer);
нач WritePEFile (linker, arrangement, writer, 64, 10, ложь);
кон WriteEFI64File;

проц WriteELFFile (linker: GenericLinker.Linker; arrangement: Arrangement; writer: Files.Writer);
конст ELFHeaderSize = 52; ProgramHeaderSize = 32; HeadersSize = ELFHeaderSize + ProgramHeaderSize;
конст BaseAddress = 08048000H; EntryAddress = BaseAddress + HeadersSize;

	проц Reserve (size: цел32);
	нач нцПока size # 0 делай writer.пСимв8 (0X); умень (size); кц;
	кон Reserve;

	проц WriteByte (value: цел32);
	нач writer.пСимв8 (симв8ИзКода (value));
	кон WriteByte;

	проц WriteHalf (value: цел32);
	нач WriteByte (value остОтДеленияНа 100H); WriteByte (value DIV 100H);
	кон WriteHalf;

	проц WriteWord (value: цел32);
	нач WriteHalf (value остОтДеленияНа 10000H); WriteHalf (value DIV 10000H);
	кон WriteWord;

	проц WriteELFHeader;
	нач
		WriteByte (7FH);	(* e_ident[EI_MAG0] *)
		WriteByte (кодСимв8('E'));	(* e_ident[EI_MAG1] *)
		WriteByte (кодСимв8('L'));	(* e_ident[EI_MAG2] *)
		WriteByte (кодСимв8('F'));	(* e_ident[EI_MAG3] *)
		WriteByte (1);		(* e_ident[EI_CLASS] *)
		WriteByte (1);		(* e_ident[EI_DATA] *)
		WriteByte (1);		(* e_ident[EI_VERSION] *)
		WriteByte (0);		(* e_ident[EI_PAD] *)
		Reserve (8);		(* e_ident[EI_NIDENT] *)
		WriteHalf (2);		(* e_type *)
		WriteHalf (3);		(* e_machine *)
		WriteWord (1);	(* e_version *)
		WriteWord (EntryAddress);	(* e_entry *)
		WriteWord (ELFHeaderSize);	(* e_phoff *)
		WriteWord (0);	(* e_phoff *)
		WriteWord (0);	(* e_flags *)
		WriteHalf (ELFHeaderSize);	(* e_ehsize *)
		WriteHalf (ProgramHeaderSize);	(* e_phentsize *)
		WriteHalf (1);		(* e_phnum *)
		WriteHalf (0);		(* e_shentsize *)
		WriteHalf (0);		(* e_shnum *)
		WriteHalf (0);		(* e_shstrndx *)
	кон WriteELFHeader;

	проц WriteProgramHeader;
	перем FileSize: цел32;
	нач
		FileSize := (HeadersSize + arrangement.bits.GetSize () DIV 8)(цел32);

		WriteWord (1);		(* p_type *)
		WriteWord (0);		(* p_offset *)
		WriteWord (BaseAddress);	(* p_vaddr *)
		WriteWord (0);		(* p_paddr *)
		WriteWord (FileSize);	(* p_filesz *)
		WriteWord (FileSize);	(* p_memsz *)
		WriteWord (7);		(* p_flags *)
		WriteWord (1000H);	(* p_align *)
	кон WriteProgramHeader;

нач
	утв (arrangement.displacement = BaseAddress);
	WriteELFHeader;
	WriteProgramHeader;
	WriteBinaryFile (linker, arrangement, writer);
кон WriteELFFile;

проц WriteMachOFile (linker: GenericLinker.Linker; arrangement: Arrangement; writer: Files.Writer);
конст SegmentName = "__TEXT"; SectionName = "__text";
конст MachHeaderSize = 28; LoadCommandSize = 124; ThreadCommandSize = 80;
конст CommandsSize = LoadCommandSize + ThreadCommandSize; Start = MachHeaderSize + CommandsSize;
конст BaseAddress = 000010E8H;

	проц Write (value: цел32);
	нач writer.пСимв8 (симв8ИзКода (value)); writer.пСимв8 (симв8ИзКода (value DIV 100H)); writer.пСимв8 (симв8ИзКода (value DIV 10000H)); writer.пСимв8 (симв8ИзКода (value DIV 1000000H));
	кон Write;

	проц WriteName (конст name: массив из симв8);
	перем i: цел16;
	нач i := 0; нцПока name[i] # 0X делай writer.пСимв8 (name[i]); увел (i); кц;
		нцПока i # 16 делай writer.пСимв8 (0X); увел (i); кц;
	кон WriteName;

	проц WriteMachHeader;
	нач
		Write (цел32 (0FEEDFACEH));	(* magic *)
		Write (7);	(* cputype *)
		Write (3);	(* cpusubtype *)
		Write (2);	(* filetype *)
		Write (2);	(* ncmds *)
		Write (CommandsSize);	(* sizeofcmds *)
		Write (0);	(* flags *)
	кон WriteMachHeader;

	проц WriteLoadCommand;
	перем FileSize: цел32;
	нач
		FileSize := (MachHeaderSize + CommandsSize + arrangement.bits.GetSize () DIV 8)(цел32);

		Write (1);	(* cmd *)
		Write (LoadCommandSize);	(* cmdsize *)
		WriteName (SegmentName);	(* segname *)
		Write (BaseAddress - Start);	(* vmaddr *)
		Write (FileSize);	(* vmsize *)
		Write (0);	(* fileoff *)
		Write (FileSize);	(* filesize *)
		Write (7);	(* maxprot *)
		Write (7);	(* initprot *)
		Write (1);	(* nsects *)
		Write (0);	(* flags *)

		WriteName (SectionName);	(* sectname *)
		WriteName (SegmentName);	(* segname *)
		Write (BaseAddress);	(* addr *)
		Write ((arrangement.bits.GetSize () DIV 8)(цел32));	(* size *)
		Write (Start);	(* offset *)
		Write (2);	(* align *)
		Write (0);	(* reloff *)
		Write (0);	(* nreloc *)
		Write (0);	(* flags *)
		Write (0);	(* reserved1 *)
		Write (0);	(* reserved2 *)
	кон WriteLoadCommand;

	проц WriteThreadCommand;
	нач
		Write (5);	(* cmd *)
		Write (ThreadCommandSize);	(* cmdsize *)
		Write (1);	(* flavor *)
		Write (16);	(* count *)

		Write (0);	(* eax *)
		Write (0);	(* ebx *)
		Write (0);	(* ecx *)
		Write (0);	(* edx *)
		Write (0);	(* edi *)
		Write (0);	(* esi *)
		Write (0);	(* ebp *)
		Write (0);	(* esp *)
		Write (0);	(* ss *)
		Write (0);	(* eflags *)
		Write (BaseAddress);	(* eip *)
		Write (0);	(* cs *)
		Write (0);	(* ds *)
		Write (0);	(* es *)
		Write (0);	(* fs *)
		Write (0);	(* gs *)
	кон WriteThreadCommand;

нач
	утв (arrangement.displacement = BaseAddress);
	WriteMachHeader;
	WriteLoadCommand;
	WriteThreadCommand;
	WriteBinaryFile (linker, arrangement, writer);
кон WriteMachOFile;

проц GetFileFormat (options: Options.Options; конст name: Options.Name; default: FileFormat): FileFormat;
перем format: массив 10 из симв8;
нач
	если ~options.GetString (name, format) то возврат default;
	аесли format = "TRMCode" то возврат WriteTRMCodeFile;
	аесли format = "TRMData" то возврат WriteTRMDataFile;
	аесли format = "PE32" то возврат WritePE32File;
	аесли format = "PE64" то возврат WritePE64File;
	аесли format = "PE32CUI" то возврат WritePE32CUIFile;
	аесли format = "PE64CUI" то возврат WritePE64CUIFile;
	аесли format = "EFI32" то возврат WriteEFI32File;
	аесли format = "EFI64" то возврат WriteEFI64File;
	аесли format = "ELF" то возврат WriteELFFile;
	аесли format = "MACHO" то возврат WriteMachOFile;
	аесли format = "DLL32" то возврат WriteDLL32File;
	аесли format = "DLL64" то возврат WriteDLL64File;
	аесли format = "UnixRaw" то возврат WriteUnixBinaryFile;
	иначе возврат default; всё;
кон GetFileFormat;

проц ParseExports(конст names: массив из симв8): ExportInfo;
перем number: цел32; info: ExportInfo; pos: цел32; name: ExportName;

	проц SkipWhitespace;
	нач нцПока (names[pos] # 0X) и (names[pos] <= " ") делай увел(pos) кц;
	кон SkipWhitespace;

	проц ReadName(перем name1: массив из симв8): булево;
	перем i: цел32;
	нач
		i := 0;
		нцПока (names[pos] # 0X) и (names[pos] > " ") и (names[pos] # ",") и (names[pos] # "=") делай name1[i] := names[pos]; увел(i); увел(pos) кц;
		name1[i] := 0X;
		возврат i > 0;
	кон ReadName;

	проц ParseEntry(перем symbolName, exportName: массив из симв8): булево;
	нач
		SkipWhitespace;
		если ReadName(symbolName) то
			SkipWhitespace;
			если names[pos] = "=" то
				увел(pos); SkipWhitespace;
				если ~ReadName(exportName) то возврат ложь всё;
				SkipWhitespace;
			иначе копируйСтрокуДо0(symbolName, exportName);
			всё;
			если names[pos] = "," то увел(pos); SkipWhitespace всё;
			возврат истина
		иначе возврат ложь
		всё;
	кон ParseEntry;

нач
	pos := 0; number := 0;
	нцПока ParseEntry(name, name) делай увел(number) кц;
	если (names[pos] # 0X) или (number = 0)  то возврат НУЛЬ всё;

	нов(info);
	нов(info.symbolNames, number);
	нов(info.exportNames, number);
	нов(info.exportAddresses, number);
	info.exports := number;

	number := 0; pos := 0;
	нцПока (names[pos] # 0X) и ParseEntry(info.symbolNames[number], info.exportNames[number]) делай
		увел(number)
	кц;
	возврат info
кон ParseExports;

проц CheckExports(info: ExportInfo; error: Потоки.Писарь): булево;
перем success: булево; i: цел32;
нач
	если info = НУЛЬ то возврат истина всё;
	success := истина;
	нцДля i := 0 до info.exports-1 делай
		если info.exportAddresses[i] = 0 то
			error.пСтроку8("Export symbol not found: "); error.пСтроку8(info.symbolNames[i]); error.пСтроку8(" (= ");
			error.пСтроку8(info.exportNames[i]); error.пСтроку8(")"); error.пВК_ПС;
			success := ложь;
		всё;
	кц;
	возврат success
кон CheckExports;

проц Link* (context: Commands.Context);
перем options: Options.Options;
	silent, useAll, strict, английскиеИменаЛи¿: булево;
	codeFileFormat, dataFileFormat: FileFormat;
	codeDisplacement, dataDisplacement: цел32;
	path, extension, codeFileName, dataFileName, moduleName, logFileName, tempName: Files.FileName;
	diagnostics: Diagnostics.StreamDiagnostics; code, data: Arrangement; linker: GenericLinker.Linker;
	linkRoot: массив 256 из симв8; logFile: Files.File; log: Files.Writer;
	use: мнвоНаБитахМЗ;
	exportString: массив 1024*2 из симв8;
	parsed: булево;
	position: Потоки.ТипМестоВПотоке;
	name: массив 32 из симв8;
	reader: Потоки.Чтец;
	moduleList: GenericLinker.HashTableSegmentedName;
	segmentedName: ObjectFile.SegmentedName;
нач
	нов (options);
	options.Add('p',"platform", Options.String);
	options.Add (0X, "silent", Options.Flag);
	options.Add ('a', "useAll", Options.Flag);
	options.Add ('s', "strict", Options.Flag);
	options.Add (0X, "path", Options.String); options.Add (0X, "extension", Options.String);
	options.Add (0X, "fileName", Options.String); options.Add (0X, "dataFileName", Options.String);
	options.Add (0X, "displacement", Options.Integer); options.Add (0X, "dataDisplacement", Options.Integer);
	options.Add (0X, "fileFormat", Options.String); options.Add (0X, "dataFileFormat", Options.String);
	options.Add (0X, "logFileName", Options.String);
	options.Add(0X,"linkRoot", Options.String);
	options.Add(0X,"exports", Options.String);
	options.Новая (UCS32.IntToCharJQ(кодСимв8(0X)), UCS32.Lit("")^, UCS32.Lit("английскиеИмена")^, Options.Flag);


	position := context.arg.МестоВПотоке();
	parsed := options.ParseStaged(context.arg, context.error);
	если options.GetString("platform", name) то
		reader := defaults.Get(name);
		если reader = НУЛЬ то
			context.error.пСтроку8("Unknown platform"); context.error.пВК_ПС;
			context.result := Commands.CommandError;
			возврат;
		иначе
			parsed := options.ParseStaged(reader, context.error) и parsed;
			context.arg.ПерейдиКМестуВПотоке(position);
			context.arg.ПерейдиКМестуВПотоке(position);
			parsed := options.Parse(context.arg, context.error) и parsed; (* reparse overwrites *)
		всё;
	всё;

	если ~parsed то context.result := Commands.CommandParseError; возврат; всё;
	silent := options.GetFlag ("silent");
	useAll := options.GetFlag ("useAll");
	strict := options.GetFlag ("strict");
	английскиеИменаЛи¿ := options.GetFlag("английскиеИмена");
	если ~options.GetString ("path", path) то path := ""; всё;
	если ~options.GetString ("extension", extension) то extension := ObjectFile.DefaultExtension; всё;
	если ~options.GetString ("fileName", codeFileName) то codeFileName := "linker.bin"; всё;
	если ~options.GetString ("dataFileName", dataFileName) то dataFileName := codeFileName; всё;
	если ~options.GetString ("logFileName", logFileName) то
		копируйСтрокуДо0(codeFileName, logFileName); Files.SplitExtension(logFileName,logFileName,tempName); Files.JoinExtension(logFileName,"log",logFileName);
	всё;
	если ~options.GetInteger ("displacement", codeDisplacement) то codeDisplacement := 0; всё;
	если ~options.GetInteger ("dataDisplacement", codeDisplacement) то dataDisplacement := codeDisplacement; всё;
	codeFileFormat := GetFileFormat (options, "fileFormat", WriteBinaryFile);
	dataFileFormat := GetFileFormat (options, "dataFileFormat", codeFileFormat);

	нов (code, codeDisplacement);
	если options.GetString("exports", exportString) то
		code.exportInfo := ParseExports(exportString);
		если code.exportInfo = НУЛЬ то
			context.error.пСтроку8("Syntax error in export list or empty export list."); context.error.пВК_ПС;
			context.result := Commands.CommandError;
			возврат;
		иначе
			копируйСтрокуДо0(codeFileName, code.exportInfo.name);
		всё;
	всё;
	если codeFileName # dataFileName то нов (data, dataDisplacement); иначе data := code; всё;
	нов (diagnostics, context.error);
	logFile := Files.New(logFileName);
	если logFile # НУЛЬ то нов(log, logFile,0) иначе log := НУЛЬ всё;
	если useAll то use := GenericLinker.UseAll иначе use := GenericLinker.UseInitCode всё;
	нов (linker, diagnostics, log, use, code, data);

	если options.GetString("linkRoot",linkRoot) то linker.SetLinkRoot(linkRoot) всё;

	нов(moduleList,32);
	segmentedName := "SYSTEM";
	moduleList.Put(segmentedName, finished);
	segmentedName := "НИЗКОУР";
	moduleList.Put(segmentedName, finished);

	нцПока ~linker.error и context.arg.ПропустиБелоеПолеИЧитайЦепочкуСимволов8ДоБелогоПоляИлиВКавычках (moduleName) делай
		ReadObjectFile (moduleName, path, extension, linker, moduleList, английскиеИменаЛи¿);
		если strict и ~linker.error то linker.Resolve всё;
	кц;
	(* do linking after having read in all blocks to account for potential constraints *)
	если ~linker.error то linker.Link; всё;

	если ~linker.error и CheckExports(code.exportInfo, context.error) то
		если (code.displacement # 0) и (linker.log # НУЛЬ) то linker.log.пСтроку8("code displacement 0"); linker.log.п16ричное(code.displacement,-8); linker.log.пСтроку8("H"); linker.log.пВК_ПС всё;
		WriteOutputFile (code, codeFileName, linker, codeFileFormat);
		если data # code то
			если (data.displacement # 0) и (linker.log # НУЛЬ) то linker.log.пСтроку8("data displacement 0"); linker.log.п16ричное(data.displacement,-8); linker.log.пСтроку8("H"); linker.log.пВК_ПС всё;
			WriteOutputFile (data, dataFileName, linker, dataFileFormat);
		всё;
		если ~silent то
			context.out.пСтроку8("Link successful. Written files: ");
			context.out.пСтроку8(codeFileName);
			если data # code то context.out.пСтроку8(", "); context.out.пСтроку8(dataFileName) всё;
			если logFile # НУЛЬ то context.out.пСтроку8(", "); context.out.пСтроку8(logFileName); всё;

			context.out.пВК_ПС
		всё;
		если log # НУЛЬ то
			log.ПротолкниБуферВПоток; Files.Register(logFile);
		всё;
	иначе
		context.result := Commands.CommandError;
	всё;
кон Link;

проц ShowDefaults*(context: Commands.Context);
нач
	defaults.Show(context.out);
кон ShowDefaults;

нач
	нов(processing);
	нов(finished);
	нов(defaults);
	defaults.Add("Bios32","--fileName=kernel.img --extension=.Gof --displacement=0100000H");
	defaults.Add("Bios64","--fileName=kernel.img --extension=.Goff --displacement=0100000H");
	defaults.Add("Win32CUI","--fileFormat=PE32CUI --fileName=oberon.exe --extension=GofW --displacement=401000H");
	defaults.Add("Win64CUI","--fileFormat=PE64CUI --fileName=oberon.exe --extension=GofWw --displacement=401000H");
	defaults.Add("Linux32","--fileFormat=Raw --fileName=oberon --extension=.GofU --displacement=08048000H");
	defaults.Add("Linux64","--fileFormat=Raw --fileName=oberon --extension=.GofUu --displacement=08048000H");
	defaults.Add("RPI","--fileName=kernel.img --extension=.Goa --displacement=8000H -sa ");
	defaults.Add("Solaris32", "--fileFormat=UnixRaw --fileName=oberon.bin --extension=.GofU --displacement=0" );
	defaults.Add("Solaris64", "--fileFormat=UnixRaw --fileName=oberon.bin --extension=.GofUu --displacement=0" );
	defaults.Add("Darwin32",   "--fileFormat=UnixRaw --fileName=oberon.bin --extension=.GofU --displacement=0" );
	defaults.Add("Darwin64",   "--fileFormat=UnixRaw --fileName=oberon.bin --extension=.GofUu --displacement=0" );
кон Linker.

Linker.Link --fileName=test.exe --fileFormat=PE32 --displacement=401000H Test ~
Linker.Link --fileName=a.out --fileFormat=ELF --displacement=08048000H Test ~
Linker.Link --fileName=a.out --fileFormat=MACHO --displacement=000010E8H Test ~

System.Free Linker ~

