модуль FoxOberonFrontend; (**  AUTHOR "fof"; PURPOSE "Oberon FoxCompiler: Oberon frontend module"; Вариант с макросами. Этот модуль вызывается динамически **)

использует
	Потоки, Diagnostics,  SyntaxTree := FoxSyntaxTree, Parser := FoxParser, Scanner := FoxScanner, SomeFrontend := FoxFrontend,
	Интерпретатор := FoxInterpreter, Printout := FoxPrintout, Basic := FoxBasic, Strings, StringsUCS32, Files, FSTools, UCS32;

тип

	РезультатМакроВызова = запись э: динамическиТипизированныйУкль кон; (*  незащищённая модель для типа SyntaxTree.МакроЦепочкаИныхЛексем или SyntaxTree.КонтейнерМакроБлоков *)


	Frontend* = окласс (SomeFrontend.Frontend)
	перем
		чтецВходногоФайла: Потоки.Чтец;
		диагностика: Diagnostics.Diagnostics; (* странно, что её нет в базовом классе *)
		имяИсходногоФайла : Strings.String;
		директорияДляМакрорасширенногоФайла- : Strings.String;
		начальнаяПозиция: цел32;
		былаЛиОшибка: булево;

		(** заполняется в проц РасширьИНапечатайДеревоМакроМодуля *)
		имяФайлаРасширенногоИсходника : массив FSTools.MaxNameLen из симв32;


		проц {перекрыта}Initialize*(вхДиагностика: Diagnostics.Diagnostics; l0flags: мнвоНаБитахМЗ; reader: Потоки.Чтец; 
			конст вхИмяИсходногоФайла, definitions, вхДиректорияДляМакрорасширенногоФайла: массив из симв8; вхpos: цел32);
		нач
			(** параметр diagnostics не используется в конструкторе базового класса почему-то *)
			Initialize^(вхДиагностика, l0flags, reader, вхИмяИсходногоФайла, definitions, вхДиректорияДляМакрорасширенногоФайла, вхpos);
			чтецВходногоФайла := reader;
			имяИсходногоФайла := Strings.NewString(вхИмяИсходногоФайла);
			диагностика := вхДиагностика;
			директорияДляМакрорасширенногоФайла := Strings.NewString(вхДиректорияДляМакрорасширенногоФайла);
			начальнаяПозиция := вхpos кон Initialize;

		проц {перекрыта}Parse*(): SyntaxTree.ДеревоМодуля;
		перем рез: SyntaxTree.ДеревоМодуля;
			scanner: Scanner.Лексер;
			parser:  Parser.Parser;
		нач
			scanner := Scanner.NewScanner(имяИсходногоФайла^, чтецВходногоФайла, начальнаяПозиция, диагностика);
			parser := Parser.NewParser( scanner, диагностика, defs^ );
			если SomeFrontend.расширяяМакросы в flags то 
				рез := parser.МакроМодуль( Scanner.ВариантыПеревода.Русский );
				былаЛиОшибка := parser.error;
				если ~былаЛиОшибка и (рез # НУЛЬ) то
					РасширьИНапечатайДеревоМакроМодуля(рез(SyntaxTree.ДеревоМакроМодуля));
					возврат РазбериМакрорасширенныйФайл() 
			иначе
					возврат рез всё;
			иначе
				рез := parser.Module();
				былаЛиОшибка := parser.error;
				возврат рез всё кон Parse;
				
				
		проц РазбериМакрорасширенныйФайл():SyntaxTree.ДеревоМодуля;
		перем чтецМакрорасширенногоИсходника: Потоки.Чтец; рез : SyntaxTree.ДеревоМодуля;
			лексерМакрорасширенногоИсходника: Scanner.Лексер;
			парсерМакрорасширенногоИсходника:  Parser.Parser;
		нач
			чтецМакрорасширенногоИсходника := Basic.GetFileReader(UCS32.JQvNovU8(имяФайлаРасширенногоИсходника)^);
			если чтецМакрорасширенногоИсходника = НУЛЬ то
				былаЛиОшибка := истина;
				диагностика.Error (имяИсходногоФайла^, Потоки.НевернаяПозицияВПотоке, "не удалось открыть макрорасширенный файл"); 
				возврат НУЛЬ всё;

			лексерМакрорасширенногоИсходника := Scanner.NewScanner(UCS32.JQvNovU8(имяФайлаРасширенногоИсходника)^, чтецМакрорасширенногоИсходника, 0, диагностика);
			парсерМакрорасширенногоИсходника := Parser.NewParser( лексерМакрорасширенногоИсходника, диагностика, defs^ ); 					
			рез :=  парсерМакрорасширенногоИсходника.Module();
			былаЛиОшибка := парсерМакрорасширенногоИсходника.error;
			возврат рез;
		
		кон РазбериМакрорасширенныйФайл;

		проц {перекрыта}Error*(): булево;
		нач
			возврат былаЛиОшибка кон Error;

		проц {перекрыта}Done*(): булево;
		нач
			возврат истина (* здесь было ~parser.NextModule(), но мы больше не принимаем несколько модулей в одном файле *) кон Done;

		(* парсит цепочку лексем в КонтейнерМакроБлоков и выполняет в нём макросы - этот процесс происходит рекурсивно, пока расширение
		макросов не перестанет порождать новые вызовы макросов, или пока стек не переполнится :) *)
		проц ПовторноВыполниМакросыВЦепочкеЛексем(инт: Интерпретатор.Interpreter; д: SyntaxTree.МакроЦепочкаИныхЛексем): РезультатМакроВызова;
		перем лексер1: Scanner.ПсевдоЛексерСпискаЛексем; мцил : SyntaxTree.МакроЦепочкаИныхЛексем;
			парсер1: Parser.Parser;  деревоДоРасширения: SyntaxTree.КонтейнерМакроБлоков;
		нач
			мцил := д(SyntaxTree.МакроЦепочкаИныхЛексем);
			(* Scanner.ПишиЦепочкуЛексемДляОтладкиЛЯ(мцил.перваяЛексема, мцил.последняяЛексема); *)
			нов(лексер1, имяИсходногоФайла^, мцил.перваяЛексема, мцил.последняяЛексема, 300000(*нужно здесь поставить длину входного файла в байтах*5 или что-нибудь в этом роде*), диагностика);
			парсер1 := Parser.NewParser( лексер1, диагностика, defs^ ); (* надеемся упасть, если обработчик условной компиляции начнёт читать $$$$ *)
			деревоДоРасширения := парсер1.КонтейнерМакроБлоков( Scanner.ВариантыПеревода.Русский );
			если парсер1.error то
				результат.э := ЦепочкаЛексемВместоОшибки()
			иначе
				утв(деревоДоРасширения # НУЛЬ);
				РасширьМакросы(инт, деревоДоРасширения);
				результат.э := деревоДоРасширения всё;
			возврат результат кон ПовторноВыполниМакросыВЦепочкеЛексем;
			

		проц ЛенивоИнициализируйИнтерпретатор(перем инт: Интерпретатор.Interpreter);
		перем глобОв: Интерпретатор.Scope; перем container: Интерпретатор.Container;
		нач
			если инт # НУЛЬ то возврат всё;
			нов(container);
			нов(глобОв, НУЛЬ, container);
			нов(инт, глобОв, диагностика,НУЛЬ) кон ЛенивоИнициализируйИнтерпретатор;
			
		
		проц РасширьИНапечатайДеревоМакроМодуля(д: SyntaxTree.ДеревоМакроМодуля);
		перем 
			печатникРасширенногоИсходника: Printout.Printer; 
			буферДляКартыМест: Strings.Buffer;
			файлРасширенногоИсходника : Files.File;
			потокДляЗаписиРасширенногоИсходника, потокДляКартыМест : Потоки.Писарь;
			инт: Интерпретатор.Interpreter; 
			
		проц Тело();
		нач
			ПодготовьсяКВыводуКартыМест();
			ПодготовьсяКВыводуРасширенногоИсходника();
			РасширьМакросы(инт, д.макроБлоки);
			печатникРасширенногоИсходника.ПосетиКонтейнерМакроБлоков(д.макроБлоки);
			ЗавершиВыводКартыМест() кон Тело;



			проц ПодготовьсяКВыводуРасширенногоИсходника();
			перем
			fw : Files.Writer;
			нач

				UCS32.COPYJQvJQ(UCS32.U8vNovJQ(директорияДляМакрорасширенногоФайла^)^, имяФайлаРасширенногоИсходника);
				StringsUCS32.Append(имяФайлаРасширенногоИсходника, UCS32.U8vNovJQ(Basic.ДайСтрокуКакСвежуюКопию(д.имя.И)^)^);
				StringsUCS32.Append(имяФайлаРасширенногоИсходника, Лит32(".мршм"));
				файлРасширенногоИсходника := Files.New(UCS32.JQvNovU8(имяФайлаРасширенногоИсходника)^);
				Files.OpenWriter(fw, файлРасширенногоИсходника, 0);
				потокДляЗаписиРасширенногоИсходника := fw;
				(* потокДляЗаписиРасширенногоИсходника := Basic.GetDebugWriter("Макрорасширенный текст"); *)
				печатникРасширенногоИсходника := ДайПечатателяДляВыводаРасширенногоИсходника(потокДляЗаписиРасширенногоИсходника, потокДляКартыМест);
			кон ПодготовьсяКВыводуРасширенногоИсходника;

			проц ПодготовьсяКВыводуКартыМест();
			нач
				нов(буферДляКартыМест,25000); потокДляКартыМест := буферДляКартыМест.GetWriter();
				потокДляКартыМест.пСтроку8("("); потокДляКартыМест.пВК_ПС();
			кон ПодготовьсяКВыводуКартыМест;

			проц ЗавершиВыводКартыМест();
			нач
				потокДляКартыМест.пСтроку8(")"); 
				потокДляКартыМест.ПротолкниБуферВПоток();
				печатникРасширенногоИсходника.w.пВК_ПС;
				печатникРасширенногоИсходника.w.пСтроку8("(* ===Карта мест===");
				печатникРасширенногоИсходника.w.пВК_ПС;
				печатникРасширенногоИсходника.w.пСтроку8(буферДляКартыМест.GetString()^);
				печатникРасширенногоИсходника.w.пВК_ПС;
				печатникРасширенногоИсходника.w.пСтроку8("===Конец карты мест===*)");
				печатникРасширенногоИсходника.w.ПротолкниБуферВПоток();

				Files.Register(файлРасширенногоИсходника);
				файлРасширенногоИсходника.Close();
				
			кон ЗавершиВыводКартыМест;

		нач Тело() кон РасширьИНапечатайДеревоМакроМодуля;
		
			проц РасширьМакросы(инт: Интерпретатор.Interpreter; д:SyntaxTree.КонтейнерМакроБлоков);
			перем ч: размерМЗ; мв : окласс; результатПервогоРасширенияМакроса: SyntaxTree.МакроЦепочкаИныхЛексем; 
				результатМакроВызова: РезультатМакроВызова; 
			нач 
				нцДля ч := 0 до д.макроВызовы.Length() - 1 делай
					мв := д.макроВызовы.Get(ч);
					утв(мв # НУЛЬ);
					просейТип мв:
					| SyntaxTree.МакроВызов делай
						ЛенивоИнициализируйИнтерпретатор(инт);
						результатПервогоРасширенияМакроса := РасширьМакроВызов(инт, мв);
						утв(результатПервогоРасширенияМакроса # НУЛЬ);
						результатМакроВызова := ПовторноВыполниМакросыВЦепочкеЛексем(инт, результатПервогоРасширенияМакроса);
						утв(результатМакроВызова.э # НУЛЬ);
						д.макроВызовы.Set(ч, результатМакроВызова.э);
						(* печатникРасширенногоИсходника.w.пСтроку8("=========== ВОТ ОНО БЫЛО ==========="); печатникРасширенногоИсходника.w.пВК_ПС; *)
					| SyntaxTree.МакроЦепочкаИныхЛексем делай
						всё кц кон РасширьМакросы;
		
		
		проц РасширьМакроВызов(инт: Интерпретатор.Interpreter; мв: SyntaxTree.МакроВызов):SyntaxTree.МакроЦепочкаИныхЛексем;
		перем вырЗнач: SyntaxTree.Выражениеˉзначение; (* обрКИмени : SyntaxTree.Обращение˛разобранноеКакОбрК_имени; *)
			печатникМакроВызова: Printout.Printer; вырСтрока: Strings.String;
			буферМакроВызова (*, буферРасширенногоИсходника *): Strings.Buffer;
		нач
			(* мы печатаем макро вызов только для целей отладки! *)
			нов(буферМакроВызова,256);
			печатникМакроВызова := ДайПечатателяДляМакроВызова(буферМакроВызова.GetWriter());
			вырЗнач := мв.десигнатор.лев;
			утв(вырЗнач # НУЛЬ);
			(* LisОтлПеч.Печ(ля, вырЗнач); *)
			просейТип вырЗнач:
			| SyntaxTree.Обращение˛разобранноеКакОбрК_члену делай
				печатникМакроВызова.Expression(мв.десигнатор);
			иначе
				печатникМакроВызова.w.ПротолкниБуферВПоток();
				СТОП(5435) всё;
			печатникМакроВызова.w.ПротолкниБуферВПоток(); 
			вырСтрока := буферМакроВызова.GetString();
			
			(* печатникРасширенногоИсходника.w.пСтроку8("=========== Ща начнётся ============"); печатникРасширенногоИсходника.w.пВК_ПС; *)
			результат := ВычислиМакроВызов(инт, мв);
			возврат результат;
		кон РасширьМакроВызов;			
		


		проц ДайПечатателяДляМакроВызова(писарь: Потоки.Писарь): Printout.Printer;
		перем
			printer: Printout.Printer;
		нач
			printer := Printout.NewPrinter(писарь,Printout.ЦепочкаЛексем,истина,ложь,Scanner.ВариантыПеревода.Русский (* правьмя *));
			возврат printer кон ДайПечатателяДляМакроВызова;

		проц ДайПечатателяДляВыводаРасширенногоИсходника(писарьИсходника, писарьКартыМест: Потоки.Писарь): Printout.Printer;
		нач
			результат := Printout.NewPrinter(писарьИсходника,Printout.ЦепочкаЛексем,истина,ложь,Scanner.ВариантыПеревода.Русский);
			результат.писарьКартыМест := писарьКартыМест;
			возврат результат кон ДайПечатателяДляВыводаРасширенногоИсходника;
			
	(* вызывает макрос. Результатом является новый узел - ЦепочкаИныхЛексем, который содержит цепочку лексем результата *)
	проц ВычислиМакроВызов(инт: Интерпретатор.Interpreter; выр: SyntaxTree.МакроВызов): SyntaxTree.МакроЦепочкаИныхЛексем;
	перем возвратМакроВызова: Интерпретатор.Value; возвращённоеЗначение : динамическиТипизированныйУкль;
	
	нач
		если инт.GetValue(выр, возвратМакроВызова) то
			если инт.error то
				диагностика.Error("",выр.начВ_тексте.start,"ВычислиМакроВызов: ошибка вычисления в макровызове"); 
				возврат ЦепочкаЛексемВместоОшибки()
			аесли возвратМакроВызова = НУЛЬ то
				диагностика.Error("",выр.начВ_тексте.start,"ВычислиМакроВызов: макровызов вернуль НУЛЬ - а должен был вернуть тип SyntaxTree.МакроЦепочкаИныхЛексем"); 
				(* дадим выполняться дальше - всё равно потом упадёт *)
				возврат ЦепочкаЛексемВместоОшибки() всё;
			просейТип возвратМакроВызова:
			| Интерпретатор.Any делай
				возвращённоеЗначение := возвратМакроВызова.value;
				если возвращённоеЗначение = НУЛЬ то
					диагностика.Error("",выр.начВ_тексте.start,"ВычислиМакроВызов: макровызов вернуль НУЛЬ");
					возврат ЦепочкаЛексемВместоОшибки() всё;
				просейТип возвращённоеЗначение:
				| SyntaxTree.МакроЦепочкаИныхЛексем делай
						возврат возвращённоеЗначение;
				иначе 
					диагностика.Error("",выр.начВ_тексте.start,"ВычислиМакроВызов: макровызов вернуль тип, отличный от SyntaxTree.МакроЦепочкаИныхЛексем");
					возврат ЦепочкаЛексемВместоОшибки() всё; 
			(* | Интерпретатор.String делай
				потокРезультата.пСтроку8("(* вернули сырую строку! *)");
				возвратМакроВызова.WriteValue(потокРезультата);  *)
			иначе
				НеверныйТипВернулсяИзМакроВызова(выр); возврат ЦепочкаЛексемВместоОшибки() всё
		иначе
			диагностика.Error("",выр.начВ_тексте.start,"ВычислиМакроВызов: не получилось вычислить макро вызов"); 
			возврат ЦепочкаЛексемВместоОшибки()
		всё;
	кон ВычислиМакроВызов;


	(* Параметр чтоВычисляли - это сам исходный МакроВызов (я хз, осталось ли от него что-нибудь?) - он нужен для печати возможных сообщений об ошибках *)
	(* проц НапечатайРезультатМакроВызова(инт: Интерпретатор.Interpreter; чтоВычисляли: SyntaxTree.МакроВызов; результатМакроВызова: РезультатМакроВызова; печатникРасширенногоИсходника: Printout.Printer);
		(* у2 : SyntaxTree.ДеревоМакроМодуля; *)
		перем э: динамическиТипизированныйУкль;
	нач
		э := результатМакроВызова.э;
		просейТип э:
		| 	SyntaxTree.МакроЦепочкаИныхЛексем делай
			печатникРасширенногоИсходника.ПосетиМакроЦепочкуИныхЛексем(э)
		| SyntaxTree.КонтейнерМакроБлоков делай
			печатникРасширенногоИсходника.ПосетиКонтейнерМакроБлоков(э)
		иначе
			НеверныйТипВернулсяИзМакроВызова(чтоВычисляли) всё кон НапечатайРезультатМакроВызова; *)
	
	проц НеверныйТипВернулсяИзМакроВызова(чтоВычисляли: SyntaxTree.МакроВызов);
	нач
		диагностика.Error("ВычислиМакроВызов",чтоВычисляли.начВ_тексте.start,"результат макро вызова должен быть SyntaxTree.ЦепочкаИныхЛексем или SyntaxTree.КонтейнерМакроУзлов");
	кон НеверныйТипВернулсяИзМакроВызова;

	кон Frontend;

(* дублируется с MacroИПП - правьмя! *)
проц ЦепочкаЛексемВместоОшибки*() : SyntaxTree.МакроЦепочкаИныхЛексем;
нач
	результат := SyntaxTree.ЯвиМакроЦепочкуИныхЛексем(Scanner.ЯвиИскусственнуюЛексему1("!!!ОШИБКА!!!"));
	результат.последняяЛексема := результат.перваяЛексема;
	возврат результат;
кон ЦепочкаЛексемВместоОшибки;
	


	проц Get*():SomeFrontend.Frontend;
	перем frontend: Frontend;
	нач
		нов(frontend);
		возврат frontend;
	кон Get;

кон FoxOberonFrontend.
