модуль OpenType;	(** AUTHOR "eos, PL"; PURPOSE "Bluebottle port of OpenType"; *)

	(**
		OpenType library (partial implementation; supports only TrueType so far)
	**)

	(*
		24.05.2000 - introduced cvtLen to deal with fonts that have no CVT
	*)

	использует
		OpenTypeInt, OpenTypeScan,
		ЛогЯдра, Strings, Files, Configuration;


	конст
		DefaultSharpenContours = ложь; (* switching off sharpening can result in visually hard to see lines in small chinese fonts *)

	конст
		(** name ids **)
		Copyright* = 0; Family* = 1; Subfamily* = 2; UniqueID* = 3; FullName* = 4; Version* = 5;
		PSName* = 6; Trademark* = 7; Manufacturer* = 8; Designer* = 9; Description* = 10;
		VendorURL* = 11; DesignerURL* = 12;

		(** LoadGlyph modes **)
		Hinted* = 0; Width* = 1; Outline* = 2; Raster* = 3; Grey* = 4;

		DefaultCacheSize* = 8;									(** maximal number of objects per cache **)

		NumTables = 32;										(* maximal number of tables in font file *)
		CharMapSize = 254;										(* number of unicode characters with equivalent Mac character *)

		X = OpenTypeInt.X; Y = OpenTypeInt.Y;

		Debug = ложь;


	тип
		Fixed* = OpenTypeInt.Fixed;
		F26D6* = OpenTypeInt.F26D6;
		F2D14* = OpenTypeInt.F2D14;
		FUnit* = OpenTypeInt.FUnit;

		CacheObj = укль на CacheObjDesc;
		CacheObjDesc = запись
			prev, next: CacheObj;
			stamp: цел32;
		кон;

		(** object cache **)
		Cache* = запись
			entries, max: цел16;								(* current and maximal number of entries *)
			sent: CacheObj;										(* sentinel of cached object list *)
		кон;

		(* OpenType table directory entry *)
		TableEntry = запись
			tag: цел32;										(* table identifier *)
			checkSum: цел32;								(* checksum over table *)
			offset, length: цел32;								(* position and length of table within file *)
		кон;

		(** header table **)
		FontHeader* = запись
			flags: цел16;										(* only using bits 0..4 *)
			unitsPerEm*: цел16;								(** in range 16..16384 **)
			xMin*, yMin*, xMax*, yMax*: FUnit;					(** bounding box of all glyphs **)
			lowestRecPPEM*: цел16;							(** smallest readable size in pixels **)
			indexToLocFormat: цел16;							(* 'loca' index format *)
		кон;

		(** horizontal header table **)
		HorHeader* = запись
			ascender*, descender*, lineGap*: FUnit;				(** typographic ascent, descent and line gap **)
			advanceWidthMax*, minLeftSideBearing*, minRightSideBearing*, xMaxExtent*: FUnit;	(** calculated over all glyphs **)
			numberOfHMetrics: цел32;						(* number of horizontal metrics entries *)
		кон;

		(* character map table *)
		CharMapSegment* = запись
			start*, end*, delta*, offset*: цел16;
		кон;
		CharMapSegments* = укль на массив из CharMapSegment;

		CharMapGlyphs* = укль на массив из цел16;

		CharMap* = запись
			segCount*: цел16;									(* number of segments *)
			seg*: CharMapSegments;
			glyph*: CharMapGlyphs;
		кон;

		(** maximum profile table **)
		MaxProfile* = запись
			numGlyphs*: цел32;								(** number of glyphs in font **)
			maxPoints, maxContours: цел16;
			maxCompositePoints, maxCompositeContours: цел16;
			maxZones, maxTwilightPoints: цел16;
			maxStorage: цел16;
			maxFunctionDefs, maxInstructionDefs: цел16;
			maxStackElements, maxSizeOfInstructions: цел16;
		кон;

		(* horizontal metrics *)
		HorMetric = запись
			aw: цел16;
			lsb: цел16;
		кон;
		HorMetrics = укль на массив из HorMetric;

		(* linear threshold table *)
		LinearThresholds = укль на массив из симв8;

		(** OpenType font object **)
		Font* = укль на FontDesc;
		FontDesc* = запись (CacheObjDesc)
			name*: массив 64 из симв8;							(** font name **)
			file*: Files.File;										(** font file **)
			inst*: Cache;										(** cached instances **)

			table: массив NumTables из TableEntry;
			numTables: цел16;
			head*: FontHeader;
			hhea*: HorHeader;
			cmap*: CharMap;
			maxp*: MaxProfile;
			hmtx: HorMetrics;
			LTSH: LinearThresholds;

			fontProg, cvtProg, glyphProg: OpenTypeInt.Code;

			func: OpenTypeInt.Functions;
			instr: OpenTypeInt.Instructions;
			store: OpenTypeInt.Store;
			cvt: OpenTypeInt.CVT;
			cvtLen: цел32;
			twilight: OpenTypeInt.Zone;
		кон;

		(** transformation matrix **)
		Matrix* = массив 4 из Fixed;

		(** resolution specific font instance **)
		Instance* = укль на InstanceDesc;
		InstanceDesc* = запись (CacheObjDesc)
			font*: Font;											(** font that instance is derived from **)
			ptsize*: F26D6;										(** point size **)
			xdpi*, ydpi*: цел16;								(** device resolution in dots per inch **)
			xppm*, yppm*: F26D6;								(** number of pixels per Em square **)
			mat*: Matrix;										(** current transform matrix **)
			xmin*, ymin*, xmax*, ymax*: F26D6;				(** union of all character bounding boxes **)
			useHints*, useGrey*: булево;						(** suggestions for glyphs loaded from this instance **)
			rotated, stretched: булево;						(* is matrix rotated or scaled? *)
			aw: укль на массив из симв8;					(* advance width for each glyph *)
			func: OpenTypeInt.Functions;
			instr: OpenTypeInt.Instructions;
			store: OpenTypeInt.Store;
			cvt: OpenTypeInt.CVT;
			twilight: OpenTypeInt.Zone;
			state: OpenTypeInt.State;
		кон;

		(** glyph structure **)
		Glyph* = укль на GlyphDesc;
		GlyphDesc* = запись
			font*: Font;											(** font that glyph is compatible with **)
			awx*, awy*: цел16;								(** advance vector **)
			hbx*, hby*: цел16;								(** horizontal bearing (vector from origin to lower left corner of bounding box) **)
			rw*, rh*: цел16;									(** raster width and height **)
			xmin*, ymin*, xmax*, ymax*: F26D6;				(** outline bounding box **)
			lppx, rppx: F26D6;									(* phantom point coordinates *)
			outline, simple, comp: OpenTypeInt.Zone;				(* glyph outline *)
			fixDropouts: булево;
			scanType: цел16;
			store: OpenTypeInt.Store;
			cvt: OpenTypeInt.CVT;
		кон;

		(** glyph outline enumeration **)
		OutlineData0* = запись кон;
		OutlineData* = запись (OutlineData0)
			moveto*: проц (x, y: F26D6; перем data: OutlineData0);
			lineto*: проц (x, y: F26D6; перем data: OutlineData0);
			bezierto*: проц (x, y: массив из F26D6; n: цел16; перем data: OutlineData0);
		кон;

		(** glyph raster enumeration **)
		RasterData0* = запись (OpenTypeScan.EnumData) кон;
		RasterData* = запись (RasterData0)
			rect*: проц (llx, lly, urx, ury, opacity: цел16; перем data: RasterData0);
		кон;

	(**--- Debug ---**)

	DebugLogArray = укль на массив из Strings.String;
	DebugLog = окласс
	перем log : DebugLogArray;
		logEntries : цел32;

		проц &New*;
		нач
			нов(log, 16);
			logEntries := 0;
		кон New;

		проц Add(logEntry : массив из симв8);
		перем newLog : DebugLogArray; i : цел32;
		нач
			увел(logEntries);
			если logEntries >= длинаМассива(log) то
				нов(newLog, длинаМассива(log)*2); i := 0;
				нцПока i < длинаМассива(log) делай
					newLog[i] := log[i]; увел(i)
				кц;
				log := newLog
			всё;
			log[logEntries-1] := Strings.NewString(logEntry)
		кон Add;

		проц AddB(logEntry : массив из симв8; logVal :булево);
		перем tString : массив 32 из симв8; entry : массив 256 из симв8;
		нач
			копируйСтрокуДо0(logEntry, entry);
			Strings.BoolToStr(logVal, tString);
			Strings.Append(entry, tString);
			Add(entry)
		кон AddB;

		проц AddI(logEntry : массив из симв8; logVal : цел32);
		перем tString : массив 32 из симв8; entry : массив 256 из симв8;
		нач
			копируйСтрокуДо0(logEntry, entry);
			Strings.IntToStr(logVal, tString);
			Strings.Append(entry, tString);
			Add(entry)
		кон AddI;

		проц Flush;
		перем i : цел32;
		нач
			i := 0;
			нцПока i < logEntries делай
				ЛогЯдра.пСтроку8(log[i]^); ЛогЯдра.пВК_ПС; увел(i)
			кц;
			logEntries := 0
		кон Flush;

	кон DebugLog;

	(* ------------------------------------- *)
	перем
		FontCache*: Cache;										(** cache for font objects **)
		CharToUnicode*: массив 256 из цел16;				(** mapping from Oberon character codes to Unicodes **)
		Identity*: Matrix;										(** matrix normally used for generating instances **)
		CacheStamp: цел32;									(* next object stamp *)
		MacChar, UniChar: массив 256 из цел16;				(* corresponding Mac and Unicode characters in ascending Unicode order *)
		Log : DebugLog;
		SharpenContours: булево;

	(**--- Object Caches ---**)

	(** initialize object cache **)
	проц InitCache* (перем cache: Cache);
	нач
		нов(cache.sent); cache.sent.next := cache.sent; cache.sent.prev := cache.sent;
		cache.sent.stamp := матМаксимум(цел32);
		cache.entries := 0; cache.max := DefaultCacheSize
	кон InitCache;

	(** set new maximal number of objects that are kept in a cache **)
	проц SetCacheSize* (перем cache: Cache; max: цел16);
	нач
		cache.max := max;
		нцПока cache.entries > max делай
			cache.sent.next := cache.sent.next.next;
			умень(cache.entries)
		кц;
		cache.sent.next.prev := cache.sent
	кон SetCacheSize;

(*
	PROCEDURE Stamp (obj: CacheObj);
	BEGIN
		obj.next.prev := obj.prev; obj.prev.next := obj.next;
		obj.stamp := CacheStamp; INC(CacheStamp);
		WHILE obj.stamp > obj.next.stamp DO obj.next := obj.next.next END;
		obj.prev := obj.next.prev; obj.prev.next := obj; obj.next.prev := obj
	END Stamp;
*)

	проц Append (перем cache: Cache; obj: CacheObj);
	нач
		obj.stamp := CacheStamp; увел(CacheStamp);
		obj.prev := cache.sent.prev; obj.prev.next := obj;
		obj.next := cache.sent; obj.next.prev := obj;
		если cache.entries = cache.max то
			cache.sent.next := cache.sent.next.next; cache.sent.next.prev := cache.sent
		иначе
			увел(cache.entries)
		всё
	кон Append;


	(**--- Fonts ---**)

	(** return location of table within font file (returns whether table was found) **)
	проц FindTable* (font: Font; name: массив из симв8; перем offset, length: цел32): булево;
		перем tag, lo, hi, m: цел32;
	нач
		tag := арифмСдвиг(арифмСдвиг(арифмСдвиг(кодСимв8(name[0]), 8) + кодСимв8(name[1]), 8) + кодСимв8(name[2]), 8) + кодСимв8(name[3]);
		lo := 0; hi := font.numTables;
		нцПока lo+1 < hi делай
			m := (lo + hi) DIV 2;
			если font.table[m].tag <= tag то lo := m
			иначе hi := m
			всё
		кц;
		offset := font.table[lo].offset; length := font.table[lo].length;
		возврат font.table[lo].tag = tag
	кон FindTable;

	(** read big endian 2 byte integer **)
	проц ReadInt* (перем r: Files.Rider; перем i: цел16);
		перем c: массив 2 из симв8;
	нач
		r.file.ReadBytes(r, c, 0, 2);
		i := 100H*кодСимв8(c[0]) + кодСимв8(c[1])
	кон ReadInt;

	(** read big endian 4 byte integer **)
	проц ReadLInt* (перем r: Files.Rider; перем l: цел32);
		перем c: массив 4 из симв8;
	нач
		r.file.ReadBytes(r, c, 0, 4);
		l := арифмСдвиг(кодСимв8(c[0]), 24) + арифмСдвиг(кодСимв8(c[1]), 16) + арифмСдвиг(кодСимв8(c[2]), 8) + кодСимв8(c[3])
	кон ReadLInt;

	(** read big endian 2 byte integer **)
	проц Read16U* (перем r: Files.Rider; перем i: цел32);
		перем c: массив 2 из симв8;
	нач
		r.file.ReadBytes(r, c, 0, 2);
		i := 100H* устарПреобразуйКБолееШирокомуЦел(кодСимв8(c[0])) + устарПреобразуйКБолееШирокомуЦел(кодСимв8(c[1]))
	кон Read16U;

	проц LoadHeader (font: Font): булево;
		перем pos, len, version, magic: цел32; r: Files.Rider; gformat: цел16;
	нач
		если ~FindTable(font, "head", pos, len) то возврат ложь всё;
		font.file.Set(r, pos); ReadLInt(r, version);
		если version # 10000H то возврат ложь всё;
		r.file.Set(r,pos+12); ReadLInt(r, magic);
		если magic # 5F0F3CF5H то возврат ложь всё;
		ReadInt(r, font.head.flags); ReadInt(r, font.head.unitsPerEm);
		font.file.Set(r, pos+36);
		ReadInt(r, font.head.xMin); ReadInt(r, font.head.yMin);
		ReadInt(r, font.head.xMax); ReadInt(r, font.head.yMax);
		font.file.Set(r, pos+46);
		ReadInt(r, font.head.lowestRecPPEM);
		font.file.Set(r, pos+50);
		ReadInt(r, font.head.indexToLocFormat);
		ReadInt(r, gformat);
		возврат gformat = 0
	кон LoadHeader;

	проц LoadHorHeader (font: Font): булево;
		перем pos, len, version: цел32; r: Files.Rider; mformat: цел16;
	нач
		если ~FindTable(font, "hhea", pos, len) то возврат ложь всё;
		font.file.Set(r, pos); ReadLInt(r, version);
		если version # 10000H то возврат ложь всё;
		ReadInt(r, font.hhea.ascender); ReadInt(r, font.hhea.descender); ReadInt(r, font.hhea.lineGap);
		если Debug то ЛогЯдра.пСтроку8("Ascender: "); ЛогЯдра.пЦел64(font.hhea.ascender, 0); ЛогЯдра.пВК_ПС всё;
		если Debug то ЛогЯдра.пСтроку8("Descender: "); ЛогЯдра.пЦел64(font.hhea.descender, 0); ЛогЯдра.пВК_ПС всё;
		если Debug то ЛогЯдра.пСтроку8("LineGap: "); ЛогЯдра.пЦел64(font.hhea.lineGap, 0); ЛогЯдра.пВК_ПС всё;
		ReadInt(r, font.hhea.advanceWidthMax); ReadInt(r, font.hhea.minLeftSideBearing);
		если Debug то ЛогЯдра.пСтроку8("AdvanceWidthMax: "); ЛогЯдра.пЦел64(font.hhea.advanceWidthMax, 0); ЛогЯдра.пВК_ПС всё;
		если Debug то ЛогЯдра.пСтроку8("LeftSideBearing: "); ЛогЯдра.пЦел64(font.hhea.minLeftSideBearing, 0); ЛогЯдра.пВК_ПС всё;
		ReadInt(r, font.hhea.minRightSideBearing); ReadInt(r, font.hhea.xMaxExtent);
		если Debug то ЛогЯдра.пСтроку8("RightSideBearing: "); ЛогЯдра.пЦел64(font.hhea.minRightSideBearing, 0); ЛогЯдра.пВК_ПС всё;
		если Debug то ЛогЯдра.пСтроку8("xMaxExtent: "); ЛогЯдра.пЦел64(font.hhea.xMaxExtent, 0); ЛогЯдра.пВК_ПС всё;
		font.file.Set(r, pos+32); ReadInt(r, mformat);
		Read16U(r, font.hhea.numberOfHMetrics);
		если Debug то ЛогЯдра.пСтроку8("Num of HMetrics: "); ЛогЯдра.пЦел64(font.hhea.numberOfHMetrics, 0); ЛогЯдра.пВК_ПС всё;
		возврат mformat = 0
	кон LoadHorHeader;

	проц LoadCharMap (font: Font): булево;
		перем
			r: Files.Rider; pos, length, offset, s, p: цел32;
			version, tables, t, platform, encoding, format, n, len, segCountX2, pad, off: цел16;
			found: булево; glyph: массив 256 из симв8; uni: массив CharMapSize из цел16;
	нач
		если ~FindTable(font, "cmap", pos, length) то
			если Debug то Log.Add("CMAP Table not found"); Log.Flush всё;
			возврат ложь
		всё;
		font.file.Set(r, pos); ReadInt(r, version);
		если version # 0 то
			если Debug то Log.AddI("Version is not 0: ", version); Log.Flush всё;
			возврат ложь
		всё;
		ReadInt(r, tables);
			если Debug то Log.AddI("Number of CMAP tables: ", tables); всё;
		found := ложь;
		t := 0;
		нцПока t < tables делай
			r.file.Set(r, pos + 4 + 8*t);
			ReadInt(r, platform); ReadInt(r, encoding); ReadLInt(r, offset); увел(offset, pos);
			если (platform = 3) и (encoding = 1) то				(* found Microsoft Unicode encoding *)
				если Debug то Log.Add("found platform ID 3 encoding 1") всё;
				font.file.Set(r, offset); ReadInt(r, format);
				если format # 4 то
					если Debug то Log.AddI("format for platform 3:1 not supported: ", format) всё;
				иначе
					ReadInt(r, len); ReadInt(r, version); ReadInt(r, segCountX2);
					font.cmap.segCount := segCountX2 DIV 2;
					если Debug то Log.AddI("SegCount: ", font.cmap.segCount) всё;
					нов(font.cmap.seg, font.cmap.segCount);
					font.file.Set(r, offset+14);
					n := 0; нцПока n < font.cmap.segCount делай ReadInt(r, font.cmap.seg[n].end); увел(n) кц;
					ReadInt(r, pad);
					n := 0; нцПока n < font.cmap.segCount делай ReadInt(r, font.cmap.seg[n].start); увел(n) кц;
					n := 0; нцПока n < font.cmap.segCount делай ReadInt(r, font.cmap.seg[n].delta); увел(n) кц;
					n := 0;
					нцПока n < font.cmap.segCount делай
						ReadInt(r, off);
						если off = 0 то font.cmap.seg[n].offset := -1
						иначе font.cmap.seg[n].offset := off DIV 2 - (font.cmap.segCount - n)
						всё;
						увел(n)
					кц;
					len := устарПреобразуйКБолееУзкомуЦел(offset + len - r.file.Pos(r)(цел32)) DIV 2;
					если len > 0 то
						нов(font.cmap.glyph, len);
						n := 0; нцПока n < len делай ReadInt(r, font.cmap.glyph[n]); увел(n) кц;
						если Debug то Log.AddI("Glyphs added: ", len) всё
					иначе
						font.cmap.glyph := НУЛЬ
					всё;
					возврат истина;
				всё;

			аесли (platform = 1) и (encoding = 0) то
				если Debug то Log.Add("found platform ID 1 encoding 0") всё;
				font.file.Set(r, offset); ReadInt(r, format);
				если format # 0 то
					если Debug то Log.AddI("format for platform 1:0 not supported: ", format) всё;
				иначе
					ReadInt(r, len); ReadInt(r, version);
					r.file.ReadBytes(r, glyph, 0,256);
					нцДля n := 0 до CharMapSize-1 делай
						uni[n] := кодСимв8(glyph[MacChar[n]])			(* character UniChar[n] now has glyph uni[n] *)
					кц;

					p := 0; s := 0;
					нцДля n := 0 до CharMapSize-1 делай
						если uni[n] # 0 то							(* UniChar[n] is defined *)
							если (n = 0) или (uni[n-1] = 0) или (UniChar[n-1] + 1 # UniChar[n]) то
								увел(s)
							всё;
							увел(p)
						всё
					кц;
					font.cmap.segCount := устарПреобразуйКБолееУзкомуЦел(s);
					нов(font.cmap.seg, s+1);						(* add one for the sentinel segment *)
					нов(font.cmap.glyph, p);

					s := 0; p := 0;
					нцДля n := 0 до CharMapSize-1 делай
						если uni[n] # 0 то
							если (n = 0) или (uni[n-1] = 0) или (UniChar[n-1] + 1 # UniChar[n]) то
								font.cmap.seg[s].start := UniChar[n];
								font.cmap.seg[s].delta := 0;
								font.cmap.seg[s].offset := устарПреобразуйКБолееУзкомуЦел(p)
							всё;
							если (n = CharMapSize-1) или (UniChar[n+1] = 0) или (UniChar[n+1] - 1 # UniChar[n]) то
								font.cmap.seg[s].end := UniChar[n];
								увел(s)
							всё;
							font.cmap.glyph[p] := uni[n];
							увел(p)
						всё
					кц;

					font.cmap.seg[s].start := -1;	(* = FFFF *)
					font.cmap.seg[s].end := -1;	(* = FFFF *)
					font.cmap.seg[s].delta := 1;
					font.cmap.seg[s].offset := -1;

					found := истина
				всё
			иначе
				если Debug то
					Log.AddI("Platform not supported: ", platform);
					Log.AddI("Encoding: ",encoding)
				всё;
			всё;
			увел(t)
		кц;
		возврат found
	кон LoadCharMap;

	проц LoadMaxProfile (font: Font): булево;
		перем pos, len, version: цел32; r: Files.Rider;
	нач
		если ~FindTable(font, "maxp", pos, len) то возврат ложь всё;
		font.file.Set(r, pos); ReadLInt(r, version);
		если version # 10000H то возврат ложь всё;									(* only TrueType supported so far *)
		Read16U(r, font.maxp.numGlyphs);
		если Debug то ЛогЯдра.пСтроку8("Num of Glyphs: "); ЛогЯдра.пЦел64(font.maxp.numGlyphs, 0); ЛогЯдра.пВК_ПС всё;
		ReadInt(r, font.maxp.maxPoints); ReadInt(r, font.maxp.maxContours);
		если Debug то ЛогЯдра.пСтроку8("Num of Points: "); ЛогЯдра.пЦел64(font.maxp.maxPoints, 0); ЛогЯдра.пВК_ПС всё;
		если Debug то ЛогЯдра.пСтроку8("Num of Contours: "); ЛогЯдра.пЦел64(font.maxp.maxContours, 0); ЛогЯдра.пВК_ПС всё;
		ReadInt(r, font.maxp.maxCompositePoints); ReadInt(r, font.maxp.maxCompositeContours);
		если Debug то ЛогЯдра.пСтроку8("Num of Comp Points: "); ЛогЯдра.пЦел64(font.maxp.maxCompositePoints, 0); ЛогЯдра.пВК_ПС всё;
		если Debug то ЛогЯдра.пСтроку8("Num of Comp Countours: "); ЛогЯдра.пЦел64(font.maxp.maxCompositeContours, 0); ЛогЯдра.пВК_ПС всё;
		ReadInt(r, font.maxp.maxZones); ReadInt(r, font.maxp.maxTwilightPoints);
		если Debug то ЛогЯдра.пСтроку8("Num of maxZones: "); ЛогЯдра.пЦел64(font.maxp.maxZones, 0); ЛогЯдра.пВК_ПС всё;
		если Debug то ЛогЯдра.пСтроку8("Num of maxTwilight: "); ЛогЯдра.пЦел64(font.maxp.maxTwilightPoints, 0); ЛогЯдра.пВК_ПС всё;
		ReadInt(r, font.maxp.maxStorage); ReadInt(r, font.maxp.maxFunctionDefs);
		если Debug то ЛогЯдра.пСтроку8("Num of maxStorage: "); ЛогЯдра.пЦел64(font.maxp.maxStorage, 0); ЛогЯдра.пВК_ПС всё;
		если Debug то ЛогЯдра.пСтроку8("Num of maxFuncDefs: "); ЛогЯдра.пЦел64(font.maxp.maxFunctionDefs, 0); ЛогЯдра.пВК_ПС всё;
		если font.maxp.maxFunctionDefs = 0 то font.maxp.maxFunctionDefs := 64 всё;	(* seems to be necessary *)
		ReadInt(r, font.maxp.maxInstructionDefs); ReadInt(r, font.maxp.maxStackElements);
		если Debug то ЛогЯдра.пСтроку8("Num of InstructionDefs: "); ЛогЯдра.пЦел64(font.maxp.maxInstructionDefs, 0); ЛогЯдра.пВК_ПС всё;
		если Debug то ЛогЯдра.пСтроку8("Num of maxStackElems: "); ЛогЯдра.пЦел64(font.maxp.maxStackElements, 0); ЛогЯдра.пВК_ПС всё;
		ReadInt(r, font.maxp.maxSizeOfInstructions);
		если Debug то ЛогЯдра.пСтроку8("MaxSize of Instruction: "); ЛогЯдра.пЦел64(font.maxp.maxSizeOfInstructions, 0); ЛогЯдра.пВК_ПС всё;
		возврат истина
	кон LoadMaxProfile;

	проц LoadHorMetrics (font: Font): булево;
		перем pos, len: цел32; r: Files.Rider; aw: цел16; n: цел32;
	нач
		если ~FindTable(font, "hmtx", pos, len) то возврат ложь всё;
		нов(font.hmtx, font.maxp.numGlyphs);
		font.file.Set(r, pos);
		n := 0;
		нцПока n < font.hhea.numberOfHMetrics делай
			ReadInt(r, font.hmtx[n].aw); ReadInt(r, font.hmtx[n].lsb);
			увел(n)
		кц;
		aw := font.hmtx[n-1].aw;
		нцПока n < font.maxp.numGlyphs делай
			font.hmtx[n].aw := aw; ReadInt(r, font.hmtx[n].lsb);
			увел(n)
		кц;
		возврат истина
	кон LoadHorMetrics;

	проц LoadCVT (font: Font);
		перем pos, len, n: цел32; r: Files.Rider; val: FUnit;
	нач
		font.cvt := НУЛЬ; font.cvtLen := 0;
		если FindTable(font, "cvt ", pos, len) то
			font.cvtLen := len DIV 2;
			OpenTypeInt.NewCVT(font.cvt, font.cvtLen);
			font.file.Set(r, pos);
			нцДля n := 0 до font.cvtLen-1 делай
				ReadInt(r, val); font.cvt[n] := val
			кц
		всё
	кон LoadCVT;

	проц LoadLinearThresholds (font: Font);
		перем pos, len: цел32; r: Files.Rider; numGlyphs: цел32;
	нач
		font.LTSH := НУЛЬ;
		если FindTable(font, "LTSH", pos, len) то
			нов(font.LTSH, font.maxp.numGlyphs);
			font.file.Set(r, pos+2);
			Read16U(r, numGlyphs);
			если numGlyphs >= font.maxp.numGlyphs то
				r.file.ReadBytes(r, font.LTSH^, 0, font.maxp.numGlyphs)
			иначе
				r.file.ReadBytes(r, font.LTSH^, 0, numGlyphs);
				нцПока numGlyphs < font.maxp.numGlyphs делай
					font.LTSH[numGlyphs] := 0FFX;
					увел(numGlyphs)
				кц
			всё
		всё
	кон LoadLinearThresholds;

	проц LoadFont (font: Font): булево;
		перем r: Files.Rider; n: цел32; ok: булево;
		lh, lhh, lcm, lmp, lhm : булево;
	нач
		(* load table directory *)
		font.file.Set(r, 4); ReadInt(r, font.numTables);
		если font.numTables > NumTables то
			font.numTables := NumTables						(* this is somewhat crude, but unlikely to ever happen *)
		всё;
		font.file.Set(r, 12); n := 0;
		нцПока n < font.numTables делай
			ReadLInt(r, font.table[n].tag);
			ReadLInt(r, font.table[n].checkSum);
			ReadLInt(r, font.table[n].offset);
			ReadLInt(r, font.table[n].length);
			увел(n)
		кц;

		(* load required tables *)
		если Debug то
			Log.Add("-- LoadHeader: "); lh := LoadHeader(font); Log.AddB("status: ", lh);
			Log.Add("-- LoadHorHeader: "); lhh := LoadHorHeader(font); Log.AddB("status: ", lhh);
			Log.Add("-- LoadCharMap: "); lcm := LoadCharMap(font); Log.AddB("status: ", lcm);
			Log.Add("-- LoadMaxProfile: "); lmp := LoadMaxProfile(font); Log.AddB("status: ", lmp);
			Log.Add("-- LoadHorMetrics: "); lhm := LoadHorMetrics(font); Log.AddB("status: ", lhm);
			Log.Flush;
			ok := lh и lhh и lcm и lmp и lhm
		иначе
		ok :=
			LoadHeader(font) и
			LoadHorHeader(font) и
			LoadCharMap(font) и
			LoadMaxProfile(font) и
			LoadHorMetrics(font);
		всё;

		если ok то
			(* load optional structures *)
			если Debug то ЛогЯдра.пСтроку8("LoadCVT"); ЛогЯдра.пВК_ПС всё;
			LoadCVT(font);
			если Debug то ЛогЯдра.пСтроку8("LoadLinearThresholds"); ЛогЯдра.пВК_ПС всё;
			LoadLinearThresholds(font);

			(* allocate structures *)
			если Debug то ЛогЯдра.пСтроку8("NewCode: "); ЛогЯдра.пЦел64(font.maxp.maxSizeOfInstructions, 0); ЛогЯдра.пВК_ПС всё;
			OpenTypeInt.NewCode(font.glyphProg, font.maxp.maxSizeOfInstructions);
			если Debug то ЛогЯдра.пСтроку8("NewStack: "); ЛогЯдра.пЦел64(font.maxp.maxStackElements, 0); ЛогЯдра.пВК_ПС всё;
			если Debug то ЛогЯдра.пСтроку8("NewFunctions: "); ЛогЯдра.пЦел64(font.maxp.maxFunctionDefs, 0); ЛогЯдра.пВК_ПС всё;
			OpenTypeInt.NewFunctions(font.func, font.maxp.maxFunctionDefs);
			если Debug то ЛогЯдра.пСтроку8("NewInstructions: "); ЛогЯдра.пЦел64(font.maxp.maxInstructionDefs, 0); ЛогЯдра.пВК_ПС всё;
			OpenTypeInt.NewInstructions(font.instr, font.maxp.maxInstructionDefs);
			если Debug то ЛогЯдра.пСтроку8("NewStore: "); ЛогЯдра.пЦел64(font.maxp.maxStorage, 0); ЛогЯдра.пВК_ПС всё;
			OpenTypeInt.NewStore(font.store, font.maxp.maxStorage);
			если Debug то ЛогЯдра.пСтроку8("NewZone: "); ЛогЯдра.пЦел64(font.maxp.maxTwilightPoints, 0); ЛогЯдра.пВК_ПС всё;
			OpenTypeInt.NewZone(font.twilight, 1, font.maxp.maxTwilightPoints);
			если Debug то ЛогЯдра.пСтроку8("-- done"); ЛогЯдра.пВК_ПС всё;
			ok := font.maxp.maxStackElements <= OpenTypeInt.StackSize;
		всё;

		возврат ok
	кон LoadFont;

	проц ExecFontProg (font: Font);
		перем pos, len: цел32; r: Files.Rider; context: OpenTypeInt.Context;
	нач
		если FindTable(font, "fpgm", pos, len) то
			если Debug то ЛогЯдра.пСтроку8("fpgm execution started"); ЛогЯдра.пВК_ПС всё;
			OpenTypeInt.NewCode(font.fontProg, len);
			font.file.Set(r, pos);
			r.file.ReadBytes(r, font.fontProg^, 0,len);
			OpenTypeInt.SetStructures(context, font.func, font.instr, font.store, font.cvt);
			OpenTypeInt.SetResolution(context, 10*40H, (10*40H+36) DIV 72, (10*40H+36) DIV 72, font.head.unitsPerEm, ложь, ложь);
			OpenTypeInt.InitState(context);
			OpenTypeInt.Execute(context, font.fontProg, len, OpenTypeInt.EmptyZone, OpenTypeInt.EmptyZone);
			если Debug то ЛогЯдра.пСтроку8("fpgm execution ended"); ЛогЯдра.пВК_ПС всё;
		всё
	кон ExecFontProg;

	(** open a OpenType font file; file name extension and path may be omitted; returns NIL if not found **)
	проц Open* (name: массив из симв8): Font;
		перем fname, temp, ext: Files.FileName; obj: CacheObj; file: Files.File; r: Files.Rider; version: цел32; font: Font;
	нач
		нов(Log);
		копируйСтрокуДо0(name, fname);
		Strings.GetExtension(name, temp, ext);
		если ext[0] = 0X то
			Strings.Append(fname, ".TTF")
		иначе
			name[Strings.Length(name) - Strings.Length(ext) - 1] := 0X
		всё;

		(* find font in cache *)
		obj := FontCache.sent.next;
		нцПока obj # FontCache.sent делай
			если obj(Font).name = name то
				возврат obj(Font)
			всё;
			obj := obj.next
		кц;

		(* try to open font file *)
		file := Files.Old(fname);
		если (file = НУЛЬ) и (ext[0] = 0X) то							(* try extension '.OTF' if none was specified *)
			копируйСтрокуДо0(name, fname); Strings.Append(fname, ".OTF");
			file := Files.Old(fname)
		всё;
		если file # НУЛЬ то
			file.Set(r, 0); ReadLInt(r, version);
			если version = 10000H то								(* 'OTTO' (including CFF outlines) not supported *)
				нов(font); копируйСтрокуДо0(name, font.name); font.file := file;
				если LoadFont(font) то
					Append(FontCache, font);
					InitCache(font.inst);
					ExecFontProg(font);
					возврат font
				иначе
					если Debug то Log.Add("## loading error") всё
				всё
			иначе
				если Debug то Log.Add("## wrong version") всё
			всё
		всё;
		если Debug то Log.Flush всё;
		возврат НУЛЬ													(* failed to load font *)
	кон Open;

	(** get entry from name table; whenever possible, a string in English is returned **)
	проц GetName* (font: Font; id: цел16; перем name: массив из симв8);
		перем
			pos, len, off: цел32;
			r: Files.Rider;
			unicode: булево;
			n, offset, platform, encoding, language, nameID, l, o: цел16;
			dummy: симв8;
	нач
		name[0] := 0X;
		если FindTable(font, "name", pos, len) то
			off := -1; len := 0; unicode := ложь;
			font.file.Set(r, pos+2); ReadInt(r, n); ReadInt(r, offset);
			нцПока n > 0 делай
				ReadInt(r, platform); ReadInt(r, encoding); ReadInt(r, language); ReadInt(r, nameID);
				ReadInt(r, l); ReadInt(r, o);
				если nameID = id то
					off := o; len := l;
					если (platform = 3) и (encoding = 1) и (language остОтДеленияНа 100H = 9) то
						n := 1; unicode := истина
					аесли (platform = 1) и (encoding = 0) и (language = 0) то
						n := 1
					всё
				всё;
				умень(n)
			кц;
			если off >= 0 то
				font.file.Set(r, pos + offset + off);
				l := 0;
				нцПока len > 0 делай
					если unicode то
						r.file.Read(r, dummy); умень(len)				(* skip high byte *)
					всё;
					r.file.Read(r, name[l]); увел(l); умень(len)
				кц;
				name[l] := 0X
			всё
		всё
	кон GetName;

	(** map Unicode character code to glyph number **)
	проц UnicodeToGlyph* (font: Font; code: цел32): цел32;
		перем lo, hi, m, start, end, delta, offset, idx: цел32;
	нач
		lo := 0; hi := font.cmap.segCount;
		нцПока lo+1 < hi делай
			m := (lo + hi) DIV 2;
			если устарПреобразуйКБолееШирокомуЦел(font.cmap.seg[m].start) остОтДеленияНа 10000H <= code то lo := m
			иначе hi := m
			всё
		кц;
		start := устарПреобразуйКБолееШирокомуЦел(font.cmap.seg[lo].start) остОтДеленияНа 10000H;
		end := устарПреобразуйКБолееШирокомуЦел(font.cmap.seg[lo].end) остОтДеленияНа 10000H;
		если (start <= code) и (code <= end) то
			delta := font.cmap.seg[lo].delta; offset := font.cmap.seg[lo].offset;
			если offset < 0 то
				возврат (code + delta) остОтДеленияНа 10000H
			иначе
				idx := font.cmap.glyph[code - start + offset];
				если idx = 0 то
					возврат 0
				иначе
					возврат (idx + delta) остОтДеленияНа 10000H
				всё
			всё
		иначе
			возврат 0
		всё
	кон UnicodeToGlyph;


	(**--- Instances ---**)

	проц CalcPPEm (font: Font; ptsize: F26D6; xdpi, ydpi: цел16; перем xppm, yppm: F26D6);
	нач
		xppm := OpenTypeInt.MulDiv(ptsize, xdpi, 72);
		yppm := OpenTypeInt.MulDiv(ptsize, ydpi, 72);
		если нечётноеЛи¿(font.head.flags DIV 8) то						(* round ppem to integer *)
			xppm := (xppm + 20H) DIV 40H * 40H;
			yppm := (yppm + 20H) DIV 40H * 40H
		всё
	кон CalcPPEm;

	(** get an instance for an opened font (an instance has fixed point size and resolution) **)
	проц GetInstance* (font: Font; ptsize: F26D6; xdpi, ydpi: цел16; mat: Matrix; перем inst: Instance);
		перем
			xppm, yppm, ppm, lo, hi, xmin, xmax, ymin, ymax: F26D6; obj: CacheObj; i, pos, len, size: цел32;
			context: OpenTypeInt.Context; r: Files.Rider; version, n, maxPPM, flags: цел16; ch: симв8;
	нач
		CalcPPEm(font, ptsize, xdpi, ydpi, xppm, yppm);
		obj := font.inst.sent;
		нцПока obj # font.inst.sent делай
			inst := obj(Instance);
			если (inst.xppm = xppm) и (inst.yppm = yppm) и
				(~нечётноеЛи¿(font.head.flags DIV 4) или (inst.ptsize = ptsize)) и
				(inst.mat[0] = mat[0]) и (inst.mat[1] = mat[1]) и (inst.mat[2] = mat[2]) и (inst.mat[3] = mat[3])
			то
				возврат
			всё;
			obj := obj.next
		кц;

		нов(inst); inst.font := font;
		inst.ptsize := ptsize;
		inst.xdpi := xdpi; inst.ydpi := ydpi;
		inst.xppm := xppm; inst.yppm := yppm;
		если xppm >= yppm то ppm := xppm иначе ppm := yppm всё;
		inst.mat[0] := mat[0]; inst.mat[1] := mat[1];
		inst.mat[2] := mat[2]; inst.mat[3] := mat[3];
		inst.rotated := (mat[1] # 0) или (mat[2] # 0);
		inst.stretched := (mat[0] # 10000H) или (mat[3] # 10000H);
		Append(font.inst, inst);

		OpenTypeInt.NewFunctions(inst.func, font.maxp.maxFunctionDefs);
		OpenTypeInt.NewInstructions(inst.instr, font.maxp.maxInstructionDefs);
		OpenTypeInt.NewStore(inst.store, font.maxp.maxStorage);
		OpenTypeInt.NewCVT(inst.cvt, font.cvtLen);
		OpenTypeInt.NewZone(inst.twilight, 1, font.maxp.maxTwilightPoints);

		нцДля i := 0 до font.maxp.maxFunctionDefs-1 делай inst.func[i] := font.func[i] кц;
		нцДля i := 0 до font.maxp.maxInstructionDefs-1 делай inst.instr[i] := font.instr[i] кц;
		нцДля i := 0 до font.maxp.maxStorage-1 делай inst.store[i] := font.store[i] кц;
		нцДля i := 0 до font.cvtLen-1 делай
			inst.cvt[i] := OpenTypeInt.MulDiv(font.cvt[i], ppm, font.head.unitsPerEm)
		кц;

		OpenTypeInt.InitState(context);
		если FindTable(font, "prep", pos, len) то					(* load and execute cvt program *)
			если Debug то ЛогЯдра.пСтроку8("Processing prep table"); ЛогЯдра.пВК_ПС всё;
			если font.cvtProg = НУЛЬ то
				OpenTypeInt.NewCode(font.cvtProg, len);
				font.file.Set(r, pos);
				r.file.ReadBytes(r, font.cvtProg^, 0,len)
			всё;
			OpenTypeInt.SetStructures(context, inst.func, inst.instr, inst.store, inst.cvt);
			OpenTypeInt.SetResolution(context, ptsize, xppm, yppm, font.head.unitsPerEm, inst.rotated, inst.stretched);
			OpenTypeInt.Execute(context, font.cvtProg, len, inst.twilight, OpenTypeInt.EmptyZone)
		всё;
		OpenTypeInt.SaveState(context, inst.state);

		inst.xmin := OpenTypeInt.MulDiv(font.head.xMin, ppm, font.head.unitsPerEm);
		inst.ymin := OpenTypeInt.MulDiv(font.head.yMin, ppm, font.head.unitsPerEm);
		inst.xmax := OpenTypeInt.MulDiv(font.head.xMax, ppm, font.head.unitsPerEm);
		inst.ymax := OpenTypeInt.MulDiv(font.head.yMax, ppm, font.head.unitsPerEm);
		если inst.rotated или inst.stretched то
			lo := OpenTypeInt.MulShift(inst.xmin, mat[0], -16); hi := OpenTypeInt.MulShift(inst.xmax, mat[0], -16);
			если lo <= hi то xmin := lo; xmax := hi иначе xmin := hi; xmax := lo всё;
			lo := OpenTypeInt.MulShift(inst.ymin, mat[2], -16); hi := OpenTypeInt.MulShift(inst.ymax, mat[2], -16);
			если lo <= hi то xmin := xmin + lo; xmax := xmax + hi иначе xmin := xmin + hi; xmax := xmax + lo всё;
			lo := OpenTypeInt.MulShift(inst.xmin, mat[1], -16); hi := OpenTypeInt.MulShift(inst.xmax, mat[1], -16);
			если lo <= hi то ymin := lo; ymax := hi иначе ymin := hi; ymax := lo всё;
			lo := OpenTypeInt.MulShift(inst.ymin, mat[3], -16); hi := OpenTypeInt.MulShift(inst.ymax, mat[3], -16);
			если lo <= hi то ymin := ymin + lo; ymax := ymax + hi иначе ymin := ymin + hi; ymax := ymax + lo всё;
			inst.xmin := xmin; inst.ymin := ymin; inst.xmax := xmax; inst.ymax := ymax
		всё;

		inst.useHints := истина; inst.useGrey := ложь;
		если FindTable(font, "gasp", pos, len) то					(* get suggestion for hinting and grayscale usage *)
			если Debug то ЛогЯдра.пСтроку8("Processing gasp table"); ЛогЯдра.пВК_ПС всё;
			font.file.Set(r, pos);
			ReadInt(r, version);
			если version = 0 то
				ReadInt(r, n);
				нцДо
					ReadInt(r, maxPPM); ReadInt(r, flags)
				кцПри (yppm <= 40H*maxPPM) или r.eof;
				inst.useHints := нечётноеЛи¿(flags);
				inst.useGrey := нечётноеЛи¿(flags DIV 2)
			всё
		всё;

		inst.aw := НУЛЬ;
		если FindTable(font, "hdmx", pos, len) то					(* get horizontal device metrics *)
			если Debug то ЛогЯдра.пСтроку8("Processing hdmx table"); ЛогЯдра.пВК_ПС всё;
			font.file.Set(r, pos+2);
			ReadInt(r, n); ReadLInt(r, size);
			нцДо
				r.file.Read(r, ch);
				если кодСимв8(ch) = yppm DIV 40H то
					r.file.Read(r, ch);
					нов(inst.aw, font.maxp.numGlyphs);
					r.file.ReadBytes(r, inst.aw^, 0, font.maxp.numGlyphs);
					n := 0
				иначе
					font.file.Set(r, font.file.Pos(r) - 1 + size);
					умень(n)
				всё
			кцПри n = 0
		всё;
		если Debug то ЛогЯдра.пСтроку8("## finished"); ЛогЯдра.пВК_ПС всё
	кон GetInstance;


	(**--- Glyphs ---**)

	(** initialize glyph structure to be compatible with given font **)
	проц InitGlyph* (glyph: Glyph; font: Font);
	нач
		glyph.font := font;
		если Debug то ЛогЯдра.пСтроку8("max Contours: "); ЛогЯдра.пЦел64(font.maxp.maxContours, 0); ЛогЯдра.пСтроку8(" NewZone Simple: "); ЛогЯдра.пЦел64(font.maxp.maxPoints+2, 0); ЛогЯдра.пВК_ПС всё;
		OpenTypeInt.NewZone(glyph.simple, font.maxp.maxContours, font.maxp.maxPoints+2);
		если Debug то ЛогЯдра.пСтроку8("max CompContours: ");ЛогЯдра.пЦел64(font.maxp.maxCompositeContours, 0); ЛогЯдра.пСтроку8(" NewZone Comp: "); ЛогЯдра.пЦел64(font.maxp.maxCompositePoints+2, 0); ЛогЯдра.пВК_ПС всё;
		OpenTypeInt.NewZone(glyph.comp, font.maxp.maxCompositeContours, font.maxp.maxCompositePoints+2);
		если Debug то ЛогЯдра.пСтроку8("NewStore: "); ЛогЯдра.пЦел64(font.maxp.maxStorage, 0); ЛогЯдра.пВК_ПС всё;
		OpenTypeInt.NewStore(glyph.store, font.maxp.maxStorage);
		если Debug то ЛогЯдра.пСтроку8("NewCVT: "); ЛогЯдра.пЦел64(font.cvtLen, 0); ЛогЯдра.пВК_ПС всё;
		OpenTypeInt.NewCVT(glyph.cvt, font.cvtLen)
	кон InitGlyph;

	проц LoadSimpleOutline (перем r: Files.Rider; glyph: Glyph; inst: Instance; num: цел32; contours: цел16; hinted, rotated, stretched: булево);
		перем
			font: Font; zone: OpenTypeInt.Zone; pt: OpenTypeInt.Points; points, instrLen, xmin, ymin, xmax, ymax, i, j, val: цел16;
			flag: цел8; byte: симв8; x, y, aw, lsb: FUnit; dx: F26D6; context: OpenTypeInt.Context;
			flags: массив 512 из цел8;
	нач
		font := glyph.font; zone := glyph.simple; pt := zone.pt;
		zone.contours := 0; points := 0; instrLen := 0;
		если contours > 0 то
			ReadInt(r, xmin); ReadInt(r, ymin);
			ReadInt(r, xmax); ReadInt(r, ymax);

			(* load contour end points *)
			zone.contours := contours; zone.first[0] := 0;
			нцДля i := 1 до contours делай
				ReadInt(r, j); zone.first[i] := j+1
			кц;
			points := zone.first[contours];

			(* load glyph instructions *)
			ReadInt(r, instrLen);
			если instrLen > 0 то
				если hinted то
					если instrLen > длинаМассива(font.glyphProg^) то
						если Debug то ЛогЯдра.пСтроку8("Wrong Instruction Prog Size: "); ЛогЯдра.пЦел64(instrLen, 0); ЛогЯдра.пСтроку8(" Array size: "); ЛогЯдра.пЦел64(длинаМассива(font.glyphProg^), 0); ЛогЯдра.пВК_ПС всё;
						hinted := ложь;
						font.file.Set(r,  r.file.Pos(r) + instrLen)
					иначе
						r.file.ReadBytes(r, font.glyphProg^, 0, instrLen)
					всё
				иначе font.file.Set(r,  r.file.Pos(r) + instrLen)
				всё
			всё;

			(* load flags *)
			нцДля i := 0 до points-1 делай  flags[i] := 0  кц;
			i := 0;
			нцПока i < points делай
				Files.ReadSInt(r, flag); flags[i] := flag;
				если нечётноеЛи¿(flag DIV 8) то	(* repeat flag set *)
					r.file.Read(r, byte); j := кодСимв8(byte);
					нцПока j > 0 делай
						увел(i); flags[i] := flag; умень(j)
					кц
				всё;
				увел(i)
			кц;

			(* load x-coordinates *)
			x := 0;
			нцДля i := 0 до points-1 делай
				flag := flags[i];
				если нечётноеЛи¿(flag DIV 2) то							(* x is short *)
					r.file.Read(r, byte);
					если нечётноеЛи¿(flag DIV 10H) то увел(x, кодСимв8(byte))	(* short x-value is positive *)
					иначе умень(x, кодСимв8(byte))							(* short x-value is negative *)
					всё
				аесли ~нечётноеЛи¿(flag DIV 10H) то						(* x has previous value *)
					ReadInt(r, val); увел(x, val)
				всё;
				pt[i].org[X] := OpenTypeInt.MulDiv(x, inst.xppm, font.head.unitsPerEm)
			кц;

			(* load y-coordinates *)
			y := 0;
			нцДля i := 0 до points-1 делай
				flag := flags[i];
				если нечётноеЛи¿(flag DIV 4) то							(* y is short *)
					r.file.Read(r, byte);
					если нечётноеЛи¿(flag DIV 20H) то увел(y, кодСимв8(byte))	(* short y-value is positive *)
					иначе умень(y, кодСимв8(byte))							(* short y-value is negative *)
					всё
				аесли ~нечётноеЛи¿(flag DIV 20H) то						(* y has previous value *)
					ReadInt(r, val); увел(y, val)
				всё;
				pt[i].org[Y] := OpenTypeInt.MulDiv(y, inst.yppm, font.head.unitsPerEm)
			кц;

			нцДля i := 0 до points-1 делай
				pt[i].onCurve := нечётноеЛи¿(flags[i])
			кц
		всё;

		(* add phantom points *)
		aw := font.hmtx[num].aw; lsb := font.hmtx[num].lsb;
		если нечётноеЛи¿(font.head.flags DIV 2) то
			pt[points].org[X] := 0;
			pt[points+1].org[X] := OpenTypeInt.MulDiv(aw, inst.xppm, font.head.unitsPerEm)
		иначе
			pt[points].org[X] := OpenTypeInt.MulDiv(xmin - lsb, inst.xppm, font.head.unitsPerEm);
			pt[points+1].org[X] := pt[points].org[X] + OpenTypeInt.MulDiv(aw, inst.xppm, font.head.unitsPerEm)
		всё;
		pt[points].org[Y] := 0; pt[points].onCurve := ложь;
		pt[points+1].org[Y] := 0; pt[points+1].onCurve := ложь;

		если hinted то												(* round phantom points to grid and shift whole outline *)
			dx := 20H - (pt[points].org[X] + 20H) остОтДеленияНа 40H;
			если dx # 0 то
				нцДля i := 0 до points+1 делай
					увел(pt[i].org[X], dx)
				кц
			всё;
			pt[points+1].org[X] := (pt[points+1].org[X] + 20H) DIV 40H * 40H
		всё;

		нцДля i := 0 до points+1 делай
			pt[i].cur := pt[i].org;
			pt[i].touched[0] := ложь; pt[i].touched[1] := ложь
		кц;

		если hinted и (instrLen > 0) то								(* execute instructions *)
			OpenTypeInt.RestoreState(context, inst.state);
			если context.ignorePrep то								(* use default state and cvt *)
				OpenTypeInt.InitState(context)
			всё;
			нцДля i := 0 до font.maxp.maxStorage-1 делай glyph.store[i] := inst.store[i] кц;
			нцДля i := 0 до устарПреобразуйКБолееУзкомуЦел(font.cvtLen-1) делай glyph.cvt[i] := inst.cvt[i] кц;
			нцДля i := 0 до font.maxp.maxTwilightPoints-1 делай font.twilight.pt[i] := inst.twilight.pt[i] кц;
			OpenTypeInt.SetStructures(context, inst.func, inst.instr, glyph.store, glyph.cvt);
			OpenTypeInt.SetResolution(context, inst.ptsize, inst.xppm, inst.yppm, font.head.unitsPerEm, rotated, stretched);
			OpenTypeInt.Execute(context, font.glyphProg, instrLen, font.twilight, zone);
			glyph.fixDropouts := context.fixDropouts;
			glyph.scanType := context.scanType
		всё;

		glyph.lppx := pt[points].cur[X]; glyph.rppx := pt[points+1].cur[X]
	кон LoadSimpleOutline;

	проц LoadOutline (glyph: Glyph; inst: Instance; num: цел32; hinted, rotated, stretched: булево);
		перем
			font: Font; pos, len, beg, end, idx: цел32; r: Files.Rider;
			int, contours, flags, arg1, arg2, firstc, firstp, i, lastc, lastp, instrLen, points: цел16; comp: OpenTypeInt.Zone;
			aw, lsb, xmin, ymin, xmax, ymax: FUnit; lppx, rppx, dx, dy: F26D6; m00, m01, m10, m11: F2D14;
			scaled, rot: булево; context: OpenTypeInt.Context;
	нач
		font := glyph.font;
		если FindTable(font, "loca", pos, len) то
			если font.head.indexToLocFormat = 0 то					(* short offsets *)
				font.file.Set(r, pos + 2*num);
				ReadInt(r, int); beg := 2*(устарПреобразуйКБолееШирокомуЦел(int) остОтДеленияНа 10000H);
				ReadInt(r, int); end := 2*(устарПреобразуйКБолееШирокомуЦел(int) остОтДеленияНа 10000H)
			иначе													(* long offsets *)
				font.file.Set(r, pos + 4*num);
				ReadLInt(r, beg);
				ReadLInt(r, end);
			всё;
			glyph.lppx := 0;
			если beg >= end то										(* character without contour *)
				LoadSimpleOutline(r, glyph, inst, num, 0, hinted, rotated, stretched)
			аесли FindTable(font, "glyf", pos, len) то
				font.file.Set(r, pos + beg);
				ReadInt(r, contours);
				если Debug то ЛогЯдра.пСтроку8(" Contours read: "); ЛогЯдра.пЦел64(contours, 0); ЛогЯдра.пВК_ПС всё;
				если contours > 0 то									(* simple glyph *)
					LoadSimpleOutline(r, glyph, inst, num, contours, hinted, rotated, stretched)

				иначе												(* composite glyph *)
					если Debug то ЛогЯдра.пСтроку8("--------------- Composite Glyph ----------------"); ЛогЯдра.пВК_ПС всё;
					comp := glyph.comp; glyph.outline := comp;
					aw := font.hmtx[num].aw; lsb := font.hmtx[num].lsb;
					ReadInt(r, xmin); ReadInt(r, ymin);
					ReadInt(r, xmax); ReadInt(r, ymax);
					lppx := OpenTypeInt.MulDiv(xmin - lsb, inst.xppm, font.head.unitsPerEm);
					rppx := lppx + OpenTypeInt.MulDiv(aw, inst.xppm, font.head.unitsPerEm);

					нцДо
						ReadInt(r, flags); Read16U(r, idx);
						если нечётноеЛи¿(flags) то							(* args are words *)
							ReadInt(r, arg1); ReadInt(r, arg2)
						иначе
							ReadInt(r, arg1); arg2 := arg1 остОтДеленияНа 100H; arg1 := arg1 DIV 100H остОтДеленияНа 100H
						всё;

						(* load transformation (if any) *)
						если нечётноеЛи¿(flags DIV 8) то					(* we_have_a_scale *)
							ReadInt(r, m00); m01 := 0;
							m10 := 0; m11 := m00;
							scaled := истина; rot := ложь
						аесли нечётноеЛи¿(flags DIV 40H) то				(* we_have_an_x_and_y_scale *)
							ReadInt(r, m00); m01 := 0;
							m10 := 0; ReadInt(r, m11);
							scaled := истина; rot := ложь
						аесли нечётноеЛи¿(flags DIV 80H) то				(* we_have_a_two_by_two *)
							ReadInt(r, m00); ReadInt(r, m01);
							ReadInt(r, m10); ReadInt(r, m11);
							scaled := истина; rot := истина
						иначе
							m00 := 4000H; m01 := 0; m10 := 0; m11 := 4000H;
							scaled := ложь; rot := ложь
						всё;

						(* recursively load component *)
						firstc := comp.contours; firstp := comp.first[firstc];
						LoadOutline(glyph, inst, idx, hinted, rotated или rot, stretched или scaled);
						если comp.contours = firstc то				(* loaded simple outline => copy to composite zone *)
							нцДля i := 0 до glyph.simple.first[glyph.simple.contours] делай
								comp.pt[firstp + i] := glyph.simple.pt[i]
							кц;
							нцДля i := 1 до glyph.simple.contours делай
								comp.first[firstc + i] := firstp + glyph.simple.first[i]
							кц;
							увел(comp.contours, glyph.simple.contours)
						всё;
						lastc := comp.contours-1; lastp := comp.first[comp.contours]-1;

						если scaled то								(* apply transformation *)
							нцДля i := firstp до lastp делай
								dx := comp.pt[i].cur[X]; dy := comp.pt[i].cur[Y];
								comp.pt[i].cur[X] := OpenTypeInt.MulShift(dx, m00, -14) + OpenTypeInt.MulShift(dy, m10, -14);
								comp.pt[i].cur[Y] := OpenTypeInt.MulShift(dx, m01, -14) + OpenTypeInt.MulShift(dy, m11, -14)
							кц;
							glyph.lppx := OpenTypeInt.MulShift(glyph.lppx, m00, -14);
							glyph.rppx := OpenTypeInt.MulShift(glyph.rppx, m00, -14)
						всё;

						если нечётноеЛи¿(flags DIV 200H) то	(* use_my_metrics *)
							lppx := glyph.lppx; rppx := glyph.rppx	(* won't work very well with rotated subglyphs *)
						всё;

						(* compute translation vector and shift new glyph *)
						если нечётноеЛи¿(flags DIV 2) то					(* args_arg_xy_values *)
							dx := OpenTypeInt.MulDiv(arg1, inst.xppm, font.head.unitsPerEm);
							dy := OpenTypeInt.MulDiv(arg2, inst.yppm, font.head.unitsPerEm);
							если нечётноеЛи¿(flags DIV 4) то				(* round_xy_to_grid *)
								dx := (dx + 20H) DIV 40H * 40H;
								dy := (dy + 20H) DIV 40H * 40H
							всё
						иначе
							dx := comp.pt[arg2].cur[X] - comp.pt[arg1].cur[X];
							dy := comp.pt[arg2].cur[Y] - comp.pt[arg2].cur[Y]
						всё;
						если (dx # 0) или (dy # 0) то
							нцДля i := firstp до lastp делай
								увел(comp.pt[i].cur[X], dx);
								увел(comp.pt[i].cur[Y], dy)
							кц
						всё
					кцПри ~нечётноеЛи¿(flags DIV 20H);

					(* load instructions *)
					если нечётноеЛи¿(flags DIV 100H) то					(* we_have_instr *)
						ReadInt(r, instrLen);
						если hinted то r.file.ReadBytes(r, font.glyphProg^, 0, instrLen)
						иначе font.file.Set(r, r.file.Pos(r) + instrLen)
						всё
					иначе
						instrLen := 0
					всё;

					(* add phantom points *)
					points := comp.first[comp.contours];
					если hinted то comp.pt[points].cur[X] := (lppx + 20H) DIV 40H * 40H
					иначе comp.pt[points].cur[X] := lppx
					всё;
					comp.pt[points].cur[Y] := 0; comp.pt[points].onCurve := ложь;
					увел(points);
					если hinted то comp.pt[points].cur[X] := (rppx + 20H) DIV 40H * 40H
					иначе comp.pt[points].cur[X] := rppx
					всё;
					comp.pt[points].cur[Y] := 0; comp.pt[points].onCurve := ложь;
					увел(points);

					нцДля i := 0 до points-1 делай
						comp.pt[i].org := comp.pt[i].cur; comp.pt[i].touched[X] := ложь; comp.pt[i].touched[Y] := ложь
					кц;

					если hinted и (instrLen > 0) то					(* execute instructions *)
						OpenTypeInt.RestoreState(context, inst.state);
						если context.ignorePrep то					(* use default state and cvt *)
							OpenTypeInt.InitState(context)
						всё;
						нцДля i := 0 до font.maxp.maxStorage-1 делай glyph.store[i] := inst.store[i] кц;
						нцДля i := 0 до устарПреобразуйКБолееУзкомуЦел(font.cvtLen-1) делай glyph.cvt[i] := inst.cvt[i] кц;
						нцДля i := 0 до font.maxp.maxTwilightPoints-1 делай font.twilight.pt[i] := inst.twilight.pt[i] кц;
						OpenTypeInt.SetStructures(context, inst.func, inst.instr, glyph.store, glyph.cvt);
						OpenTypeInt.SetResolution(context, inst.ptsize, inst.xppm, inst.yppm, font.head.unitsPerEm, rotated, stretched);
						OpenTypeInt.Execute(context, font.glyphProg, instrLen, font.twilight, comp);
						glyph.fixDropouts := истина или context.fixDropouts;
						glyph.scanType := context.scanType
					всё;

					glyph.lppx := comp.pt[points-2].cur[X];
					glyph.rppx := comp.pt[points-1].cur[X]
				всё
			всё;

			(* translate glyph so that left phantom point is at origin *)
			если glyph.lppx # 0 то
				нцДля i := 0 до glyph.outline.first[glyph.outline.contours]+1 делай
					умень(glyph.outline.pt[i].cur[X], glyph.lppx)
				кц;
				умень(glyph.rppx, glyph.lppx); glyph.lppx := 0
			всё
		всё
	кон LoadOutline;

	(** load glyph structure with appropriately scaled outline **)
	проц LoadGlyph* (inst: Instance; glyph: Glyph; перем ras: OpenTypeScan.Rasterizer; num: цел32; mode: мнвоНаБитахМЗ);
		перем
			font: Font; aw, xmin, ymin, xmax, ymax: F26D6; n: цел16;
			cur: OpenTypeInt.Coord; rules: мнвоНаБитахМЗ;
	нач {единолично}
		утв(inst.font = glyph.font, 100);
		утв((0 <= num) и (num < glyph.font.maxp.numGlyphs), 101);
		font := glyph.font;

		(* try to get metrics if neither outline nor raster is requested *)
		если mode * {Hinted, Width} = mode то
			если (Hinted в mode) и (inst.aw # НУЛЬ) то
				aw := 40H*кодСимв8(inst.aw[num])
			иначе
				aw := OpenTypeInt.MulDiv(font.hmtx[num].aw, inst.xppm, устарПреобразуйКБолееШирокомуЦел(font.head.unitsPerEm))
			всё;
			если inst.rotated или inst.stretched то
				glyph.awx := устарПреобразуйКБолееУзкомуЦел(OpenTypeInt.MulShift(aw, inst.mat[0], -22));
				glyph.awy := устарПреобразуйКБолееУзкомуЦел(OpenTypeInt.MulShift(aw, inst.mat[1], -22))
			иначе
				glyph.awx := устарПреобразуйКБолееУзкомуЦел((aw + 20H) DIV 40H); glyph.awy := 0
			всё;
			если (mode = {Width}) или								(* unhinted width requested *)
				~нечётноеЛи¿(font.head.flags DIV 10H) или				(* width scales linearly *)
				(font.LTSH # НУЛЬ) и (40H*кодСимв8(font.LTSH[num]) <= inst.yppm) или	(* in linear range *)
				(inst.aw # НУЛЬ)									(* hinted width available *)
			то
				возврат
			всё
		всё;

		(* load glyph outline *)
		glyph.comp.contours := 0; glyph.comp.first[0] := 0; glyph.outline := glyph.simple;
		LoadOutline(glyph, inst, num, Hinted в mode, inst.rotated, inst.stretched);

		(* transform outline if necessary *)
		если (mode * {Outline, Raster} # {}) и (inst.rotated или inst.stretched) то
			нцДля n := 0 до glyph.outline.first[glyph.outline.contours]-1 делай
				cur := glyph.outline.pt[n].cur;
				glyph.outline.pt[n].cur[X] := OpenTypeInt.MulShift(cur[X], inst.mat[0], -16) + OpenTypeInt.MulShift(cur[Y], inst.mat[2], -16);
				glyph.outline.pt[n].cur[Y] := OpenTypeInt.MulShift(cur[X], inst.mat[1], -16) + OpenTypeInt.MulShift(cur[Y], inst.mat[3], -16)
			кц
		всё;

		(* compute bounding box *)
		если mode * {Width, Raster} # {} то
			xmin := матМаксимум(F26D6); ymin := матМаксимум(F26D6); xmax := матМинимум(F26D6); ymax := матМинимум(F26D6);
			нцДля n := 0 до glyph.outline.first[glyph.outline.contours]-1 делай
				cur := glyph.outline.pt[n].cur;
				если cur[X] < xmin то xmin := cur[X] всё;
				если cur[X] > xmax то xmax := cur[X] всё;
				если cur[Y] < ymin то ymin := cur[Y] всё;
				если cur[Y] > ymax то ymax := cur[Y] всё
			кц;
			если Hinted в mode то								(* round to grid *)
				умень(xmin, xmin остОтДеленияНа 40H); умень(ymin, ymin остОтДеленияНа 40H);
				увел(xmax, (-xmax) остОтДеленияНа 40H); увел(ymax, (-ymax) остОтДеленияНа 40H)
			всё;
			glyph.xmin := xmin; glyph.ymin := ymin;
			glyph.xmax := xmax; glyph.ymax := ymax
		всё;

		если Width в mode то
			если (Hinted в mode) и (inst.aw # НУЛЬ) то
				aw := 40H*кодСимв8(inst.aw[num])
			иначе
				aw := glyph.rppx								(* glyph.lppx = 0 *)
			всё;
			если inst.rotated или inst.stretched то
				glyph.awx := устарПреобразуйКБолееУзкомуЦел(OpenTypeInt.MulShift(aw, inst.mat[0], -22));
				glyph.awy := устарПреобразуйКБолееУзкомуЦел(OpenTypeInt.MulShift(aw, inst.mat[1], -22))
			иначе
				glyph.awx := устарПреобразуйКБолееУзкомуЦел((aw + 20H) DIV 40H); glyph.awy := 0
			всё
		всё;

		если Raster в mode то
			rules := {};
			если ~(Grey в mode) то
				включиВоМнвоНаБитах(rules, OpenTypeScan.Round)
			всё;
			если glyph.fixDropouts то
				если glyph.scanType в {0, 1, 4, 5} то включиВоМнвоНаБитах(rules, OpenTypeScan.Dropouts) всё;
				если glyph.scanType в {1, 5} то включиВоМнвоНаБитах(rules, OpenTypeScan.Stubs) всё;
				если glyph.scanType в {4, 5} то включиВоМнвоНаБитах(rules, OpenTypeScan.Smart) всё
			всё;
			включиВоМнвоНаБитах(rules, OpenTypeScan.Dropouts);
			OpenTypeScan.Convert(glyph.outline, rules, ras);
			glyph.hbx := устарПреобразуйКБолееУзкомуЦел(ras.xmin DIV 40H);
			glyph.hby := устарПреобразуйКБолееУзкомуЦел(ras.ymin DIV 40H);
			glyph.rw := ras.width; glyph.rh := ras.height
		всё
	кон LoadGlyph;

	(** enumerate glyph outline **)
	проц EnumOutline* (glyph: Glyph; перем data: OutlineData);
		перем pt: OpenTypeInt.Points; cont, beg, points, i, j, k, l: цел16; x, y: F26D6; xx, yy: массив 2 из F26D6;
	нач
		pt := glyph.outline.pt;
		cont := 0;
		нцПока cont < glyph.outline.contours делай
			beg := glyph.outline.first[cont]; points := glyph.outline.first[cont+1] - beg;
			i := 0; нцПока (i < points) и ~pt[beg + i].onCurve делай увел(i) кц;
			если i < points то
				j := i; k := beg + j;
				x := pt[k].cur[X]; y := pt[k].cur[Y];
				data.moveto(x, y, data);
				нцДо
					j := (j+1) остОтДеленияНа points; k := beg + j;
					если pt[k].onCurve то
						x := pt[k].cur[X]; y := pt[k].cur[Y];
						data.lineto(x, y, data)
					иначе
						xx[0] := pt[k].cur[X]; yy[0] := pt[k].cur[Y];
						l := beg + (j+1) остОтДеленияНа points;
						если pt[l].onCurve то
							k := l; j := k - beg;
							xx[1] := pt[k].cur[X]; yy[1] := pt[k].cur[Y]
						иначе
							xx[1] := (xx[0] + pt[l].cur[X]) DIV 2; yy[1] := (yy[0] + pt[l].cur[Y]) DIV 2
						всё;
						data.bezierto(xx, yy, 2, data);
						x := xx[1]; y := yy[1]
					всё
				кцПри j = i
			всё;
			увел(cont)
		кц
	кон EnumOutline;


	проц SharpenC(перем x0,x1,a0,a1: цел16);
	нач
		если x0=x1 то
			a0 := 0; a1 := 0; увел(x1)
		аесли ((x1-x0) = 1) и (a0 # 0) то

			если 40H-a0 > a1 то
				a0 := 0;
				(*a1 := 0;*)
				(*DEC(a0,a1); a1 := 0;*)
			иначе
				(*a0 := 0; *) a1 := 0; (* INC(x0); *) увел(x1);
				(*INC(a1, 40H-a0); a0 := 3FH;*)
			всё;
		всё;
	кон SharpenC;

	проц EnumRow (row: цел16; beg, end: F26D6; перем data: OpenTypeScan.EnumData);
	перем x0, a0, x1, a1: цел16;
	нач
		просейТип data: RasterData делай
			x0 := устарПреобразуйКБолееУзкомуЦел(beg DIV 40H); a0 := устарПреобразуйКБолееУзкомуЦел(beg остОтДеленияНа 40H);
			x1 := устарПреобразуйКБолееУзкомуЦел(end DIV 40H); a1 := устарПреобразуйКБолееУзкомуЦел(end остОтДеленияНа 40H);

			если SharpenContours то SharpenC(x0,x1,a0,a1) всё;

			если x0 < x1 то
				если a0 # 0 то
					data.rect(x0, row, x0+1, row+1, 4*(40H-a0), data);
					увел(x0)
				всё;
				если x0 < x1 то
					data.rect(x0, row, x1, row+1, 255, data)
				всё;
				если a1 # 0 то
					data.rect(x1, row, x1+1, row+1, 4*a1, data)
				всё
			аесли a0 < a1 то
				data.rect(x0, row, x0+1, row+1, 4*(a1 - a0), data)
			всё
		всё
	кон EnumRow;

	проц EnumCol (col: цел16; beg, end: F26D6; перем data: OpenTypeScan.EnumData);
		перем y0, a0, y1, a1: цел16;
	нач
		просейТип data: RasterData делай
			y0 := устарПреобразуйКБолееУзкомуЦел(beg DIV 40H); a0 := устарПреобразуйКБолееУзкомуЦел(beg остОтДеленияНа 40H);
			y1 := устарПреобразуйКБолееУзкомуЦел(end DIV 40H); a1 := устарПреобразуйКБолееУзкомуЦел(end остОтДеленияНа 40H);

			если SharpenContours то SharpenC(y0,y1,a0,a1) всё;

			если y0 < y1 то
				если a0 # 0 то
					data.rect(col, y0, col+1, y0+1, 4*(40H-a0), data);
					увел(y0)
				всё;
				если y0 < y1 то
					data.rect(col, y0, col+1, y1, 255, data)
				всё;
				если a1 # 0 то
					data.rect(col, y1, col+1, y1+1, 4*a1, data)
				всё
			аесли a0 < a1 то
				data.rect(col, y0, col+1, y0+1, 4*(a1 - a0) , data)
			всё
		всё
	кон EnumCol;

	(** enumerate non-transparent pixels of glyph raster image **)
	проц EnumRaster* (перем ras: OpenTypeScan.Rasterizer; перем data: RasterData);
	нач
		OpenTypeScan.EnumerateRows(ras, EnumRow, data);
		OpenTypeScan.EnumerateColumns(ras, EnumCol, data)
	кон EnumRaster;


	(*--- Initialization ---*)

	проц InitCharMaps;
		перем i: цел16; l: цел32;
	нач
		нцДля i := 0 до 126 делай
			UniChar[i] := i; MacChar[i] := i
		кц;
		UniChar[127] := 0A0H; MacChar[127] := 0CAH;
		UniChar[128] := 0A1H; MacChar[128] := 0C1H;
		UniChar[129] := 0A2H; MacChar[129] := 0A2H;
		UniChar[130] := 0A3H; MacChar[130] := 0A3H;
		UniChar[131] := 0A4H; MacChar[131] := 0DBH;
		UniChar[132] := 0A5H; MacChar[132] := 0B4H;
		UniChar[133] := 0A7H; MacChar[133] := 0A4H;
		UniChar[134] := 0A8H; MacChar[134] := 0ACH;
		UniChar[135] := 0A9H; MacChar[135] := 0A9H;
		UniChar[136] := 0AAH; MacChar[136] := 0BBH;
		UniChar[137] := 0ABH; MacChar[137] := 0C7H;
		UniChar[138] := 0ACH; MacChar[138] := 0C2H;
		UniChar[139] := 0AEH; MacChar[139] := 0A8H;
		UniChar[140] := 0AFH; MacChar[140] := 0F8H;
		UniChar[141] := 0B0H; MacChar[141] := 0A1H;
		UniChar[142] := 0B1H; MacChar[142] := 0B1H;
		UniChar[143] := 0B4H; MacChar[143] := 0ABH;
		UniChar[144] := 0B5H; MacChar[144] := 0B5H;
		UniChar[145] := 0B6H; MacChar[145] := 0A6H;
		UniChar[146] := 0B8H; MacChar[146] := 0FCH;
		UniChar[147] := 0BAH; MacChar[147] := 0BCH;
		UniChar[148] := 0BBH; MacChar[148] := 0C8H;
		UniChar[149] := 0BFH; MacChar[149] := 0C0H;
		UniChar[150] := 0C0H; MacChar[150] := 0CBH;
		UniChar[151] := 0C1H; MacChar[151] := 0E7H;
		UniChar[152] := 0C2H; MacChar[152] := 0E5H;
		UniChar[153] := 0C3H; MacChar[153] := 0CCH;
		UniChar[154] := 0C4H; MacChar[154] := 80H;
		UniChar[155] := 0C5H; MacChar[155] := 81H;
		UniChar[156] := 0C6H; MacChar[156] := 0AEH;
		UniChar[157] := 0C7H; MacChar[157] := 82H;
		UniChar[158] := 0C8H; MacChar[158] := 0E9H;
		UniChar[159] := 0C9H; MacChar[159] := 83H;
		UniChar[160] := 0CAH; MacChar[160] := 0E6H;
		UniChar[161] := 0CBH; MacChar[161] := 0E8H;
		UniChar[162] := 0CCH; MacChar[162] := 0EDH;
		UniChar[163] := 0CDH; MacChar[163] := 0EAH;
		UniChar[164] := 0CEH; MacChar[164] := 0EBH;
		UniChar[165] := 0CFH; MacChar[165] := 0ECH;
		UniChar[166] := 0D1H; MacChar[166] := 84H;
		UniChar[167] := 0D2H; MacChar[167] := 0F1H;
		UniChar[168] := 0D3H; MacChar[168] := 0EEH;
		UniChar[169] := 0D4H; MacChar[169] := 0EFH;
		UniChar[170] := 0D5H; MacChar[170] := 0CDH;
		UniChar[171] := 0D6H; MacChar[171] := 85H;
		UniChar[172] := 0D8H; MacChar[172] := 0AFH;
		UniChar[173] := 0D9H; MacChar[173] := 0F4H;
		UniChar[174] := 0DAH; MacChar[174] := 0F2H;
		UniChar[175] := 0DBH; MacChar[175] := 0F3H;
		UniChar[176] := 0DCH; MacChar[176] := 86H;
		UniChar[177] := 0DFH; MacChar[177] := 0A7H;
		UniChar[178] := 0E0H; MacChar[178] := 88H;
		UniChar[179] := 0E1H; MacChar[179] := 87H;
		UniChar[180] := 0E2H; MacChar[180] := 89H;
		UniChar[181] := 0E3H; MacChar[181] := 8BH;
		UniChar[182] := 0E4H; MacChar[182] := 8AH;
		UniChar[183] := 0E5H; MacChar[183] := 8CH;
		UniChar[184] := 0E6H; MacChar[184] := 0BEH;
		UniChar[185] := 0E7H; MacChar[185] := 8DH;
		UniChar[186] := 0E8H; MacChar[186] := 8FH;
		UniChar[187] := 0E9H; MacChar[187] := 8EH;
		UniChar[188] := 0EAH; MacChar[188] := 90H;
		UniChar[189] := 0EBH; MacChar[189] := 91H;
		UniChar[190] := 0ECH; MacChar[190] := 93H;
		UniChar[191] := 0EDH; MacChar[191] := 92H;
		UniChar[192] := 0EEH; MacChar[192] := 94H;
		UniChar[193] := 0EFH; MacChar[193] := 95H;
		UniChar[194] := 0F1H; MacChar[194] := 96H;
		UniChar[195] := 0F2H; MacChar[195] := 98H;
		UniChar[196] := 0F3H; MacChar[196] := 97H;
		UniChar[197] := 0F4H; MacChar[197] := 99H;
		UniChar[198] := 0F5H; MacChar[198] := 9BH;
		UniChar[199] := 0F6H; MacChar[199] := 9AH;
		UniChar[200] := 0F7H; MacChar[200] := 0D6H;
		UniChar[201] := 0F8H; MacChar[201] := 0BFH;
		UniChar[202] := 0F9H; MacChar[202] := 9DH;
		UniChar[203] := 0FAH; MacChar[203] := 9CH;
		UniChar[204] := 0FBH; MacChar[204] := 9EH;
		UniChar[205] := 0FCH; MacChar[205] := 9FH;
		UniChar[206] := 0FFH; MacChar[206] := 0D8H;
		UniChar[207] := 131H; MacChar[207] := 0F5H;
		UniChar[208] := 152H; MacChar[208] := 0CEH;
		UniChar[209] := 153H; MacChar[209] := 0CFH;
		UniChar[210] := 178H; MacChar[210] := 0D9H;
		UniChar[211] := 192H; MacChar[211] := 0C4H;
		UniChar[212] := 2C6H; MacChar[212] := 0F6H;
		UniChar[213] := 2C7H; MacChar[213] := 0FFH;
		UniChar[214] := 2D6H; MacChar[214] := 0F7H;
		UniChar[215] := 2D8H; MacChar[215] := 0F9H;
		UniChar[216] := 2D9H; MacChar[216] := 0FAH;
		UniChar[217] := 2DAH; MacChar[217] := 0FBH;
		UniChar[218] := 2DBH; MacChar[218] := 0FEH;
		UniChar[219] := 2DDH; MacChar[219] := 0FDH;
		UniChar[220] := 3C0H; MacChar[220] := 0B9H;
		UniChar[221] := 2013H; MacChar[221] := 0D0H;
		UniChar[222] := 2014H; MacChar[222] := 0D1H;
		UniChar[223] := 2018H; MacChar[223] := 0D4H;
		UniChar[224] := 2019H; MacChar[224] := 0D5H;
		UniChar[225] := 201AH; MacChar[225] := 0E2H;
		UniChar[226] := 201CH; MacChar[226] := 0D2H;
		UniChar[227] := 201DH; MacChar[227] := 0D3H;
		UniChar[228] := 201EH; MacChar[228] := 0E3H;
		UniChar[229] := 2020H; MacChar[229] := 0A0H;
		UniChar[230] := 2021H; MacChar[230] := 0E0H;
		UniChar[231] := 2022H; MacChar[231] := 0A5H;
		UniChar[232] := 2026H; MacChar[232] := 0C9H;
		UniChar[233] := 2030H; MacChar[233] := 0E4H;
		UniChar[234] := 2039H; MacChar[234] := 0DCH;
		UniChar[235] := 203AH; MacChar[235] := 0DDH;
		UniChar[236] := 2122H; MacChar[236] := 0AAH;
		UniChar[237] := 2126H; MacChar[237] := 0BDH;
		UniChar[238] := 2202H; MacChar[238] := 0B6H;
		UniChar[239] := 2206H; MacChar[239] := 0C6H;
		UniChar[240] := 220FH; MacChar[240] := 0B8H;
		UniChar[241] := 2211H; MacChar[241] := 0B7H;
		UniChar[242] := 2215H; MacChar[242] := 0DAH;
		UniChar[243] := 2219H; MacChar[243] := 0E1H;
		UniChar[244] := 221AH; MacChar[244] := 0C3H;
		UniChar[245] := 221EH; MacChar[245] := 0B0H;
		UniChar[246] := 222BH; MacChar[246] := 0BAH;
		UniChar[247] := 2248H; MacChar[247] := 0C5H;
		UniChar[248] := 2260H; MacChar[248] := 0ADH;
		UniChar[249] := 2264H; MacChar[249] := 0B2H;
		UniChar[250] := 2265H; MacChar[250] := 0B3H;
		UniChar[251] := 25CAH; MacChar[251] := 0D7H;
		l := 0F001H; UniChar[252] := устарПреобразуйКБолееУзкомуЦел(l); MacChar[252] := 0DEH;
		l := 0F002H; UniChar[253] := устарПреобразуйКБолееУзкомуЦел(l); MacChar[253] := 0DFH;

		нцДля i := 0 до 126 делай CharToUnicode[i] := i кц;
		CharToUnicode[127] := 0;
		CharToUnicode[128] := 0C4H;
		CharToUnicode[129] := 0D6H;
		CharToUnicode[130] := 0DCH;
		CharToUnicode[131] := 0E4H;
		CharToUnicode[132] := 0F6H;
		CharToUnicode[133] := 0FCH;
		CharToUnicode[134] := 0E2H;
		CharToUnicode[135] := 0EAH;
		CharToUnicode[136] := 0EEH;
		CharToUnicode[137] := 0F4H;
		CharToUnicode[138] := 0FBH;
		CharToUnicode[139] := 0E0H;
		CharToUnicode[140] := 0E8H;
		CharToUnicode[141] := 0ECH;
		CharToUnicode[142] := 0F2H;
		CharToUnicode[143] := 0F9H;
		CharToUnicode[144] := 0E9H;
		CharToUnicode[145] := 0EBH;
		CharToUnicode[146] := 0EFH;
		CharToUnicode[147] := 0E7H;
		CharToUnicode[148] := 0E1H;
		CharToUnicode[149] := 0F1H;
		CharToUnicode[150] := 0DFH;
		CharToUnicode[151] := 0A3H;
		CharToUnicode[152] := 0B6H;
		CharToUnicode[153] := 0C7H;
		CharToUnicode[154] := 2030H;
		CharToUnicode[155] := 2013H;
		нцДля i := 156 до 170 делай CharToUnicode[i] := 0 кц;
		CharToUnicode[171] := 0DFH;
		нцДля i := 172 до 255 делай CharToUnicode[i] := 0 кц;
	кон InitCharMaps;

проц GetSharpenContours;
перем
	res: целМЗ;
нач
	Configuration.GetBoolean("WindowManager.FontManager.SharpenContours", SharpenContours, res);
	если res # Configuration.Ok то
		SharpenContours := DefaultSharpenContours
	всё;
	ЛогЯдра.пСтроку8("Sharpening font contours: "); ЛогЯдра.пБулево(SharpenContours); ЛогЯдра.пВК_ПС;
кон GetSharpenContours;

нач
	ЛогЯдра.пСтроку8("OpenType 0.45 BBPort /3.12.2004  eos, pl"); ЛогЯдра.пВК_ПС;
	InitCharMaps;
	InitCache(FontCache);
	Identity[0] := 10000H; Identity[1] := 0;
	Identity[2] := 0; Identity[3] := 10000H;
	GetSharpenContours
кон OpenType.
