модуль PodrobnajaPechatq; (* МетаПечать *)
(** (c) Felix Friedrich, ETH Zurich, 2016 -- Reflection with more structured references section emitted by FoxCompiler
      (c) Denis Budjak - 2019-2022 - иерархическая печать.
      
  Переводы некоторых процедур из этого модуля пока не сделаны - их 
  надо делать одновременно с Reflection.Mod   *)

использует Modules, Потоки, НИЗКОУР, ЭВМ, Heaps, Objects, Трассировка, 
	Reflection, ЛогЯдра, UCS32, ПереводыЭлементовКода;

конст
	ShowAllProcs = истина;
	MaxFrames = 128;
	MaxString = 64;
	(* Sep = "  "; *)
	LineDelay = 0;

конст
	sfTypeNone* = 0X;
	sfTypeCHAR* = 01X;
	sfTypeСимв32* = 04X;
	sfTypeRANGE* = 05X;
	
	(** такой тип вообще есть ли? *)
	sfTypeSHORTINT* = 06X;

	sfTypeINTEGER* = 07X;
	sfTypeLONGINT* = 08X;
	sfTypeHUGEINT* = 09X;
	sfTypeWORD* = 0AX;
	sfTypeLONGWORD* = 0BX;
	sfTypeSIGNED8* = 0CX;
	sfTypeSIGNED16* = 0DX;
	sfTypeSIGNED32* = 0EX;
	sfTypeSIGNED64* = 0FX;
	sfTypeUNSIGNED8* = 10X;
	sfTypeUNSIGNED16* = 11X;
	sfTypeUNSIGNED32* = 12X;
	sfTypeUNSIGNED64* = 13X;
	sfTypeREAL* = 14X;
	sfTypeLONGREAL* = 15X;
	sfTypeCOMPLEX* = 16X;
	sfTypeLONGCOMPLEX* = 17X;
	sfTypeBOOLEAN* = 18X;
	sfTypeSET* = 19X;
	sfTypeANY* = 1AX;
	sfTypeOBJECT* = 1BX;
	sfTypeBYTE* = 1CX;
	sfTypeADDRESS* = 1DX;
	sfTypeSIZE* = 1EX;
	sfTypeIndirect*= 1FX;

	sfTypeRecord* = 20X;

	sfTypePointerToRecord* = 21X;
	sfTypePointerToArray* = 22X;
	sfTypeOpenArray* = 23X;
	sfTypeStaticArray* = 24X;
	sfTypeDynamicArray* = 25X;
	sfTypeMathStaticArray* = 26X;
	sfTypeMathOpenArray* = 27X;
	sfTypeMathTensor* = 28X;
	sfTypeProcedure* = 29X;
	sfTypeDelegate* = 2AX;
	sfTypeENUM* = 2AX;
	sfTypeCELL* = 2BX;
	sfTypePORT* = 2CX;


	sfIN* = 0X;
	sfOUT* = 1X;

	flagDelegate*=0;
	flagConstructor*=1;

	(* variable / parameter addressing modes *)
	sfAbsolute* = 0X; (* global vars *)
	sfRelative* = 1X; (* variables, value parameters *)
	sfIndirect* = 2X; (* var parameters *)

	sfScopeBegin* = 0F0X;
	sfScopeEnd* = 0F1X;
	sfProcedure* = 0F2X;
	sfVariable* = 	0F3X;
	sfTypeDeclaration* = 0F4X;
	sfModule*= 0FFX;

	(*
		References section format:
		Scope = sfScopeBegin {variable:Variable} {procedure:Procedure} {typeDecl:TypeDeclaration} sfScopeEnd.
		Module = sfModule prevSymbolOffset:SIZE name:String Scope.
		Procedure = sfProcedure prevSymbolOffset:SIZE name:String start:ADR end:ADR flags:SET {parameter:Variable} returnType:Type Scope.
		Variable = sfVariable prevSymbolOffset:SIZE name:String (sfRelative offset: SIZE | sfIndirect offset: SIZE | sfAbsolute address:ADDRESS) type:Type.
		TypeDeclaration = sfTypeDeclaration prevSymbolOffset:SIZE name:String typeInfo:ADR Scope.
		Type =
			sfTypePointerToRecord
			| sfTypePointerToArray Type
			| sfTypeOpenArray Type
			| sfTypeDynamicArray Type
			| sfTypeStaticArray length:SIZE Type
			| sfTypeMathOpenArray Type
			| sfTypeMathStaticArray length:SIZE Type
			| sfTypeMathTensor Type
			| sfTypeRecord tdAdr:ADDRESS
			| sfTypeDelegate {Parameter} return:Type
			| sfTypePort (sfIN | sfOUT)
			| sfTypeBOOLEAN
			| sfTypeCHAR | sfTypeСимв32
			| sfTypeSHORTINT | sfTypeINTEGER | sfTypeLONGINT | sfTypeHUGEINT
			| sfTypeSIGNED8 | sfTypeSIGNED16 | sfTypeSIGNED32 | sfTypeSIGNED64
			| sfTypeUNSIGNED8 | sfTypeUNSIGNED16 | sfTypeUNSIGNED32 | sfTypeUNSIGNED64
			| sfTypeWORD | sfTypeLONGWORD
			| sfTypeREAL | sfTypeLONGREAL
			| sfTypeCOMPLEX | sfTypeLONGCOMPLEX
			| sfTypeSET | sfTypeANY | sfTypeOBJECT | sfTypeBYTE | sfTypeADDRESS | sfTypeSIZE
			| sfTypeIndirect offset:SIZE.
	*)


(* Zdesq infa poluchena: DT - iz dinamicheskogo tipa; ST - iz staticheskogo *)
конст
	видОбъекта0NIL = 0;
	видОбъекта1ДТНеведомыйБлокПамятиБезУклей = 1; (* nichego ne znaem *)
	видОбъекта2СОписателемТипаНеМассив = 2; (* указатель на запись (или ообъект) *)
	видОбъекта3ДТМассивУклейНаANY = 3;
	(* видОбъекта4MassivUkazatelejjNaBlockiPamjatiBezUkazatelejj = 4; *)
	видОбъекта5СТМассивСЭлтамиИзвестногоТипа = 5; (* my ne umeem ego razbiratq dinamicheski! Slitq s 6? *)
	(* видОбъекта6STMassiv = 6; (* my ne umeem ego razbiratq dinamicheski! *) *)
	видОбъекта7СТМассивСЭлтамиИзвестногоТипа3 = 7; (* staticheski poluchena infa, sm смещТипаЭлтаМассива *)
	(* видОбъекта8DTBlokPamjatiSNevernymiMetadannymi = 8; *)
	(* видОбъекта9STEshjoNeIzucheno1 = 9; *)


перем
	modes: массив 25 из симв8;
	пределГлубиныДляПечатиСтека* : бцел8;
	процедураОтладочнойПечатиПоУмолчанию* : ТипПроцедурыОтладочнойПечати;
	(* обычно это константы, но МетаПечать находится в ядре, константа неудобна *)
	Трассировать* : булево;

тип

	ВариантыПеревода = ПереводыЭлементовКода.ВариантыПеревода;

	Name = массив Reflection.SegmentedNameLen из симв8;

конст нетОграниченияГлубиныИлиДлины = -5;
конст максРазныхАдресовМогуРазличить = 4096;
	
тип ВехиСудьбы = перечисление неБыл, родился, женился, умер кон;
	

	(* kontekstPechati хранит состояние процесса печати, который
	мыслится как вывод одного значения. В частности, если значение, живущее на куче, было однажды напечатано в данном контексте печати, то повторно оно печататься не будет, благодаря системе защиты от циклов. Поэтому, если нужно писать
	несколько значений, для каждой печати нужно заводить новый экземпляр контекста печати *)
тип KontekstPechati* = запись
	zags- : ВехиСудьбы;
	печКоманды* : булево; (* pechatatq li komandy dlja prodolzhenija izuchenija elementov? *)
	w*: Потоки.Писарь;
	low*, high*: адресВПамяти; (* Diapazon izvestnykh adresov steka *)
	адресаУжеНапечатанные : массив максРазныхАдресовМогуРазличить из адресВПамяти; (* Zashhita ot ciklov *)
	адресовУжеНапечатано : цел16;
	пределГлубины* (* нетОграниченияГлубиныИлиДлины - net ogranichenija *)
	,пределДлины (* нетОграниченияГлубиныИлиДлины - net ogranichenija *)
	,текГлубина*
		(* ,tekDlina *) : цел16;
	(* refs* : Modules.Bytes; *)
	(* mod* : Modules.Module; *)
	размерЭлтаМассива : размерМЗ; (* dlja pechati ARRAY OF ARRAY OF RECORD. Obnuleno pered, zapolneno posle pechati elementa massiva *)
	(** предоставляемая пользователем процедура, чтобы особым образом
	печатать какие-то типы. Объяснения см. у определения типПроцедурыОтладочнойПечати *)
	процедураОтладочнойПечати*: ТипПроцедурыОтладочнойПечати;

	проц Rodisq();
	нач
		утв(zags = ВехиСудьбы.неБыл);
		печКоманды := истина;
		пределГлубины := 6;
		пределДлины := 5;

		w := НУЛЬ;

		low := НИЗКОУР.GetStackPointer();
		high := Objects.GetStackBottom(Objects.CurrentProcess());

		(* адресаУжеНапечатанные не трогаем *)
		адресовУжеНапечатано := 0;
		текГлубина := 0;
		размерЭлтаМассива := 0;
		процедураОтладочнойПечати := процедураОтладочнойПечатиПоУмолчанию;
		
		zags := ВехиСудьбы.родился; кон Rodisq;


	проц Zhenisq(naKom: динамическиТипизированныйУкль);
	нач
		утв(zags = ВехиСудьбы.родился);
		zags := ВехиСудьбы.женился кон Zhenisq;
	
	проц Umri();
	нач
		утв((zags # ВехиСудьбы.неБыл) и (zags # ВехиСудьбы.умер));
		zags := ВехиСудьбы.умер кон Umri;
		
	проц Отступ*(delta: цел16);
	перем i, limit : цел16
	нач
		limit := текГлубина + delta - 1;
		нцДля i := 0 до limit делай
			w.пСимв8(" ") кц кон Отступ;
			
	проц ЗапасГлубины*(): цел16;
	нач возврат пределГлубины - текГлубина кон ЗапасГлубины;

	кон (* KontekstPechati *);
	
	операция ":="* (конст is : KontekstPechati; перем v : KontekstPechati);
	нач СТОП(400) кон ":=";
	
	тип StatusPechatiAdresa = запись
		povtorno : булево;
		(* TODO - proverka oshibki vvoda-vyvoda *)
		кон;


	(* В принципе, возможны два подхода 
	а) процедура привязана к типу записи
	б) пользователь составляет свою таблицу функций печати
	
	Нюансы:
	- процедура должна понимать контекст печати
	- не должна возникать зависимость между модулем отладочной печати и модулями,
	идущими раньше него 
	- могут понадобиться закрытые члены
	- нужно уметь печатать односвязный список
	
	Итого:
	- динамическая таблица печати
	- умеем обрабатывать пока что только записи, т.к. у них есть единая точка входа, 
	  хотя... кто её знает... скоро узнаем - вопрос, что будет для POINTER TO RECORD?
	- процедура получает:
	-- k и саму запись в виде ОбъектИТип (наверное, как-то можно достать и закрытые члены, но 
	   на это уж нет сейчас сил).
	- таблица печати пока что пусть выглядить просто процедурой, 
	а уж внутри себя сама пусть разбирается, что и как печатать. 
	
	Возврат: 0 - процедура не умеет печатать такую запись, 
		1 - напечатано, 
		2 - ошибка при печати (при получении этого возврата процедура
		отладочной печати будет сброшена в пустую)
	*)
тип 
	(* Типы, избавляющие от множества импортов при написании процедур отладочной печати *)
	ModulesModule* = Modules.Module;
	ModulesName* = Modules.Name;
	HeapsStaticTypeBlock* = Heaps.StaticTypeBlock;

	ТипПроцедурыОтладочнойПечати*
		= проц(перем k: KontekstPechati; конст оит: ОбъектИТип; конст имяТипа: ModulesName) : бцел8;


	проц CheckHeapAddress(address: адресВПамяти): булево;
	нач
		возврат ЭВМ.АдресНаКучеЛи¿(address);
	кон CheckHeapAddress;

	проц Wait(w: Потоки.Писарь);
	перем i: цел32;
	нач
		если LineDelay > 0 то
			нцДля i := 0 до LineDelay делай кц;
			w.ПротолкниБуферВПоток
		всё;
	кон Wait;

	проц Expect(b: булево): булево;
	нач
		если ~b то Трассировка.пСтроку8("Format error in references section"); Трассировка.пВК_ПС всё;
		возврат b;
	кон Expect;


	(* consume a char from the byte stream *)
	проц GetChar*(refs: Modules.Bytes; перем offset: размерМЗ): симв8;
	перем c: симв8;
	нач
		если ~Expect(offset < длинаМассива(refs)) то возврат 0X всё;
		c := refs[offset];
		увел(offset);
		возврат c;
	кон GetChar;

	(* skip a char in the byte stream *)
	проц SkipChar*(перем offset: размерМЗ);
	нач
		увел(offset, размер16_от(симв8));
	кон SkipChar;

	(* consume an address in the byte stream *)
	проц GetAddress*(refs: Modules.Bytes; перем offset: размерМЗ): адресВПамяти;
	перем adr: адресВПамяти; i: цел32;
	нач
		если ~Expect(offset < длинаМассива(refs)) то возврат 0 всё;
		нцДля i := 0 до размер16_от(адресВПамяти)-1 делай
			НИЗКОУР.запиши8битПоАдресу(адресОт(adr)+i, GetChar(refs, offset));
		кц;
		возврат adr;
	кон GetAddress;

	(* skip an address in the byte stream *)
	проц SkipAddress*(перем offset: размерМЗ);
	нач
		увел(offset, размер16_от(адресВПамяти));
	кон SkipAddress;

	(* consume a size in the byte stream *)
	проц GetSize*(refs: Modules.Bytes; перем offset: размерМЗ): размерМЗ;
	перем size: размерМЗ; i: цел32;
	нач
		если ~Expect(offset < длинаМассива(refs)) то возврат 0 всё;
		нцДля i := 0 до размер16_от(размерМЗ)-1 делай
			НИЗКОУР.запиши8битПоАдресу(адресОт(size)+i, refs[offset]);
			увел(offset);
		кц;
		возврат size;
	кон GetSize;

	(* skip a size in the byte stream *)
	проц SkipSize*(перем offset: размерМЗ);
	нач
		увел(offset, размер16_от(размерМЗ));
	кон SkipSize;

	(* consume a set in the byte stream *)
	проц GetSet*(refs: Modules.Bytes; перем offset: размерМЗ): мнвоНаБитахМЗ;
	перем set: мнвоНаБитахМЗ; i: цел32;
	нач
		если ~Expect(offset < длинаМассива(refs)) то возврат {} всё;
		нцДля i := 0 до размер16_от(мнвоНаБитахМЗ)-1 делай
			НИЗКОУР.запиши8битПоАдресу(адресОт(set)+i, refs[offset]);
			увел(offset);
		кц;
		возврат set;
	кон GetSet;

	(* skip a set in the byte stream *)
	проц SkipSet*(перем offset: размерМЗ);
	нач
		увел(offset, размер16_от(мнвоНаБитахМЗ));
	кон SkipSet;

	(* consume a string in the byte stream *)
	проц GetString*(refs: Modules.Bytes; перем offset: размерМЗ; перем string: массив из симв8);
	перем ch: симв8; i: цел32;
	нач
		i := 0;
		нцДо
			ch := GetChar(refs, offset);
			string[i] := ch;
			увел(i);
		кцПри ch = 0X;
	кон GetString;

	(* skip a string in the byte stream *)
	проц SkipString*(refs: Modules.Bytes; перем offset: размерМЗ);
	нач
		нцПока(refs[offset] # 0X) делай увел(offset) кц; увел(offset);
	кон SkipString;

	(* extract a full name from the byte stream by traversing up the symbols in their scopes *)
	проц GetFullName*(refs: Modules.Bytes; offset: размерМЗ; перем name: массив из симв8);
	перем n: цел32;

		проц Traverse(offset1: размерМЗ);
		перем c: симв8;
		нач
			если offset1 >= 0 то
				c := GetChar(refs, offset1);
				если (c = sfProcedure) или (c=sfVariable) или (c=sfTypeDeclaration) или (c=sfModule) то
					Traverse(GetSize(refs, offset1));
				всё;
				если (n > 0) и (n<длинаМассива(name)) то name[n] := "."; увел(n); всё;
				нцПока (n<длинаМассива(name)) и (refs[offset1] # 0X) делай
					name[n] := refs[offset1];
					увел(n); увел(offset1);
				кц;
			всё;
		кон Traverse;

	нач
		n := 0;
		Traverse(offset);
		name[n] := 0X;
	кон GetFullName;

	(* "lock free" version of Modules.ThisTypeByAdr *)
	проц ThisTypeByAdr(HeapsStaticTypeBlock1: укль на Heaps.StaticTypeDesc; перем m: Modules.Module; перем t: Modules.TypeDesc);
	перем adr : адресВПамяти; ti : Heaps.TypeInfo;
	нач
		если HeapsStaticTypeBlock1 # НУЛЬ то
			ti := HeapsStaticTypeBlock1.info;
			adr := НИЗКОУР.подмениТипЗначения(адресВПамяти, ti);
			(* SYSTEM.GET (HeapsStaticTypeBlock1 + Heaps.TypeDescOffset, adr); *)
			если CheckHeapAddress(adr) то
				(* Heaps.TypeInfo и Modules.TypeDesc очень похожи; вторая отличается наличием ещё одного поля, refsOffset. 
				  Я не понимаю, почему так преобразовывать можно, но оно работает (или почти работает) *)
				t := НИЗКОУР.подмениТипЗначения(Modules.TypeDesc, adr);
				m := t.mod;
			иначе
				m := НУЛЬ; t := НУЛЬ
			всё
		иначе
			m := НУЛЬ; t := НУЛЬ
		всё
	кон ThisTypeByAdr;

	проц WriteDynamicTypeByTypeDescAdr*(w: Потоки.Писарь; adr: укль на Heaps.StaticTypeDesc);
	нач
		WriteDynamicTypeByTypeDescAdrIn(w, adr); 
	кон WriteDynamicTypeByTypeDescAdr;

	(* Вывести инфу о типе и заодно узнать, не является ли массив объектов такого типа строкой или чем-то ещё,
	   что печатается особым образом *)
	проц WriteDynamicTypeByTypeDescAdrIn*(w: Потоки.Писарь; adr: укль на Heaps.StaticTypeDesc);
	перем module: Modules.Module; typeDesc: Modules.TypeDesc;
		нач
		если CheckHeapAddress(adr) то
			ThisTypeByAdr(adr, module, typeDesc);
			если module # НУЛЬ то
				w.пСтроку8(module.name);
			иначе
				w.пСтроку8("NIL");  возврат
			всё;
			w.пСтроку8(".");
			если typeDesc # НУЛЬ то
				если typeDesc.name = "" то
					w.пСтроку8("ANONYMOUS")
				иначе
					w.пСтроку8(typeDesc.name);
				всё;
			иначе
				w.пСтроку8("NIL");
			всё;
		иначе
			w.пСтроку8("(WriteDynamicTypeByTypeDescAdr: UNKNOWN)");
		всё;
	кон WriteDynamicTypeByTypeDescAdrIn;

	(* Write the specified procedure name and returns parameters for use with Variables.
	   Updates k.mod
				Copied from Generic.Reflection.Mod  *)
	проц WriteProc0(перем k : KontekstPechati; mod: Modules.Module; pc, fp: адресВПамяти;  перем refpos: размерМЗ; перем base: адресВПамяти);
	перем startpc, end: адресВПамяти; offset: размерМЗ;  name: Name; w : Потоки.Писарь;
	нач
		w := k.w;
		refpos := -1;
		если mod = НУЛЬ то
			если pc = 0 то w.пСтроку8("NIL")
			иначе
				w.пСтроку8("Unknown PC="); w.пАдресВПамяти(pc); w.пСимв8("H")
			всё;
			если fp # -1 то
				w.пСтроку8(" FP="); w.пАдресВПамяти(fp); w.пСимв8("H")
			всё
		иначе
			refpos := Reflection.FindByAdr(mod.refs, 0, pc);
			если refpos >= 0 то
				offset := refpos;
				если GetChar(mod.refs, offset) = sfProcedure то
					SkipSize(offset);
					SkipString(mod.refs, offset);
					GetFullName(mod.refs, refpos, name);
					startpc := GetAddress(mod.refs, offset);
					end := GetAddress(mod.refs, offset);
					SkipSet(offset);
					w.пСтроку8(name);
					w.пСимв8(":"); w.пЦел64(цел32(pc-startpc),1);
					base := fp; (*! only for local !! *)
					refpos := offset;
				всё;
			иначе
				w.пСтроку8("procedure not found in module "); w.пСтроку8(mod.name);
			всё;
			w.пСтроку8(" pc="); w.пЦел64(цел32(pc),1); w.пСтроку8(" ["); w.пАдресВПамяти (pc); w.пСтроку8("H]");
			w.пСтроку8(" = "); w.пЦел64(цел32(startpc),1);  w.пСтроку8(" + "); w.пЦел64(цел32(pc-startpc),1);
			w.пСтроку8(" crc="); w.п16ричное(mod.crc,-8);
			(*Wait(w);*)
		всё
	кон WriteProc0;

конст МаксРазмерМассива = матМаксимум(бцел32);
тип укльНаМассивОбманка = укль на массив МаксРазмерМассива из динамическиТипизированныйУкль;


ОбъектИТипБаза* = запись
	(** должен быть задан либо объ, либо адр *)
	объ* : динамическиТипизированныйУкль; адрВнутр* : адресВПамяти;
	mod*: Modules.Module; (* если NIL, значит стат. инфа о типе недоступна *)
	кон;
	

(* ОбъектИТип - набор параметров, к-рые нужны для разбора типа и печати параметров. 
   Он замышлялся как тип параметра для пользовательской функции печати, но 
   скорее всего, смысл его параметров зависит от того, в каком месте исходника данного модуля
   он встречается. Поэтому это просто запись, позволяющая передавать один параметр вместо трёх-четырёх,
   между процедурами данного модуля. *)
ОбъектИТип* = запись(ОбъектИТипБаза)
	refsOffset* : размерМЗ; (* можно брать только отсюда, но не из std! *)
	кон;
	
(** Сюда помещается максимум информации, которую мы собираем
   при исследовании объекта, представленного указателем. Собрать мы можем не всё, 
   несмотря на то, что приходится гадать. *)
ИзученныйОбъект* = запись (ОбъектИТипБаза)
	видОбъекта : цел16; (* одна из констант  видОбъекта *)
	(** std содержит тип элемента (если он известен и не ANY) для массивов или тип самого объекта для скаляров  *)
	std : Modules.TypeDesc; (* возможно, это Heaps.TypeDesc, не имеющий поля refsOffset! *)
	массивСтатическийЛи : булево; (* только для массивов. TRUE = размер фиксирован *)
	смещТипаЭлтаМассива : размерМЗ; (* 0 = не знаем *)
	numElems : размерМЗ (* общее число элементов, только для статического *) кон;


	проц ИзучиТипЭтогоANY*(p : динамическиТипизированныйУкль; перем ио : ИзученныйОбъект; перем k : KontekstPechati; otlPech : булево);
	перем
		(* m : Modules.Module; *)
		DataBlockStaticTypeDesc, heapBlockStaticTypeDesc : Heaps.StaticTypeBlock;
		pAddr, heapBlockDescAdr, SystemBlockDescAdr,
		ArrayBlockDescAdr: адресВПамяти;
		(* My nadeemsja, chto dve sledujushikh perem budut sovpadatq *)
		hti : Heaps.TypeInfo;
		mti : Modules.TypeDesc;
		mmod : Modules.Module;

	нач
		ио.объ := p;
		pAddr := НИЗКОУР.подмениТипЗначения(адресВПамяти, p);
		если otlPech то
			k.w.пСтроку8("Izuchaju..."); k.w.пАдресВПамяти(pAddr); k.w.пСтроку8("...") всё;
		если pAddr = НУЛЬ то
			ио.видОбъекта := видОбъекта0NIL; возврат всё;
		НИЗКОУР.прочтиОбъектПоАдресу(pAddr,ио.numElems);
		НИЗКОУР.прочтиОбъектПоАдресу(pAddr + Heaps.TypeDescOffset, DataBlockStaticTypeDesc); (* What is DataBlockStaticTypeDesc = 890? *)
		SystemBlockDescAdr := НИЗКОУР.дайМетаданныеВремениВыполненияДляТипа(Heaps.SystemBlockDesc);
		ArrayBlockDescAdr := НИЗКОУР.дайМетаданныеВремениВыполненияДляТипа(Heaps.ArrayBlockDesc);
		НИЗКОУР.прочтиОбъектПоАдресу(pAddr + Heaps.HeapBlockOffset, heapBlockDescAdr);
		если heapBlockDescAdr # 0 то
			(* Ehtot assert srabatyvaet na Module.internal[0] (102). Ne znaju, v chjom delo *)
			утв(Heaps.CheckPointer(pAddr));
			НИЗКОУР.прочтиОбъектПоАдресу(heapBlockDescAdr + Heaps.TypeDescOffset, heapBlockStaticTypeDesc) всё;

		если otlPech то
			k.w.пСтроку8("(DataBlockStaticTypeDesc = ");
			k.w.пАдресВПамяти(НИЗКОУР.подмениТипЗначения(адресВПамяти,DataBlockStaticTypeDesc));
			k.w.пСтроку8(") (heapBlockDescAdr = ");
			k.w.пАдресВПамяти(heapBlockDescAdr);
			k.w.пСтроку8("(("); PechStaticTypeDesc(k.w, DataBlockStaticTypeDesc); k.w.пСтроку8("))"); k.w.ПротолкниБуферВПоток; всё;

		если DataBlockStaticTypeDesc = SystemBlockDescAdr то
			ио.видОбъекта := видОбъекта1ДТНеведомыйБлокПамятиБезУклей; возврат всё;
		если DataBlockStaticTypeDesc = НУЛЬ то
			если heapBlockStaticTypeDesc = SystemBlockDescAdr то
				(* k.w.String("видОбъекта1ДТНеведомыйБлокПамятиБезУклей"); *)
				ио.видОбъекта := видОбъекта1ДТНеведомыйБлокПамятиБезУклей; возврат
			иначе
				СТОП(10051); (* Vpervye zdesq - znachit ehta vetka realqno zhivaja *)
				(* ио.видОбъекта := видОбъекта8DTBlokPamjatiSNevernymiMetadannymi; RETURN *) всё всё;
		если heapBlockStaticTypeDesc = ArrayBlockDescAdr то
			если otlPech то
				k.w.пСтроку8("(ИзучиТипЭтогоANY: Pokhozh na massiv is "); 
				PechStaticTypeDesc(k.w, DataBlockStaticTypeDesc); k.w.пСтроку8(")") всё;
			IzuchiMassivVAnyIzvestnyjjKakMassiv(ио, k); возврат
		иначе
			если DataBlockStaticTypeDesc = НУЛЬ то
				k.w.пСтроку8("(ИзучиТипЭтогоANY: DataBlockStaticTypeDesc = NIL - KHZ chto ehto)"); возврат всё;
			hti := DataBlockStaticTypeDesc.info;
			если hti = НУЛЬ то
				k.w.пСтроку8("(ИзучиТипЭтогоANY: DataBlockStaticTypeDesc.hti = NIL - khz chto EHTO)"); возврат всё;
			если (hti.mod # НУЛЬ) и (hti.name # "") то
				mmod := НИЗКОУР.подмениТипЗначения(Modules.Module, hti.mod);
				mti := Modules.ThisType(mmod, hti.name);
				утв(mti = hti);
				если mti # НУЛЬ то
					(* k.w.String("(ИзучиТипЭтогоANY: это видОбъекта2СОписателемТипаНеМассив, refsOffset = "); 
					k.w.Int(mti.refsOffset,0);
					k.w.String(")"); *)
					
					ио.видОбъекта := видОбъекта2СОписателемТипаНеМассив;
					ио.std := mti;
					ио.mod := mti.mod;
					(* ио.refsOffset := mti.refsOffset; *)
					возврат всё всё;
			(* k.w.String("(ИзучиТипЭтогоANY: Vrode massiv s elementami izvestnogo tipa, no KHZ: HeapBlock is "); k.w.Update; *)
			(* PechStaticTypeDesc(k.w, heapBlockStaticTypeDesc); *)
			(* k.w.Ln; k.w.String("dataBlock is"); 
			PechStaticTypeDesc(k.w, DataBlockStaticTypeDesc); k.w.String(")"); k.w.Ln; k.w.Update; *)
			(* Это какой-то плохой случай, от него мы печатаем просто кусок памяти *)
			ио.видОбъекта := видОбъекта5СТМассивСЭлтамиИзвестногоТипа;
		всё;
	кон ИзучиТипЭтогоANY;
	
	
		проц ПроверьЧтоЭтоЗапись(p: динамическиТипизированныйУкль; pStaticTypeDesc: Heaps.StaticTypeBlock; w : Потоки.Писарь; otlPech : булево) : булево;
		перем pAddr, RecordBlockDescAdr, heapBlockDescAdr : адресВПамяти;
		heapBlockStaticTypeDesc : Heaps.StaticTypeBlock;
		нач
		(* это - то же, что pHeapBlock.heapBlock, но это поле не открыто *)
			pAddr := НИЗКОУР.подмениТипЗначения(адресВПамяти,p);
			RecordBlockDescAdr := НИЗКОУР.дайМетаданныеВремениВыполненияДляТипа(Heaps.RecordBlockDesc);
			НИЗКОУР.прочтиОбъектПоАдресу(pAddr + Heaps.HeapBlockOffset, heapBlockDescAdr);
			если heapBlockDescAdr # 0 то	
			(* Ehtot assert srabatyvaet na Module.internal[0] (102). Ne znaju, v chjom delo *)
				утв(Heaps.CheckPointer(pAddr));
				НИЗКОУР.прочтиОбъектПоАдресу(heapBlockDescAdr + Heaps.TypeDescOffset, heapBlockStaticTypeDesc) всё;

			если otlPech то
				w.пСтроку8("(pStaticTypeDesc = ");
				w.пАдресВПамяти(НИЗКОУР.подмениТипЗначения(адресВПамяти,pStaticTypeDesc));
				w.пСтроку8(") (heapBlockDescAdr = ");
				w.пАдресВПамяти(heapBlockDescAdr);
				w.пСтроку8("(("); PechStaticTypeDesc(w, pStaticTypeDesc); w.пСтроку8("))"); w.ПротолкниБуферВПоток; всё;

			если heapBlockStaticTypeDesc # RecordBlockDescAdr то
				w.пСтроку8("(РаскопайРодословную: неинтересный объект (не укль на запись)"); 
				w.пВК_ПС; w.ПротолкниБуферВПоток; возврат ложь всё;
	
			если pStaticTypeDesc = НУЛЬ то
				w.пСтроку8("(РаскопайРодословную: pStaticTypeDesc = NIL - что же это?)"); 
				w.пВК_ПС; w.ПротолкниБуферВПоток; возврат ложь всё;
			возврат истина кон ПроверьЧтоЭтоЗапись;



	(* НайдиПредка шарит по магическим местам и находит предка. Если предка нет, то будет predokT = NIL.
	  Если ANY - не POINTER TO RECORD, то пытается корректно вернуть NIL. 
	  
	  Все вычисления, приведшие к predokA, выведены из изучения такого кода:
MODULE Proba; IMPORT Commands, Streams, KernelLog, SYSTEM; 

TYPE rod* = RECORD f1* : INTEGER END;
	prod* = POINTER TO rod;
	ditja* = RECORD(rod) f2* : INTEGER END;
	pditja* = POINTER TO ditja;

VAR r : prod; d : pditja;

PROCEDURE s1*(a : ANY);
BEGIN
IF ~(a IS prod) THEN
	HALT(7) END END s1;

PROCEDURE s2*(a : ANY);
BEGIN
IF ~(a IS pditja) THEN
	HALT(7) END END s2;

PROCEDURE s3*(a : prod);
BEGIN
IF ~(a IS pditja) THEN
	HALT(7) END END s3;

PROCEDURE s4*(a : pditja);
BEGIN
IF ~(a IS pditja) THEN
	HALT(7) END END s4;


PROCEDURE Djorni*( c : Commands.Context);  
BEGIN 
	NEW(d);
	r := d;
	ASSERT(r IS pditja);
	ASSERT(r IS prod);
	KernelLog.String("Typecode ditja, rod"); 
	KernelLog.Address(SYSTEM.TYPECODE(pditja));
	KernelLog.String(" ");
	KernelLog.Address(SYSTEM.TYPECODE(ditja));
	KernelLog.String(" ");
	KernelLog.Address(SYSTEM.TYPECODE(prod));
	KernelLog.String(" ");
	KernelLog.Address(SYSTEM.TYPECODE(rod));
	KernelLog.Ln;
	s1(r); s2(r); s3(r); END Djorni;

END 

Decoder.Open Proba~		
- и тут смотрим на устройство процедур sN.	  
	  
	  
	  *)
	проц НайдиПредка*(p : динамическиТипизированныйУкль; перем predokT : Heaps.StaticTypeBlock; w : Потоки.Писарь; otlPech : булево);
	перем
		pHeapBlock : Heaps.HeapBlock;
		pStaticTypeDesc: Heaps.StaticTypeBlock;
		pAddr : адресВПамяти;

	нач
		predokT := НУЛЬ;
		pAddr := НИЗКОУР.подмениТипЗначения(адресВПамяти, p);
		pHeapBlock := НИЗКОУР.подмениТипЗначения(Heaps.HeapBlock, p);
		если otlPech то
			w.пСтроку8("РаскопайРодословную: начало..."); w.пАдресВПамяти(pAddr); w.пСтроку8("...") всё;
		если p = НУЛЬ то возврат всё;
		(* SYSTEM.GET(pAddr + Heaps.TypeDescOffset, pStaticTypeDesc); (* What is pStaticTypeDesc = 890? *) *)
		pStaticTypeDesc := pHeapBlock.typeDesc;
		
		если ~ПроверьЧтоЭтоЗапись(p,pStaticTypeDesc,w,otlPech) то возврат всё;
		
		НайдиПредкаPoStaticTypeDesc(pStaticTypeDesc,predokT);
		
		кон НайдиПредка;


	(* 	a := GetAddress(k.mod.refs, offset);
		WriteZapisqUsingStaticTypeBlock(k,SYSTEM.VAL(Heaps.StaticTypeBlock, a),adr) END WriteRecord; *)



	проц НайдиПредкаPoStaticTypeDesc(pStaticTypeDesc : Heaps.StaticTypeBlock; перем predokT : Heaps.StaticTypeBlock);
		перем predokA : адресВПамяти;
		kvoPredkov : размерМЗ;
	нач		
		predokT := НУЛЬ;
		predokA := НИЗКОУР.подмениТипЗначения(адресВПамяти,pStaticTypeDesc);
		увел(predokA, -2 * размерОт адресВПамяти);
		нц
			НИЗКОУР.прочтиОбъектПоАдресу(predokA,predokT); 
			если predokT = НУЛЬ то
				прервиЦикл
			аесли predokT = pStaticTypeDesc то
				если kvoPredkov > 0 то
					увел(predokA, размерОт адресВПамяти);
					НИЗКОУР.прочтиОбъектПоАдресу(predokA,predokT)
				иначе
					predokT := НУЛЬ всё;
				прервиЦикл всё;
			увел(kvoPredkov);
			увел(predokA, - размерОт адресВПамяти) кц	кон НайдиПредкаPoStaticTypeDesc;


	(* NapechatajjPredkov - функция скорее для примера или для отладки, чем для пользы. 
	  Для пользы есть НайдиПредкаPoStaticTypeDesc*)
	проц NapechatajjPredkov*(x : динамическиТипизированныйУкль; 
			w : Потоки.Писарь; otlPech : булево);
		перем predokA : адресВПамяти; 	kvoPredkov : размерМЗ; predokT : Heaps.StaticTypeBlock; 
		pStaticTypeDesc : Heaps.StaticTypeBlock; heapsRecordBlock : Heaps.RecordBlock;
	нач
		(* w.String("; address of the record itself = ");
		w.Address(addressOfTheRecord); *)
		если x = НУЛЬ то
			w.пСтроку8("NapechatajjPredkov: NIL");
			возврат
		аесли ~CheckHeapAddress(НИЗКОУР.подмениТипЗначения(адресВПамяти,x)) то
			w.пСтроку8("NapechatajjPredkov: ne na kuche");
			возврат всё;
		heapsRecordBlock := НИЗКОУР.подмениТипЗначения(Heaps.RecordBlock, x);
		pStaticTypeDesc := heapsRecordBlock.typeDesc;
		predokT := НУЛЬ;
		predokA := НИЗКОУР.подмениТипЗначения(адресВПамяти,pStaticTypeDesc);
		увел(predokA, -2 * размерОт адресВПамяти);
		нц
			НИЗКОУР.прочтиОбъектПоАдресу(predokA,predokT); 
			w.пВК_ПС;
			если predokT = НУЛЬ то
				w.пСтроку8("Нет (больше) предков"); w.пВК_ПС;
				прервиЦикл
			аесли predokT = pStaticTypeDesc то
				если otlPech то 
					w.пСтроку8("Нашёл себя. Всего предков: "); w.пЦел64(kvoPredkov,0) всё
			иначе 
				если otlPech то 
					w.пСтроку8("Предполагаемый пращур:"); w.пВК_ПС;
					PechStaticTypeDesc(w, predokT) всё всё;
			w.пВК_ПС;
			увел(kvoPredkov);
			увел(predokA, - размерОт адресВПамяти) кц;
		w.ПротолкниБуферВПоток кон NapechatajjPredkov;

	(* IzuchiMassivIzvestnyjjKakMassiv pytaetsja razobratsja v dinamicheski dostypnykh metadannykh massiva,
	    pomechennogo tegom Heaps.ArrayBlockDesc *)
	проц IzuchiMassivVAnyIzvestnyjjKakMassiv(перем ио : ИзученныйОбъект; перем k : KontekstPechati);
	перем adresMassiva : адресВПамяти;
	нач
		утв(ио.объ # НУЛЬ);
		adresMassiva := НИЗКОУР.подмениТипЗначения(адресВПамяти, ио.объ);
		ио.std := Modules.TypeOf(ио.объ); (* Ehto tip elementa, a ne samogo massiva! *)
		если ио.std.name = "@HdPtrDesc" то (* Ura, ehto massiv ukazatelejj *)
			ио.видОбъекта := видОбъекта3ДТМассивУклейНаANY;
			ио.std := НУЛЬ
		иначе
			(* po postroeniju, znam staticheskijj tip. Proverim ehto *)
			утв(ио.std.mod.refs # НУЛЬ);
			утв(ио.std.refsOffset # 0);
			ио.видОбъекта := видОбъекта5СТМассивСЭлтамиИзвестногоТипа;
		всё кон IzuchiMassivVAnyIzvestnyjjKakMassiv;


	(* PROCEDURE WTF(VAR k : KontekstPechati; pAddr : ADDRESS);
	VAR сот : ИзученныйОбъект; p : ANY;
	BEGIN
	p := SYSTEM.VAL(ANY, pAddr);
	EhtogoANY(p, сот, k);
	END WTF; *)

	тип
	(* HeapsDataBlockU = POINTER {UNSAFE,UNTRACED} TO HeapsDataBlockDesc; *)
	HeapsDataBlockDesc= запись
		heapBlock* {поСмещению =Heaps.HeapBlockOffset}: укль {опасныйДоступКПамяти,неОтслСборщиком} на Heaps.HeapBlockDesc;
		typeDesc* {поСмещению =Heaps.TypeDescOffset}: укль {опасныйДоступКПамяти,неОтслСборщиком} на Heaps.StaticTypeDesc;
	кон;


	тип ZagolovokOdnomernogoMassiva = запись(HeapsDataBlockDesc) (* Kopija s Heaps.ArrayDataBlockDesc dlja 1-mernogo sluchaja *)
		numElems*: размерМЗ;
		first: адресВПамяти;
		dlinaPervogoIzmerenija : размерМЗ;
		кон;

	тип ArrayDataBlockU = укль {опасныйДоступКПамяти} на ZagolovokOdnomernogoMassiva; (* Odnoimjonen s Heaps.ArrayDataBlockU *)

	(* пБолееСТ_массивВнутр ozhidaet, chto:
		k.mod.refs smotrit na refs dlja tipa massiva
		сот.смещТипаЭлтаМассива smotrit na tip elementa.
		pAddr ukazyvet na sam massiv *)
	проц пБолееСТ_массивВнутр(перем k : KontekstPechati; конст ио: ИзученныйОбъект; neUkaz : булево);
	перем offsetCopy : размерМЗ; dlina : размерМЗ; adb : ArrayDataBlockU; w : Потоки.Писарь; firstElemAdr : адресВПамяти; 
	(* staticTypeDesc : Heaps.StaticTypeDesc; *)
		(* сот : ИзученныйОбъект; pAddr : ADDRESS; *)

	проц ДайДлинуИАдресПервогоЭлта;
	нач
		если ~neUkaz то
			adb := НИЗКОУР.подмениТипЗначения(ArrayDataBlockU, АдресИзОбъектИТип(ио));
			если ио.массивСтатическийЛи то
				dlina := ио.numElems;
				если ЭтоSystemBlockЛи(АдресИзОбъектИТип(ио)) то
					firstElemAdr := АдресИзОбъектИТип(ио) + (размерОт адресВПамяти) * 2
				иначе 
					firstElemAdr := adb.first 
				всё
			иначе
				dlina := adb.dlinaPervogoIzmerenija;
				если ЭтоSystemBlockЛи(АдресИзОбъектИТип(ио)) то
				 	НИЗКОУР.прочтиОбъектПоАдресу(АдресИзОбъектИТип(ио) + (размерОт адресВПамяти) * 2, dlina);
					firstElemAdr := АдресИзОбъектИТип(ио) + (размерОт адресВПамяти) * 4
				иначе
					firstElemAdr := adb.first;
					dlina := adb.dlinaPervogoIzmerenija; 
					всё всё
		иначе
			если ио.массивСтатическийЛи то
			firstElemAdr := АдресИзОбъектИТип(ио);
				dlina := ио.numElems 
			иначе
				(* k.w.String("Ojjj!"); 
				k.w.Ln; k.w.Update; *)
				firstElemAdr := АдресИзОбъектИТип(ио);
				НИЗКОУР.прочтиОбъектПоАдресу(АдресИзОбъектИТип(ио) + размерОт адресВПамяти, dlina);
				всё всё кон ДайДлинуИАдресПервогоЭлта;

	нач
		утв(ио.смещТипаЭлтаМассива # 0);
		w := k.w;

		(* w.String("Vhozhu v пБолееСТ_массивВнутр:");
		WriteValueHexWords(w, pAddr, 6); 
		w.Ln;
		w.Update; *)

		(* w.String("пБолееСТ_массивВнутр: neUkaz = "); 
		IF neUkaz THEN w.String("TRUE") ELSE w.String("FALSE") END; *)

		ДайДлинуИАдресПервогоЭлта();
		w.пСтроку8("["); w.пЦел64(dlina, 0); w.пСтроку8("]");

		увел(k.текГлубина);

		offsetCopy := ио.смещТипаЭлтаМассива;
		w.пСтроку8(" "); rReportType(k.w, ио.mod.refs, offsetCopy); w.пСтроку8(" : ");

		пТелоСТ_массива(k, ио, dlina, firstElemAdr);
		увел(k.текГлубина, -1);
		кон пБолееСТ_массивВнутр;
		
	тип HeapsBlock*= укль	{опасныйДоступКПамяти,неОтслСборщиком} на запись
		heapBlock {поСмещению =Heaps.HeapBlockOffset}: Heaps.HeapBlock;
		typeBlock {поСмещению =Heaps.TypeDescOffset}: Heaps.StaticTypeBlock;
	кон;

		
	проц ЭтоSystemBlockЛи*(p: адресВПамяти): булево;
	перем
		tdAdr: адресВПамяти;
		block: HeapsBlock;
	нач
		block := p;
		если (block # НУЛЬ) и ЭВМ.АдресНаКучеЛи¿(операцияАдресОт block.heapBlock)то
			block := block.heapBlock;
			если (block = НУЛЬ) то возврат истина (* block without heap header -- considered untraced *)
			аесли ЭВМ.АдресНаКучеЛи¿(операцияАдресОт block.typeBlock) то
				tdAdr := block.typeBlock;
				если (tdAdr = НИЗКОУР.дайМетаданныеВремениВыполненияДляТипа(Heaps.SystemBlockDesc)) то
					возврат истина всё всё всё;
		возврат ложь 	кон ЭтоSystemBlockЛи;

	(* Работает только для типа Record, проверить правильность не можем... *)
	проц ОИТЗаписиВStaticTypeBlock*(k: KontekstPechati; конст оит: ОбъектИТип) : Heaps.StaticTypeBlock;
	перем copyOffset : размерМЗ;  
		typeInfoAdrMystery : адресВПамяти; unmystery : Heaps.StaticTypeBlock;
		(* a := GetAddress(оит.mod.refs, copyOffset); *)
		(* RETURN SYSTEM.VAL(Heaps.StaticTypeBlock, a) *)
	нач
		copyOffset := оит.refsOffset;
		если ~Expect(GetChar(оит.mod.refs, copyOffset) = sfTypeDeclaration) то
			k.w.пСтроку8("(ОИТЗаписиВStaticTypeBlock: net tipa v metadannykh modulja refs constOffset = ");
			k.w.пЦел64(copyOffset,0); k.w.пСтроку8(")");
			возврат НУЛЬ всё;
		SkipSize(copyOffset);
		SkipString(оит.mod.refs, copyOffset);
		typeInfoAdrMystery := GetAddress(оит.mod.refs,  copyOffset);
		(* k.w.String("(ОИТЗаписиВStaticTypeBlock: прочитал ");
		k.w.Address(typeInfoAdrMystery); k.w.String(")");
		k.w.Update; *)
		unmystery := НИЗКОУР.подмениТипЗначения(Heaps.StaticTypeBlock, typeInfoAdrMystery);
		возврат unmystery		
		кон ОИТЗаписиВStaticTypeBlock;

	(* rReportType - rashirenie Reflection.ReportType *)
	проц rReportType*(w:Потоки.Писарь; refs: Modules.Bytes; offset: размерМЗ);
	перем adr: цел32; c: симв8; ofs : размерМЗ;
	нач
		ofs := offset;
		c := GetChar(refs, ofs);
		просей c из
		|	 sfTypeRecord: w.пСтроку8("(RECORD ");
				adr := GetAddress(refs, ofs);
				WriteDynamicTypeByTypeDescAdrIn(w, НИЗКОУР.подмениТипЗначения(Heaps.StaticTypeBlock, adr));
				w.пСтроку8(")");
				offset := ofs;
		| sfTypePointerToRecord: w.пСтроку8("(POINTER TO DT RECORD)");
		| sfTypeIndirect: w.пСтроку8("(INDIRECT ");
			ofs := GetSize(refs, ofs); 
			w.пЦел64(ofs,1); 
			rReportType(w, refs, ofs); 
			w.пСтроку8(")");
		иначе Reflection.ReportType(w, refs, offset);
		всё;
	кон rReportType;

	проц пТелоСТ_массива(перем k : KontekstPechati;
		конст ио : ИзученныйОбъект; dlina : цел32; firstElemAdr : адресВПамяти);
		перем offsetCopy : размерМЗ; w : Потоки.Писарь;
		type : симв8; i : цел32; размерЭлтаМассива : размерМЗ;

	нач
		w := k.w;
		offsetCopy := ио.смещТипаЭлтаМассива;

		type := GetChar(ио.mod.refs, offsetCopy);

		если (type = sfTypeCHAR) то
			WriteValueString(k.w, firstElemAdr, dlina, k.low, k.high)
		аесли (type = sfTypeСимв32) то
			WriteUCS32StringJQ(k.w, firstElemAdr, dlina, k.low, k.high)
		иначе
			w.пСтроку8("(");
			увел(k.текГлубина);

			i := 0;
			нц
				если i = dlina то прервиЦикл всё;
				w.пВК_ПС; k.Отступ( 0);
				если (k.пределДлины # нетОграниченияГлубиныИлиДлины) и
					(i = k.пределДлины) то
						w.пСтроку8(": I-TAK-DALEE ..."); прервиЦикл всё;
				w.пЦел64(i, 0); w.пСтроку8(": ");
				WriteSTMassivaElement(k, ио.mod, firstElemAdr, i, ио.смещТипаЭлтаМассива + 0, размерЭлтаМассива);
				если i = 0 то
					(* w.String("размерЭлтаМассива prishjol: "); w.Int(k.размерЭлтаМассива, 0); w.Ln; *)
					размерЭлтаМассива := k.размерЭлтаМассива всё;
				увел(i) кц;
			k.размерЭлтаМассива := k.размерЭлтаМассива * dlina;
			увел(k.текГлубина, -1);
			w.пСтроку8(")") всё кон пТелоСТ_массива;

	проц WriteSTMassivaElement(перем k : KontekstPechati; mod : Modules.Module; firstElemAdr : адресВПамяти; i : цел32; смещТипаЭлтаМассиваNoVar, razmerMassivaElementaMassiva : размерМЗ);
	перем elTypeTypeCode : симв8; offset : размерМЗ; w : Потоки.Писарь; size : размерМЗ; adr : адресВПамяти; len : размерМЗ;
		оит2: ОбъектИТип;
	нач
		w := k.w;
		offset := смещТипаЭлтаМассиваNoVar;
		elTypeTypeCode := GetChar(mod.refs, offset);
		(* w.String("k.размерЭлтаМассива byl: "); w.Int(k.размерЭлтаМассива,0); w.String(", a teperq budet 0"); w.Ln; *)
		k.размерЭлтаМассива := 0;

		если elTypeTypeCode = sfTypeIndirect то
			offset := GetSize(mod.refs, offset);
			WriteSTMassivaElement(k, mod, firstElemAdr, i, offset + 0, razmerMassivaElementaMassiva); возврат всё;
		просей elTypeTypeCode из
			sfTypeNone: w.пСтроку8("NONE"); возврат;
		| sfTypeCHAR, sfTypeСимв32 :
			СТОП(838); (* Ne dolzhny byli sjuda popastq *)
		| sfTypePointerToRecord, sfTypeANY, sfTypeOBJECT, sfTypePointerToArray :
			size := размер16_от(адресВПамяти);
		| sfTypeStaticArray :
			(* w.String("sfTypeStaticArray "); *)
			len := GetSize(mod.refs, offset);
			если i = 0 то
				adr := firstElemAdr
			иначе
				adr := firstElemAdr + i * razmerMassivaElementaMassiva всё;
			(* WriteValueHexWords(w, adr, 4); w.Ln; *)
			если mod.refs[offset] = sfTypeCHAR то (* ARRAY x OF CHAR *)
				WriteValueString(w, adr, len, k.low, k.high);
				k.размерЭлтаМассива := len;
			аесли mod.refs[offset] = sfTypeСимв32 то (* ARRAY x OF Симв32 *)
				WriteUCS32StringJQ(w, adr, len, k.low, k.high);
				k.размерЭлтаМассива := len;
			иначе
				offset := смещТипаЭлтаМассиваNoVar;
				пБолееСТ_массивВнеш(k, mod, adr, offset, истина);
				(* k.w.String("Posle пБолееСТ_массивВнеш k.размерЭлтаМассива = ");
				k.w.Int(k.размерЭлтаМассива,0); k.w.Ln;
				*)
				 всё; возврат
		| sfTypeRecord:
			(* k.w.String("About to enter WriteRecordFromTheSTArray"); k.w.Ln; *)
			WriteRecordFromTheSTArray(k, mod, firstElemAdr, i, смещТипаЭлтаМассиваNoVar+0, offset+0); возврат;
		иначе
			size := 0 всё;
		если size # 0 то
			k.размерЭлтаМассива := size;
			(* k.w.String("Pojjmal k.размерЭлтаМассива := size = "); k.w.Int(size, 0); k.w.Ln; *)
			adr := firstElemAdr + size * i;
			offset := смещТипаЭлтаМассиваNoVar;
			оит2.mod := mod;
			оит2.адрВнутр := adr;
			оит2.refsOffset := offset;
			WriteAValue(k, оит2, offset, ложь, ложь, ложь); возврат всё;
		k.размерЭлтаМассива := WriteBasicArrayElement(k.w, elTypeTypeCode, firstElemAdr, i)
		кон WriteSTMassivaElement;


	(* пМассивСобственно umeet pechatatq tolqko vidy objqekta 3 i 7 *)
	проц пМассивСобственно(перем k : KontekstPechati; конст ио: ИзученныйОбъект; neUkaz : булево);
	перем DataBlockStaticTypeDesc : Heaps.StaticTypeBlock; адр : адресВПамяти;
	нач
		(** Drugie poka ne umeem *)
		утв((ио.видОбъекта = видОбъекта3ДТМассивУклейНаANY)
			или (ио.видОбъекта = видОбъекта7СТМассивСЭлтамиИзвестногоТипа3));

		(* Dlja vsekh statichecki izvestnykh tipov nam ne dolzhno bytq nuzhno DataBlockStaticTypeDesc *)
		адр := АдресИзОбъектИТип(ио);
		если ~neUkaz и (ио.видОбъекта # видОбъекта7СТМассивСЭлтамиИзвестногоТипа3) то
			НИЗКОУР.прочтиОбъектПоАдресу(адр + Heaps.TypeDescOffset, DataBlockStaticTypeDesc) всё;
		если DataBlockStaticTypeDesc = НУЛЬ то
			(* k.w.String("пМассивСобственно: About to call `пБолееСТ_массивВнутр'"); k.w.Ln; *)
			пБолееСТ_массивВнутр(k, ио, neUkaz)
		иначе
			(* k.w.String("пМассивСобственно: About to enter `пБолееДТ_массивУклей'"); k.w.Ln; *)
			пБолееДТ_массивУклей(k, ио);
		всё кон пМассивСобственно;


	(* Clone of Heaps.ArrayDataBlockDesc *)
	тип 
		HeapsArrayDataBlockU = укль {опасныйДоступКПамяти,неОтслСборщиком} на HeapsArrayDataBlockDesc;
		HeapsArrayDataBlockDesc= запись (Heaps.DataBlockDesc)
			numElems: размерМЗ;
			first: адресВПамяти;
			(* len info *)
			(* data *)
		кон;

	(* Kusok iz TraverseMarkStack, uproshhjon dlja massiva is ANY *)
	проц PechMassivIzANYKakVTraverseMarkStack(перем k : KontekstPechati; pAddr : адресВПамяти);
	перем currentArrayElemAdr, lastArrayElemAdr : адресВПамяти; 
		elementSize : размерМЗ;
		ab : HeapsArrayDataBlockU;
		currentArrayElem : динамическиТипизированныйУкль;
		i : размерМЗ;
	нач(* {UNCHECKED} (* omit any range checks etc.*) *)
			ab := НИЗКОУР.подмениТипЗначения(HeapsArrayDataBlockU, pAddr);
			currentArrayElemAdr := ab.first;
			(* k.w.String("ab.first="); k.w.Address(ab.first); k.w.Ln;
			k.w.String("len="); k.w.Size(ab.numElems); k.w.Ln; *)
			elementSize := размерОт адресВПамяти;
			lastArrayElemAdr := ab.first + ab.numElems * elementSize;
			i := 0;
			нцПока currentArrayElemAdr < lastArrayElemAdr делай
					k.w.пВК_ПС; k.Отступ( 0); k.w.пЦел64(i,0); k.w.пСтроку8(": ");
					НИЗКОУР.прочтиОбъектПоАдресу(currentArrayElemAdr, currentArrayElem);
					ПечВКонтекстеВнутр(k, currentArrayElem, ложь, ложь);
					увел(currentArrayElemAdr, elementSize);
					увел(i);
			кц кон PechMassivIzANYKakVTraverseMarkStack;


	проц пБолееДТ_массивУклей(перем k : KontekstPechati; конст ио: ИзученныйОбъект);
	перем obmanka : укльНаМассивОбманка;
		len : размерМЗ; 	i : цел32; w : Потоки.Писарь; tempOffset : размерМЗ; elemPtr, elemAddr : адресВПамяти;
		оит2 : ОбъектИТип;
	нач
		w := k.w;
		obmanka := НИЗКОУР.подмениТипЗначения(укльНаМассивОбманка, АдресИзОбъектИТип(ио));
		(* w.String("Massiv { ио.видОбъекта"); w.Int(сот.видОбъекта,0); w.String("} "); *)
		w.пСтроку8("DT[");

		если ио.массивСтатическийЛи то
			len := ио.numElems;
			(* w.String(" stat-dlina: "); (* sd = staticheskaja dlina *) *)
		иначе
			НИЗКОУР.прочтиОбъектПоАдресу(АдресИзОбъектИТип(ио), len) всё;

		w.пЦел64(len, 0);
		w.пСтроку8("]");

		(* w.String(" IZ ANY :"); *)
		w.пСтроку8(" : (");

		увел(k.текГлубина);
		(* w.String("(Massiv takov: "); w.Ln;
		WriteValueHexWords(w, АдресИзОбъектИТип(ио), 8); w.String(")"); w.Ln; *)

		если ио.видОбъекта = видОбъекта3ДТМассивУклейНаANY то
				(* Iz Heaps.TraverseMarkStack *)
			(* k.w.String("пБолееДТ_массивУклей: это видОбъекта3ДТМассивУклейНаANY"); *)
			PechMassivIzANYKakVTraverseMarkStack(k, АдресИзОбъектИТип(ио));
			увел(k.текГлубина,-1);
			возврат; всё;

		утв(ио.видОбъекта = видОбъекта7СТМассивСЭлтамиИзвестногоТипа3);

		i := 0;
		нц
			если i = len то прервиЦикл всё;
			если (k.пределДлины # нетОграниченияГлубиныИлиДлины) и
				(i = k.пределДлины) то
					w.пВК_ПС; k.Отступ( 0); w.пСтроку8(": I-TAK-DALEE ..."); прервиЦикл всё;
			w.пВК_ПС; k.Отступ( 0); w.пЦел64(i,0); w.пСтроку8(": ");
			увел(k.текГлубина);

			tempOffset := ио.смещТипаЭлтаМассива;
			elemPtr := адресОт(obmanka[i]);
			elemAddr := НИЗКОУР.подмениТипЗначения(адресВПамяти, obmanka[i]);
			(* k.w.String("elemAddr = "); k.w.Address(elemPtr);
			k.w.String("pointsTo = "); k.w.Address(elemAddr); *)
			(* w.String("WriteAValue(k, tempOffset, elemPtr);"); *)
			оит2.объ := НУЛЬ;
			оит2.адрВнутр := elemPtr;
			оит2.refsOffset := tempOffset;
			оит2.mod := ио.mod;
			k.w.пСтроку8("Сейчас войдём во WriteAValue с оит2...");
			WriteAValue(k, оит2, tempOffset, ложь, ложь, ложь);

			увел(k.текГлубина, -1);
			увел(i) кц;
		увел(k.текГлубина,  - 1) кон пБолееДТ_массивУклей;

	(* WriteСТУкльНаМассивВнеш pechataet staticheski tipizirovannyjj ukazatelq na massiv. Offset dolzghen pokazyvatq
		na tip massiva. Posle zavershenija pokazyvaetq na sled. element v refs posle tipa ehtogo massiva *)
	проц WriteСТУкльНаМассивВнеш(перем k: KontekstPechati; конст оит: ОбъектИТип; перем offset: размерМЗ);
	перем a : адресВПамяти; оит2 : ОбъектИТип;
	нач
		утв(оит.mod.refs # НУЛЬ);
		НИЗКОУР.прочтиОбъектПоАдресу(АдресИзОбъектИТип(оит), a);
		оит2 := оит;
		оит2.объ := НУЛЬ;
		оит2.адрВнутр := a;
		(* WTF(k, a); *)
		пБолееСТ_массивВнеш(k, оит.mod, a, offset, ложь);
	кон WriteСТУкльНаМассивВнеш;

	(* Dlja vyzova iz pechati. offset dolzhen pokazyvatq na nachalo tipa massiva (ne elementa!).
	    Posle zavershenija offset pokazyvaet na mesto posle tipa ehtogo massiva. *)
	проц пБолееСТ_массивВнеш(перем k: KontekstPechati; mod: Modules.Module; a : адресВПамяти; перем offset: размерМЗ; neUkaz : булево);
	перем w : Потоки.Писарь; offset2 : размерМЗ; ио : ИзученныйОбъект;
	нач
		утв(mod.refs # НУЛЬ);

		ио.mod := mod;

		w := k.w; 
		offset2 := offset;
		ЗанесиСтатТипМассиваВ_ИО(k, ио, offset2);
		ио.адрВнутр := a;
		пИзученныйОбъект(k, ио, neUkaz, ложь, ложь);

		(* IF ~OnHeapOrStack(a,k.low,k.high) THEN w.String(" (INVALID)") END; *)
		(* Reflection.ReportType(w, refs, offset);  *)
		Reflection.SkipType(mod.refs, offset);
		(* Ehtot assert neveren dlja sfTypeIndirect *)
		(* ASSERT((offset2 = 0) OR (offset = offset2)); *)(* My dolzhny byli prochitatq vsjo ehto *)
	кон пБолееСТ_массивВнеш;


	(* Dlja vyzova iz pechati. offset dolzhen pokazyvatq na nachalo tipa massiva (ne elementa!).
	    Posle zavershenija offset pokazyvaet na mesto posle tipa ehtogo massiva. *)
	проц пБолееСТ_открытыйМассивВнеш(перем k: KontekstPechati; mod : Modules.Module; a : адресВПамяти; перем offset: размерМЗ; neUkaz : булево);
	перем w : Потоки.Писарь; ио: ИзученныйОбъект; offset2 : размерМЗ; a2 : адресВПамяти;
	нач
		утв(mod.refs # НУЛЬ);

		ио.mod := mod;

		w := k.w; 		
		offset2 := offset;
		ЗанесиСтатТипМассиваВ_ИО(k, ио, offset2);
		НИЗКОУР.прочтиОбъектПоАдресу(a, a2);
		ио.адрВнутр := a2;
		
		пИзученныйОбъект(k, ио, neUkaz, ложь, ложь);

		(* IF ~OnHeapOrStack(a,k.low,k.high) THEN w.String(" (INVALID)") END; *)
		(* Reflection.ReportType(w, refs, offset);  *)
		Reflection.SkipType(mod.refs, offset);
		(* Ehtot assert neveren dlja sfTypeIndirect *)
		(* ASSERT((offset2 = 0) OR (offset = offset2)); *)(* My dolzhny byli prochitatq vsjo ehto *)
	кон пБолееСТ_открытыйМассивВнеш;



	(* ЗанесиСтатТипМассиваВ_ИО zanosit dannye ob ST massive v сот.
	    offset v nachale dolzhen pokazyvatq na nachalo tipa massiva. Vernjom offset, ukazyvajushijj na tip elementa *)
	проц ЗанесиСтатТипМассиваВ_ИО(перем k : KontekstPechati; перем ио: ИзученныйОбъект; перем offset: размерМЗ);
	перем c: симв8; ofs : размерМЗ;
	нач
		c := GetChar(ио.mod.refs, offset);
		просей c из
			sfTypeIndirect:
				ofs := GetSize(ио.mod.refs, offset);
				offset := ofs;
				ЗанесиСтатТипМассиваВ_ИО(k, ио, offset);
			| sfTypeOpenArray:
				(* k.w.String("Ugugu"); k.w.Ln; k.w.Update; *)
				ио.смещТипаЭлтаМассива := offset; Reflection.SkipType(ио.mod.refs, offset);
				ио.видОбъекта := видОбъекта7СТМассивСЭлтамиИзвестногоТипа3;
			| sfTypeStaticArray: 
				ио.numElems := GetSize(ио.mod.refs, offset);
				ио.массивСтатическийЛи := истина;
				ио.смещТипаЭлтаМассива := offset; Reflection.SkipType(ио.mod.refs, offset);
				ио.видОбъекта := видОбъекта7СТМассивСЭлтамиИзвестногоТипа3;
		иначе
			k.w.пСтроку8("(ЗанесиСтатТипМассиваВ_ИО : ehto ne massiv! Tip dannykh:");
			k.w.п16ричное(кодСимв8(c), 0);
			(* Reflection.SkipType(ио.refs, offset);  *)
			k.w.пСтроку8(")");
			(* ио.видОбъекта := видОбъекта9STEshjoNeIzucheno1; *)
			СТОП(401);
		всё;
	кон ЗанесиСтатТипМассиваВ_ИО;


	(* WriteBasicArrayElement vyvoditq element massiva "basic" tipa.
	    Vozvrashjaet razmer, k-ryjj nuzhen dlja opredelenija razmera vsego massiva. *)
	проц WriteBasicArrayElement*(w: Потоки.Писарь; type: симв8; firstElemAdr: адресВПамяти; index : цел32) : размерМЗ;
	перем
		sz: размерМЗ;
		size : размерМЗ;
		adr : адресВПамяти;

		(* PROCEDURE Signed(i: SIGNED64);
		BEGIN
			w.Int(i,1);
		END Signed; *)

		проц Unsigned(i: цел64; size1: цел32);
		нач
			w.п16ричное(i,-2*size1);
		кон Unsigned;

	нач
		просей type из
		| sfTypeBOOLEAN:
			size := размер16_от(булево);
		| sfTypeCHAR:
			size := размер16_от(симв8);
		| sfTypeСимв32:
			size := размер16_от(UCS32.CharJQ); (* переделать на размер16_от(симв32) *) 
		| sfTypeSHORTINT:
			size := размер16_от(цел8);
		| sfTypeINTEGER:
			size := размер16_от(цел16);
		| sfTypeLONGINT:
			size := размер16_от(цел32);
		| sfTypeHUGEINT:
			size := размер16_от(цел64);
		| sfTypeWORD:
			size := размер16_от(целМЗ);
		| sfTypeLONGWORD:
			size := размер16_от(длинноеЦелМЗ);
		| sfTypeSIGNED8:
			size := размер16_от(цел8);
		| sfTypeSIGNED16:
			size := размер16_от(цел16);
		| sfTypeSIGNED32:
			size := размер16_от(цел32);
		| sfTypeSIGNED64:
			size := размер16_от(цел64);
		| sfTypeUNSIGNED8:
			size := размер16_от(бцел8);
		| sfTypeUNSIGNED16:
			size := размер16_от(бцел16);
		| sfTypeUNSIGNED32:
			size := размер16_от(бцел32);
		| sfTypeUNSIGNED64:
			size := размер16_от(бцел64);
		| sfTypeREAL:
			size := размер16_от(вещ32);
		| sfTypeLONGREAL:
			size := размер16_от(вещ64);
		| sfTypeCOMPLEX:
			size := размер16_от(компл32);
		| sfTypeLONGCOMPLEX:
			size := размер16_от(компл64);
		| sfTypeSET:
			size := размер16_от(мнвоНаБитахМЗ);
		| sfTypeBYTE:
			size := размер16_от(НИЗКОУР.октет);
		| sfTypeRANGE:
			size := размер16_от(отрезокЦелых);
		| sfTypeADDRESS:
			size := размер16_от(адресВПамяти);
		| sfTypeSIZE:
			size := размер16_от(размерМЗ);
		(* | sfTypeENUM:
			SYSTEM.GET(adr, word); Signed(word);
		| sfTypePORT:
			SYSTEM.GET(adr, a); Unsigned(a, SIZEOF(ADDRESS)); *)
		иначе
			w.пСтроку8("UNKNOWN TYPE "); Unsigned(кодСимв8(type),1); w.ПротолкниБуферВПоток;
			(* Zdesq my vozvrashjaem nulevojj razmer! *)
			возврат 0	всё;
		adr := firstElemAdr + index * size;
		(* w.Address(adr); w.String(" ~ "); *)
		WriteBasicValue(w, type, adr, sz);
		утв(sz = size);
		возврат size; кон WriteBasicArrayElement;


	(* V size vozvrashjaetsa razmer objqekta v pamjati, no dalqshe ehta informacija ne ispolqzuetsja *)
	проц WriteBasicValue(w: Потоки.Писарь; type: симв8; adr: адресВПамяти; перем size: размерМЗ);
	перем
		b: булево;
		c: симв8; с32: бцел32 (* симв32 *);
		s: цел8; i: цел16; l: цел32; h: цел64;
		sz: размерМЗ; a: адресВПамяти;
		word: целМЗ; lword: длинноеЦелМЗ;
		s8: цел8; s16: цел16; s32: цел32; s64: цел64;
		u8: бцел8; u16: бцел16; u32: бцел32;
		r: вещ32; x: вещ64;
		(* cplx: COMPLEX32; *)		set: мнвоНаБитахМЗ;

		проц Signed(i1: цел64);
		нач
			w.пЦел64(i1,1);
		кон Signed;

		проц Unsigned(i1: цел64; size1: цел32);
		нач
			w.п16ричное(i1,-2*size1);
		кон Unsigned;

	нач
		просей type из
		| sfTypePointerToRecord, sfTypeANY, sfTypeOBJECT:
			size := размер16_от(адресВПамяти);
			НИЗКОУР.прочтиОбъектПоАдресу(adr, a); Unsigned(a, размер16_от(адресВПамяти));
		| sfTypeBOOLEAN:
			size := размер16_от(булево);
			НИЗКОУР.прочтиОбъектПоАдресу(adr, b); если b то w.пСтроку8("true") иначе w.пСтроку8("false") всё;
		| sfTypeCHAR:
			size := размер16_от(симв8);
			НИЗКОУР.прочтиОбъектПоАдресу(adr, c); если (c > " ") и (c <= "~") то w.пСимв8( c ); иначе w.п16ричное( кодСимв8( c ), -2 );  w.пСимв8( "X" ) всё;
		| sfTypeСимв32: 
			size := размер16_от(UCS32.CharJQ);
			НИЗКОУР.прочтиОбъектПоАдресу(adr, с32); 
			w.пСтроку8(' "ЛитСимв32(');
			w.пСимв32_вЮ8(UCS32.IntToCharJQ(с32));
			w.пСтроку8(')"');
		| sfTypeSHORTINT:
			size := размер16_от(цел8);
			НИЗКОУР.прочтиОбъектПоАдресу(adr, s); Signed(s);
		| sfTypeINTEGER:
			size := размер16_от(цел16);
			НИЗКОУР.прочтиОбъектПоАдресу(adr, i); Signed(i);
		| sfTypeLONGINT:
			size := размер16_от(цел32);
			НИЗКОУР.прочтиОбъектПоАдресу(adr, l); Signed(l);
		| sfTypeHUGEINT:
			size := размер16_от(цел64);
			НИЗКОУР.прочтиОбъектПоАдресу(adr, h); Signed(h);
		| sfTypeWORD:
			size := размер16_от(целМЗ);
			НИЗКОУР.прочтиОбъектПоАдресу(adr, word); Signed(word);
		| sfTypeLONGWORD:
			size := размер16_от(длинноеЦелМЗ);
			НИЗКОУР.прочтиОбъектПоАдресу(adr, lword); Signed(lword);;
		| sfTypeSIGNED8:
			size := размер16_от(цел8);
			НИЗКОУР.прочтиОбъектПоАдресу(adr, s8); Signed(s8);
		| sfTypeSIGNED16:
			size := размер16_от(цел16);
			НИЗКОУР.прочтиОбъектПоАдресу(adr, s16); Signed(s16);
		| sfTypeSIGNED32:
			size := размер16_от(цел32);
			НИЗКОУР.прочтиОбъектПоАдресу(adr, s32); Signed(s32);
		| sfTypeSIGNED64:
			size := размер16_от(цел64);
			НИЗКОУР.прочтиОбъектПоАдресу(adr, s64); Signed(s64);
		| sfTypeUNSIGNED8:
			size := размер16_от(бцел8);
			НИЗКОУР.прочтиОбъектПоАдресу(adr, u8); Unsigned(u8, размер16_от(бцел8));
		| sfTypeUNSIGNED16:
			size := размер16_от(бцел16);
			НИЗКОУР.прочтиОбъектПоАдресу(adr, u16); Unsigned(u16, размер16_от(бцел16));
		| sfTypeUNSIGNED32:
			size := размер16_от(бцел32);
			НИЗКОУР.прочтиОбъектПоАдресу(adr, u32); Unsigned(u32, размер16_от(бцел32));
		| sfTypeUNSIGNED64:
			size := размер16_от(бцел64);
			НИЗКОУР.прочтиОбъектПоАдресу(adr, s64); Unsigned(s64, размер16_от(бцел64));
		| sfTypeREAL:
			size := размер16_от(вещ32);
			НИЗКОУР.прочтиОбъектПоАдресу(adr, r); w.пВещ64(r,7);
			w.пСтроку8(" (");
			НИЗКОУР.прочтиОбъектПоАдресу(adr, u32); Unsigned(u32, размер16_от(бцел32));
			w.пСтроку8(")");
		| sfTypeLONGREAL:
			size := размер16_от(вещ64);
			НИЗКОУР.прочтиОбъектПоАдресу(adr, x); w.пВещ64(x,13);
			w.пСтроку8(" (");
			НИЗКОУР.прочтиОбъектПоАдресу(adr, s64); Unsigned(s64, размер16_от(бцел64));
			w.пСтроку8(")");
		(* | sfTypeCOMPLEX:
			size := SIZEOF(COMPLEX32);
			SYSTEM.GET(adr, cplx); w.Float(RE(cplx),7); w.String("+ i*"); w.Float(IM(cplx),7);
		| sfTypeLONGCOMPLEX:
			size := SIZEOF(COMPLEX64);
			SYSTEM.GET(adr, x); w.Float(x,13); SYSTEM.GET(adr + SIZEOF(FLOAT64), x); w.String("+ i*"); w.Float(x,13); *)
		| sfTypeSET:
			size := размер16_от(мнвоНаБитахМЗ);
			НИЗКОУР.прочтиОбъектПоАдресу(adr, set); w.пМнвоНаБитахМЗ(set);
		| sfTypeBYTE:
			size := размер16_от(НИЗКОУР.октет);
			НИЗКОУР.прочтиОбъектПоАдресу(adr, c); Unsigned(кодСимв8(c), 1);
		| sfTypeRANGE:
			size := размер16_от(отрезокЦелых);
			НИЗКОУР.прочтиОбъектПоАдресу(adr, sz); Unsigned(sz,размер16_от(размерМЗ)); w.пСтроку8(".."); Unsigned(sz, размер16_от(размерМЗ));
		| sfTypeADDRESS:
			size := размер16_от(адресВПамяти);
			НИЗКОУР.прочтиОбъектПоАдресу(adr, a); Unsigned(a, размер16_от(адресВПамяти));
		| sfTypeSIZE:
			size := размер16_от(размерМЗ);
			НИЗКОУР.прочтиОбъектПоАдресу(adr, sz); Signed(sz); w.пСтроку8("["); Unsigned(sz, размер16_от(размерМЗ)); w.пСтроку8("]");
		| sfTypeENUM:
			НИЗКОУР.прочтиОбъектПоАдресу(adr, word); Signed(word);
		| sfTypePORT:
			НИЗКОУР.прочтиОбъектПоАдресу(adr, a); Unsigned(a, размер16_от(адресВПамяти));
		иначе
			w.пСтроку8("UNKOWN TYPE "); Unsigned(кодСимв8(type),1);
		всё;
		w.ПротолкниБуферВПоток;
	кон WriteBasicValue;

	проц OnHeapOrStack(adr: адресВПамяти; low, high: адресВПамяти): булево;
	нач
		возврат (low <= adr) и (adr < high) или CheckHeapAddress(adr);
	кон OnHeapOrStack;

	проц WriteValueString*(w: Потоки.Писарь; adr: адресВПамяти; maxLen: цел32; low, high: адресВПамяти);
	нач
		Reflection.WriteValueString(w, adr, maxLen, low, high) кон WriteValueString;


	проц WriteUCS32StringJQ*(w: Потоки.Писарь; adr: адресВПамяти; maxLen: цел32; low, high: адресВПамяти);
	конст MaxString1 = 96;
	перем tmp : массив MaxString1+3+1 из UCS32.CharJQ; 
		trunc : бцел8; (* 0 - нет обрезания. 1 - строка обрезается, 2 - строка зашла за пределы приличных адресов *)
	(* Здесь неявно зависим от того факта, что UCS32.CharJQ - это по сути UNSIGNED32. 
	   Если этот факт перестанет быть правдой, мы сломаемся. А как защититься? Можно тестами покрыть. См. также ASSERT при загрузке *)
	перем ch: бцел32; i : размерМЗ;
	нач
		если maxLen > MaxString1 то maxLen := MaxString1 всё;
		нц
			если i >= maxLen то
				trunc := 1;
				прервиЦикл;
			аесли ~OnHeapOrStack(adr, low, high) то
				trunc := 2;
				прервиЦикл;
			иначе
				НИЗКОУР.прочтиОбъектПоАдресу(adr, ch);
				если ch = 0 то
					прервиЦикл всё всё;
			tmp[i] := UCS32.IntToCharJQ(ch);
			увел(adr,размерОт UCS32.CharJQ);
			увел(i) кц;
		tmp[i] := UCS32.IntToCharJQ(0);
		w.пСтроку32(tmp, 2);
		если trunc = 1 то
			w.пСтроку8("...")
		аесли trunc = 2 то 
			w.пСтроку8(" вышли-за-границу-допустимой-памяти!!!") всё	кон WriteUCS32StringJQ;


	проц WriteValueHexWords*(w: Потоки.Писарь; adr: адресВПамяти; numWords: цел32);
	перем i : цел32; v : бцел16;
	нач
		w.пСтроку8("(WVHW @"); w.пАдресВПамяти(adr);
		нцДля i := 0 до numWords * 2 - 1 делай
			w.пСимв8(" ");
			НИЗКОУР.прочтиОбъектПоАдресу( adr + 2 * i, v);
			w.п16ричное(v, -4) кц;
			w.пСимв8(")");
			кон WriteValueHexWords;
			
			
	проц OffsetOfHeapsStaticTypeBlockAsAddressToRecordTypeDeclOffset(
		перем k: KontekstPechati; mod: Modules.Module; перем offsetOfHeapsStaticTypeBlockAsAddress: размерМЗ; addressOfTheRecord: адресВПамяти; перем оит: ОбъектИТип);
	перем 
		HeapsStaticTypeBlockAsAddress: адресВПамяти; hstb: Heaps.StaticTypeBlock; 
		typeInfo: Heaps.TypeInfo; успех : цел16;
	нач
		(* k.w.String("vkhod v offsetOfHeapsStaticTypeBlockAsAddressToTypeDeclOffset"); *)
		HeapsStaticTypeBlockAsAddress := GetAddress(mod.refs, offsetOfHeapsStaticTypeBlockAsAddress);
		hstb := НИЗКОУР.подмениТипЗначения(Heaps.StaticTypeBlock, HeapsStaticTypeBlockAsAddress);
		typeInfo := hstb.info; 
		успех := АдресЗаписиИHeapsStaticTypeBlockВRecordTypeDeclOffset(k, НУЛЬ, addressOfTheRecord, hstb, оит); 
		если успех # 0 то
			k.w.пСтроку8("«offsetOfHeapsStaticTypeBlockAsAddressToTypeDeclOffset: провал ");
			k.w.пЦел64(успех, 0); k.w.пСтроку8("»") всё		
		
		(* 		module: Modules.Module; typeDesc: Modules.TypeDesc; offset4 : SIZE; spa : StatusPechatiAdresa;
		w : Streams.Writer; hs : Heaps.StaticTypeBlock; size : SIGNED32; povtor : BOOLEAN;
	BEGIN
		w := k.w;
		a := GetAddress(mod.refs, offsetRecordTypeDeclNoVar);
		typeAdr := SYSTEM.VAL(Heaps.StaticTypeBlock, a);
		IF CheckHeapAddress(SYSTEM.VAL(ADDRESS,typeAdr)) THEN
			ThisTypeByAdr(typeAdr, module, typeDesc);
*)
			
	кон OffsetOfHeapsStaticTypeBlockAsAddressToRecordTypeDeclOffset;

(*	StaticTypeBlock*= POINTER TO StaticTypeDesc;
	StaticTypeBlockU= POINTER {UNSAFE,UNTRACED} TO StaticTypeDesc;
	StaticTypeDesc* = RECORD
		info- {FICTIVE =TypeDescOffset}: TypeInfo;
		recSize-: SIZE;
		pointerOffsets* {UNTRACED}: PointerOffsets; *)


	проц WriteRecord*(перем k : KontekstPechati; mod: Modules.Module; перем offsetOfHeapsStaticTypeBlockAsAddress: размерМЗ; adr: адресВПамяти;
		подавитьКонтрольЦиклов: булево);
	перем w : Потоки.Писарь; оит : ОбъектИТип;  (* offsetOfsfTypeDeclaration : SIZE;  *)
	нач
		w := k.w;
		(* w.String("... Address = "); *)
		(* пАдресВПамяти(k, adr, spa); *)
		(* w.String("Record adr offset=");
		w.Int(offsetOfHeapsStaticTypeBlockAsAddress,0); w.String(" "); *)

		OffsetOfHeapsStaticTypeBlockAsAddressToRecordTypeDeclOffset(k, mod, offsetOfHeapsStaticTypeBlockAsAddress, adr, оит);
	
		WriteZapisqUsingOffsetOfTypeDecl(k, оит, подавитьКонтрольЦиклов, ложь)		
		(* WriteZapisqUsingStaticTypeBlock(k,SYSTEM.VAL(Heaps.StaticTypeBlock, a),adr) *) кон WriteRecord;

	проц WriteRecordFromTheSTArray*(перем k : KontekstPechati; mod: Modules.Module; firstElemAdr: адресВПамяти; i : цел32;
		смещТипаЭлтаМассиваNoVar, offsetRecordTypeDeclNoVar: размерМЗ);
	перем w : Потоки.Писарь;
	нач
		w := k.w;
		(* w.String("... Address = "); *)
		(* пАдресВПамяти(k, adr, spa); *)
		w.пСтроку8("Record ");
		WriteZapisqVMassiveUsingStaticTypeBlock(k,mod,offsetRecordTypeDeclNoVar,firstElemAdr,i,смещТипаЭлтаМассиваNoVar) кон WriteRecordFromTheSTArray;

	проц WritePointerToRecord*(перем k: KontekstPechati; addressOfTheRecord: адресВПамяти; безСодержания: булево);
	перем (* addressOfTheRecord : ADDRESS; *) w : Потоки.Писарь; оит: ОбъектИТип; успехОИТ: цел16;
	нач
		w := k.w;
		(* w.String("ptr to rec... Address where pointer lies = ");
		w.Address(adr); w.Ln; *)
		(* SYSTEM.GET(adr, addressOfTheRecord); *)
		
		успехОИТ := УкльНаЗаписьВОИТ(k, НИЗКОУР.подмениТипЗначения(динамическиТипизированныйУкль,addressOfTheRecord),оит);
		если успехОИТ # 0 то
			w.пСтроку8("(WritePointerToRecord: failure ");
			w.пЦел64(успехОИТ, 0);
			w.пСтроку8(")") всё;
		если АдресИзОбъектИТип(оит) = 0 (* SYSTEM.VAL(ADDRESS,UNSIGNED32(0))*) то 
			(* w.String("WritePointerToRecord: АдресИзОбъектИТип == 0"); *)
			w.пСтроку8("NIL");
		иначе
			w.пВК_ПС; k.Отступ( 0);
			увел(k.текГлубина);
			(* WriteZapisqUsingStaticTypeBlock(k, heapsStaticTypeDesc, addressOfTheRecord); *)
			WriteZapisqUsingOffsetOfTypeDecl(k, оит, ложь, безСодержания);
			увел(k.текГлубина, -1);
		всё;
	кон WritePointerToRecord;


	(** ZadajjKontekstPechatiPoUmolch очищает особь вида KontekstPechati и заполняет её nekotorymi	"prostymi" umolchanijami *)
	проц ZadajjKontekstPechatiPoUmolch*(перем k: KontekstPechati);
	нач
		k.Rodisq(); кон ZadajjKontekstPechatiPoUmolch;

	(* Одна из точек входа в систему печати *)
	проц Pech*(w: Потоки.Писарь; x : динамическиТипизированныйУкль);
	перем k : KontekstPechati;
	нач
		ZadajjKontekstPechatiPoUmolch(k); k.w := w;
		PechVKontekste(k, x, ложь) кон Pech;

	(* PechVKontekste - расширенный вариант вызова печати. 
	  Контекст печати может быть использован для входа в эту пр-ру только один раз *)
	проц PechVKontekste*(перем k : KontekstPechati; x : динамическиТипизированныйУкль; nePechIneAdr : булево);
	нач
		k.Zhenisq(НУЛЬ);
		ПечВКонтекстеВнутр(k, x, nePechIneAdr, ложь);
		k.Umri() кон PechVKontekste;
		
	проц PechPoAdr*(w: Потоки.Писарь; xAddress, typeDescAddress : адресВПамяти);
	перем k : KontekstPechati;
	нач
		ZadajjKontekstPechatiPoUmolch(k); k.w := w;
		PechPoAdrVKontekste(k, xAddress, typeDescAddress) кон PechPoAdr;


	проц PechPoAdrVKontekste*(перем k: KontekstPechati; xAddress, typeDescAddress : адресВПамяти);
	перем оит: ОбъектИТип; успех: цел16; 
	нач
		если xAddress = 0 то
			k.w.пСтроку8("NIL"); возврат всё;

		успех := АдресЗаписиИHeapsStaticTypeBlockВRecordTypeDeclOffset(k, НУЛЬ, xAddress, НИЗКОУР.подмениТипЗначения(Heaps.StaticTypeBlock, typeDescAddress), оит); 
		если успех # 0 то
			k.w.пСтроку8("PechPoAdrVKontekste: Неверный описатель типа"); возврат всё;
		WriteZapisqUsingOffsetOfTypeDecl(k, оит, ложь, ложь)	кон PechPoAdrVKontekste;
		
		
	(* ПечВКонтекстеВнутр - можно вызывать несколько раз, контекст печати изменяется.
	Можно применять её ТОЛЬКО в процедурах отладочной печати (см. KontekstPechati.процедураОтладочнойПечати, в противном случае печать сломается. 
	безСодержания - означает, что не нужно печатать поля или иное содержимое объекта. 
	  Мы хотим только идентификацию объекта и, возможно, команду (которая в этом случае
	  уже напечатана раньше). Если пользователь захочет раскрыть объект, он выполнит
	  команду. Т.е. это как бы означает печатать данный объект в свёрнутом виде.
	  ПРАВЬМЯ - переименовать в пВКонтекстеВнутр 
	  
	   *)
	проц ПечВКонтекстеВнутр*(перем k : KontekstPechati; x : динамическиТипизированныйУкль; nePechIneAdr : булево; безСодержания: булево);
	перем xAddress : адресВПамяти; ио : ИзученныйОбъект;
	нач
		ИзучиТипЭтогоANY(x, ио, k, ложь);
		xAddress := НИЗКОУР.подмениТипЗначения(адресВПамяти, x);
		если (xAddress # 0) и ~nePechIneAdr то
			если k.печКоманды то
				k.w.пСтроку8(" (к.Пиши "); 	k.w.пАдресВПамяти(xAddress);	k.w.пСтроку8("~)")
			иначе
				(* k.w.String("Ик!"); *) k.w.пАдресВПамяти(xAddress) всё всё;
		если ио.видОбъекта = видОбъекта5СТМассивСЭлтамиИзвестногоТипа то
			k.w.пСтроку8("PechVKontekste: видОбъекта = 5: "); k.w.пВК_ПС; 
			WriteValueHexWords(k.w, xAddress, 8); k.w.пВК_ПС;
			возврат всё;
		пИзученныйОбъект(k, ио, ложь, истина, безСодержания) кон ПечВКонтекстеВнутр;
		
	
	проц АдресИзОбъектИТип*(конст ио: ОбъектИТипБаза):адресВПамяти;
	нач
		если ио.объ # НУЛЬ то возврат НИЗКОУР.подмениТипЗначения(адресВПамяти, ио.объ) 
		иначе возврат ио.адрВнутр всё кон АдресИзОбъектИТип;


	проц пИзученныйОбъект(перем k: KontekstPechati; конст ио : ИзученныйОбъект; neUkaz : булево; nePechAdr : булево; безСодержания: булево);
	перем spa : StatusPechatiAdresa;
		w : Потоки.Писарь;	xAddress : адресВПамяти;
	нач
	xAddress := АдресИзОбъектИТип(ио);
	w := k.w;
	если xAddress = 0 то
		w.пСтроку8("NIL"); возврат всё;

	(* IF сот.видОбъекта = видОбъекта9EshjoNeIzucheno1 THEN
		w.String("( "); пАдресВПамяти(k, xAddress, spa); w.String(": видОбъекта9EshjoNeIzucheno1)"); RETURN END;	 *)

	если ~((ио.видОбъекта = видОбъекта3ДТМассивУклейНаANY) или (ио.видОбъекта = видОбъекта7СТМассивСЭлтамиИзвестногоТипа3))
		и (ио.std = НУЛЬ) то
		(* static oznachet, chto tip nelqzja uznatq dinamicheski *)
		w.пСтроку8("(неХватаетСТ "); w.пАдресВПамяти(xAddress); w.пСтроку8(")"); возврат всё;

	w.пСтроку8("(");
	если ~nePechAdr то
		w.пСтроку8("ADR ");
		если neUkaz то
			(* Esli objqekt vlozhen v drugojj, to na nego nelzja vzjatq ukazatelq, a znachit,
			net smysla i otslezhivatq ego uchastie v cikle. Vedq da??? *)
			(* w.String("Ик-2 "); *)
			w.пАдресВПамяти(xAddress)
		иначе
			пАдресВПамяти(k, xAddress, spa)
		всё;
		если spa.povtorno то
			w.пСтроку8(")"); возврат всё;
		w.пСтроку8(" ");
		всё;
	если (ио.видОбъекта = видОбъекта3ДТМассивУклейНаANY) или (ио.видОбъекта = видОбъекта7СТМассивСЭлтамиИзвестногоТипа3) то
		если безСодержания то
			w.пСтроку8("«массив свёрнут»")
		иначе
			пМассивСобственно(k, ио, neUkaz) всё; 
		w.пСтроку8(")"); возврат всё;

	если ~OnHeapOrStack(xAddress, k.low, k.high) то (* FIXME process objects on a stack *)
		w.пСтроку8("(пИзученныйОбъект: провал: Объект не на куче или стеке - но вроде эта проверка не нужна!))"); возврат всё;
		
	если (ио.видОбъекта = видОбъекта2СОписателемТипаНеМассив) то
		(* w.String("Заходим в WritePointerToRecord, xAddress = ");
		w.Address(xAddress); *)
		WritePointerToRecord(k, xAddress, безСодержания); w.пСтроку8(")"); возврат всё;
		
	w.пСтроку8("(пИзученныйОбъект: провал: Плохо отсортировали этот объект))");
	 
	кон пИзученныйОбъект;
		
		


	(* WriteZapisqVMassiveUsingStaticTypeBlock goditsa dlja massivov zapisejj.
	
	
		a := GetAddress(mod.refs, offsetRecordTypeDeclNoVar);
		WriteZapisqVMassiveUsingStaticTypeBlock(k,SYSTEM.VAL(Heaps.StaticTypeBlock, a),firstElemAdr,i,смещТипаЭлтаМассиваNoVar) END WriteRecordFromTheSTArray;
	
	
		Sm. takzhe WriteZapisqUsingStaticTypeBlock *)
	проц WriteZapisqVMassiveUsingStaticTypeBlock*(перем k: KontekstPechati; mod: Modules.Module; offsetRecordTypeDeclNoVar : размерМЗ; value: адресВПамяти; index , смещТипаЭлтаМассиваNoVar:цел32);
	перем 
		a : адресВПамяти; typeAdr: укль на Heaps.StaticTypeDesc; 
		module: Modules.Module; typeDesc: Modules.TypeDesc; (* offset4 : SIZE; *) spa : StatusPechatiAdresa;
		w : Потоки.Писарь; hs : Heaps.StaticTypeBlock; size : цел32; (* povtor : BOOLEAN; *)
		оит : ОбъектИТип; offsetMusor : размерМЗ;
	нач
		w := k.w;
		a := GetAddress(mod.refs, offsetRecordTypeDeclNoVar);
		typeAdr := НИЗКОУР.подмениТипЗначения(Heaps.StaticTypeBlock, a);
		если CheckHeapAddress(НИЗКОУР.подмениТипЗначения(адресВПамяти,typeAdr)) то
			ThisTypeByAdr(typeAdr, module, typeDesc);
			(* ASSERT(module = mod); *)
			если module = НУЛЬ то
				k.w.пСтроку8("{WriteZapisqVMassiveUsingStaticTypeBlock: type not found}");
				возврат всё;
			если typeDesc # НУЛЬ то
				если typeDesc.name = "" то
					k.w.пСтроку8("(ANONYMOUS-TYPE ");
					пАдресВПамяти(k, value, spa); k.w.пСтроку8(")");
				иначе
					(* Ideja iz Heaps.NewRec *)
					hs := НИЗКОУР.подмениТипЗначения(Heaps.StaticTypeBlock, typeDesc.tag);
					size := hs.recSize;
					k.размерЭлтаМассива := size;
					(* w.String("SIZE = "); w.Int(size, 0); *)
					value := value + index * size;

					оит.объ := НУЛЬ;
					оит.адрВнутр := value;
					оит.mod := module;
					оит.refsOffset := смещТипаЭлтаМассиваNoVar;
					WriteAValue(k, оит, offsetMusor, истина, ложь, ложь) всё 
			иначе
				k.w.пСтроку8("NIL") всё
		иначе
			k.w.пСтроку8("(WriteZapisqVMassiveUsingStaticTypeBlock: UNKNOWN)") всё кон WriteZapisqVMassiveUsingStaticTypeBlock;

	проц пПредкаИСебя˛используяОИТ(перем k: KontekstPechati; конст оит: ОбъектИТип);
	перем HeapsStaticTypeBlock1: Heaps.StaticTypeBlock; 
	нач 
		(* k.w.String("пПредкаИСебя˛используяОИТ вход, refsOffset = "); k.w.Int(оит.refsOffset,0); *)
		HeapsStaticTypeBlock1 := ОИТЗаписиВStaticTypeBlock(k, оит);
		если HeapsStaticTypeBlock1 = НУЛЬ то
			k.w.пСтроку8("HeapsStaticTypeBlock = NIL"); возврат всё;
		pechPredokISebja(k, оит.mod, HeapsStaticTypeBlock1, АдресИзОбъектИТип(оит));
	кон пПредкаИСебя˛используяОИТ;


	проц pechPredokISebja(перем k: KontekstPechati; module : Modules.Module; typeAdr1 : Heaps.StaticTypeBlock; value: адресВПамяти);

		проц pechPredokISebjaVnutr(typeAdr2 : Heaps.StaticTypeBlock);
		перем predok : Heaps.StaticTypeBlock; offset4 : размерМЗ; typeDesc2: Modules.TypeDesc;  
		нач
			НайдиПредкаPoStaticTypeDesc(typeAdr2,predok); 
			если predok # НУЛЬ то
				pechPredokISebjaVnutr(predok) всё;
			если ~CheckHeapAddress(НИЗКОУР.подмениТипЗначения(адресВПамяти,typeAdr2)) то
				k.w.пСтроку8("pechPredokISebja: typeAdr ne v kuche");
				возврат всё;
			ThisTypeByAdr(typeAdr2, module, typeDesc2);
			если module = НУЛЬ то
				k.w.пСтроку8("{pechPredokISebja: type not found}");
				возврат всё;
			если typeDesc2 = НУЛЬ то
				k.w.пСтроку8("{pechPredokISebja: typeDesc = NIL}");
				возврат всё;
			offset4 := typeDesc2.refsOffset;
			WriteScopeByTypeDecl(k, module, offset4, value, истина, истина);
		кон pechPredokISebjaVnutr;

	нач 
		k.w.пСтроку8("{");	увел(k.текГлубина);
		pechPredokISebjaVnutr(typeAdr1);
		k.w.пСтроку8("}"); увел(k.текГлубина, -1); кон pechPredokISebja;

	(* Код ошибки: 0 - ок, 1 - объект не на куче, 2 - тип не на куче, 3 - тип не найден *)
	проц УкльНаЗаписьВОИТ(k: KontekstPechati(* не нужен *); вх: динамическиТипизированныйУкль; перем вых: ОбъектИТип) : цел16;
	перем addressOfTheRecord: адресВПамяти; heapsRecordBlock : Heaps.RecordBlock;
	    typeAdr : Heaps.StaticTypeBlock; 
	    
	    проц СотриВсё;
	    нач вых.объ := НУЛЬ; вых.адрВнутр := 0;
	    вых.mod := НУЛЬ; вых.refsOffset := 0 кон СотриВсё;
	    
	нач
		СотриВсё;
		addressOfTheRecord := НИЗКОУР.подмениТипЗначения(адресВПамяти, вх);
		если addressOfTheRecord = 0 то
			возврат 0
		аесли ~CheckHeapAddress(addressOfTheRecord) то
			возврат 1 всё;
		heapsRecordBlock := НИЗКОУР.подмениТипЗначения(Heaps.RecordBlock, вх);
		typeAdr := heapsRecordBlock.typeDesc;
		возврат АдресЗаписиИHeapsStaticTypeBlockВRecordTypeDeclOffset(k, вх, addressOfTheRecord, typeAdr, вых) кон УкльНаЗаписьВОИТ;
		
	проц АдресЗаписиИHeapsStaticTypeBlockВRecordTypeDeclOffset(k: KontekstPechati; вх: динамическиТипизированныйУкль; addressOfTheRecord: адресВПамяти; typeAdr: Heaps.StaticTypeBlock; 
			перем вых: ОбъектИТип) : цел16;
	перем typeDesc1 : Modules.TypeDesc;

	    проц СотриВсё;
	    нач вых.объ := НУЛЬ; вых.адрВнутр := 0;
	    вых.mod := НУЛЬ; вых.refsOffset := 0 кон СотриВсё;

	нач
		если ~CheckHeapAddress(НИЗКОУР.подмениТипЗначения(адресВПамяти,typeAdr)) то
			возврат 2 всё;
		ThisTypeByAdr(typeAdr, вых.mod, typeDesc1);
		если вых.mod = НУЛЬ то
			СотриВсё;
			возврат 3 всё;
		если вх = НУЛЬ то вых.адрВнутр := addressOfTheRecord иначе вых.объ := вх всё;
		вых.refsOffset := typeDesc1.refsOffset;	
		(* k.w.String("АдресЗаписиИHeapsStaticTypeBlockВRecordTypeDeclOffset: refsOffset будет ");
		k.w.Int(вых.refsOffset,0); *)
		возврат 0 кон АдресЗаписиИHeapsStaticTypeBlockВRecordTypeDeclOffset;
		
	(* WriteZapisqUsingOffsetOfTypeDecl - вся печать записей проходит через эту точку.
		оит должен указывать на sfTypeDeclaration, но этого ещё надо добиться! *)
	проц WriteZapisqUsingOffsetOfTypeDecl(перем k: KontekstPechati; конст оит: ОбъектИТип; подавитьКонтрольЦиклов: булево; безСодержания: булево);
	перем имяТипа: Modules.Name; povtor : булево;
		w : Потоки.Писарь; резПОП : бцел8; 
	нач
		w := k.w;
		k.w.пСтроку8("[");

		(* Это впихнуть в печать заголовка IF оит.typeDesc1.name = "" THEN
					k.w.String("(ANONYMOUS-TYPE ");
					пАдресВПамяти(k, value, spa); k.w.String(")"); *)
					(* ПроверьСоответствиеМетаданныхЗаписи(k, module, typeDesc1.refsOffset, typeAdr); *)
		WriteZagolovokByTypeDecl(k, оит, ~подавитьКонтрольЦиклов, povtor, имяТипа);
		если безСодержания то
			k.w.пСтроку8("«свёрнут»");
		аесли ~povtor то
			если k.процедураОтладочнойПечати # НУЛЬ то
				резПОП := k.процедураОтладочнойПечати(k, оит, имяТипа);
				если резПОП = 2 то
					k.процедураОтладочнойПечати := НУЛЬ всё всё;
			если резПОП = 0 то (* нет процедуры или процедура не умеет это печатать *)
					пПредкаИСебя˛используяОИТ(k, оит) (* END *) всё всё;
		k.w.пСтроку8("]") кон WriteZapisqUsingOffsetOfTypeDecl;

	проц пАдресВПамяти(перем k : KontekstPechati; adr : адресВПамяти; перем spa : StatusPechatiAdresa);
	перем i:цел16; povtorno : булево;
	нач
		(* k.w.String("пАдресВПамяти govorit: "); *)
		если adr = 0 то
			(* Ne proverjaem povtornuju pechatq NIL *)
		аесли k.адресовУжеНапечатано = максРазныхАдресовМогуРазличить то
			povtorno := истина (* perepolnena tablica izvestnykh adresov *)
		иначе
			i := 0;
			нц
				если i > k.адресовУжеНапечатано - 1 то прервиЦикл всё;
				если adr = k.адресаУжеНапечатанные[i] то
					povtorno := истина; прервиЦикл всё;
				увел(i) кц всё;
		если ~povtorno то
			k.адресаУжеНапечатанные[k.адресовУжеНапечатано] := adr;
			увел(k.адресовУжеНапечатано) всё;
		если povtorno то
			k.w.пСтроку8("^")
		иначе
			k.w.пСтроку8("&") всё;
		(* k.w.String("Ик-4 "); *)
		k.w.пАдресВПамяти(adr);
		spa.povtorno := povtorno кон пАдресВПамяти;


	(* WriteZagolovokByTypeDecl печатает тип записи;
	   Смещение в оит должно показывать на sfTypeDeclaration.
	   защитаОтЦиклов определяет, будет ли адрес записи
	   печататься с защитой от циклов. В этом случае, если
	   запись уже была напечатана, в povtor будет возвращена истина.
	   Защиту от циклов нужно выключить, если печатается массив
	   элементов (не указателей), в противном случае надо её включить
	   и учитывать то, что она вернёт.
	    *)
	проц WriteZagolovokByTypeDecl*(перем k : KontekstPechati; конст оит: ОбъектИТип; 
		защитаОтЦиклов : булево; перем povtor : булево;	перем имяТипа : Modules.Name);
	перем w : Потоки.Писарь; offsetDljaPechati : цел32;
		spa : StatusPechatiAdresa; copyOffset : размерМЗ; typeInfoAdrMystery : адресВПамяти; unmystery : Heaps.StaticTypeBlock;
		value : адресВПамяти;
	нач
		povtor := ложь;
		имяТипа := "";
		w := k.w;
		value := АдресИзОбъектИТип(оит);
		(* w.Int(,1); w.String(":");
		w.String("TYPE "); *)
		offsetDljaPechati := оит.refsOffset;
		copyOffset := оит.refsOffset;
		если ~Expect(GetChar(оит.mod.refs, copyOffset) = sfTypeDeclaration) то
			w.пСтроку8("(WriteZagolovokByTypeDecl: refsOffset показывает не на sfTypeDeclaration: ");
			w.пЦел64(оит.refsOffset,0); w.пСтроку8(")");
			возврат всё;
		SkipSize(copyOffset);
		GetString(оит.mod.refs, copyOffset, имяТипа);
		(* такое название, потому что в описании sfTypeDeclaration непонятно, что такое typeInfo:ADR *)
		typeInfoAdrMystery := GetAddress(оит.mod.refs,  copyOffset);
		(* w.String("typeInfoAdrMystery = ");
		w.Address(typeInfoAdrMystery); *)
		unmystery := НИЗКОУР.подмениТипЗначения(Heaps.StaticTypeBlock, typeInfoAdrMystery);

		если защитаОтЦиклов то 
			пАдресВПамяти(k, value, spa);
			povtor := spa.povtorno;
		иначе 
			(* w.String("Ик-5 "); *)
			w.пАдресВПамяти(value) всё;

		w.пСтроку8(" ");
		w.пСтроку8(оит.mod.name); w.пСимв8("."); w.пСтроку8(имяТипа);
	кон WriteZagolovokByTypeDecl;




	(* constOffset dolzhen pokazyvatq na sfTypeDeclaration
	Если plosko, то не печатаем вокруг скобки и не увеличиваем глубину на время вывода переменных *)
	проц WriteScopeByTypeDecl*(перем k : KontekstPechati; mod : Modules.Module; constOffset : размерМЗ; 
		value : адресВПамяти; plosko : булево; неПечКомандыДляПростыхТипов : булево);
	перем typeDescAdr : цел32; w : Потоки.Писарь; offsetDljaPechati : цел32;
		spa : StatusPechatiAdresa; 

	нач
		w := k.w;
		(* w.Int(offset,1); w.String(":");
		w.String("TYPE "); *)
		offsetDljaPechati := constOffset;
		mod := mod;
		если ~Expect(GetChar(mod.refs, constOffset) = sfTypeDeclaration) то
			w.пСтроку8("(WriteScopeByTypeDecl: не показывает на sfTypeDeclaration");
			w.пЦел64(constOffset,0); w.пСтроку8(")");
			возврат всё;
		SkipSize(constOffset);
		SkipString(mod.refs, constOffset); (* имя типа *)

		typeDescAdr := GetAddress(mod.refs, constOffset);
		если mod.refs[constOffset] = sfScopeBegin то
			увел(k.текГлубина);
			если ~spa.povtorno то
				WriteScopeVarsForValue(k, mod, constOffset, value, plosko, неПечКомандыДляПростыхТипов)
			иначе
				w.пСтроку8("(WriteScopeByTypeDecl: Navernoe, ja dolzhen propustitq ScopeContents v refs, no kak?)"); w.пВК_ПС всё;
			увел(k.текГлубина, -1) всё;
		кон WriteScopeByTypeDecl;

	(* offset dolzhen pokazyvatq na sfScopeBegin.
	  plosko означает, что мы не окружаем печать скобками и не увеличиваем глубину - это нужно для печати
	  записей с предками *)
	проц WriteScopeVarsForValue*(перем k: KontekstPechati; mod: Modules.Module; перем offset: размерМЗ; 
		value: адресВПамяти; plosko : булево; неПечКомандыДляПростыхТипов: булево);
	перем w : Потоки.Писарь; refs : Modules.Bytes;
	нач
		w := k.w; refs := mod.refs;
		если ~Expect(GetChar(refs, offset) = sfScopeBegin) то возврат всё;
		если (k.пределГлубины # нетОграниченияГлубиныИлиДлины) и (k.текГлубина >= k.пределГлубины) то
			w.пСтроку8(" `..g..'"); w.пЦел64(k.текГлубина,0); w.пСтроку8(" "); возврат всё;
		(* w.Int(offset,1); *)
		если ~plosko то
			w.пСтроку8("{");	увел(k.текГлубина) всё;
		WriteVariables(k, mod, offset, value, "f ", неПечКомандыДляПростыхТипов);
		нцПока (refs[offset] = sfProcedure) делай (* Procedure *)
			OutputOffset(k, offset - 1, "sfProcedure");
			SkipProcedure(refs, offset);
		кц;
		нцПока (refs[offset] = sfTypeDeclaration) делай (* TypeDeclaration *)
			OutputOffset(k, offset - 1, "sfTypeDeclaration");
			Reflection.SkipTypeDeclaration(refs, offset);
		кц;
		если ~Expect(GetChar(refs, offset) = sfScopeEnd) то
			w.пСтроку8("(Error: ожидался конец области видимости)"); w.пВК_ПС; всё;
		если ~plosko то 
			w.пСтроку8("}"); увел(k.текГлубина, -1) всё;
	кон WriteScopeVarsForValue;

	(* Iz Reflection.WriteValue
	    Write value prints a value to w. adr is an address of a data. refs,offset is initially at the beginnig of value's type.
	    Does not add a whitespace after a value *)
	проц WriteAValue*(перем k: KontekstPechati; конст оит: ОбъектИТип; перем offset: размерМЗ; 
		подавитьКонтрольЦиклов: булево; неПечКомандыДляПростыхТипов: булево; отклПроверкуДопустимогоАдреса: булево);
	перем type: симв8; a: адресВПамяти; size, ofs, offsetIzTipaValue: размерМЗ; len: размерМЗ; w : Потоки.Писарь; refs : Modules.Bytes;
		addressOfTheRecord : адресВПамяти; mod: Modules.Module;  adr: адресВПамяти; оит2: ОбъектИТип;
		(* spa : StatusPechatiAdresa; *)
		
		проц пКомандуСм;
		нач
			если k.печКоманды то
				если отклПроверкуДопустимогоАдреса то
					w.пСтроку8("(к.Смд ")
				иначе
					w.пСтроку8("(к.См ") всё; 
				w.пАдресВПамяти(adr); w.пСтроку8(" "); 
				w.пСтроку8(mod.name);w.пСтроку8(":"); w.п16ричное(offsetIzTipaValue,0); w.пСтроку8("~)")
			всё кон пКомандуСм;
		
	нач
		mod := оит.mod;
		offset := оит.refsOffset;
		adr := АдресИзОбъектИТип(оит);
		
		w := k.w; refs := mod.refs;
		если ~отклПроверкуДопустимогоАдреса и ~OnHeapOrStack(adr, k.low, k.high) то
			Reflection.SkipType(refs, offset);
			w.пСтроку8("{WriteAValue: not-on-heap-or-stack "); w.пАдресВПамяти(adr); w.пСтроку8("}");
			возврат;
		всё;

		offsetIzTipaValue := offset;
		type := GetChar(refs, offset);
		если type = sfTypeIndirect то
			ofs := GetSize(refs, offset);
			оит2.адрВнутр := adr; оит2.объ := НУЛЬ;
			оит2.mod := mod;
			оит2.refsOffset := ofs;
			WriteAValue(k, оит2, ofs, ложь, неПечКомандыДляПростыхТипов, отклПроверкуДопустимогоАдреса);
		иначе
			просей type из
				sfTypeNone:
				w.пСтроку8("NONE");
			| sfTypePointerToRecord:
				пКомандуСм;
				НИЗКОУР.прочтиОбъектПоАдресу(adr, addressOfTheRecord);
				WritePointerToRecord(k, (*type , size, offset, *) addressOfTheRecord, ложь);
			| sfTypeANY, sfTypeOBJECT:
				пКомандуСм;
				НИЗКОУР.прочтиОбъектПоАдресу(adr, a);
				ПечВКонтекстеВнутр(k, НИЗКОУР.подмениТипЗначения(динамическиТипизированныйУкль, a), истина, ложь);
			| sfTypePointerToArray:
				пКомандуСм;
				оит2.адрВнутр := adr; оит2.объ := НУЛЬ;
				оит2.mod := mod;
				оит2.refsOffset := offset;
				WriteСТУкльНаМассивВнеш(k, оит2, offset);
			| sfTypeOpenArray:
				если (refs[offset] = sfTypeCHAR)  то (* ARRAY OF CHAR *)
					НИЗКОУР.прочтиОбъектПоАдресу(adr, a);
					если ~неПечКомандыДляПростыхТипов то пКомандуСм всё;
					WriteValueString(w, a, MaxString, k.low, k.high);
					Reflection.SkipType(refs, offset);
				аесли refs[offset] = sfTypeСимв32 то (* ARRAY OF симв32 *)
					НИЗКОУР.прочтиОбъектПоАдресу(adr, a);
					если ~неПечКомандыДляПростыхТипов то пКомандуСм всё;
					WriteUCS32StringJQ(w, a, MaxString, k.low, k.high);
					Reflection.SkipType(refs, offset);
				иначе
					пКомандуСм;
					w.пСтроку8("((OpenArray)");
					offset := offsetIzTipaValue;
					(* w.String("sobir vyzv пБолееСТ_массивВнеш; offset = "); w.Int(offset,0); w.Ln; *)
					(* WriteValueHexWords(k.w,adr,12); *)
					пБолееСТ_открытыйМассивВнеш(k, mod, adr, offset, истина);
					w.пСтроку8(")");
				всё;
			| sfTypeStaticArray:
				len := GetSize(refs, offset);
				если (refs[offset] = sfTypeCHAR) то (* ARRAY x OF CHAR *)
					если ~неПечКомандыДляПростыхТипов то пКомандуСм всё;
					WriteValueString(w, adr, len, k.low, k.high);
					Reflection.SkipType(refs, offset);
				аесли (refs[offset] = sfTypeСимв32) то (* ARRAY x OF Симв32 *)
					если ~неПечКомандыДляПростыхТипов то пКомандуСм всё;
					WriteUCS32StringJQ(w, adr, len, k.low, k.high);
					Reflection.SkipType(refs, offset);
				иначе
					пКомандуСм;
					offset := offsetIzTipaValue;
					(* w.String("sobir vyzv пБолееСТ_массивВнеш; offset = "); w.Int(offset,0); w.Ln; *)
					пБолееСТ_массивВнеш(k, mod, adr, offset, истина);
					(* w.String("posle vovv iz пБолееСТ_массивВнеш, offset = "); w.Int(offset,0); w.Ln; *)
					(* w.String("(Write value: Static Array (NO STRING))");
					HALT(3500); *)
				всё;
			| sfTypeDynamicArray:
				w.пСтроку8("... (DYNAMIC ARRAY)");
				Reflection.SkipType(refs, offset);
			| sfTypeMathOpenArray:
				w.пСтроку8("... (MATH OPEN ARRAY)");
				Reflection.SkipType(refs, offset);
			| sfTypeMathStaticArray:
				w.пСтроку8("... (MATH STATIC ARRAY)");
				SkipSize(offset); Reflection.SkipType(refs, offset);
			| sfTypeMathTensor:
				w.пСтроку8("...(MATH TENSOR)");
				Reflection.SkipType(refs, offset);
			| sfTypeRecord:
				(* w.String("«Write a value: sfTypeRecord»"); *)
				пКомандуСм;
				WriteRecord(k, mod, offset, adr, подавитьКонтрольЦиклов);
			| sfTypeProcedure:
				пКомандуСм;
				w.пСтроку8("(PROCEDURE)");
				нцПока refs[offset] = sfVariable делай Reflection.SkipVariable(refs, offset) кц;
				Reflection.SkipType(refs, offset);
			| sfTypeDelegate:
				пКомандуСм;
				w.пСтроку8("(DELEGATE)");
				нцПока refs[offset] = sfVariable делай Reflection.SkipVariable(refs, offset) кц;
				Reflection.SkipType(refs, offset);
			| sfTypePORT:
				если ~неПечКомандыДляПростыхТипов то пКомандуСм всё;
				WriteBasicValue(w, type, adr, size);
				SkipChar(offset);
			иначе
				если ~неПечКомандыДляПростыхТипов то пКомандуСм всё;
				WriteBasicValue(w, type, adr, size);
			всё;
			w.ПротолкниБуферВПоток;
		всё;
	кон WriteAValue;

	проц WriteVariable*(перем k : KontekstPechati; mod: Modules.Module; перем offset : размерМЗ;  
		base : адресВПамяти; prefiks : массив 3 из симв8; неПечКомандыДляПростыхТипов: булево; отклПроверкуДопустимогоАдреса : булево);
	перем name: Name;  adr: цел32;  prevScope: размерМЗ; c: симв8; w : Потоки.Писарь; refs : Modules.Bytes;
	spa : StatusPechatiAdresa; оит2 : ОбъектИТип;
	нач
		w := k.w; refs := mod.refs;
		если ~Expect(GetChar(refs, offset) = sfVariable) то
			w.пСтроку8("WriteVariable: not a variable!"); w.пВК_ПС; возврат всё;
		prevScope := GetSize(refs, offset);
		GetString(refs, offset, name);
		w.пВК_ПС; k.Отступ(0); w.пСтроку8(prefiks); w.пСтроку8(name); w.пСимв8(" ");
		c := GetChar(refs, offset); (* Seen in ReportVariable *)
		если c = sfRelative то
			OutputOffset(k, offset - 1, "sfRelative");
			adr := base + GetSize(refs, offset)
		аесли c = sfIndirect то
			OutputOffset(k, offset - 1, "sfIndirect");
			adr := base + GetSize(refs, offset);
			пАдресВПамяти(k, adr, spa); w.пСтроку8("->");
			если ~отклПроверкуДопустимогоАдреса и ~OnHeapOrStack(adr,k.low,k.high) то w.пСтроку8("(WriteVariable: Not-on-heap-or-stack)");
				Reflection.SkipType(refs,offset);
				возврат;
			всё;
			НИЗКОУР.прочтиОбъектПоАдресу(adr, adr);
		иначе (* absolute *)
			OutputOffset(k, offset - 1, "Hence absolute");
			adr := GetAddress(refs, offset);
		всё;
		увел(k.текГлубина);
		(* При печати Module.internal всё почему-то падает. Аппроксимируем (после перевода фильтр сломается) *)
		если (mod.name = "Modules") и (name = "internal") то
			w.пСтроку8("(почему-то не умею писать любое поле с именем 'internal' в модуле 'Modules')");
			Reflection.SkipType(refs, offset)
		иначе
			оит2.mod := mod;
			оит2.refsOffset := offset;
			оит2.объ := НУЛЬ;
			оит2.адрВнутр := adr;
			WriteAValue(k, оит2, offset, ложь, неПечКомандыДляПростыхТипов, отклПроверкуДопустимогоАдреса) всё;
		увел(k.текГлубина, -1);
	кон WriteVariable;

	(* write variables taking meta information from stream in stream at offset, potentially stored at base address
	 *)
	проц WriteVariables*(перем k: KontekstPechati; mod: Modules.Module; перем offset: размерМЗ; 
		base: адресВПамяти; prefiks : массив 3 из симв8; неПечКомандыДляПростыхТипов: булево );
	перем count: цел32; origMod : Modules.Module;
	нач
		origMod := mod;
		нцПока mod.refs[offset] = sfVariable делай
			OutputOffset(k, offset - 1, "sfVariable");
			(* k.w.Ln; k.Отступ( 0); *) WriteVariable(k, mod, offset, base, prefiks, неПечКомандыДляПростыхТипов, ложь );
			(*INC(count); *)
		кц;
		если count > 0 то k.w.пВК_ПС; Wait(k.w); всё;
	кон WriteVariables;

	(** service procedures *)

	(** Write the state of the specified module. *)
	проц ModuleState*(w: Потоки.Писарь; mod: Modules.Module);
	перем k : KontekstPechati;
	нач
		если mod = НУЛЬ то возврат всё;
		ZadajjKontekstPechatiPoUmolch(k);
		k.w := w;
		ModuleStateK(k, mod) кон ModuleState;

	проц OutputOffset(перем k : KontekstPechati; offset : размерМЗ; what : массив из симв8);
	нач
	(* k.w.Ln; k.w.String("@"); k.w.Int(offset,0); k.w.String(what); k.w.Ln; *) кон OutputOffset; 

	проц ModuleStateK(перем k : KontekstPechati; mod: Modules.Module);
	перем sokhrLow, sokhrHigh : адресВПамяти; offset: размерМЗ; w : Потоки.Писарь;
	нач
		sokhrLow := k.low; sokhrHigh := k.high;
		(* Dannye so steka ne interesujut *)
		k.low := 0;
		k.high := 0;
		offset := 0;
		w := k.w;

		w.пВК_ПС; k.Отступ( 0); w.пСтроку8("(SOSTOJANIE MODULJA '"); w.пСтроку8(mod.name); w.пСимв8("'"); Wait(w);
		если (GetChar(mod.refs, offset) = sfModule) то
			OutputOffset(k, offset - 1, "Module");
			SkipSize(offset);
			SkipString(mod.refs, offset);
			если (GetChar(mod.refs, offset) = sfScopeBegin) то
				увел(k.текГлубина);
				WriteVariables(k, mod, offset, 0, "g ", ложь);
				(* только для вывода размещения деклараций! *)
				нцПока (mod.refs[offset] = sfProcedure) делай (* Procedure *)
					OutputOffset(k, offset - 1, "sfProcedure");
					SkipProcedure(mod.refs, offset);
				кц;
				нцПока (mod.refs[offset] = sfTypeDeclaration) делай (* TypeDeclaration *)
					OutputOffset(k, offset - 1, "sfTypeDeclaration");
					Reflection.SkipTypeDeclaration(mod.refs, offset);
				кц;

		если ~Expect(GetChar(mod.refs, offset) = sfScopeEnd) то
			w.пСтроку8("(Error: ozhidalsja konec Scope)"); w.пВК_ПС; всё;
				
				
				
				увел(k.текГлубина, -1);
			всё всё;
		w.пСтроку8(")");

		(** Ehto anomalija - voobsshe-to my vyvodim Ln pered pechatqju *)
		w.пВК_ПС;
		k.low := sokhrLow; 	k.high := sokhrHigh;
		кон ModuleStateK;

	проц CheckBP(bp: адресВПамяти): адресВПамяти;
	перем n: адресВПамяти;
	нач
		если bp # НУЛЬ то
			НИЗКОУР.прочтиОбъектПоАдресу(bp, n);
			если нечётноеЛи¿(n) то увел(bp, размер16_от(адресВПамяти)) всё;
		всё;
		возврат bp;
	кон CheckBP;

	перем StackTraceBackСейчасВыполняется: целМЗ;

	(* StackTraceBack специально предназначена для печати стека при ошибках, и она защищена от повторного входа - 
	   во время её выполнения будет вызываться стандартная печать стека при ошибках *)
	проц StackTraceBack*(w: Потоки.Писарь; pc, bp: адресВПамяти; low,high: адресВПамяти; long, overflow: булево);
	перем защитаОтПовторногоВхода : булево;
	нач
		нач {единолично} 
			защитаОтПовторногоВхода := StackTraceBackСейчасВыполняется > 0;
			увел(StackTraceBackСейчасВыполняется) кон;
		если защитаОтПовторногоВхода то
			Reflection.StackTraceBack(w, pc, bp, low, high, long, overflow)
		иначе
			StackTraceBack2(w, pc, bp, low, high, long, overflow, 0, Reflection.MaxFrames + 1, пределГлубиныДляПечатиСтека) всё;
		нач {единолично} 
			увел(StackTraceBackСейчасВыполняется, -1) кон кон StackTraceBack;

	(* Display call trackback. *)
	проц StackTraceBack2*(w: Потоки.Писарь; pc, bp: адресВПамяти; low,high: адресВПамяти; long, overflow: булево; nach, vglubqNa : размерМЗ; пределГлубины : цел16);
	перем count,offset: размерМЗ; base: адресВПамяти; m: Modules.Module; k: KontekstPechati; pechPodrobno : булево;
		нач
		ZadajjKontekstPechatiPoUmolch(k);
		k.w := w;
		k.low := low;
		k.high := high;
		k.пределГлубины := пределГлубины;
		count := 0;	(* frame count *)
		w.пСтроку8("(StackTraceBack "); w.пЦел64(nach,0); w.пСтроку8(" "); w.пЦел64(vglubqNa,0);
		увел(k.текГлубина);
		нцДо
			(* IF (count >= nach) & ((vglubqNa = 0) OR ((count - nach) < vglubqNa)) THEN *)
			m := Modules.ThisModuleByAdr0(pc);
			если (ShowAllProcs или (m # НУЛЬ) или (count = 0)) и (bp # 0) и (bp >= low) и (bp < high) то
				pechPodrobno := (count >= nach) и ((vglubqNa = 0) или ((count - nach) < vglubqNa));
				w.пВК_ПС; k.Отступ( 0); w.пСтроку8("(KADR "); w.пЦел64(count,0); w.пСтроку8(" ");
				если CheckHeapAddress( pc ) то
					WriteProc0(k, m, pc, bp, offset, base); (* w.пВК_ПС; k.Отступ(0); *) Wait(w); w.ПротолкниБуферВПоток;
					если pechPodrobno и long и (~overflow или (count > 0)) то	(* show variables *)
						если offset >= 0 то
							увел(k.текГлубина);
							WriteVariables(k, m, offset, base, "l ",ложь);
							Reflection.SkipType(m.refs, offset);
							если Expect(GetChar(m.refs, offset) = sfScopeBegin) то
								WriteVariables(k, m, offset, base,"l ",ложь) всё;
							увел(k.текГлубина,-1) всё;
						если (m # НУЛЬ) и (base # m.sb) и (count = 0) то ModuleStateK(k, m) всё
					всё;
				иначе
					w.пСтроку8( "Unknown external procedure, pc = " );  w.пАдресВПамяти( pc );  w.пВК_ПС; Wait(w);
				всё;
				w.пСтроку8(")");
				bp := CheckBP(bp);
				НИЗКОУР.прочтиОбъектПоАдресу(bp + размер16_от(адресВПамяти), pc);	(* return addr from stack *)
				НИЗКОУР.прочтиОбъектПоАдресу(bp, bp);	(* follow dynamic link *)
				увел(count)
			иначе
				bp := 0
			всё;
		кцПри (bp = 0) или (count = MaxFrames);
		увел(k.текГлубина, -1);
		если bp # 0 то w.пСтроку8("...") всё
	кон StackTraceBack2;


	проц TraceBackThis*( w : Потоки.Писарь; eip, ebp: адресВПамяти; stacklow, stackhigh:цел32; nach, vglubqNa : размерМЗ );   (* do a stack trace back w.r.t. given instruction and frame pointers *)
	нач
		w.пВК_ПС;  StackTraceBack2( w, eip, ebp, stacklow, stackhigh, истина , ложь, nach, vglubqNa, пределГлубиныДляПечатиСтека);
		w.ПротолкниБуферВПоток;
	кон TraceBackThis;

	(* TraceBack pechataetq stek tekushego processa. nach - recomenduetsja nachinatq s 1, t.k. inache vyvedetsja neinteresnyjj sluzhebnyjj kadr.
	    TraceBack(1,1) vyvedetq localqnye peremennye tekushejj procedury *)
	проц TraceBack*(w : Потоки.Писарь; nach, vglubqNa: размерМЗ);   (* do a stack trace back starting at the calling instruction position *)
	нач
		TraceBackThis( w, ЭВМ.ТекСчётчикКоманд(), НИЗКОУР.GetFramePointer(), НИЗКОУР.GetStackPointer(), Objects.GetStackBottom(Objects.CurrentProcess()), nach, vglubqNa );
		w.ПротолкниБуферВПоток;
	кон TraceBack;


	(** Write a process's state in one line. *)
	проц WriteProcess*(w: Потоки.Писарь; p: Objects.Process);
	перем adr: адресВПамяти; mode: цел32; m: Modules.Module; oHeapBlock, waitingOnHeapBlock : Heaps.HeapBlock;
	нач
		если p # НУЛЬ то
			w.пЦел64(p.id, 5);
			mode := p.mode;
			если (mode >= Objects.Ready) и (mode <= Objects.Terminated) то
				adr := (mode-Objects.Ready)*4;
				нцДля adr := adr до adr+3 делай w.пСимв8(modes[adr]) кц
			иначе
				w.пСимв8(" "); w.пЦел64(mode, 1)
			всё;
			w.пЦел64(p.procID, 2);
			w.пЦел64(p.priority, 2);
			w.ПротолкниБуферВПоток;
			w.пАдресВПамяти (НИЗКОУР.подмениТипЗначения(адресВПамяти, p.obj));
			
			oHeapBlock := НИЗКОУР.подмениТипЗначения(Heaps.HeapBlock, p.obj);
			
			если p.obj # НУЛЬ то
				w.пСимв8(":"); WriteDynamicTypeByTypeDescAdr(w, oHeapBlock.typeDesc)
			всё;
			w.ПротолкниБуферВПоток;
			w.пСимв8(" "); Reflection.WriteProc(w, p.state.PC);
			если p.mode = Objects.AwaitingLock то
				
				waitingOnHeapBlock := НИЗКОУР.подмениТипЗначения(Heaps.HeapBlock, p.waitingOn);
				w.пАдресВПамяти (НИЗКОУР.подмениТипЗначения(адресВПамяти, p.waitingOn));
				w.ПротолкниБуферВПоток;
				если waitingOnHeapBlock # НУЛЬ то	(* can be NIL when snapshot is taken *)
					adr := НИЗКОУР.подмениТипЗначения(адресВПамяти, waitingOnHeapBlock.typeDesc); 
					если adr = НИЗКОУР.дайМетаданныеВремениВыполненияДляТипа(Modules.Module) то
						w.пСимв8("-");
						m := НИЗКОУР.подмениТипЗначения(Modules.Module, waitingOnHeapBlock);
						w.пСтроку8(m.name)
					иначе
						w.пСимв8(":"); WriteDynamicTypeByTypeDescAdr(w, waitingOnHeapBlock.typeDesc)
					всё;
					w.ПротолкниБуферВПоток;
				всё
			аесли p.mode = Objects.AwaitingCond то
				w.пСимв8(" "); Reflection.WriteProc(w, НИЗКОУР.подмениТипЗначения(адресВПамяти, p.condition));
				w.пАдресВПамяти (p.condFP)
			всё;
			w.пСимв8(" "); w.пМнвоНаБитахМЗ(p.flags)
		всё
	кон WriteProcess;

	(* for interface compatibility *)
	проц GetVariableAdr*(fp, pc: адресВПамяти; конст name: массив из симв8): размерМЗ;
	нач
		возврат -1;
	кон GetVariableAdr;

	проц GetProcedureName*(pc: адресВПамяти; перем name: массив из симв8; перем startpc: адресВПамяти);
	перем m: Modules.Module; offset: размерМЗ;
	нач
		name := "";
		m := Modules.ThisModuleByAdr0(pc);
		если m # НУЛЬ то
			offset := Reflection.FindByAdr(m.refs,0,pc);
			если offset >= 0 то
				GetFullName(m.refs, offset, name);
				если GetChar(m.refs, offset) = sfProcedure то
					SkipSize(offset);
					SkipString(m.refs,offset);
					startpc := GetAddress(m.refs, offset);
				всё;
			всё;
		всё;
	кон GetProcedureName;

тип
	Variable* = запись
		adr-: адресВПамяти;
		type-, size-, n-, tdadr-: цел32
	кон;

	проц SkipProcedure(refs: Modules.Bytes; перем offset: размерМЗ);
	перем start, end: цел32;  flags: мнвоНаБитахМЗ;
	нач
		если ~Expect(GetChar(refs, offset) = sfProcedure) то возврат всё;
		Reflection.SkipSize(offset);
		Reflection.SkipString(refs, offset);
		start := GetAddress(refs, offset);
		end := GetAddress(refs, offset);
		flags := GetSet(refs, offset);
		нцПока refs[offset] = sfVariable делай
			Reflection.SkipVariable(refs, offset);
		кц;
		Reflection.SkipType(refs, offset);
		Reflection.SkipScope(refs, offset);
	кон SkipProcedure;

	проц PechTypeInfo*(o : Потоки.Писарь; std : Heaps.TypeInfo);
	нач
		o.пСтроку8("#Heaps.TypeInfoDesc(:descSize "); o.пЦел64(std.descSize, 0); o.пВК_ПС;
		o.пСтроку8("     :tag "); o.пАдресВПамяти(std.tag); o.пВК_ПС;
		o.пСтроку8("     :flags "); o.пМнвоНаБитахМЗ(std.flags); o.пВК_ПС;
		o.пСтроку8("     :mod "); o.пАдресВПамяти(std.mod); o.пВК_ПС;
		o.пСтроку8("     :name """); o.пСтроку8(std.name); o.пСтроку8(""")"); кон PechTypeInfo;

	проц PechStaticTypeDesc*(o : Потоки.Писарь; std : Heaps.StaticTypeBlock);
	перем i : размерМЗ;
	нач
		если std = НУЛЬ то
			o.пСтроку8("NIL (StaticTypeDesc)"); o.пВК_ПС; возврат всё;
		o.пСтроку8("#Heaps.StaticTypeDesc(:info {");
		PechTypeInfo(o, std.info);
		o.пСтроку8("} :recSize "); o.пЦел64(std.recSize, 0);
		o.пСтроку8(" :pointerOffsetsLength ");
		o.пЦел64(длинаМассива(std.pointerOffsets),0);
		o.пСтроку8(" :pointerOffsets {");
		нцДля i := 0 до длинаМассива(std.pointerOffsets) - 1 делай
			если i > 0 то o.пСтроку8(" ") всё;
			o.пЦел64(std.pointerOffsets[i],0) кц;
		o.пСтроку8("})");
		o.пВК_ПС;
	кон PechStaticTypeDesc;

(**Retrieve a procedure address given a module name, the procedure name *)
(* This hack for make hook and restore ExceptionHandler*)
(* 		Procedure = sfProcedure prevSymbolOffset:SIZE name:String start:ADR end:ADR flags:SET {parameter:Variable} returnType:Type Scope.

 Эта процедура почти нигде не используется, поэтому поставим требование, чтобы
 идентификаторы были на выбранном языке, согласно ПереводыЭлементовКода.НеАнглийскийИдентификатор. 

 См. также Modules.GetProcedure - там аккуратно дожидаемся загрузки модуля с крайним
 сроком и обрабатываем переводы. 
 
*)
проц ДайПроцПоИменамМодИПроц*(конст moduleName, procedureName : массив из симв8; язык: ВариантыПеревода; перем entryAdr : адресВПамяти);
перем
	mod : Modules.Module; aMsg : массив 4096 из симв8;
	(* m, i, j, ofs, t, *) res : цел32;
	(* ch:CHAR;
	n: ARRAY 64 OF CHAR; *)
	(* from(* , to *): ADDRESS; *)
	start, end : адресВПамяти;
	refs : Modules.Bytes;
	offset: размерМЗ;
	(* Get a compressed refblk number. *)
нач
	entryAdr:=НУЛЬ;
	если язык # ВариантыПеревода.Unknown то
		утв(ПереводыЭлементовКода.НеАнглийскийИдентификатор(moduleName) = (язык = ВариантыПеревода.Русский));
		утв(ПереводыЭлементовКода.НеАнглийскийИдентификатор(procedureName) = (язык = ВариантыПеревода.Русский)) всё;
	mod := Modules.ThisModule(moduleName, res, aMsg);
	если res # 0 то
		ЛогЯдра.пСтроку8("«МетаПечать.ДайПроцПоИменамМодИПроц: Провал ThisModule. Код = ");
		ЛогЯдра.пЦел64(res, 0); ЛогЯдра.пСтроку8("; ");
		если aMsg # "" то
			ЛогЯдра.пСтроку8(aMsg) всё;
		ЛогЯдра.пСтроку8("»"); ЛогЯдра.пВК_ПС;
		возврат всё;

	refs := mod.refs;
	offset := Reflection.FindByName(refs, 0, procedureName, ложь);
	если offset = -1 то
		если Трассировать то
			ЛогЯдра.пСтроку8("МетаПечать.ДайПроцПоИменамМодИПроц неудачна"); 
			ЛогЯдра.пВК_ПС всё; 
		возврат всё;

	(** Kopija is (Generic.Reflection).FindInProcedure *)
	утв(Expect(GetChar(refs, offset) = sfProcedure));
	SkipSize(offset);
	Reflection.SkipString(refs, offset);
	start := GetAddress(refs, offset);
	end := GetAddress(refs, offset);
	entryAdr := start; (* Ojj li? *)

	если Трассировать то
		ЛогЯдра.пСтроку8("Offset is "); ЛогЯдра.пЦел64(offset, 0); ЛогЯдра.пВК_ПС всё;

	если (entryAdr # НУЛЬ) и Трассировать то
		ЛогЯдра.пСтроку8("GetProcedure success: ");
		ЛогЯдра.пСтроку8(procedureName);
		ЛогЯдра.пСтроку8(" entryAddr = ");
		ЛогЯдра.пАдресВПамяти(entryAdr);
		ЛогЯдра.пВК_ПС всё;
кон ДайПроцПоИменамМодИПроц;


тип АргументПроцедуры«НапечатайДляСм»* = запись
	adres*: адресВПамяти; offset*: размерМЗ; п* : Потоки.Писарь; mod* : Modules.Module; отклПроверкуАдреса*: булево кон;

(* Собственно печать подробностей, ради которых нужны команды к.См и к.Смд *)
проц НапечатайДляСм*(арг:АргументПроцедуры«НапечатайДляСм»);
перем оит: ОбъектИТип;
перем k : KontekstPechati; мусор: размерМЗ;
нач
	ZadajjKontekstPechatiPoUmolch(k);
	оит.адрВнутр := арг.adres;
	оит.refsOffset := арг.offset;
	оит.mod := арг.mod;
	k.w := арг.п;
	арг.п.пВК_ПС; арг.п.пСтроку8("========="); арг.п.пВК_ПС;
	WriteAValue(k, оит, мусор, истина, истина, арг.отклПроверкуАдреса) кон НапечатайДляСм;

нач
	(* TrapWriters.StackTraceBackProcVar := StackTraceBack; *)
	утв(размерОт UCS32.CharJQ = размерОт бцел32); (* См. WriteUCS32StringJQ *)
	modes := " rdy run awl awc awe rip";   (* 4 characters per mode from Objects.Ready to Objects.Terminated *)
	пределГлубиныДляПечатиСтека := 2;
	процедураОтладочнойПечатиПоУмолчанию := НУЛЬ;
	Трассировать := ложь;
кон PodrobnajaPechatq.

Ручные тесты см. в TestPodrobnajaPechatq.Mod



