модуль ReaderSchitUTF8LF; 
(* См. также ЧтецЮникода2 *)
(* ReaderSchitUTF8LF.ТестЧСООиЧЮО1 ~ *)
использует Потоки, ЛогЯдра, UTF8Strings, UCS32;

конст 	
	DefaultReaderSize = 4096;
	CR = 0DX; (* LF = 0AX; *)


(** ЧтецЮникодаОбёртка считает Pos не по байтам, а по кодовым точкам UTF8, при чтении пропускает символы CR. Особенности:

* такое чтение Pos вообще-то неправильное - оно нарушает смысл процедуры Pos. Нужно вместо него завести отдельный интерфейс к 
позиции в символах, какой-нибудь ПозЮ. Однако заняться этим некогда. 
* реализована Peek(), которая ведёт себя хорошо, т.е. не читает из потока
* также реализована аналог Peek() для UTF8 - ПодглядиUCS32 (плохое название, на самом-то деле, оно подглядывает символ в кодировке UTF-8). 
При таком «подглядывании» на самом деле всегда читается буфер. Т.е. программы, закладывающиеся на особенность Peek, могут сломаться при переводе 
с Peek на ПогдлядиUCS32. 
* данный класс используется в разборе опций команд, компиляторе и лексере XML, поэтому любая серьёзная ошибка в нём сделает систему
полностью нерабочей. Для экспериментов делайте временные копии. В чёрной консоли (Shell.Mod) он не используется. 
Как это всё вместе работает - я не понимаю. Потому что кажется неработающим подходом создавать ЧтецЮникодаОбёртку для потока, из которого
уже начато чтение, и потом продолжать читать из потока-донора даже после завершения работы ЧтецаЮникодаˉобёртки: часть информации
может оказаться уже буферизована в обёртке и при переключении от обёртки обратно к донору эта информация может просто пропасть. На практике
этого вроде бы не наблюдается, но неясно, почему. *)

тип
	ЧтецЮникодаОбёртка* = окласс (Потоки.Чтец)	(** not sharable between multiple processes *)
	перем
		донор : Потоки.Чтец;
		pozVLiterakh- : размерМЗ; (** skolqko UTF8 junikodnykh bukv prochli, ne schitaja CR *)
		
		UTF8Bytes : массив 7 из симв8;
		UTF8BytesIndex : размерМЗ;
		Трассировать*: булево;
		
		проц Receive(перем buf: массив из симв8; ofs, size, min: размерМЗ; перем len: размерМЗ; перем rez: целМЗ);
		нач
 			донор.чБайты(buf, ofs, size, len);
 			кодВозвратаПоследнейОперации := донор.кодВозвратаПоследнейОперации;
 			если Трассировать то 
	 			ЛогЯдра.пСтроку8("ЧтецЮникодаОбёртка.Receive: "); ЛогЯдра.пСтроку8(buf); 
	 			ЛогЯдра.пСтроку8(" "); ЛогЯдра.пРазмерМЗ(size);
	 			ЛогЯдра.пСтроку8(" "); ЛогЯдра.пРазмерМЗ(min);
	 			ЛогЯдра.пСтроку8(" "); ЛогЯдра.пРазмерМЗ(len); ЛогЯдра.пВК_ПС всё;
			если len >= 1 то rez := Потоки.Успех иначе rez := Потоки.КонецФайла (* end of file *) всё кон Receive;

		проц {перекрыта}можноЛиПерейтиКМестуВПотоке¿*() : булево;
		нач возврат донор.можноЛиПерейтиКМестуВПотоке¿() кон можноЛиПерейтиКМестуВПотоке¿;

		(* Procedure SetPos ochenq medlennaja, t.k. perechityvaet potok s nachala!!! 
		Ona nuzhna nam dlja diagnostiki, sm. FoxScanner.Mod/Scanner.Error
		Alternativa - khranitq kartu sootvetstvija mezhdu Pos i pozVLiterakh, poka potok zhiv *)
		проц {перекрыта}ПерейдиКМестуВПотоке*(Position : Потоки.ТипМестоВПотоке); 
		перем ch : симв8;
		нач
		утв(донор.можноЛиПерейтиКМестуВПотоке¿());
		если Трассировать то трассируй("вход в SetPos") всё;
		донор.ПерейдиКМестуВПотоке(0); кодВозвратаПоследнейОперации := донор.кодВозвратаПоследнейОперации; pozVLiterakh := 0;
		UTF8BytesIndex := 0; 
		UTF8Bytes[UTF8BytesIndex] := 0X;
		нц
			если МестоВПотоке() >= Position то прервиЦикл всё;
			чСимв8(ch);
			кодВозвратаПоследнейОперации := донор.кодВозвратаПоследнейОперации;
			если ch = 0X то прервиЦикл всё; (* Не удалось поставить на нужное место *) 
		кц кон ПерейдиКМестуВПотоке;

		(* Pos schitaet po junikodnym bukvam. Poehtomu on ne vozrastaet pri chtenii chastejj UTF8-bukvy, 
		   i mozhet rasti skachkami. Ehto ochen opasno :( *)
		проц {перекрыта}МестоВПотоке*() : Потоки.ТипМестоВПотоке;
		перем rez : Потоки.ТипМестоВПотоке; (* i : SIZE; *)
		нач 
			(* rez := донор.Pos();
			i := UTF8BytesIndex;
			WHILE UTF8Bytes[i] # 0X DO
				INC(rez, -1);
				INC(i) END; *)
			rez := pozVLiterakh;
			возврат rez кон МестоВПотоке;
			
		(* читаем символ UTF8 из потока и помещаем в свой буфер, а её код записываем
				в переменную cur. В частности, из-за того, что ЗагрузиСимволUTF8 вызывается из 
				Peek, в реальности Peek может смотреть вперёд более чем на один байт. *)	
		проц ЗагрузиСимволUTF8(перем успех: булево; перем cur: UCS32.CharJQ);
		перем i : размерМЗ; vsegdaPravda : булево; 
		нач
			cur := UCS32.IntToCharJQ(UCS32.KodEot);
			UTF8BytesIndex := 0;
			UTF8Bytes[0] := 0X;
			i := 0;
			успех := донор.чЮ8(cur);
			если Трассировать то
				трассируй(cur.UCS32CharCode,успех) всё;
			если ~успех то
				(* это ошибка чтения. cur не прочиталась. Мы теряем то,
				с чего началась последняя кодовая точка *)
				кодВозвратаПоследнейОперации := донор.кодВозвратаПоследнейОперации;
				возврат
			аесли (cur.UCS32CharCode = UCS32.KodEot) и (донор.кодВозвратаПоследнейОперации = Потоки.КонецФайла) то
				(* конец файла, ничего не загрузим уже. Конец 
					файла определяется условием пустоты буфера и (донор.res = Streams.EOF).
					Однако Peek за концом файла не устанавливает EOF, а возвращает символ 0 *)
				кодВозвратаПоследнейОперации := Потоки.Успех;
				возврат;
			(* аесли cur = UCS32.ReplacementChar то
				res := Streams.Ok;
				UTF8Bytes[0] := '?';
				UTF8Bytes[1] := 0X; *)
			иначе
				i := 0;
				кодВозвратаПоследнейОперации := Потоки.Успех;
				vsegdaPravda := UTF8Strings.EncodeChar(cur, UTF8Bytes, i);
				утв(vsegdaPravda) всё; 
			(* не очень хорошо, что мы сейчас увеличиваем позицию, 
			 	т.к. мы можем находиться внутри Peek. Но неохота усложнять логику *)
			если cur.UCS32CharCode # кодСимв8(CR) то
				увел(pozVLiterakh) всё кон ЗагрузиСимволUTF8;			


		(* Возвращает символ из текущего буфера донору. 
			Аргумент - это предыдущий символ UCS32, к-рую нужно было сохранить. 
			Опять же, подорвёмся, если в потоке будет символ с кодом 0 *)	
		проц ОтдайСимволUTF8Обратно(старая: симв32);
		нач
			(** должны быть не посреди символа *)
			утв((UTF8BytesIndex = 0) или (UTF8Bytes[UTF8BytesIndex] = 0X));
			если (кодСимв32(старая) # кодСимв8(CR)) и (кодСимв32(старая) # 0)  то
				увел(pozVLiterakh, -1) всё;
			если кодСимв32(старая) # UCS32.KodEot то
				донор.ЗабериUTF8Обратно(старая) всё;
			UTF8BytesIndex := 0;
			UTF8Bytes[0] := 0X;
			кодВозвратаПоследнейОперации := Потоки.Успех кон ОтдайСимволUTF8Обратно;			

		(** Мы надеемся, что всё чтение текста идёт через Char и Get. Смелые мы! *)
		проц {перекрыта}чСимв8*( перем x: симв8 );
		перем успех : булево; мусор: UCS32.CharJQ;
		нач
			если Трассировать то
				трассируй("вход") всё;
			если UTF8Bytes[UTF8BytesIndex] = 0X то
				ЗагрузиСимволUTF8(успех,мусор);
				если ~успех то
					x := 0X; (* Произошла ошибка чтения и мы ничего не прочитали (даже 
						не прочитали символ-заместитель. Буфер байтов остался пустым.
						Вернём символ 0, т.к. ничего осмысленного вернуть всё равно не выйдет. 
						Со статусом пусть	вызывающая сторона разбирается *)
					возврат всё всё;
			x := UTF8Bytes[UTF8BytesIndex];
			если x # 0X то
				увел(UTF8BytesIndex);
				кодВозвратаПоследнейОперации := Потоки.Успех;
				возврат;
			(* 0X - или конец файла, или аномалия. Проверим по статусу потока *)
			аесли донор.кодВозвратаПоследнейОперации = Потоки.КонецФайла то
				(* читать нечего - дошли до конца потока. Скажем клиенту *)
				кодВозвратаПоследнейОперации := Потоки.КонецФайла;
				возврат
			иначе (* это что-то странное. Вернём 0, и при следующем вызове попробуем
				прочитать ещё что-нибудь *)
				возврат всё кон чСимв8;

	(** Like Read, but return result. Return 0X if no success (e.g. file ended) *)
		проц {перекрыта}чИДайСимв8*( ): симв8;
		перем x : симв8;
		нач
			сам.чСимв8(x);
			возврат x кон чИДайСимв8;
			
		(* Реально читает поток, но может использоваться теми клиентами, которые
			используют Reader.Peek, при их переводе на UCS32 *)
		проц ПодглядиUCS32*() : UCS32.CharJQ;
		перем успех : булево; рез_л : UCS32.CharJQ; cur : UCS32.CharJQ; 
			ч : размерМЗ; Ц32 : симв32;
		нач
			если UTF8Bytes[UTF8BytesIndex] = 0X то
				(* прочитали ровно юникодную символ, теперь надо загрузить новую *)
				если Трассировать то трассируй("в конце символа") всё;
				ЗагрузиСимволUTF8(успех,cur);
				(* бла-бла-бла *)
				если ~успех то
					(* прочитали сколько-то байт и потом чтение вернуло ошибку. 
						По-хорошему, надо бы вернуть прочитанные байты, но мы 
						этого не делаем *)
					возврат UCS32.IntToCharJQ(UCS32.KodEot)
				иначе
					рез_л := cur;
					ОтдайСимволUTF8Обратно(cur);
					возврат рез_л; всё
			аесли UTF8BytesIndex = 0 то (* по построению, в буфере что-то есть *)
				если Трассировать то трассируй("в буфере уже что-то есть") всё;
				ч := UTF8BytesIndex;
				утв(UTF8Strings.DecodeChar(UTF8Bytes,ч,Ц32));
				возврат Ц32
			иначе
				СТОП(43534) всё ; (* не находимся на границе юникодного символа *)
		кон ПодглядиUCS32;
		

		(** Peek у нас реально читает поток. Можно было бы за счёт усложнения 
		логики без этого обойтись, но пока вроде без нужды, т.к. данная обёртка
		служит для случаев компиляции файлов, когда нужно считать позицию в файле,
		а не для интерактивного ввода-вывода. *)
		проц {перекрыта}ПодглядиСимв8*() : симв8;
		перем rez : симв8;
		нач
			rez := UTF8Bytes[UTF8BytesIndex];
			если rez # 0X то (* здесь мы подорвёмся, если в 
					потоке попадётся буква с кодом 0 *)
				кодВозвратаПоследнейОперации := Потоки.Успех;
				если Трассировать то
					трассируй("из_буфера", rez);
					(* HALT(8880) *) всё;
				возврат rez всё;
			(* если мы дошли сюда, то буфера с прочитанной UTF8 литерой 
				у нас нет. Но он нам и не нужен, поэтому делегируем вызов донору *)
			rez := донор.ПодглядиСимв8();
			кодВозвратаПоследнейОперации := донор.кодВозвратаПоследнейОперации;
			возврат rez кон ПодглядиСимв8;
		
		проц {перекрыта}ЗапасиБайтыИзПотокаВБуфереИДайИхКоличество*() : размерМЗ;
		перем резЛок : размерМЗ;
		нач резЛок := донор.ЗапасиБайтыИзПотокаВБуфереИДайИхКоличество();
			кодВозвратаПоследнейОперации := донор.кодВозвратаПоследнейОперации;
			если Трассировать то
				трассируй(резЛок) всё;
			возврат резЛок кон ЗапасиБайтыИзПотокаВБуфереИДайИхКоличество;
			
		проц &новЧтецЮникодаОбёртка*(iDonor : Потоки.Чтец);
		нач
			утв(iDonor # НУЛЬ);
			утв(iDonor.МестоВПотоке() = 0);
			сам.донор := iDonor;
			новЧтец(сам.Receive, DefaultReaderSize) кон новЧтецЮникодаОбёртка;

		(* проц UTF8LCPos() : SIZE; тело возврат pozVLiterakh кн UTF8LCPos; *)

	кон ЧтецЮникодаОбёртка;
	

	(* ПисаряЮникода содержит отдельно обычную позицию и отдельное поле «поз˛символовЮникода» - 
		в отличие от типа ЧтецЮникодаОбёртка *)
	ПисарьЮникодаОбёртка* = окласс(Потоки.Писарь)
	перем
		донор- : Потоки.Писарь;
		поз˛символовЮникода- : размерМЗ; (** сколько записали юникодных литер, не считая ВК *)
		
		проц СамНичегоНеОтправляй( конст буфер: массив из симв8;  начальноеСмещениеВБуфере˛байт, сколькоБайтЗаписать: размерМЗ;  propagate: булево;  перем кодВозврата: целМЗ );
		нач
			СТОП( 1245 ) кон СамНичегоНеОтправляй;
		
		проц &новПисарьЮникодаОбёртка*(iDonor : Потоки.Писарь);
		нач
			утв(iDonor # НУЛЬ);
			утв(iDonor.МестоВПотоке() = 0);
			сам.донор := iDonor;
			новПисарь(сам.СамНичегоНеОтправляй, 1); 
			кон новПисарьЮникодаОбёртка;
		
		проц {перекрыта}Сбрось*;
		нач
			донор.Сбрось;
			поз˛символовЮникода := 0;
		кон Сбрось;

		проц {перекрыта}можноЛиПерейтиКМестуВПотоке¿*( ): булево;
		нач
			возврат ложь
		кон можноЛиПерейтиКМестуВПотоке¿;

		проц {перекрыта}ПерейдиКМестуВПотоке*( место: Потоки.ТипМестоВПотоке );
		нач
			СТОП( 1234 )
		кон ПерейдиКМестуВПотоке;

		проц {перекрыта}ПротолкниБуферВПоток*;
		нач
			донор.ПротолкниБуферВПоток;
		кон ПротолкниБуферВПоток;

		проц {перекрыта}МестоВПотоке*( ): Потоки.ТипМестоВПотоке;
		нач
			возврат донор.МестоВПотоке() кон МестоВПотоке;

		(* при отсутствии успеха позиция не сдвинется вообще *)
		проц УстановиУспехИСдвиньПозицию(записаноЛитерПриУспехе: размерМЗ);
		нач
			кодВозвратаПоследнейОперации := донор.кодВозвратаПоследнейОперации;
			если кодВозвратаПоследнейОперации = Потоки.Успех то
				увел(поз˛символовЮникода, записаноЛитерПриУспехе) всё кон УстановиУспехИСдвиньПозицию;


	(** Вывод байта. Разрешаем вывод только ASCII (с кодом < 128), поскольку это всегда один символ в кодировке UTF8 . Однако
		запрещаем вывод вывод символаВК и символа с кодом 0 *)
		проц {перекрыта}пСимв8*( с: симв8 );
		перем сдвиг : цел32;
		нач
			утв((кодСимв8(с)< 128));
			донор.пСимв8(с);
			если (с # Потоки.симв8_ВК) то сдвиг := 1 всё;
			УстановиУспехИСдвиньПозицию(сдвиг) кон пСимв8;

		проц {перекрыта}пБайты*(конст x: массив из симв8;  ofs, len: размерМЗ );
		нач
			СТОП( 1234 ); (* не хотим! *) 
		кон пБайты;

		(* пЦел8_мз, пЦел16_мз, пЦел32_мз, пЦел64_мз, пЦел64_сп, пЦел32_сп, внутри себя вызывают пБайты, поэтому упадут *)

		проц {перекрыта}пЦел64_сп*( x: цел64 );
		нач СТОП( 1234 ) кон пЦел64_сп;

		проц {перекрыта}пЦел32_сп*( x: цел32 );
		нач СТОП( 1234 ) кон пЦел32_сп;

		проц {перекрыта}п2МладшихБайта_сп*( x: цел32 );
		нач СТОП( 1234 ) кон п2МладшихБайта_сп;

		проц {перекрыта}пМладшийБайт_сп*( x: цел32 );
		нач СТОП( 1234 ) кон пМладшийБайт_сп;

		(* пНеБолее32БитИзМнваНаБитах_мз, пМнвоНаБитах32_мз, пМнвоНаБитах64_мз 
			вызывают пБайты - сами упадут *) 

		(* пБулево может выводить символ с кодом 0 - не хотим *)
		проц {перекрыта}пБулево_мз*( x: булево );
		нач СТОП( 1234 ) кон пБулево_мз;

		(* пВещ32_мз, пВещ64_мз - сами упадут *)
		проц {перекрыта}пСтроку8˛включаяСимв0*(конст x: массив из симв8);
		нач СТОП( 1234 ) кон пСтроку8˛включаяСимв0;
		
		проц {перекрыта}пЦел64_7б*( x: цел64 );
		нач СТОП( 1234 ) кон пЦел64_7б;
		
		проц {перекрыта}пЦел32_вЮ8*(ucs: бцел32);
		нач
			утв(ucs>0);
			донор.пЦел32_вЮ8(ucs);
			УстановиУспехИСдвиньПозицию(1) кон пЦел32_вЮ8;

		проц {перекрыта}пВК_ПС*;
		нач
			донор.пВК_ПС; 
			УстановиУспехИСдвиньПозицию(1) кон пВК_ПС;

		проц {перекрыта}пСтроку8*(конст ч: массив из симв8 );
		нач
			донор.пСтроку8(ч);
			УстановиУспехИСдвиньПозицию(UCS32.LengthStringJQ(UCS32.U8vNovJQ(ч)^)) кон пСтроку8;
			
	(* пЦел64 и далее основна на пСимв8 или пСтроку8 (я надеюсь на это) *)
		
		кон ПисарьЮникодаОбёртка;


	
	проц Тест1*(); 
	перем донор : Потоки.ЧтецИзСтроки; hero : ЧтецЮникодаОбёртка; ch, л1 : симв8;
	перем m : массив 20 из симв8; u : размерМЗ;
	нач
		нов(донор, 30);
		ЛогЯдра.пСимв8('d');
		ЛогЯдра.пСимв8(симв8ИзКода(200)); 
		ЛогЯдра.пСимв8('z');
		ЛогЯдра.пВК_ПС;
		копируйСтрокуДо0("bsБудkkk",m);
		ЛогЯдра.пСтроку8(m); ЛогЯдра.пВК_ПС;
		донор.ПримиСтроку8ДляЧтения(m);
		нов(hero, донор);
		нц
			л1 := hero.ПодглядиСимв8();
			ch := hero.чИДайСимв8();
			утв(л1 = ch);
			ЛогЯдра.пСтроку8("hero.Get returned char code "); 
			ЛогЯдра.пЦел64(кодСимв8(ch),0);
			ЛогЯдра.пСтроку8(", позиция (в символах, не считая CR) - ");
			ЛогЯдра.пЦел64(hero.МестоВПотоке(),0);
			(* KernelLog.String(", -- в юникодных символах - ");
			KernelLog.Int(hero.UTF8LCPos(),0); *)
			ЛогЯдра.пВК_ПС;
			если hero.МестоВПотоке() = 7 то
				u := hero.pozVLiterakh;
				hero.ПерейдиКМестуВПотоке(hero.МестоВПотоке());
				утв(hero.pozVLiterakh = u);
				ЛогЯдра.пСтроку8("тест возврата на исходную позицию прошёл успешно"); ЛогЯдра.пВК_ПС всё;				
			если кодСимв8(ch) = 0 то 
				прервиЦикл всё кц 
	кон Тест1;
	
	проц Тест2*();
	перем донор : Потоки.ЧтецИзСтроки; герой : ЧтецЮникодаОбёртка; ;
	перем м : массив 20 из симв8; л : UCS32.CharJQ;
	
		проц ПроверьОдну(ждём: цел32);
		нач
			утв(герой.ПодглядиUCS32().UCS32CharCode = ждём);
			утв(герой.ПодглядиUCS32().UCS32CharCode = ждём);
			утв(герой.чЮ8(л));
			утв(л.UCS32CharCode = ждём) кон ПроверьОдну;
	
	нач
		нов(донор, 30);
		копируйСтрокуДо0("bщkэd",м);
		донор.ПримиСтроку8ДляЧтения(м);
		нов(герой, донор);
		ПроверьОдну(кодСимв8('b'));
		ПроверьОдну((*UCS32u.StrochnajaSHH*) 0449H);
		ПроверьОдну(кодСимв8('k'));
		ПроверьОдну((*UCS32u.StrochnajaEH*) 044DH);
		ПроверьОдну(кодСимв8('d'));
		ПроверьОдну(0);
		ЛогЯдра.пСтроку8("Тест2 прошёл");
		ЛогЯдра.пВК_ПС кон Тест2;


	проц ТестЧСОО1*();
	перем донор : Потоки.ЧтецИзСтроки; герой : Потоки.Чтец;
	перем м : массив 20 из симв8; ю : UCS32.CharJQ;
	
	нач
		нов(донор, 30);
		копируйСтрокуДо0("bЩd",м);
		донор.ПримиСтроку8ДляЧтения(м);
		(* нов(герой, донор); *)
		герой := донор;
		утв(герой.МестоВПотоке() = 0);
		утв(герой.ПодглядиСимв8() = "b"); утв(герой.кодВозвратаПоследнейОперации = Потоки.Успех);	утв(герой.МестоВПотоке() = 0);	 
		утв(герой.ПодглядиСимв8() = "b"); утв(герой.кодВозвратаПоследнейОперации = Потоки.Успех);	утв(герой.МестоВПотоке() = 0);	 
		утв(герой.чИДайСимв8() = "b");	 утв(герой.кодВозвратаПоследнейОперации = Потоки.Успех); утв(герой.МестоВПотоке() = 1);
		утв(герой.чЮ8(ю)); утв(герой.кодВозвратаПоследнейОперации = Потоки.Успех); утв(герой.МестоВПотоке() = 3);
		герой.ЗабериUTF8Обратно(ю);
		утв(герой.кодВозвратаПоследнейОперации = Потоки.Успех); утв(герой.МестоВПотоке() = 1);
		утв(герой.чЮ8(ю)); утв(герой.кодВозвратаПоследнейОперации = Потоки.Успех); утв(герой.МестоВПотоке() = 3);
		утв(герой.ПодглядиСимв8() = "d"); утв(герой.кодВозвратаПоследнейОперации = Потоки.Успех); утв(герой.МестоВПотоке() = 3);
		утв(герой.чИДайСимв8() = "d"); утв(герой.кодВозвратаПоследнейОперации = Потоки.Успех); утв(герой.МестоВПотоке() = 4);
		герой.ЗабериБайтОбратно("d"); утв(герой.кодВозвратаПоследнейОперации = Потоки.Успех); утв(герой.МестоВПотоке() = 3);
		утв(герой.ПодглядиСимв8() = "d"); утв(герой.кодВозвратаПоследнейОперации = Потоки.Успех);утв(герой.МестоВПотоке() = 3);
		утв(герой.чИДайСимв8() = "d"); утв(герой.кодВозвратаПоследнейОперации = Потоки.Успех);утв(герой.МестоВПотоке() = 4);
		утв(герой.ПодглядиСимв8() = 0X); утв(герой.кодВозвратаПоследнейОперации = Потоки.Успех);утв(герой.МестоВПотоке() = 4);
		утв(герой.чИДайСимв8() = 0X); утв(герой.кодВозвратаПоследнейОперации = Потоки.КонецФайла);утв(герой.МестоВПотоке() = 4);
		(* дальше следует весьма сомнительное. Возможно, нам просто следует
			не принимать назад байт, если был достигнут конец потока *)
		герой.ЗабериБайтОбратно(0X); утв(герой.кодВозвратаПоследнейОперации = Потоки.Успех);утв(герой.МестоВПотоке() = 4);
		утв(герой.ПодглядиСимв8() = 0X); утв(герой.кодВозвратаПоследнейОперации = Потоки.Успех);утв(герой.МестоВПотоке() = 4);
		утв(герой.чИДайСимв8() = 0X); утв(герой.кодВозвратаПоследнейОперации = Потоки.КонецФайла);утв(герой.МестоВПотоке() = 4);
		ЛогЯдра.пСтроку8("ТестЧСОО1 прошёл");
		ЛогЯдра.пВК_ПС кон ТестЧСОО1;



	проц ТестЧСООиЧЮО1*();
	перем донор : Потоки.ЧтецИзСтроки; подмена: Потоки.Чтец; (* подмена : ЧтецСОграниченнойОтменой; *)
		герой : ЧтецЮникодаОбёртка;
	перем м : массив 20 из симв8; ю : UCS32.CharJQ;
	
	нач
		нов(донор, 30);
		копируйСтрокуДо0("bЩd",м);
		донор.ПримиСтроку8ДляЧтения(м);
		подмена := донор;
		(* нов(подмена, донор); *)
		нов(герой, подмена);
		
		утв(герой.МестоВПотоке() = 0);
		утв(герой.ПодглядиUCS32() = UCS32.CHARvCharJQ("b")); 
		утв(герой.кодВозвратаПоследнейОперации = Потоки.Успех);	утв(герой.МестоВПотоке() = 0);	 
		утв(герой.ПодглядиUCS32() = UCS32.CHARvCharJQ("b")); 
		утв(герой.чИДайСимв8() = "b");	 утв(герой.кодВозвратаПоследнейОперации = Потоки.Успех); утв(герой.МестоВПотоке() = 1);
		утв(герой.ПодглядиUCS32() = UCS32.Lit("Щ")^[0]); утв(герой.МестоВПотоке() = 1);
		утв(герой.чЮ8(ю)); утв(герой.кодВозвратаПоследнейОперации = Потоки.Успех); утв(герой.МестоВПотоке() = 2);
		утв(ю = UCS32.Lit("Щ")^[0]);
		утв(герой.ПодглядиСимв8() = "d"); утв(герой.кодВозвратаПоследнейОперации = Потоки.Успех); утв(герой.МестоВПотоке() = 2);
		утв(подмена.ПодглядиСимв8() = "d"); 
		утв(подмена.чИДайСимв8() = "d"); (* ASSERT(герой.res = Streams.Ok); ASSERT(герой.Pos() = 3);
		ASSERT(герой.Peek() = 0X); ASSERT(герой.res = Streams.Ok);ASSERT(герой.Pos() = 3);
		ASSERT(герой.Get() = 0X); ASSERT(герой.res = Streams.EOF);ASSERT(герой.Pos() = 3); *)
		ЛогЯдра.пСтроку8("ТестЧСООиЧЮО1 прошёл");
		ЛогЯдра.пВК_ПС кон ТестЧСООиЧЮО1;


	проц ТестPeek*();
	перем донор : Потоки.ЧтецИзСтроки; 
	перем м : массив 20 из симв8; 
	
	нач
		нов(донор, 30);
		копируйСтрокуДо0("b",м);
		донор.ПримиСтроку8ДляЧтения(м);
		утв(донор.чИДайСимв8() = "b");
		утв(донор.ПодглядиСимв8() = 0X);
		утв(донор.чИДайСимв8() = 0X);
		утв(донор.кодВозвратаПоследнейОперации = Потоки.КонецФайла);
		утв(донор.МестоВПотоке() = 1);
		утв(донор.ПодглядиСимв8() = 0X);
		утв(донор.МестоВПотоке() = 1);
		ЛогЯдра.пСтроку8("ТестPeek прошёл") кон ТестPeek;

кон ReaderSchitUTF8LF.
