модуль RuTest2;

тип o = ообъект
	перем i : системно_зависимое_целое кн o; 
	
кн RuTest2.




MODULE RuTest2;

TYPE o = OBJECT
	VAR i : INTEGER END o; 
	
END RuTest2.

LisCompiler.Compile --perevediNaRusskijj --info RuTest2.Mod ~