модуль SambaServer; (** AUTHOR "mancos"; PURPOSE "SMB Server"; *)

использует НИЗКОУР, Modules, Потоки, ЛогЯдра, Commands, Dates, Strings, Files, TCP, TCPServices;

конст
	PrimaryDomain = "BLUEBOTTLE";
	Server = "A2SAMBA";
	NativeOS = "A2";
	LANManager = "A2 LAN Manager";
	FileSystem = "AosFS";
	Trace = ложь;
	SMBPort* = 445;


тип
	Share = укль на запись
		path, unc : Files.FileName;
		next : Share;
	кон;

	Connection = укль на запись
			error: булево;
			errorcode: цел32;
			out: Потоки.Писарь;
			in: Потоки.Чтец;
			msgSize: цел32;
			cmd: цел32;
			flags: цел32;
			flags2: цел16;
			tid: цел16;
			pid: цел16;
			uid: цел16;
			mid: цел16;
			fid: цел16;
			sid: цел16;
			pattern: массив 256 из симв8;
			netbios: цел16;
			filename: массив 256 из симв8;
			sharename: массив 256 из симв8;
			client: TCP.Connection;
			next: Connection;
		кон;

	Agent = окласс(TCPServices.Agent)
	перем
		out: Потоки.Писарь;
		in: Потоки.Чтец;
		c: Connection;
	нач {активное}
		(* Initialisation *)
		Потоки.НастройЧтеца(in, client.ПрочтиИзПотока);
		Потоки.НастройПисаря(out, client.ЗапишиВПоток);

		нцПока (client.state в TCP.OpenStates) делай
			нов(c);
			SetLastConnection(c);
			c.out := out;
			c.in := in;
			c.client := client;
			c.error := CheckSMBHeader(c);

			если ~c.error то
				Dispatch(c);
			всё;
		кц;
	кон Agent;

перем
	service: TCPServices.Service;
	lastUID, lastTID, lastFID, lastSID: цел16;
	firstConn: Connection;
	shares : Share;

проц GetUID(): цел16;
нач {единолично}
	увел(lastUID);
	возврат lastUID;
кон GetUID;

проц GetTID(): цел16;
нач {единолично}
	увел(lastTID);
	возврат lastTID;
кон GetTID;

проц GetFID(): цел16;
нач {единолично}
	увел(lastFID);
	возврат lastFID;
кон GetFID;

проц GetSID(): цел16;
нач {единолично}
	увел(lastSID);
	возврат lastSID;
кон GetSID;

проц SetLastConnection(c: Connection);
перем
	oldConn: Connection;
нач {единолично}
	oldConn := GetLastConnection();
	oldConn.next := c;
кон SetLastConnection;

проц GetSharename(перем c: Connection);
перем
	k: Connection;
нач
	k := firstConn;
	нцПока (k.next # НУЛЬ) делай
		если (k.tid = c.tid) и (Strings.Length(k.sharename) > 0) то
			копируйСтрокуДо0(k.sharename, c.sharename);
			возврат;
		всё;
		k := k.next;
	кц;
кон GetSharename;

проц GetLastConnection(): Connection;
перем
	c: Connection;
нач
	c := firstConn;
	нцПока (c.next # НУЛЬ) делай
		c := c.next;
	кц;
	возврат c;
кон GetLastConnection;

проц GetPattern(sid: цел16; перем pattern: массив из симв8);
перем
	c: Connection;
нач
	c := firstConn;
	нцПока (c.sid # sid) делай
		c := c.next;
	кц;
	копируйСтрокуДо0(c.pattern, pattern);
кон GetPattern;

проц RemoveConnections(tid: цел16);
перем
	c, prev: Connection;
нач {единолично}
	c := firstConn;
	нцПока (c.next # НУЛЬ) делай
		если c.tid = tid то
			prev.next := c.next
		всё;
		prev := c;
		c := prev.next;
	кц;
кон RemoveConnections;

проц GetFileName(fid: цел16; перем filename: массив из симв8);
перем
	c: Connection;
нач
	c := firstConn;
	нцПока ((c.fid # fid) и (c.next # НУЛЬ)) делай
		c := c.next;
	кц;

	если (c.fid = fid) то
		копируйСтрокуДо0(c.filename, filename);
	иначе
		если Trace то ЛогЯдра.пСтроку8(" -- FID not found!"); ЛогЯдра.пВК_ПС(); всё;
		c.error := истина;
		c.errorcode := 393217;
		(* SEND *)
		c.netbios := 32 + 3;
		WriteSMBHeader(c);
		c.out.пМладшийБайт_сп(0);			(* word count *)
		c.out.пЦел16_мз(0);			(* bytecount *)
		c.out.ПротолкниБуферВПоток();
	всё;
кон GetFileName;

проц Dispatch(c: Connection);
нач
	если c.cmd = кодСимв8(72X) то
		HandleNegotiate(c);
	аесли c.cmd = кодСимв8(73X) то
		HandleSessionSetup(c);
	аесли c.cmd = кодСимв8(75X) то
		HandleTreeConnect(c);
	аесли c.cmd = кодСимв8(2DX) то
		HandleOpen(c);
	аесли c.cmd = кодСимв8(04X) то
		HandleClose(c);
	аесли c.cmd = кодСимв8(32X) то
		HandleTrans2(c);
	аесли c.cmd = кодСимв8(71X) то
		HandleTreeDisconnect(c);
	аесли c.cmd = кодСимв8(02X) то
		HandleOpenOld(c);
	аесли c.cmd = кодСимв8(08X) то
		HandleQueryInformation(c);
	аесли c.cmd = кодСимв8(23X) то
		HandleQueryInfo2(c);
	аесли c.cmd = кодСимв8(2EX) то
		HandleRead(c);
	аесли c.cmd = кодСимв8(0BX) то
		HandleWrite(c);
	аесли c.cmd = кодСимв8(2FX) то
		HandleWriteAndX(c);
	аесли c.cmd = кодСимв8(0A0X) то
		HandleTrans(c);
	аесли c.cmd = кодСимв8(25X) то
		HandleLMTrans(c);
	аесли c.cmd = кодСимв8(05X) то
		HandleFlush(c);
	аесли c.cmd = кодСимв8(07X) то
		HandleRename(c);
	аесли c.cmd = кодСимв8(06X) то
		HandleDelete(c);
	аесли c.cmd = кодСимв8(09X) то
		HandleSetInfo2(c);
	аесли c.cmd = кодСимв8(22X) то
		HandleSetInfo2(c);
	аесли c.cmd = кодСимв8(34X) то
		HandleFindClose2(c);
	аесли c.cmd = кодСимв8(2BX) то
		HandleEcho(c);
	аесли c.cmd = кодСимв8(00X) то
		HandleCreateDir(c);
	аесли c.cmd = кодСимв8(01X) то
		HandleDeleteDir(c);
	аесли c.cmd = кодСимв8(0FX) то
		HandleCreateNew(c);
	иначе
		если Trace то ЛогЯдра.пСтроку8(" -- Unknown packet: "); ЛогЯдра.пЦел64(c.cmd, 0); ЛогЯдра.пВК_ПС(); всё;
		c.in.ПропустиБайты(1);
		c.in.ОчистьСостояниеБуфера();
	всё;
кон Dispatch;

проц HandleCreateNew(c: Connection);
перем
	filename: массив 256 из симв8;
	f: Files.File;
	res: целМЗ;
нач
	если Trace то ЛогЯдра.пСтроку8("Handle Create New: "); ЛогЯдра.пЦел64(c.cmd, 0); ЛогЯдра.пВК_ПС(); всё;

	c.in.ПропустиБайты(1);	(* skip wordCount *)
	c.in.ПропустиБайты(2);	(* skip file attr *)
	c.in.ПропустиБайты(4);	(* skip created *)
	c.in.ПропустиБайты(2);	(* skip byte count *)
	c.in.ПропустиБайты(1);	(* skip format *)
	c.in.чСтроку8˛включаяСимв0(filename);
	ReplaceSlash(filename);
	GetSharename(c);
	Strings.Concat(c.sharename, filename, filename);

	если Trace то ЛогЯдра.пСтроку8(" -- Filename: "); ЛогЯдра.пСтроку8(filename); ЛогЯдра.пВК_ПС(); всё;

	f := Files.Old(filename);

	если (f # НУЛЬ) то
		Files.Delete(filename, res);
	всё;

	f := Files.New(filename);
	Files.Register(f);

	если res # 0 то	(* NOT OK *)
		c.error := истина;
		c.errorcode := 327681;
		c.netbios := 32 + 3;
		WriteSMBHeader(c);
		c.out.пМладшийБайт_сп(0);			(* word count *)
		c.out.пЦел16_мз(0);			(* bytecount *)
		c.out.ПротолкниБуферВПоток();
		возврат;
	всё;

	(* SEND *)
	c.netbios := 32 + 5;
	WriteSMBHeader(c);
	c.out.пМладшийБайт_сп(1);			(* word count *)
	c.fid := GetFID();
	c.out.пЦел16_мз(c.fid);
	c.out.пЦел16_мз(0);			(* bytecount *)
	c.out.ПротолкниБуферВПоток();
кон HandleCreateNew;

проц HandleCreateDir(c: Connection);
перем
	dirname: массив 256 из симв8;
	res: целМЗ;
нач
	если Trace то ЛогЯдра.пСтроку8("Handle Create Directory: "); ЛогЯдра.пЦел64(c.cmd, 0); ЛогЯдра.пВК_ПС(); всё;

	c.in.ПропустиБайты(1);	(* skip wordCount *)
	c.in.ПропустиБайты(2);	(* skip byte count *)
	c.in.ПропустиБайты(1);	(* skip buffer format *)
	c.in.чСтроку8˛включаяСимв0(dirname);

	если Trace то ЛогЯдра.пСтроку8(" -- Directory: "); ЛогЯдра.пСтроку8(dirname); ЛогЯдра.пВК_ПС(); всё;

	Files.CreateDirectory(dirname, res);

	если res # 0 то
		c.error := истина;
	всё;

	(* SEND *)
	c.netbios := 32 + 3;
	WriteSMBHeader(c);
	c.out.пМладшийБайт_сп(0);			(* word count *)
	c.out.пЦел16_мз(0);			(* bytecount *)
	c.out.ПротолкниБуферВПоток();
кон HandleCreateDir;

проц HandleDeleteDir(c: Connection);
перем
	dirname: массив 256 из симв8;
	res: целМЗ;
нач
	если Trace то ЛогЯдра.пСтроку8("Handle Delete Directory: "); ЛогЯдра.пЦел64(c.cmd, 0); ЛогЯдра.пВК_ПС(); всё;

	c.in.ПропустиБайты(1);	(* skip wordCount *)
	c.in.ПропустиБайты(2);	(* skip byte count *)
	c.in.ПропустиБайты(1);	(* skip buffer format *)
	c.in.чСтроку8˛включаяСимв0(dirname);

	если Trace то ЛогЯдра.пСтроку8(" -- Directory: "); ЛогЯдра.пСтроку8(dirname); ЛогЯдра.пВК_ПС(); всё;

	Files.RemoveDirectory(dirname, истина, res);

	если res # 0 то	(* NOT OK *)
		c.error := истина;
		c.errorcode := 327681;
	всё;

	(* SEND *)
	c.netbios := 32 + 3;
	WriteSMBHeader(c);
	c.out.пМладшийБайт_сп(0);			(* word count *)
	c.out.пЦел16_мз(0);			(* bytecount *)
	c.out.ПротолкниБуферВПоток();
кон HandleDeleteDir;

проц HandleEcho(c: Connection);
перем
	i: цел32; len: размерМЗ;
	byteCount, echoCount: цел16;
	buffer: массив 32 из симв8;
нач
	если Trace то ЛогЯдра.пСтроку8("Handle Echo: "); ЛогЯдра.пЦел64(c.cmd, 0); ЛогЯдра.пВК_ПС(); всё;

	c.in.ПропустиБайты(1);	(* skip wordCount *)
	c.in.чЦел16_мз(echoCount);
	c.in.чЦел16_мз(byteCount);
	c.in.чБайты(buffer, 0, byteCount, len);

	нцДля i := 1 до echoCount делай
		(* SEND *)
		c.netbios := 32 + 5 + цел16(len);
		WriteSMBHeader(c);
		c.out.пМладшийБайт_сп(1);	(* word count *)
		c.out.пЦел16_мз(устарПреобразуйКБолееУзкомуЦел(i));
		c.out.пЦел16_мз(цел16(len));	(* bytecount *)
		c.out.пБайты(buffer, 0, len);
		c.out.ПротолкниБуферВПоток();
	кц;
кон HandleEcho;

проц HandleLMTrans(c: Connection);
нач
	если Trace то ЛогЯдра.пСтроку8("Handle LANMAN Trans: "); ЛогЯдра.пЦел64(c.cmd, 0); ЛогЯдра.пВК_ПС(); всё;

	c.error := истина;
	c.errorcode := 140312577;

	(* SEND *)
	c.netbios := 32 + 3;
	WriteSMBHeader(c);
	c.out.пМладшийБайт_сп(0);			(* word count *)
	c.out.пЦел16_мз(0);			(* bytecount *)
	c.out.ПротолкниБуферВПоток();
кон HandleLMTrans;

проц HandleTrans(c: Connection);
нач
	если Trace то ЛогЯдра.пСтроку8("Handle Trans: "); ЛогЯдра.пЦел64(c.cmd, 0); ЛогЯдра.пВК_ПС(); всё;

	c.error := истина;
	c.errorcode := 65537;

	(* SEND *)
	c.netbios := 32 + 3;
	WriteSMBHeader(c);
	c.out.пМладшийБайт_сп(0);			(* word count *)
	c.out.пЦел16_мз(0);			(* bytecount *)
	c.out.ПротолкниБуферВПоток();
кон HandleTrans;

проц HandleRead(c: Connection);
перем
	fidToRead, maxCount: цел16;
	offset: цел32; len: размерМЗ;
	f: Files.File;
	r: Files.Reader;
	buffer: массив 65536 из симв8;
	filename: массив 256 из симв8;
нач
	если Trace то ЛогЯдра.пСтроку8("Handle Read File: "); ЛогЯдра.пЦел64(c.cmd, 0); ЛогЯдра.пВК_ПС(); всё;

	(* RECEIVE *)
	c.in.ПропустиБайты(5);
	c.in.чЦел16_мз(fidToRead);
	GetFileName(fidToRead, filename);
	ReplaceSlash(filename);

	если Trace то ЛогЯдра.пСтроку8(" -- File to read: "); ЛогЯдра.пСтроку8(filename); ЛогЯдра.пВК_ПС(); всё;

	c.in.чЦел32_мз(offset);
	c.in.чЦел16_мз(maxCount);
	f := Files.Old(filename);

	если (f # НУЛЬ) то
		Files.OpenReader(r, f, offset);
		r.чБайты(buffer, 0, maxCount, len);
		c.netbios := 32 + 27 + цел16(len);
		WriteSMBHeader(c);
		c.out.пМладшийБайт_сп(12);			(* word count *)
		c.out.пМладшийБайт_сп(255);		(* andx *)
		c.out.пМладшийБайт_сп(0);			(* reserved *)
		c.out.п2МладшихБайта_сп(0);			(* andx offset *)
		c.out.пЦел16_мз(-1);		(* remaining: reserved, must be -1 *)
		c.out.пЦел16_мз(0); 		(* dataCompactionMode *)
		c.out.пЦел16_мз(0); 		(* reserved *)
		c.out.пЦел16_мз(цел16(len));	(* low order length bytes *)
		c.out.пЦел16_мз(59);
		c.out.пЦел32_мз(0);		(* no write-large-capability -> datalengthhigh is 0 *)
		c.out.пЦел16_мз(0);
		c.out.пЦел32_мз(0); 		(* 6 bytes reserved *)
		c.out.пЦел16_мз(цел16(len)); 	(* ByteCount *)

		(* write data *)
		c.out.пБайты(buffer, 0, len);
		c.out.ПротолкниБуферВПоток();
	иначе (* FID invalid *)
		если Trace то ЛогЯдра.пСтроку8(" -- FID invalid!"); ЛогЯдра.пВК_ПС(); всё;

		c.error := истина;
		c.errorcode := 393217;

		(* SEND *)
		c.netbios := 32 + 3;
		WriteSMBHeader(c);
		c.out.пМладшийБайт_сп(0);			(* word count *)
		c.out.пЦел16_мз(0);			(* bytecount *)
		c.out.ПротолкниБуферВПоток();
	всё;
кон HandleRead;

проц HandleWrite(c: Connection);
перем
	fidToWrite, count : цел16;
	offset: цел32; len: размерМЗ; res: целМЗ;
	buffer: массив 65536 из симв8;
	filename: массив 256 из симв8;
	f: Files.File;
	w: Files.Writer;
нач
	если Trace то ЛогЯдра.пСтроку8("Handle Write File: "); ЛогЯдра.пЦел64(c.cmd, 0); ЛогЯдра.пВК_ПС(); всё;

	(* RECEIVE *)
	c.in.ПропустиБайты(1);
	c.in.чЦел16_мз(fidToWrite);
	GetFileName(fidToWrite, filename);
	ReplaceSlash(filename);

	если Trace то ЛогЯдра.пСтроку8(" -- File to write: "); ЛогЯдра.пСтроку8(filename); ЛогЯдра.пВК_ПС(); всё;

	c.in.чЦел16_мз(count);
	c.in.чЦел32_мз(offset);
	c.in.ПропустиБайты(7);

	если count = 0 то
		если Trace то ЛогЯдра.пСтроку8(" -- Count was zero. "); ЛогЯдра.пВК_ПС(); всё;
		если offset # 0 то
			Files.Delete(filename, res);
			f := Files.New(filename);
			Files.Register(f);
		всё;
		c.netbios := 32 + 5;
		WriteSMBHeader(c);
		c.out.пМладшийБайт_сп(1);			(* word count *)
		c.out.пЦел16_мз(0);			(* count *)
		c.out.п2МладшихБайта_сп(0);			(* byte count *)
		c.out.ПротолкниБуферВПоток();
		возврат;
	всё;

	f := Files.Old(filename);

	если (f # НУЛЬ) то
		c.in.чБайты(buffer, 0, count, len);
		Files.OpenWriter(w, f, offset);
		w.пБайты(buffer, 0, len);
		w.ПротолкниБуферВПоток();

		(* SEND *)
		c.netbios := 32 + 5;
		WriteSMBHeader(c);
		c.out.пМладшийБайт_сп(1);			(* word count *)
		c.out.пЦел16_мз(count);	(* count *)
		c.out.п2МладшихБайта_сп(0);			(* byte count *)
		c.out.ПротолкниБуферВПоток();
	иначе (* FID invalid *)
		если Trace то ЛогЯдра.пСтроку8(" -- FID invalid!"); ЛогЯдра.пВК_ПС(); всё;
		c.error := истина;
		c.errorcode := 393217;

		(* SEND *)
		c.netbios := 32 + 3;
		WriteSMBHeader(c);
		c.out.пМладшийБайт_сп(0);			(* word count *)
		c.out.пЦел16_мз(0);			(* bytecount *)
		c.out.ПротолкниБуферВПоток();
	всё;
кон HandleWrite;

проц HandleWriteAndX(c: Connection);
перем
	fidToWrite, byteCount, dataOffset: цел16;
	offset: цел32; len: размерМЗ;
	f: Files.File;
	w: Files.Writer;
	buffer: массив 65536 из симв8;
	filename: массив 256 из симв8;
нач
	если Trace то ЛогЯдра.пСтроку8("Handle Write File AndX: "); ЛогЯдра.пЦел64(c.cmd, 0); ЛогЯдра.пВК_ПС(); всё;

	(* RECEIVE *)
	c.in.ПропустиБайты(5);
	c.in.чЦел16_мз(fidToWrite);
	GetFileName(fidToWrite, filename);
	ReplaceSlash(filename);

	если Trace то ЛогЯдра.пСтроку8(" -- File to write: "); ЛогЯдра.пСтроку8(filename); ЛогЯдра.пВК_ПС(); всё;

	c.in.чЦел32_мз(offset);
	c.in.ПропустиБайты(12);
	c.in.чЦел16_мз(dataOffset);
	c.in.чЦел16_мз(byteCount);

	если (dataOffset = 0) или (byteCount = 0) то
		f := НУЛЬ;
		len := 0;
	иначе
		c.in.ПропустиБайты(dataOffset - 59);
		f := Files.Old(filename);
	всё;

	если (f # НУЛЬ) то
		Files.OpenWriter(w, f, offset);
		c.in.чБайты(buffer, 0, byteCount, len);
		w.пБайты(buffer, 0, len);
		w.ПротолкниБуферВПоток();

		(* SEND *)
		c.netbios := 32 + 15;
		WriteSMBHeader(c);
		c.out.пМладшийБайт_сп(6);			(* word count *)
		c.out.пМладшийБайт_сп(255);		(* andx *)
		c.out.пМладшийБайт_сп(0);			(* reserved *)
		c.out.п2МладшихБайта_сп(0);			(* andx offset *)
		c.out.пЦел16_мз(цел16(len));	(* len written *)
		c.out.пЦел16_мз(-1);		(* remaining *)
		c.out.пЦел16_мз(0);			(* count high *)
		c.out.пЦел16_мз(0);			(* reserved *)
		c.out.пЦел16_мз(0);			(* byte count *)
		c.out.ПротолкниБуферВПоток();
	иначе (* FID invalid *)
		если Trace то ЛогЯдра.пСтроку8(" -- FID invalid!"); ЛогЯдра.пВК_ПС(); всё;
		c.error := истина;
		c.errorcode := 393217;

		(* SEND *)
		c.netbios := 32 + 3;
		WriteSMBHeader(c);
		c.out.пМладшийБайт_сп(0);			(* word count *)
		c.out.пЦел16_мз(0);			(* bytecount *)
		c.out.ПротолкниБуферВПоток();
	всё;
кон HandleWriteAndX;

проц HandleQueryInformation(c: Connection);
перем
	filename: массив 256 из симв8;
	i: цел16;
	f: Files.File;
	t,d: цел32;
	dTime: Dates.DateTime;
нач
	если Trace то ЛогЯдра.пСтроку8("Handle Query Information: "); ЛогЯдра.пЦел64(c.cmd, 0); ЛогЯдра.пВК_ПС(); всё;

	(* RECEIVE *)
	c.in.ПропустиБайты(4);
	c.in.чСтроку8˛включаяСимв0(filename);
	ReplaceSlash(filename);
	GetSharename(c);
	Strings.Concat(c.sharename, filename, filename);

	если Trace то ЛогЯдра.пСтроку8(" -- Filename: "); ЛогЯдра.пСтроку8(filename); ЛогЯдра.пВК_ПС(); всё;

	f := Files.Old(filename);

	если (f # НУЛЬ) или (filename = c.sharename) то

		(* SEND *)
		c.netbios := 32 + 23;
		WriteSMBHeader(c);
		c.out.пМладшийБайт_сп(10);			(* word count *)
		если (filename = c.sharename) или (Files.Directory в f.flags)  то (* is Directory *)
			c.out.пЦел16_мз(10H);
		иначе
			c.out.пЦел16_мз(0H);
		всё;

		если (f # НУЛЬ) то
			f.GetDate(t,d);
			dTime := Dates.OberonToDateTime(d,t);
			GetUnixTimeStamp(dTime, t);
			c.out.пЦел32_мз(t);		(* last write *)
			c.out.пЦел32_мз(f.Length()(цел32));		(* file size *)
		иначе
			c.out.пЦел32_мз(0);		(* last write *)
			c.out.пЦел32_мз(0);		(* file size *)
		всё;

		нцДля i := 1 до 5 делай
			c.out.пЦел16_мз(0);
		кц;

		c.out.пЦел16_мз(0);
		c.out.ПротолкниБуферВПоток();
	иначе
		если Trace то ЛогЯдра.пСтроку8(" -- File not found!"); ЛогЯдра.пВК_ПС(); всё;
		c.error := истина;
		c.errorcode := 131073;

		(* SEND *)
		c.netbios := 32 + 3;
		WriteSMBHeader(c);
		c.out.пМладшийБайт_сп(0);			(* word count *)
		c.out.пЦел16_мз(0);			(* bytecount *)
		c.out.ПротолкниБуферВПоток();
	всё;

кон HandleQueryInformation;

проц HandleOpenOld(c: Connection);
перем
	filename: массив 256 из симв8;
	f: Files.File;
	d,t : цел32;
	dTime: Dates.DateTime;
нач
	если Trace то ЛогЯдра.пСтроку8("Handle Open (old) File: "); ЛогЯдра.пЦел64(c.cmd, 0); ЛогЯдра.пВК_ПС(); всё;

	(* RECEIVE *)
	c.in.ПропустиБайты(8);
	c.in.чСтроку8˛включаяСимв0(filename);
	ReplaceSlash(filename);
	GetSharename(c);
	Strings.Concat(c.sharename, filename, filename);

	если Trace то ЛогЯдра.пСтроку8(" -- Filename: "); ЛогЯдра.пСтроку8(filename); ЛогЯдра.пВК_ПС(); всё;

	f := Files.Old(filename);

	если (f # НУЛЬ) то
		копируйСтрокуДо0(filename, c.filename);

		(* SEND *)
		c.netbios := 32 + 17;
		WriteSMBHeader(c);
		c.out.пМладшийБайт_сп(7);			(* word count *)
		c.fid := GetFID();
		c.out.пЦел16_мз(c.fid);		(* FID *)

		если (Files.Directory в f.flags) то
			c.out.пЦел16_мз(10H);
		иначе
			c.out.пЦел16_мз(0H);
		всё;

		f.GetDate(t,d);
		dTime := Dates.OberonToDateTime(d,t);
		GetUnixTimeStamp(dTime, t);
		c.out.пЦел32_мз(t);		(* last write *)
		c.out.пЦел32_мз(f.Length()(цел32));			(* datasize *)
		c.out.пЦел16_мз(0);			(* granted access *)
		c.out.пЦел16_мз(0);			(* bytecount *)
		c.out.ПротолкниБуферВПоток();
	иначе
		если Trace то ЛогЯдра.пСтроку8(" -- File not found!"); ЛогЯдра.пВК_ПС(); всё;

		c.error := истина;
		c.errorcode := 131073;

		(* SEND *)
		c.netbios := 32 + 3;
		WriteSMBHeader(c);
		c.out.пМладшийБайт_сп(0);			(* word count *)
		c.out.пЦел16_мз(0);			(* bytecount *)
		c.out.ПротолкниБуферВПоток();
	всё;
кон HandleOpenOld;

проц HandleNegotiate(перем c: Connection);
перем
	variable: цел32;
	name: массив 64 из симв8;
	support: булево;
	size: размерМЗ;
	dialectIndex: цел16;
	t: массив 2 из цел32;
нач
	support := ложь;
	size := c.msgSize;
	dialectIndex := 0;

	если Trace то ЛогЯдра.пСтроку8("Handle Negotiation: "); ЛогЯдра.пЦел64(c.cmd, 0); ЛогЯдра.пВК_ПС(); всё;

	(* RECEIVE *)
	c.in.ПропустиБайты(3);

	нцПока (size - 35 > 0) и  ( ~support) делай
		variable := c.in.чЦел8сп();
		c.in.чСтроку8˛включаяСимв0(name);

		если (variable = 2) и (name = "NT LM 0.12") то
			support := истина;
			если Trace то
				ЛогЯдра.пСтроку8(" -- NTLM 0.12 OK");
				ЛогЯдра.пВК_ПС();
			всё;
		иначе
			увел(dialectIndex);
		всё;

		size := size - 2 - Strings.Length(name);
	кц;

	если ~support то
		c.error := истина;
	всё;

	(* SEND *)
	c.netbios := 32 + 37 + 10 + цел16(Strings.Length(PrimaryDomain) + Strings.Length(Server));
	WriteSMBHeader(c);
	c.out.пМладшийБайт_сп(17);			(* word count *)
	c.out.пЦел16_мз(dialectIndex);
	c.out.пМладшийБайт_сп(1);			(* security mode *)
	c.out.пЦел16_мз(1);			(* max mpx count *)
	c.out.пЦел16_мз(1);			(* max vc *)
	c.out.пЦел32_мз(32767);	(* max buffer size *)
	c.out.пЦел32_мз(32767);	(* max raw buffer *)
	c.out.пЦел32_мз(0);		(* sessionkey *)
	c.out.пЦел32_мз(0);		(* capabilities *)
	GetSMBTimeStamp(Dates.Now(), t);
	c.out.пЦел32_мз(t[0]);		(* system time *)
	c.out.пЦел32_мз(t[1]);		(* system time*)
	c.out.пСимв8(симв8ИзКода(0));		(* time zone *)
	c.out.пСимв8(симв8ИзКода(0));		(* time zone *)
	c.out.пМладшийБайт_сп(8);			(* key length *)
	c.out.пЦел16_мз(цел16(Strings.Length(PrimaryDomain) + Strings.Length(Server)));
	c.out.пСтроку8("serverpw");
	c.out.пСтроку8˛включаяСимв0(PrimaryDomain);
	c.out.пСтроку8˛включаяСимв0(Server);
	c.out.ПротолкниБуферВПоток();
кон HandleNegotiate;

проц HandleSessionSetup(c: Connection);
перем
	ansiPwLen: цел16;
	ansiPass: массив 256 из симв8;
	ucPwLen: цел16;
	uniPass: массив 256 из симв8;
	username: массив 256 из симв8;
	i: размерМЗ;
нач
	если Trace то ЛогЯдра.пСтроку8("Handle Session setup: "); ЛогЯдра.пЦел64(c.cmd, 0); ЛогЯдра.пВК_ПС(); всё;

	(* RECEIVE *)
	c.in.ПропустиБайты(15);
	c.in.чЦел16_мз(ansiPwLen);
	c.in.чЦел16_мз(ucPwLen);
	c.in.ПропустиБайты(10);

	если ansiPwLen > 0 то
		c.in.чБайты(ansiPass, 0, ansiPwLen, i);
	всё;

	если ucPwLen > 0 то
		c.in.чБайты(uniPass, 0, ucPwLen, i);
	всё;

	c.in.чСтроку8˛включаяСимв0(username);

	если Trace то ЛогЯдра.пСтроку8(" -- Username: "); ЛогЯдра.пСтроку8(username); ЛогЯдра.пВК_ПС(); всё;

	(* NO USERNAME *)
	если username = "" то
		c.error := истина;
		c.errorcode := 262146;
		(* SEND *)
		c.netbios := 32 + 3;
		WriteSMBHeader(c);
		c.out.пМладшийБайт_сп(0);			(* word count *)
		c.out.пЦел16_мз(0);			(* bytecount *)
		c.out.ПротолкниБуферВПоток();
		возврат;
	всё;

	(* SEND *)
	c.netbios := 32 + 12 + цел16(Strings.Length(NativeOS) + Strings.Length(PrimaryDomain) + Strings.Length(LANManager));
	WriteSMBHeader(c);
	c.out.пМладшийБайт_сп(3);			(* word count *)
	c.out.пСимв8(симв8ИзКода(255));	(* and x *)
	c.out.пМладшийБайт_сп(0);			(* reserved *)
	c.out.п2МладшихБайта_сп(0);			(* andx offset *)
	c.out.пЦел16_мз(1);			(* logged in as guest *)
	c.out.пЦел16_мз(3 + цел16(Strings.Length(NativeOS) + Strings.Length(PrimaryDomain) + Strings.Length(LANManager)));	(* max vc *)
	c.out.пСтроку8˛включаяСимв0(NativeOS);
	c.out.пСтроку8˛включаяСимв0(LANManager);
	c.out.пСтроку8˛включаяСимв0(PrimaryDomain);
	c.out.ПротолкниБуферВПоток();
кон HandleSessionSetup;

проц HandleTreeConnect(c: Connection);
перем
	i, offset: размерМЗ;
	pwLen: цел16;
	byteCount: цел16;
	password: массив 256 из симв8;
	path: массив 256 из симв8;
	service: массив 256 из симв8;
	string : Strings.String;
	share : Share;
нач
	если Trace то ЛогЯдра.пСтроку8("Handle Tree Connect: "); ЛогЯдра.пЦел64(c.cmd, 0); ЛогЯдра.пВК_ПС(); всё;

	(* RECEIVE *)
	c.in.ПропустиБайты(7);
	c.in.чЦел16_мз(pwLen);
	c.in.чЦел16_мз(byteCount);

	если pwLen > 0 то
		c.in.чБайты(password, 0, pwLen, i);
	всё;

	c.in.чСтроку8˛включаяСимв0(path);
	c.in.чСтроку8˛включаяСимв0(service);

	если Trace то
		ЛогЯдра.пСтроку8(" -- Service: "); ЛогЯдра.пСтроку8(service); ЛогЯдра.пВК_ПС();
		ЛогЯдра.пСтроку8(" -- Path: "); ЛогЯдра.пСтроку8(path);
	всё;

	если Strings.EndsWith("IPC$", path) то
		если Trace то ЛогЯдра.пСтроку8(" -- IPC"); ЛогЯдра.пВК_ПС; всё;
		service := "IPC";
	иначе
		если Trace то ЛогЯдра.пСтроку8(" - FILESYSTEM"); ЛогЯдра.пВК_ПС; всё;
		service := "A:";
	всё;

	offset := Strings.Find(path, 3, симв8ИзКода(5CH));
	string := Strings.Substring2(offset, path);
	если (string # НУЛЬ) то копируйСтрокуДо0(string^, path); всё;

	share := FindShare(path);

	если (share # НУЛЬ) то
		копируйСтрокуДо0(share.path, c.sharename);
		ЛогЯдра.пСтроку8(" -- Sharename: "); ЛогЯдра.пСтроку8(c.sharename); ЛогЯдра.пВК_ПС();
	аесли (service = "IPC") то
		ЛогЯдра.пСтроку8(" -- IPC Connected"); ЛогЯдра.пВК_ПС();
	иначе
		ЛогЯдра.пСтроку8(" NO SHARE FOUND"); ЛогЯдра.пВК_ПС();

		c.error := истина;
		c.errorcode := 4390913;

		(* SEND *)
		c.netbios := 32 + 3;
		WriteSMBHeader(c);
		c.out.пМладшийБайт_сп(0);			(* word count *)
		c.out.пЦел16_мз(0);			(* bytecount *)
		c.out.ПротолкниБуферВПоток();
	всё;

	(* SEND *)
	c.netbios := 32 + 19 + цел16(Strings.Length(FileSystem) + Strings.Length(service));
	WriteSMBHeader(c);
	c.out.пМладшийБайт_сп(7);				(* word count *)
	c.out.пСимв8(симв8ИзКода(255));		(* and x *)
	c.out.пМладшийБайт_сп(0);				(* reserved *)
	c.out.п2МладшихБайта_сп(0);				(* andx offset *)
	c.out.пЦел16_мз(0);				(* optional support *)
	c.out.пЦел32_мз(268435456); 	(* rights *)
	c.out.пЦел32_мз(268435456); 	(* rights *)
	c.out.пЦел16_мз(2 + цел16(Strings.Length(FileSystem) + Strings.Length(service)));
	c.out.пСтроку8˛включаяСимв0(service);
	c.out.пСтроку8˛включаяСимв0(FileSystem);
	c.out.ПротолкниБуферВПоток();
кон HandleTreeConnect;

проц HandleTreeDisconnect(c: Connection);
нач
	если Trace то ЛогЯдра.пСтроку8("Handle Tree Disonnect: "); ЛогЯдра.пЦел64(c.cmd, 0); ЛогЯдра.пВК_ПС(); всё;

	(* SEND *)
	c.netbios := 32 + 3;
	WriteSMBHeader(c);
	c.out.пМладшийБайт_сп(0);			(* word count *)
	c.out.пЦел16_мз(0);			(* bytecount *)
	c.out.ПротолкниБуферВПоток();

	c.client.Discard();
	RemoveConnections(c.tid);
кон HandleTreeDisconnect;

проц HandleOpen(c: Connection);
перем
	byteCount, openFunc: цел16;
	filename: массив 256 из симв8;
	f: Files.File;
	t,d: цел32;
	dTime: Dates.DateTime;
нач
	если Trace то ЛогЯдра.пСтроку8("Handle Open: "); ЛогЯдра.пЦел64(c.cmd, 0); ЛогЯдра.пВК_ПС(); всё;

	(* RECEIVE *)
	c.in.ПропустиБайты(17);
	c.in.чЦел16_мз(openFunc);
	c.in.ПропустиБайты(12);
	c.in.чЦел16_мз(byteCount);
	c.in.чСтроку8˛включаяСимв0(filename);

	ReplaceSlash(filename);
	GetSharename(c);
	Strings.Concat(c.sharename, filename, filename);

	если Trace то ЛогЯдра.пСтроку8(" -- Filename: "); ЛогЯдра.пСтроку8(filename); ЛогЯдра.пВК_ПС(); всё;

	f := Files.Old(filename);

	если ((f # НУЛЬ) или (filename = c.sharename)) и (0 в мнвоНаБитахМЗ( openFunc)) то
		если Trace то ЛогЯдра.пСтроку8(" -- opening file..."); ЛогЯдра.пВК_ПС(); всё;

		копируйСтрокуДо0(filename, c.filename);

		(* SEND *)
		c.netbios := 32 + 33;
		WriteSMBHeader(c);
		c.out.пМладшийБайт_сп(15);			(* word count *)
		c.out.пСимв8(симв8ИзКода(255));	(* and x *)
		c.out.пМладшийБайт_сп(0);			(* reserved *)
		c.out.п2МладшихБайта_сп(0);			(* andx offset *)
		c.fid := GetFID();
		c.out.пЦел16_мз(c.fid);		(* FID *)

		если ((f # НУЛЬ) и (Files.Directory в f.flags)) или (filename = c.sharename) то (* is Directory *)
			c.out.пЦел16_мз(10H);
		иначе
			c.out.пЦел16_мз(0H);
		всё;

		если (f # НУЛЬ) то
			f.GetDate(t,d);
			dTime := Dates.OberonToDateTime(d,t);
			GetUnixTimeStamp(dTime, t);
			c.out.пЦел32_мз(t);		(* last write *)
			c.out.пЦел32_мз(f.Length()(цел32));		(* file size *)
		иначе
			c.out.пЦел32_мз(0);		(* last write *)
			c.out.пЦел32_мз(0);		(* file size *)
		всё;

		c.out.пЦел16_мз(0);			(* granted access *)
		c.out.пЦел16_мз(0);			(* filetype *)
		c.out.пЦел16_мз(0);			(* ipc state *)
		c.out.пЦел16_мз(1);			(* action *)
		c.out.пЦел32_мз(0);		(* serverfid*)
		c.out.пЦел16_мз(0);			(* reserved *)
		c.out.пЦел16_мз(0);			(* bytecount *)
		c.out.ПротолкниБуферВПоток();
	аесли (f = НУЛЬ) и (4 в мнвоНаБитахМЗ( openFunc)) то
		если Trace то ЛогЯдра.пСтроку8(" -- creating file..."); ЛогЯдра.пВК_ПС(); всё;

		f := Files.New(filename);
		копируйСтрокуДо0(filename, c.filename);
		Files.Register(f);

		(* SEND *)
		c.netbios := 32 + 33;
		WriteSMBHeader(c);
		c.out.пМладшийБайт_сп(15);			(* word count *)
		c.out.пСимв8(симв8ИзКода(255));	(* and x *)
		c.out.пМладшийБайт_сп(0);			(* reserved *)
		c.out.п2МладшихБайта_сп(0);			(* andx offset *)
		c.fid := GetFID();
		c.out.пЦел16_мз(c.fid);		(* FID *)
		c.out.пЦел16_мз(0H);
		GetUnixTimeStamp(Dates.Now(), t);
		c.out.пЦел32_мз(t);		(* last write *)
		c.out.пЦел32_мз(f.Length()(цел32));		 (* filesize *)
		c.out.пЦел16_мз(0);			(* granted access *)
		c.out.пЦел16_мз(0);			(* filetype *)
		c.out.пЦел16_мз(0);			(* ipc state *)
		c.out.пЦел16_мз(2);			(* action *)
		c.out.пЦел32_мз(0);		(* serverfid*)
		c.out.пЦел16_мз(0);			(* reserved *)
		c.out.пЦел16_мз(0);			(* bytecount *)
		c.out.ПротолкниБуферВПоток();
	аесли (f # НУЛЬ) и ~(0 в мнвоНаБитахМЗ( openFunc)) то
		если Trace то ЛогЯдра.пСтроку8(" -- Invalid open mode!."); ЛогЯдра.пВК_ПС(); всё;

		c.error := истина;
		c.errorcode := 786433;

		(* SEND *)
		c.netbios := 32 + 3;
		WriteSMBHeader(c);
		c.out.пМладшийБайт_сп(0);			(* word count *)
		c.out.пЦел16_мз(0);			(* bytecount *)
		c.out.ПротолкниБуферВПоток();
	аесли Strings.StartsWith("/PIPE/", 0, filename) то
		если Trace то ЛогЯдра.пСтроку8(" -- opening pipe..."); ЛогЯдра.пВК_ПС(); всё;

		копируйСтрокуДо0(filename, c.filename);

		(* SEND *)
		c.netbios := 32 + 33;
		WriteSMBHeader(c);
		c.out.пМладшийБайт_сп(15);			(* word count *)
		c.out.пСимв8(симв8ИзКода(255));	(* and x *)
		c.out.пМладшийБайт_сп(0);			(* reserved *)
		c.out.п2МладшихБайта_сп(0);			(* andx offset *)
		c.fid := GetFID();
		c.out.пЦел16_мз(c.fid);		(* FID *)
		c.out.пЦел16_мз(0H);
		c.out.пЦел32_мз(0);		(* lastwrite *)
		c.out.пЦел32_мз(0);		(* filesize *)
		c.out.пЦел16_мз(0);			(* granted access *)
		c.out.пЦел16_мз(0);			(* filetype *)
		c.out.пЦел16_мз(0);			(* ipc state *)
		c.out.пЦел16_мз(1);			(* action *)
		c.out.пЦел32_мз(0);		(* serverfid*)
		c.out.пЦел16_мз(0);			(* reserved *)
		c.out.пЦел16_мз(0);			(* bytecount *)
		c.out.ПротолкниБуферВПоток();
	иначе
		если Trace то ЛогЯдра.пСтроку8(" -- File not found!"); ЛогЯдра.пВК_ПС(); всё;

		c.error := истина;
		c.errorcode := 131073;

		(* SEND *)
		c.netbios := 32 + 3;
		WriteSMBHeader(c);
		c.out.пМладшийБайт_сп(0);			(* word count *)
		c.out.пЦел16_мз(0);			(* bytecount *)
		c.out.ПротолкниБуферВПоток();
	всё;
кон HandleOpen;

проц HandleClose(c: Connection);
нач
	если Trace то ЛогЯдра.пСтроку8("Handle File close: "); ЛогЯдра.пЦел64(c.cmd, 0); ЛогЯдра.пВК_ПС(); всё;

	(* SEND *)
	c.netbios := 32 + 3;
	WriteSMBHeader(c);
	c.out.пМладшийБайт_сп(0);			(* word count *)
	c.out.пЦел16_мз(0);			(* bytecount *)
	c.out.ПротолкниБуферВПоток();
кон HandleClose;

проц HandleFindClose2(c: Connection);
нач
	если Trace то ЛогЯдра.пСтроку8("Handle find close 2: "); ЛогЯдра.пЦел64(c.cmd, 0); ЛогЯдра.пВК_ПС(); всё;

	(* SEND *)
	c.netbios := 32 + 3;
	WriteSMBHeader(c);
	c.out.пМладшийБайт_сп(0);			(* word count *)
	c.out.пЦел16_мз(0);			(* bytecount *)
	c.out.ПротолкниБуферВПоток();
кон HandleFindClose2;

проц HandleFlush(c : Connection);
нач
	если Trace то ЛогЯдра.пСтроку8("Handle Flush: "); ЛогЯдра.пЦел64(c.cmd, 0); ЛогЯдра.пВК_ПС(); всё;

	(* SEND *)
	c.netbios := 32 + 3;
	WriteSMBHeader(c);
	c.out.пМладшийБайт_сп(0);			(* word count *)
	c.out.пЦел16_мз(0);			(* bytecount *)
	c.out.ПротолкниБуферВПоток();
кон HandleFlush;

проц HandleRename(c : Connection);
перем
	oldName, newName,
	oldPath, newPath: массив 256 из симв8;
	res: целМЗ;
нач
	если Trace то ЛогЯдра.пСтроку8("Handle Rename: "); ЛогЯдра.пЦел64(c.cmd, 0); ЛогЯдра.пВК_ПС(); всё;

	(* RECEIVE *)
	c.in.ПропустиБайты(6);
	c.in.чСтроку8˛включаяСимв0(oldName);
	ReplaceSlash(oldName);
	Files.SplitPath(oldName, oldPath, oldName);
	c.in.ПропустиБайты(1);
	c.in.чСтроку8˛включаяСимв0(newName);
	ReplaceSlash(newName);
	Files.SplitPath(newName, newPath, newName);

	если Trace то
		ЛогЯдра.пСтроку8(" -- Old: "); ЛогЯдра.пСтроку8(oldName); ЛогЯдра.пВК_ПС();
		ЛогЯдра.пСтроку8(" -- New: "); ЛогЯдра.пСтроку8(newName); ЛогЯдра.пВК_ПС();
	всё;

	если oldPath = newPath то
		Files.Rename(oldName, newName, res);
	всё;

	если res # 0 то
		c.error := истина;
		c.errorcode := 327681;
	всё;

	(* SEND *)
	c.netbios := 32 + 3;
	WriteSMBHeader(c);
	c.out.пМладшийБайт_сп(0);			(* word count *)
	c.out.пЦел16_мз(0);			(* bytecount *)
	c.out.ПротолкниБуферВПоток();
кон HandleRename;

проц HandleDelete(c: Connection);
перем
	name, path: массив 256 из симв8;
	res: целМЗ;
нач
	если Trace то ЛогЯдра.пСтроку8("Handle Delete: "); ЛогЯдра.пЦел64(c.cmd, 0); ЛогЯдра.пВК_ПС(); всё;

	(* RECEIVE *)
	c.in.ПропустиБайты(6);
	c.in.чСтроку8˛включаяСимв0(name);
	ReplaceSlash(name);
	Files.SplitPath(name, path, name);

	если Trace то ЛогЯдра.пСтроку8(" -- Filename: "); ЛогЯдра.пСтроку8(name); ЛогЯдра.пВК_ПС(); всё;

	Files.Delete(name, res);

	если res # 0 то
		c.error := истина;
		c.errorcode := 327681;
	всё;

	(* SEND *)
	c.netbios := 32 + 3;
	WriteSMBHeader(c);
	c.out.пМладшийБайт_сп(0);			(* word count *)
	c.out.пЦел16_мз(0);			(* bytecount *)
	c.out.ПротолкниБуферВПоток();
кон HandleDelete;

проц HandleQueryInfo2(c: Connection);
перем
	filename: массив 256 из симв8;
	fid: цел16;
	f: Files.File;
	t,d: цел32;
	dTime: Dates.DateTime;
нач
	если Trace то ЛогЯдра.пСтроку8("Handle Query Information 2: "); ЛогЯдра.пЦел64(c.cmd, 0); ЛогЯдра.пВК_ПС(); всё;

	(* RECEIVE *)
	c.in.ПропустиБайты(1);
	c.in.чЦел16_мз(fid);
	GetFileName(fid, filename);
	ReplaceSlash(filename);

	если Trace то ЛогЯдра.пСтроку8(" -- Filename: "); ЛогЯдра.пСтроку8(filename); ЛогЯдра.пВК_ПС(); всё;

	f := Files.Old(filename);

	если (f # НУЛЬ) то
		(* SEND *)
		c.netbios := 32 + 25;
		WriteSMBHeader(c);
		c.out.пМладшийБайт_сп(11);			(* word count *)
		c.out.пЦел32_мз(0);		(* creation time *)
		c.out.пЦел32_мз(0);		(* last access *)
		f.GetDate(t,d);
		dTime := Dates.OberonToDateTime(d,t);
		GetDOSTimeStamp(dTime, t);
		c.out.пЦел32_мз(t);		(* last write *)
		c.out.пЦел32_мз(f.Length()(цел32));		(* file data size *)
		c.out.пЦел32_мз(f.Length()(цел32));		(* file alloc *)
		c.out.пЦел16_мз(0);		(* attr *)
		c.out.пЦел16_мз(0);		(* byte count *)
		c.out.ПротолкниБуферВПоток();
	иначе
		если Trace то ЛогЯдра.пСтроку8(" -- File not found!"); ЛогЯдра.пВК_ПС(); всё;

		c.error := истина;
		c.errorcode := 131073;

		(* SEND *)
		c.netbios := 32 + 3;
		WriteSMBHeader(c);
		c.out.пМладшийБайт_сп(0);			(* word count *)
		c.out.пЦел16_мз(0);			(* bytecount *)
		c.out.ПротолкниБуферВПоток();
	всё;
кон HandleQueryInfo2;

проц HandleSetInfo2(c: Connection);
нач
	если Trace то ЛогЯдра.пСтроку8("Handle Set Information 2: "); ЛогЯдра.пЦел64(c.cmd, 0); ЛогЯдра.пВК_ПС(); всё;
	(* SEND *)
	c.netbios := 32 + 3;
	WriteSMBHeader(c);
	c.out.пМладшийБайт_сп(0);			(* word count *)
	c.out.пЦел16_мз(0);			(* bytecount *)
	c.out.ПротолкниБуферВПоток();
кон HandleSetInfo2;

проц HandleTrans2(c: Connection);
перем
	offset: цел16;
	subcommand: цел16;
нач
	если Trace то ЛогЯдра.пСтроку8("Handle Trans2 Request..."); ЛогЯдра.пЦел64(c.cmd, 0); ЛогЯдра.пВК_ПС(); всё;

	(* RECEIVE *)
	c.in.ПропустиБайты(21);
	c.in.чЦел16_мз(offset);
	offset := offset - 63;
	c.in.ПропустиБайты(6);
	c.in.чЦел16_мз(subcommand);
	c.in.ПропустиБайты(offset);

	если Trace то ЛогЯдра.пСтроку8(" -- Subcommand: "); ЛогЯдра.пЦел64(subcommand, 0); ЛогЯдра.пВК_ПС(); всё;

	Trans2Logic(subcommand, c);
кон HandleTrans2;

проц Trans2Logic(subcmd: цел16; c: Connection);
перем
	enum: Files.Enumerator;
	eName, fullName, pathname, prefix, pattern, resumeFn, modPat: массив 256 из симв8;
	eFlags, flags : мнвоНаБитахМЗ;
	eTime, eDate : цел32;
	eSize : Files.Size;
	success, eos: булево;
	i,j,z, searchCount, totalFileNameLen, lastlen, loi, sidnext: цел16;
	f: Files.File;
	tarray: массив 2 из цел32;
	t,d: цел32;
	dTime: Dates.DateTime;
нач
	если (subcmd = 7)  то
		если Trace то ЛогЯдра.пСтроку8(" -- QUERY FILE INFO"); ЛогЯдра.пВК_ПС(); всё;

		c.error := истина;
		c.errorcode := 327681;

		(* SEND *)
		c.netbios := 32 + 3;
		WriteSMBHeader(c);
		c.out.пМладшийБайт_сп(0);			(* word count *)
		c.out.пЦел16_мз(0);			(* bytecount *)
		c.out.ПротолкниБуферВПоток();
		возврат;
	аесли (subcmd = 3)  то
		если Trace то ЛогЯдра.пСтроку8(" -- QUERY FS INFO"); ЛогЯдра.пВК_ПС(); всё;

		(* SEND *)
		c.netbios := 32 + 25 + 10 + цел16(Strings.Length(FileSystem) + 1);
		WriteSMBHeader(c);
		c.out.пМладшийБайт_сп(10);
		c.out.пЦел16_мз(0);
		c.out.пЦел16_мз(12 + цел16(Strings.Length(FileSystem) + 1));
		c.out.п2МладшихБайта_сп(0);
		c.out.пЦел16_мз(0);
		c.out.пЦел16_мз(55);
		c.out.пЦел16_мз(0);
		c.out.пЦел16_мз(12 + цел16(Strings.Length(FileSystem) + 1));
		c.out.пЦел16_мз(55);
		c.out.пЦел16_мз(0);
		c.out.пМладшийБайт_сп(0);
		c.out.пМладшийБайт_сп(0);
		c.out.пЦел16_мз(12 + цел16(Strings.Length(FileSystem) + 1));
		c.out.пЦел32_мз(32);
		c.out.пЦел32_мз(64);
		c.out.пЦел32_мз(цел32(Strings.Length(FileSystem) + 1));
		c.out.пСтроку8˛включаяСимв0(FileSystem);
		c.out.ПротолкниБуферВПоток();
	аесли (subcmd = 5)  то
		если Trace то ЛогЯдра.пСтроку8(" -- QUERY PATH INFO"); ЛогЯдра.пВК_ПС(); всё;

		c.in.ПропустиБайты(6);
		c.in.чСтроку8˛включаяСимв0(eName);

		если Trace то ЛогЯдра.пСтроку8(" -- Path name:  "); ЛогЯдра.пСтроку8(eName); ЛогЯдра.пВК_ПС(); всё;

		f := Files.Old(eName);

		если ((f = НУЛЬ) и (eName[0] # 0X)) то

			(* NOT FOUND *)
			c.error := истина;
			c.errorcode := 131073;

			(* SEND *)
			c.netbios := 32 + 3;
			WriteSMBHeader(c);
			c.out.пМладшийБайт_сп(0);			(* word count *)
			c.out.пЦел16_мз(0);			(* bytecount *)
			c.out.ПротолкниБуферВПоток();
			возврат;
		всё;

		(* SEND *)
		c.netbios := цел16(32 + 89 + Strings.Length(eName));
		WriteSMBHeader(c);
		c.out.пМладшийБайт_сп(10);			(* Word count *)
		c.out.пЦел16_мз(2);			(* total para count *)
		c.out.пЦел16_мз(82);		(* total data count *)
		c.out.п2МладшихБайта_сп(0);			(* reserved *)
		c.out.пЦел16_мз(2);			(* parameter count *)
		c.out.пЦел16_мз(55);		(* para offset *)
		c.out.пЦел16_мз(0);			(* para displacement *)
		c.out.пЦел16_мз(82);		(* data count *)
		c.out.пЦел16_мз(57);		(* data offset *)
		c.out.пЦел16_мз(0);			(* data displacement *)
		c.out.пМладшийБайт_сп(0);			(* setup count *)
		c.out.пМладшийБайт_сп(0);			(* reserved *)
		c.out.пЦел16_мз(84);		(* byte count *)

		(* query path info params *)
		c.out.пЦел16_мз(0);			(* ea error offset *)

		(* query path info data*)
		c.out.пЦел32_мз(0);		(* created *)
		c.out.пЦел32_мз(0);		(* created *)
		c.out.пЦел32_мз(0);		(* last access *)
		c.out.пЦел32_мз(0);		(* last access *)
		c.out.пЦел32_мз(0);		(* last write *)
		c.out.пЦел32_мз(0);		(* last write *)
		c.out.пЦел32_мз(0);		(* change *)
		c.out.пЦел32_мз(0);		(* change *)

		если eName[0] = 0X то
			c.out.пЦел16_мз(16);	(* attr *)
		иначе
			c.out.пЦел16_мз(0);		(* attr *)
		всё;

		c.out.пЦел32_мз(0);		(* alloc *)
		c.out.пЦел32_мз(0);		(* alloc *)
		c.out.пЦел32_мз(0);		(* eof *)
		c.out.пЦел32_мз(0);		(* eof *)
		c.out.пЦел32_мз(1);		(* link count *)
		c.out.пМладшийБайт_сп(0);			(* delete pending *)

		если eName[0] = 0X то
			c.out.пМладшийБайт_сп(1);		(* is dir *)
		иначе
			c.out.пМладшийБайт_сп(0);		(* is dir *)
		всё;

		c.out.пЦел32_мз(0);		(* ea list *)
		c.out.пЦел32_мз(цел32(Strings.Length(eName)));		(* filename len*)
		c.out.пСтроку8˛включаяСимв0(eName);		(* file name*)
		c.out.ПротолкниБуферВПоток();
	аесли (subcmd = 1) то
		если Trace то ЛогЯдра.пСтроку8(" -- FIND FIRST 2"); ЛогЯдра.пВК_ПС(); всё;

		c.in.ПропустиБайты(2);
		c.in.чЦел16_мз(searchCount);
		c.in.ПропустиБайты(2);
		c.in.чЦел16_мз(loi);
		c.in.ПропустиБайты(4);
		c.in.чСтроку8˛включаяСимв0(pattern);

		если Trace то ЛогЯдра.пСтроку8(" -- Search Count: "); ЛогЯдра.пЦел64(searchCount, 0); ЛогЯдра.пВК_ПС(); всё;

		RemoveSlash(pattern);
		ReplaceSlash(pattern);
		RemoveQuotes(pattern);
		GetSharename(c);

		если Trace то
			ЛогЯдра.пСтроку8(" -- Pattern: "); ЛогЯдра.пСтроку8(pattern); ЛогЯдра.пВК_ПС();
			ЛогЯдра.пСтроку8(" -- Level of Interest: "); ЛогЯдра.пЦел64(loi, 0); ЛогЯдра.пВК_ПС();
			ЛогЯдра.пСтроку8(" -- Sharename: "); ЛогЯдра.пСтроку8(c.sharename); ЛогЯдра.пВК_ПС();
		всё;

		копируйСтрокуДо0(pattern, c.pattern);

		Strings.Concat(c.sharename, pattern, modPat);

		если Trace то ЛогЯдра.пСтроку8(" -- Modprefix: "); ЛогЯдра.пСтроку8(modPat); ЛогЯдра.пВК_ПС(); всё;

		нов(enum);
		enum.Open(modPat, {});

		если searchCount > 100 то
			searchCount := 100;
		всё;

		i := 0;
		totalFileNameLen := 0;

		нцПока (enum.HasMoreEntries()) и (i < searchCount) делай
			success := enum.GetEntry(fullName, eFlags, eTime, eDate, eSize);
			если success то
				Files.SplitName(fullName, prefix, eName);
				Files.SplitPath(eName, pathname, eName);
				totalFileNameLen := totalFileNameLen + цел16(Strings.Length(eName));
				lastlen := цел16(Strings.Length(eName));
				увел(i);
			всё;
		кц;

		eos := ~enum.HasMoreEntries();

		если Trace то ЛогЯдра.пСтроку8(" -- Files found: "); ЛогЯдра.пЦел64(i, 0); ЛогЯдра.пВК_ПС(); всё;

		(* NO FILES FOUND *)
		если i = 0 то
			c.error := истина;
			c.errorcode := 131073; (* 1179649; *)

			(* SEND *)
			c.netbios := 32 + 3;
			WriteSMBHeader(c);
			c.out.пМладшийБайт_сп(0);			(* word count *)
			c.out.пЦел16_мз(0);			(* bytecount *)
			c.out.ПротолкниБуферВПоток();
			возврат;
		всё;

		если loi = 260 то
			j := 96*i + totalFileNameLen;
			lastlen := lastlen + 96;
		аесли loi = 1 то
			j := 28*i + totalFileNameLen;
			lastlen := lastlen + 28;
		иначе
			если Trace то ЛогЯдра.пСтроку8(" -- LEVEL OF INTEREST NOT SUPPORTED "); ЛогЯдра.пВК_ПС(); всё;
			возврат;
		всё;

		(* SEND *)
		c.netbios := 32 + 23 + 10 + j;
		WriteSMBHeader(c);
		c.out.пМладшийБайт_сп(10);
		c.out.пЦел16_мз(10); 		(* total parameter count *)
		c.out.пЦел16_мз(j); 			(* total data count *)
		c.out.п2МладшихБайта_сп(0);
		c.out.пЦел16_мз(10);  		(* parameter count *)
		c.out.пЦел16_мз(55); 		(* parameter offset *)
		c.out.пЦел16_мз(0);
		c.out.пЦел16_мз(j); 			(* data count *)
		c.out.пЦел16_мз(65); 		(* data offset *)
		c.out.пЦел16_мз(0);
		c.out.пМладшийБайт_сп(0);
		c.out.пМладшийБайт_сп(0);
		c.out.пЦел16_мз(10 +  j); 	(* byte count *)
		c.sid := GetSID();
		c.out.пЦел16_мз(c.sid);		(* search id *)
		c.out.пЦел16_мз(i); 			(* search count *)

		если eos то
			c.out.пЦел16_мз(1); 	(* end of search *)
		иначе
			c.out.пЦел16_мз(0); 	(* end of search *)
		всё;

		c.out.пЦел16_мз(0); 		(* ea error *)
		c.out.пЦел16_мз(j - lastlen);(* lastnameoffset *)
		enum.Reset();

		нцПока (i > 0) делай
			success := enum.GetEntry(fullName, eFlags, eTime, eDate, eSize);

			если success то
				Files.SplitName(fullName, prefix, eName);
				Files.SplitPath(eName, pathname, eName);
				f := Files.Old(eName);

				если loi = 260 то
					c.out.пЦел32_мз(96 + цел32(Strings.Length(eName)));		(* next entry offset *)
					c.out.пЦел32_мз(0);		(* file index*)
					c.out.пЦел32_мз(0);		(* created *)
					c.out.пЦел32_мз(0);		(* created *)
					c.out.пЦел32_мз(0);		(* last access *)
					c.out.пЦел32_мз(0);		(* last access *)
					если (f # НУЛЬ) то
						f.GetDate(t,d);
						dTime := Dates.OberonToDateTime(d,t);
						GetSMBTimeStamp(dTime, tarray);
						c.out.пЦел32_мз(tarray[0]);		(* last write *)
						c.out.пЦел32_мз(tarray[1]);		(* last write *)
					иначе
						c.out.пЦел32_мз(0);		(* last write *)
						c.out.пЦел32_мз(0);		(* last write *)
					всё;

					c.out.пЦел32_мз(0);		(* change *)
					c.out.пЦел32_мз(0);		(* change *)

					если (f # НУЛЬ) то
						c.out.пЦел32_мз(f.Length()(цел32));		(* eof *)
						c.out.пЦел32_мз(0);		(* eof *)
					иначе
						c.out.пЦел32_мз(0);		(* eof *)
						c.out.пЦел32_мз(0);		(* eof *)
					всё;

					если (f # НУЛЬ) то
						c.out.пЦел32_мз(f.Length()(цел32));		(* alloc *)
					иначе
						c.out.пЦел32_мз(0);		(* alloc *)
					всё;

					c.out.пЦел32_мз(0);		(* alloc *)
					flags := {};
					если (Files.Directory в eFlags) то включиВоМнвоНаБитах(flags, 4); всё;
					если (Files.ReadOnly в eFlags) то включиВоМнвоНаБитах(flags, 0) всё;
					c.out.пЦел32_мз(цел32( flags));		(* file attr *)
					c.out.пЦел32_мз(1 + цел32(Strings.Length(eName)));		(* filename len *)
					c.out.пЦел32_мз(0);		(* ea list *)
					c.out.пЦел8_мз(0);		(* short fn len *)
					c.out.пЦел8_мз(0);		(* reserved *)

					нцДля z := 1 до 24 делай
						c.out.пМладшийБайт_сп(0);
					кц;				(* short filename *)

					c.out.пСтроку8˛включаяСимв0(eName);		(* file name*)
					c.out.пЦел8_мз(0);		(* padding *)
				аесли loi = 1 то
					c.out.пЦел32_мз(0);		(* resume key *)
					c.out.пЦел32_мз(0);		(* created *)
					c.out.пЦел32_мз(0);		(* last access *)

					если (f # НУЛЬ) то
						f.GetDate(t,d);
						dTime := Dates.OberonToDateTime(d,t);
						GetUnixTimeStamp(dTime, t);
						c.out.пЦел32_мз(t);		(* last write *)
						c.out.пЦел32_мз(f.Length()(цел32));		(* data size *)
						c.out.пЦел32_мз(f.Length()(цел32));		(* alloc size *)
					иначе
						c.out.пЦел32_мз(0);		(* last write *)
						c.out.пЦел32_мз(0);
						c.out.пЦел32_мз(0);
					всё;

					flags := {};
					если (Files.Directory в eFlags) то включиВоМнвоНаБитах(flags, 4); всё;
					если (Files.ReadOnly в eFlags) то включиВоМнвоНаБитах(flags, 0) всё;
					c.out.пЦел16_мз(цел16(flags));			(* file attri *)
					c.out.пЦел8_мз(цел8(Strings.Length(eName)));	(* filename len *)
					c.out.пСтроку8˛включаяСимв0(eName);		(* file name*)
				всё;
			всё;
			умень(i);
		кц;
		c.out.ПротолкниБуферВПоток();
		enum.Close();
	аесли (subcmd = 2) то
		если Trace то ЛогЯдра.пСтроку8(" -- FIND Next 2"); ЛогЯдра.пВК_ПС(); всё;
		c.in.чЦел16_мз(sidnext);
		c.in.чЦел16_мз(searchCount);
		c.in.чЦел16_мз(loi);
		c.in.ПропустиБайты(6);
		c.in.чСтроку8˛включаяСимв0(resumeFn);
		GetPattern(sidnext, pattern);
		ReplaceSlash(pattern);
		GetSharename(c);

		если Trace то
			ЛогЯдра.пСтроку8(" _- Search Count: "); ЛогЯдра.пЦел64(searchCount, 0); ЛогЯдра.пВК_ПС();
			ЛогЯдра.пСтроку8(" _- Resume Filename: "); ЛогЯдра.пСтроку8(resumeFn); ЛогЯдра.пВК_ПС();
			ЛогЯдра.пСтроку8(" -- Pattern: "); ЛогЯдра.пСтроку8(pattern); ЛогЯдра.пВК_ПС();
			ЛогЯдра.пСтроку8(" -- Level of Interest: "); ЛогЯдра.пЦел64(loi, 0); ЛогЯдра.пВК_ПС();
			ЛогЯдра.пСтроку8(" -- sharename: "); ЛогЯдра.пСтроку8(c.sharename); ЛогЯдра.пВК_ПС();
		всё;

		Strings.Concat(c.sharename, pattern, modPat);

		если Trace то ЛогЯдра.пСтроку8(" -- Modprefix: "); ЛогЯдра.пСтроку8(modPat); ЛогЯдра.пВК_ПС(); всё;

		нов(enum);
		enum.Open(modPat, {});

		если searchCount > 100 то
			searchCount := 100;
		всё;

		i := 0;
		totalFileNameLen := 0;

		нцПока (eName # resumeFn) и (enum.HasMoreEntries()) делай
			success := enum.GetEntry(fullName, eFlags, eTime, eDate, eSize);
			если success то
				Files.SplitName(fullName, prefix, eName);
				Files.SplitPath(eName, pathname, eName);
			всё;
		кц;

		нцПока (enum.HasMoreEntries()) и (i < searchCount) делай
			success := enum.GetEntry(fullName, eFlags, eTime, eDate, eSize);
			если success то
				Files.SplitName(fullName, prefix, eName);
				Files.SplitPath(eName, pathname, eName);
				totalFileNameLen := totalFileNameLen + цел16(Strings.Length(eName));
				lastlen := цел16(Strings.Length(eName));
				увел(i);
			всё;
		кц;

		eos := ~enum.HasMoreEntries();

		если Trace то ЛогЯдра.пСтроку8(" -- Files found: "); ЛогЯдра.пЦел64(i, 0); ЛогЯдра.пВК_ПС(); всё;

		если loi = 260 то
			j := 96*i + totalFileNameLen;
			lastlen := lastlen + 96;
		аесли loi = 1 то
			j := 28*i + totalFileNameLen;
			lastlen := lastlen + 28;
		иначе
			если Trace то ЛогЯдра.пСтроку8(" -- LEVEL OF INTEREST NOT SUPPORTED "); ЛогЯдра.пВК_ПС(); всё;
			возврат;
		всё;

		(* SEND *)
		c.netbios := 32 + 23 + 8 + j;
		WriteSMBHeader(c);
		c.out.пМладшийБайт_сп(8);
		c.out.пЦел16_мз(8); 		(* total parameter count *)
		c.out.пЦел16_мз(j); 			(* total data count *)
		c.out.п2МладшихБайта_сп(0);
		c.out.пЦел16_мз(8);  		(* parameter count *)
		c.out.пЦел16_мз(55); 		(* parameter offset *)
		c.out.пЦел16_мз(0);
		c.out.пЦел16_мз(j); 			(* data count *)
		c.out.пЦел16_мз(63); 		(* data offset *)
		c.out.пЦел16_мз(0);
		c.out.пМладшийБайт_сп(0);
		c.out.пМладшийБайт_сп(0);
		c.out.пЦел16_мз(10 +  j); 	(* byte count *)
		c.out.пЦел16_мз(i); 			(* search count *)

		если eos то
			c.out.пЦел16_мз(1); 	(* end of search *)
		иначе
			c.out.пЦел16_мз(0); 	(* end of search *)
		всё;

		c.out.пЦел16_мз(0); 		(* ea error *)
		c.out.пЦел16_мз(j - lastlen);(* lastnameoffset *)
		enum.Reset();

		нцПока (eName # resumeFn) и (enum.HasMoreEntries()) делай
			success := enum.GetEntry(fullName, eFlags, eTime, eDate, eSize);
			если success то
				Files.SplitName(fullName, prefix, eName);
				Files.SplitPath(eName, pathname, eName);
			всё;
		кц;

		нцПока (i > 0) делай
			success := enum.GetEntry(fullName, eFlags, eTime, eDate, eSize);
			если success то
				Files.SplitName(fullName, prefix, eName);
				Files.SplitPath(eName, pathname, eName);
				f := Files.Old(eName);

				если loi = 260 то
					c.out.пЦел32_мз(96 + цел32(Strings.Length(eName)));		(* next entry offset *)
					c.out.пЦел32_мз(0);		(* file index*)
					c.out.пЦел32_мз(0);		(* created *)
					c.out.пЦел32_мз(0);		(* created *)
					c.out.пЦел32_мз(0);		(* last access *)
					c.out.пЦел32_мз(0);		(* last access *)

					если (f # НУЛЬ) то
						f.GetDate(t,d);
						dTime := Dates.OberonToDateTime(d,t);
						GetSMBTimeStamp(dTime, tarray);
						c.out.пЦел32_мз(tarray[0]);		(* last write *)
						c.out.пЦел32_мз(tarray[1]);		(* last write *)
					иначе
						c.out.пЦел32_мз(0);		(* last write *)
						c.out.пЦел32_мз(0);		(* last write *)
					всё;

					c.out.пЦел32_мз(0);		(* change *)
					c.out.пЦел32_мз(0);		(* change *)

					если (f # НУЛЬ) то
						c.out.пЦел32_мз(f.Length()(цел32));		(* eof *)
						c.out.пЦел32_мз(0);		(* eof *)
						c.out.пЦел32_мз(f.Length()(цел32));		(* alloc *)
						c.out.пЦел32_мз(0);		(* alloc *)
					иначе
						c.out.пЦел32_мз(0);		(* eof *)
						c.out.пЦел32_мз(0);		(* eof *)
						c.out.пЦел32_мз(0);		(* alloc *)
						c.out.пЦел32_мз(0);		(* alloc *)
					всё;

					flags := {};
					если (Files.Directory в eFlags) то включиВоМнвоНаБитах(flags, 4); всё;
					если (Files.ReadOnly в eFlags) то включиВоМнвоНаБитах(flags, 0) всё;
					c.out.пЦел32_мз(цел32( flags));		(* file attr *)

					c.out.пЦел32_мз(1 + цел32(Strings.Length(eName)));		(* filename len *)
					c.out.пЦел32_мз(0);		(* ea list *)
					c.out.пЦел8_мз(0);		(* short fn len *)
					c.out.пЦел8_мз(0);		(* reserved *)

					нцДля z := 1 до 24 делай
						c.out.пМладшийБайт_сп(0);
					кц;				(* short filename *)

					c.out.пСтроку8˛включаяСимв0(eName);		(* file name*)
					c.out.пЦел8_мз(0);		(* padding *)
				аесли loi = 1 то
					c.out.пЦел32_мз(0);		(* resume key *)
					c.out.пЦел32_мз(0);		(* created *)
					c.out.пЦел32_мз(0);		(* last access *)

					если (f # НУЛЬ) то
						f.GetDate(t,d);
						dTime := Dates.OberonToDateTime(d,t);
						GetUnixTimeStamp(dTime, t);
						c.out.пЦел32_мз(t);		(* last write *)
						c.out.пЦел32_мз(f.Length()(цел32));		(* data size *)
					иначе
						c.out.пЦел32_мз(0);		(* last write *)
						c.out.пЦел32_мз(0);
					всё;

					если (f # НУЛЬ) то
						c.out.пЦел32_мз(f.Length()(цел32));		(* alloc size *)
					иначе
						c.out.пЦел32_мз(0);
					всё;

					flags := {};
					если (Files.Directory в eFlags) то включиВоМнвоНаБитах(flags, 4); всё;
					если (Files.ReadOnly в eFlags) то включиВоМнвоНаБитах(flags, 0) всё;
					c.out.пЦел16_мз(цел16(flags));			(* file attri *)
					c.out.пЦел8_мз(цел8(Strings.Length(eName)));	(* filename len *)
					c.out.пСтроку8˛включаяСимв0(eName);		(* file name*)
				всё;
			всё;
			умень(i);
		кц;
		c.out.ПротолкниБуферВПоток();
		enum.Close();
	всё;
кон Trans2Logic;

проц WriteSMBHeader(c: Connection);
нач
	c.in.ОчистьСостояниеБуфера();
	c.out.Сбрось();
	c.out.п2МладшихБайта_сп(0);			(* message type *)
	c.out.п2МладшихБайта_сп(c.netbios);	(* Netbios length *)
	c.out.пСимв8(симв8ИзКода(255));
	c.out.пСтроку8("SMB");
	c.out.пМладшийБайт_сп(c.cmd);		(* Command *)

	если ~c.error то
		c.out.пЦел32_сп(0);		(* status code *)
	иначе
		c.out.пЦел32_мз(c.errorcode);
	всё;

	c.out.пМладшийБайт_сп(90H);		(* FLAGS *)
	c.out.пЦел16_мз(1);			(* FLAGS 2 *)
	c.out.пЦел32_сп(0);
	c.out.пЦел32_сп(0);			(* EXTRA *)
	c.out.пЦел32_сп(0);

	если (c.cmd = кодСимв8(75X)) то
		c.tid := GetTID();
	всё;

	c.out.пЦел16_мз(c.tid);		(* TID *)
	c.out.пЦел16_мз(c.pid);		(* PID *)

	если (c.cmd = кодСимв8(73X)) то
		c.uid := GetUID();
	всё;

	c.out.пЦел16_мз(c.uid);		(* UID *)
	c.out.пЦел16_мз(c.mid);		(* MID *)
кон WriteSMBHeader;

проц CheckSMBHeader(перем c: Connection): булево;
перем
	variable: цел32;
нач
	c.in.ПропустиБайты(2);
	c.msgSize := c.in.чЦел16_сп();	(* NetBios length *)
	variable := c.in.чЦел32_сп();		(* 0xFF SMB *)

	если variable # -11317950 то
		c.error := истина;			(* not correct *)
		возврат истина;
	всё;

	c.cmd := c.in.чЦел8сп();
	variable := c.in.чЦел32_сп();		(* NT Status *)

	если variable # 0 то
		c.error := истина;			(* not correct *)
		возврат истина;
	всё;

	c.flags := c.in.чЦел8сп();
	c.in.чЦел16_мз(c.flags2);
	c.in.ПропустиБайты(12);
	c.in.чЦел16_мз(c.tid);
	c.in.чЦел16_мз(c.pid);
	c.in.чЦел16_мз(c.uid);
	c.in.чЦел16_мз(c.mid);
	возврат ложь;
кон CheckSMBHeader;

проц ReplaceSlash(перем name: массив из симв8);
перем
	i: цел32;
нач
	i := 0;
	нцПока (i < Strings.Length(name)) делай
		если name[i] = симв8ИзКода(5CH) то
			name[i] := симв8ИзКода(2FH);
		всё;
		увел(i)
	кц;
кон ReplaceSlash;

проц RemoveQuotes(перем name: массив из симв8);
перем
	i,j: цел32;
	newName: массив 256 из симв8;
нач
	i := 0;
	j := 0;
	нцПока (i < Strings.Length(name)) делай
		если name[i] # симв8ИзКода(22H) то
			newName[j] := name[i];
			увел(i);
			увел(j);
		иначе
			увел(i);
		всё;
	кц;
	копируйСтрокуДо0(newName, name);
кон RemoveQuotes;

проц RemoveSlash(перем name: массив из симв8);
перем
	i: цел32;
нач
	i := 1;
	нцПока (i <= Strings.Length(name)) делай
		name[i-1] := name[i];
		увел(i)
	кц;
кон RemoveSlash;

проц NewAgent(c: TCP.Connection; s: TCPServices.Service): TCPServices.Agent;
перем
	a: Agent;
нач
	нов(a, c, s);
	возврат a;
кон NewAgent;

проц StartServer*(context: Commands.Context);
перем
	res: целМЗ;
нач {единолично}
	если service = НУЛЬ то
		lastUID := 777;
		lastTID := 555;
		lastFID := 333;
		lastSID := 111;
		нов(firstConn);

		нов(service, SMBPort, NewAgent, res);

		context.out.пСтроку8("Start SambaServer...");
		если res = TCPServices.Ok то
			context.out.пСтроку8("started!");
			context.out.пВК_ПС();
		иначе
			context.out.пВК_ПС();
			context.out.пСтроку8("Could not start SambaServer. Res: ");
			context.out.пЦел64(res, 0);
			context.out.пВК_ПС();
			service := НУЛЬ;
		всё;
	иначе
		context.out.пСтроку8("SambaServer already running...");
		context.out.пВК_ПС();
	всё;
кон StartServer;

проц StopServer*(context: Commands.Context);
нач {единолично}
	если service # НУЛЬ то
		service.Stop();
		service := НУЛЬ;
		context.out.пСтроку8("SambaServer stopped!");
		context.out.пВК_ПС();
	иначе
		context.out.пСтроку8("SambaServer was already stopped!");
		context.out.пВК_ПС();
	всё;
кон StopServer;

проц FindShare(конст unc : массив из симв8) : Share;
перем share : Share;
нач {единолично}
	share := shares;
	нцПока (share # НУЛЬ) и (share.unc # unc) делай share := share.next; кц;
	возврат share;
кон FindShare;

проц AddShare*(context : Commands.Context); (** name sharepath ~ *)
перем share : Share; prefix : Files.Prefix; path : Files.FileName;
нач
	нов(share);
	context.arg.ПропустиБелоеПоле; context.arg.чЦепочкуСимволов8ДоБелогоПоляИлиВКавычках(share.unc);
	context.arg.ПропустиБелоеПоле; context.arg.чЦепочкуСимволов8ДоБелогоПоляИлиВКавычках(share.path);
	Files.SplitName(share.path, prefix, path);
	если (prefix # "") то
		если FindShare(share.unc) = НУЛЬ то
			нач {единолично}
				share.next := shares;
				shares := share;
			кон;
			context.out.пСтроку8("Added share "); context.out.пСтроку8(share.unc);
			context.out.пСтроку8(" ("); context.out.пСтроку8(share.path);
			context.out.пСтроку8(")"); context.out.пВК_ПС;
		иначе
			context.error.пСтроку8("UNC "); context.error.пСтроку8(share.unc);
			context.error.пСтроку8(" is already used."); context.error.пВК_ПС;
		всё;
	иначе
		context.error.пСтроку8("Prefix required"); context.error.пВК_ПС;
	всё;
кон AddShare;

проц ListShares*(context : Commands.Context);
перем share : Share;
нач {единолично}
	context.out.пСтроку8("SambaServer share list: "); context.out.пВК_ПС;
	если (shares # НУЛЬ) то
		share := shares;
		нцПока (share # НУЛЬ) делай
			context.out.пСтроку8(share.unc); context.out.пСтроку8(" -> ");
			context.out.пСтроку8(share.path); context.out.пВК_ПС;
			share := share.next;
		кц;
	иначе
		context.out.пСтроку8("No shares"); context.out.пВК_ПС;
	всё;
кон ListShares;

проц GetSMBTimeStamp(dtNow:Dates.DateTime; перем t: массив из цел32);
перем
	dtOld : Dates.DateTime;
	diffDay, diffHour, diffMinute, diffSecond: цел32;
	tsNow : цел64;
нач
	dtOld.year := 1601;
	dtOld.month := 1;
	dtOld.day := 1;
	dtOld.hour := 0;
	dtOld.minute := 0;
	dtOld.second := 0;
	Dates.TimeDifference(dtOld, dtNow, diffDay, diffHour, diffMinute, diffSecond);
	tsNow := diffDay * 86400 + diffHour * 3600 + diffMinute * 60 + diffSecond;
	tsNow := tsNow * 10000000;
	t[0] := устарПреобразуйКБолееУзкомуЦел(tsNow);
	t[1] := устарПреобразуйКБолееУзкомуЦел(tsNow DIV 100000000H);
кон GetSMBTimeStamp;

проц GetUnixTimeStamp(dtNow: Dates.DateTime; перем t: цел32);
перем
	dtOld : Dates.DateTime;
	diffDay, diffHour, diffMinute, diffSecond: цел32;
нач
	dtOld.year := 1970;
	dtOld.month := 1;
	dtOld.day := 1;
	dtOld.hour := 0;
	dtOld.minute := 0;
	dtOld.second := 0;
	Dates.TimeDifference(dtOld, dtNow, diffDay, diffHour, diffMinute, diffSecond);
	t := diffDay * 86400 + diffHour * 3600 + diffMinute * 60 + diffSecond;
кон GetUnixTimeStamp;

проц GetDOSTimeStamp(dtNow: Dates.DateTime; перем t: цел32);
перем
	hour, minute, second, year, month, day: цел32;
нач
	hour := арифмСдвиг(dtNow.hour, 27);
	minute := арифмСдвиг(dtNow.minute, 21);
	second := арифмСдвиг(dtNow.second DIV 2, 16);
	year := арифмСдвиг(dtNow.year - 1980, 9);
	month := арифмСдвиг(dtNow.month, 5);
	day := dtNow.day;
	t := hour + minute + second + year + month + day;
кон GetDOSTimeStamp;

проц Cleanup;
нач {единолично}
	если service # НУЛЬ то
		service.Stop();
		service := НУЛЬ;
	всё;
кон Cleanup;

нач
	shares := НУЛЬ;
	Modules.InstallTermHandler(Cleanup);
кон SambaServer.
(*
SambaServer.StartServer ~
SambaServer.StopServer ~
System.Free SambaServer ~

SambaServer.ListShares ~
SambaServer.AddShare \AOS AOS: ~
SambaServer.AddShare \FAT FAT:Test/ ~
SambaServer.AddShare \Test ../Legal/ ~

*)
