модуль WebStd; (** AUTHOR "Luc Blaeser"; PURPOSE "Standard Active Element Library for Dynamic Webpage Generation"*)

использует DynamicWebpage, PrevalenceSystem, HTTPSupport, HTTPSession, GenericSort, XML, XMLObjects, DynamicStrings,
	Dates, Strings, TFClasses, ЛогЯдра, WebHTTP;

конст
	DateTimeFormat* = "dd.mm.yyyy hh:nn:ss";

	SessionContainerNamePrefix = "dxp-WebStd-sessioncontainer-";
	SessionVariableNamePrefix = "dxp-WebStd-variable-";
	SessionGuardNamePrefix = "dxp-WebStd-Guard-";
	SessionVisitorCounterPrefix = "dxp-WebStd-VisitorCounter-";

тип
	(** normal XHTML attribute and element names should be lowercase *)

	(** hyperlink with implicit delegation of sessionid if target is not another webserver.
	 * if href is not specified then the previously requested page is used as href .
	 * usage expamle:
	 *  <WebStd:Hyperlink href="site.dxp" target="mainview" ...>text or image</WebStd:Hyperlink> *)
	Hyperlink* = окласс (DynamicWebpage.StateLessActiveElement)

		проц {перекрыта}Transform*(input: XML.Element; request: HTTPSupport.HTTPRequest) : XML.Content;
		перем a: XML.Element; hrefString, attrName, sessionCounterStr: Strings.String; newUri: массив 4096 из симв8;
			enum: XMLObjects.Enumerator; p: динамическиТипизированныйУкль; attr: XML.Attribute; content: XML.Content;
			dynStr: DynamicStrings.DynamicString; session: HTTPSession.Session;
		нач
			session := HTTPSession.GetSession(request); (* session # NIL *)
			hrefString := input.GetAttributeValue("href");
			если ((hrefString = НУЛЬ) или (~IsExternalHyperlink(hrefString^, request.header.host))) то
				если (hrefString # НУЛЬ) то
					копируйСтрокуДо0(hrefString^, newUri);
					если (Strings.Pos("?", hrefString^) = -1) то
						Strings.Append(newUri, "?")
					иначе
						Strings.Append(newUri, "&")
					всё
				иначе
					(* href is the previous requested page *)
					Strings.Concat(request.shortUri, "?", newUri)
				всё;
				Strings.Append(newUri, HTTPSession.HTTPVarSessionIdName);
				Strings.Append(newUri, "=");
				Strings.Append(newUri, session.sessionId);

				p := session.GetVariableValue(DynamicWebpage.StateCounterVariable);
				если ((p # НУЛЬ) и (p суть DynamicStrings.DynamicString)) то
					dynStr := p(DynamicStrings.DynamicString); sessionCounterStr := dynStr.ToArrOfChar(); (* sessionCounterStr # NIL *)
					Strings.Append(newUri, "&");
					Strings.Append(newUri, DynamicWebpage.StateCounterVariable);
					Strings.Append(newUri, "=");
					Strings.Append(newUri, sessionCounterStr^)
				всё
			иначе
				копируйСтрокуДо0(hrefString^, newUri)
			всё;

			нов(a); a.SetName("a"); a.SetAttributeValue("href", newUri);
			enum := input.GetAttributes();
			нцПока (enum.HasMoreElements()) делай
				p := enum.GetNext(); attr := p(XML.Attribute);
				attrName := attr.GetName();
				если ((attrName # НУЛЬ) и (attrName^ # "href") и (Strings.Pos("xmlns", attrName^) # 0)) то
					a.AddAttribute(attr)
				всё
			кц;
			enum := input.GetContents();
			нцПока (enum.HasMoreElements()) делай
				p := enum.GetNext(); content := p(XML.Content);
				a.AddContent(content)
			кц;

			возврат a
		кон Transform;
	кон Hyperlink;

	(** returns a HTTP header field value specified by name attribute and special header properties like "#ip", "#port", "#method"
	 *     <WebStd:GetHeaderField name="referer" />
	 *)
	GetHeaderField* = окласс(DynamicWebpage.StateLessActiveElement)
		проц {перекрыта}Transform*(elem: XML.Element; request: HTTPSupport.HTTPRequest) : XML.Content;
		перем fieldName : Strings.String;
			result : массив 256 из симв8;
		нач
			fieldName := elem.GetAttributeValue("name");
			если (fieldName # НУЛЬ) то
				WebHTTP.GetRequestPropertyValue(request.header, fieldName^, result);
				возврат CreateXMLText(result)
			иначе возврат НУЛЬ
			всё
		кон Transform;
	кон GetHeaderField;

	(** set a session global variable, usage example:
	 *  <WebStd:SetVariable name="myvar" value="myVal"/>
	*)
	SetVariable* = окласс(DynamicWebpage.StateLessActiveElement)
		проц {перекрыта}Transform*(elem: XML.Element; request: HTTPSupport.HTTPRequest) : XML.Content;
		перем varName, varValue, encVarName: Strings.String; session: HTTPSession.Session;
			dynVarValue, dynVarName: DynamicStrings.DynamicString;
		нач (* only DynamicString can have a type guard for PTR *)
			varName := elem.GetAttributeValue("name");
			varValue := elem.GetAttributeValue("value");
			если ((varName # НУЛЬ) и (varValue # НУЛЬ)) то
				нов(dynVarValue); dynVarValue.Append(varValue^);
				нов(dynVarName); Concat(dynVarName, SessionVariableNamePrefix);
				dynVarName.Append(varName^);
				encVarName := dynVarName.ToArrOfChar();
				session := HTTPSession.GetSession(request);
				session.AddVariableValue(encVarName^, dynVarValue)
			всё;
			возврат НУЛЬ
		кон Transform;
	кон SetVariable;

	(** get a session global variable, usage example:
	 *  <WebStd:GetVariable name="myvar"/>
	*)
	GetVariable* = окласс(DynamicWebpage.StateLessActiveElement)
		проц {перекрыта}Transform*(elem: XML.Element; request: HTTPSupport.HTTPRequest) : XML.Content;
		перем varName, varValue, encVarName: Strings.String; session: HTTPSession.Session;
			dynVarValue, dynVarName: DynamicStrings.DynamicString; p: динамическиТипизированныйУкль;
		нач
			varName := elem.GetAttributeValue("name");
			если (varName # НУЛЬ) то
				нов(dynVarName); Concat(dynVarName, SessionVariableNamePrefix);
				dynVarName.Append(varName^);
				encVarName := dynVarName.ToArrOfChar();
				session := HTTPSession.GetSession(request);
				p := session.GetVariableValue(encVarName^);
				если ((p # НУЛЬ) и (p суть DynamicStrings.DynamicString)) то
					dynVarValue := p(DynamicStrings.DynamicString);
					если (dynVarValue.Length() > 0) то
						varValue := dynVarValue.ToArrOfChar();
						возврат CreateXMLText(varValue^)
					всё
				всё
			всё;
			возврат НУЛЬ
		кон Transform;
	кон GetVariable;

	(** conditional element. If 'condition' contains exactly the text "true" then the 'Expression'-content is the result.
	 * If 'condition' contains exactly the text 'false' then no result will be generated and active elements apearing
	 * under the 'Expression'-element will not be transformed.
	 * The condition value could be the result of another active element like <WebStd:IsEqual>
	 * "WebStd:IsEqual". Usage example:
	 * <WebStd:Guard>
	 *    <Condition>true|false</Condition>
	 *    <Expression> .. </Expression>
	 * </WebStd:Guard>
	 *)
	Guard* = окласс (DynamicWebpage.StateLessActiveElement)
		(* the 'Expression' subtree is only transformed if the condition has the value 'true'. Since the condition can have
		 * further active element in its content, it can only be decided in the Transform()-method if the contents of
		 * the 'Expression'-element will be used for the transformation result.
		 * Therefore in PreTransform the 'Expression'-subtree is cut out and stored into the session using the
		 * SessionGuardNamePrefix followed by the request.shortUri to support parallel requests of the same client
		 * for different documents with if statements. The use of a state full active element would result in worse
		 * performance, since each 'Guard'-occurence would have its own instances *)
		проц {перекрыта}Transform*(elem: XML.Element; request: HTTPSupport.HTTPRequest) : XML.Content;
		перем conditionElem, expressionElem: XML.Element; session: HTTPSession.Session;
			dynVarName: DynamicStrings.DynamicString; varName, condText: Strings.String; p: динамическиТипизированныйУкль;
			outContainer: XML.Container;
		нач
			session := HTTPSession.GetSession(request);

			нов(dynVarName); Concat(dynVarName, SessionGuardNamePrefix);
			dynVarName.Append(request.shortUri);
			varName := dynVarName.ToArrOfChar();
			p := session.GetVariableValue(varName^);
			если ((p # НУЛЬ) и (p суть XML.Element)) то
				expressionElem := p(XML.Element)
			иначе
				expressionElem := НУЛЬ
			всё;
			session.RemoveVariable(varName^);

			conditionElem := GetXMLSubElement(elem, "Condition");
			если (conditionElem # НУЛЬ) то
				condText := GetXMLCharContent(conditionElem);
				если ((condText # НУЛЬ) и (condText^ = "true")) то
					если (expressionElem # НУЛЬ) то
						нов(outContainer);
						CopyXMLSubContents(expressionElem, outContainer);
						возврат outContainer
					иначе
						возврат НУЛЬ
					всё
				аесли ((condText # НУЛЬ) и (condText^ = "false")) то
					возврат НУЛЬ
				иначе
					нов(outContainer);
					AppendXMLContent(outContainer, CreateXMLText("WebStd:Guard: Condition value must be either 'true' or 'false' but not "));
					если (condText # НУЛЬ) то AppendXMLContent(outContainer, CreateXMLText(condText^)) всё;
					возврат outContainer
				всё
			иначе
				возврат CreateXMLText("No condition specified for WebStd:Guard.")
			всё
		кон Transform;

		проц {перекрыта}PreTransform*(elem: XML.Element; request: HTTPSupport.HTTPRequest) : XML.Content;
		перем expressionElem: XML.Element; session: HTTPSession.Session; dynVarName: DynamicStrings.DynamicString;
			varName: Strings.String;
		нач
			session := HTTPSession.GetSession(request);
			expressionElem := GetXMLSubElement(elem, "Expression");

			нов(dynVarName); Concat(dynVarName, SessionGuardNamePrefix);
			dynVarName.Append(request.shortUri);
			varName := dynVarName.ToArrOfChar();
			session.AddVariableValue(varName^, expressionElem);

			если (expressionElem # НУЛЬ) то
				elem.RemoveContent(expressionElem)
			всё;
			возврат elem
		кон PreTransform;
	кон Guard;

	(** sequence over multiple requests of one page for a session. If the attribute 'circular' is set to 'true' then at the end of the
	 * sequence the sequence will be restarted. if the sequence is non circular and has reached the last state then it stays in
	 * the last state. Usage example:
	 * <WebStd:Sequence id="mySeq3" circular="true">
	 * 	<State> .. <State>
	 *	 <State> .. <State>
	 *    ..
	 * </WebStd:Sequence>
	 * the event "SetState" with parameter "pos" can be used to set the actual state position for a sequence *)
	Sequence* = окласс (DynamicWebpage.StateFullActiveElement)
		перем
			stateCounter: цел32;

		проц &Init*;
		нач stateCounter := 0
		кон Init;

		проц {перекрыта}Transform*(elem: XML.Element; request: HTTPSupport.HTTPRequest) : XML.Content;
		нач возврат elem
		кон Transform;

		проц {перекрыта}PreTransform*(elem: XML.Element; request: HTTPSupport.HTTPRequest) : XML.Content;
		перем p: динамическиТипизированныйУкль; enum: XMLObjects.Enumerator; counter: цел32; state, actState: XML.Element;
			stateName: Strings.String; container: XML.Container; content: XML.Content; circularVal: Strings.String;
		нач
			actState:= НУЛЬ; counter := 0;
			enum := elem.GetContents();
			нцПока (enum.HasMoreElements()) делай
				p := enum.GetNext();
				если (p суть XML.Element) то
					state := p(XML.Element); stateName := state.GetName();
					если ((stateName # НУЛЬ) и (stateName^ = "State")) то
						если (stateCounter = counter) то
							actState := state
						всё;
						увел(counter);
					всё
				всё
			кц;

			увел(stateCounter);
			circularVal := elem.GetAttributeValue("circular");
			если ((counter > 0) и (stateCounter >= counter)) то
				если ((circularVal # НУЛЬ) и (circularVal^ = "true")) то
					stateCounter := stateCounter остОтДеленияНа counter
				иначе
					stateCounter := counter-1
				всё
			всё;

			если (actState # НУЛЬ) то
				нов(container);
				enum := actState.GetContents();
				нцПока (enum.HasMoreElements()) делай
					p := enum.GetNext(); content := p(XML.Content);
					container.AddContent(content)
				кц;
				возврат container
			иначе (* end of the sequence was already reached *)
				возврат НУЛЬ
			всё
		кон PreTransform;

		проц SetState(request: HTTPSupport.HTTPRequest; params: DynamicWebpage.ParameterList);
	 		(* parameters "pos" *)
		перем posStr: Strings.String;
	 	нач
	 		posStr := params.GetParameterValueByName("pos");
	 		если (posStr # НУЛЬ) то
		 		Strings.StrToInt(posStr^, stateCounter)
		 	иначе
		 		ЛогЯдра.пСтроку8("WebStd:Sequence - event handler 'SetState' has parameter 'pos'.");
		 		ЛогЯдра.пВК_ПС
		 	всё
	 	кон SetState;

    	проц {перекрыта}GetEventHandlers*() : DynamicWebpage.EventHandlerList;
		перем list: DynamicWebpage.EventHandlerList;
		нач
			нов(list, 1);
			нов(list[0], "SetState", SetState);
			возврат list
		кон GetEventHandlers;
	кон Sequence;

	(** an equal comparison for two XML subforests in 'Arg1' and 'Arg2'.
	 * Returns 'true' iff the subforests are equal otherwise 'false'. Usage example:
	 *   <WebStd:IsEqual>
	 *      <Arg1></Arg1>
	 *      <Arg2></Arg2>
	 *   </WebStd:IsEqual> *)
	IsEqual* = окласс (DynamicWebpage.StateLessActiveElement)
		проц Compare(arg1, arg2: XML.Content) : булево;
		перем chars1, chars2: XML.Chars; str1, str2: Strings.String; cref1, cref2: XML.CharReference;
			ncont1, ncont2: XML.NameContent; attr1, attr2: XML.Attribute; cont1, cont2: XML.Container;
			enum1, enum2: XMLObjects.Enumerator; p1, p2: динамическиТипизированныйУкль; content1, content2: XML.Content;
			elem1, elem2: XML.Element;
		нач
			если ((arg1 = НУЛЬ) или (arg2 = НУЛЬ)) то
				возврат arg1 = arg2
			аесли (arg1 суть XML.Chars) то
				если (arg2 суть XML.Chars) то
					chars1 := arg1(XML.Chars); chars2 := arg2(XML.Chars);
					str1 := chars1.GetStr(); str2 := chars2.GetStr();
					если ((str1 # НУЛЬ) и (str2 # НУЛЬ)) то
						возврат str1^ = str2^
					иначе
						возврат str1 = str2
					всё
				иначе
					возврат ложь
				всё
			аесли (arg1 суть XML.CharReference) то
				если (arg2 суть XML.CharReference) то
					cref1 := arg1(XML.CharReference); cref2 := arg2(XML.CharReference);
					возврат cref1.GetCode() = cref2.GetCode()
				иначе
					возврат ложь
				всё
			аесли (arg1 суть XML.NameContent) то
				если (arg2 суть XML.NameContent) то
					ncont1 := arg1(XML.NameContent); ncont2 := arg2(XML.NameContent);
					str1 := ncont1.GetName(); str2 := ncont2.GetName();
					если ((str1 = НУЛЬ) или (str2 = НУЛЬ)) то
						если (str1 # str2) то возврат ложь всё
					аесли (str1^ # str2^) то
						возврат ложь
					всё;
					если (ncont1 суть XML.Attribute) то
						если (ncont2 суть XML.Attribute) то
							attr1 := ncont1(XML.Attribute); attr2 := ncont2(XML.Attribute);
							str1 := attr1.GetValue(); str2 := attr2.GetValue();
							если ((str1 # НУЛЬ) и (str2 # НУЛЬ)) то
								возврат str1^ = str2^
							иначе
								возврат str1 = str2
							всё
						иначе
							возврат ложь
						всё
					всё;
					возврат истина
				иначе
					возврат ложь
				всё
			аесли (arg1 суть XML.Container) то
				если (arg2 суть XML.Container) то
					cont1 := arg1(XML.Container); cont2 := arg2(XML.Container);
					enum1 := cont1.GetContents(); enum2 := cont2.GetContents();
					нцПока ((enum1.HasMoreElements()) и (enum2.HasMoreElements())) делай
						p1 := enum1.GetNext(); p2 := enum2.GetNext();
						content1 := p1(XML.Content); content2 := p2(XML.Content);
						если (~Compare(content1, content2)) то возврат ложь всё
					кц;
					если ((enum1.HasMoreElements()) или (enum2.HasMoreElements())) то возврат ложь всё;
					если (cont1 суть XML.Element) то
						если (cont2 суть XML.Element) то
							elem1 := cont1(XML.Element); elem2 := cont2(XML.Element);
							str1 := elem1.GetName(); str2 := elem2.GetName();
							если ((str1 # НУЛЬ) и (str2 # НУЛЬ)) то
								если (str1^ # str2^) то возврат ложь всё
							иначе
								если (str1 # str2) то возврат ложь всё
							всё;
							enum1 := elem1.GetAttributes(); enum2 := elem2.GetAttributes();
							нцПока ((enum1.HasMoreElements()) и (enum2.HasMoreElements())) делай
								p1 := enum1.GetNext(); p2 := enum2.GetNext();
								content1 := p1(XML.Content); content2 := p2(XML.Content);
								если (~Compare(content1, content2)) то возврат ложь всё
							кц;
							если ((enum1.HasMoreElements()) или (enum2.HasMoreElements())) то возврат ложь всё;
							возврат истина
						иначе
							возврат ложь
						всё;
					всё;
					возврат истина
				иначе
					возврат ложь
				всё
			иначе
				(* not supported *)
				возврат ложь
			всё
		кон Compare;

		проц {перекрыта}Transform*(elem: XML.Element; request: HTTPSupport.HTTPRequest) : XML.Content;
		перем arg1, arg2: XML.Element; enum1, enum2: XMLObjects.Enumerator; p1, p2: динамическиТипизированныйУкль; content1, content2: XML.Content;
		нач
			arg1 := GetXMLSubElement(elem, "Arg1"); arg2 := GetXMLSubElement(elem, "Arg2");
			если ((arg1 # НУЛЬ) и (arg2 # НУЛЬ)) то
				enum1 := arg1.GetContents(); enum2 := arg2.GetContents();
				нцПока ((enum1.HasMoreElements()) и (enum2.HasMoreElements())) делай
					p1 := enum1.GetNext(); p2 := enum2.GetNext();
					content1 := p1(XML.Content); content2 := p2(XML.Content);
					если (~Compare(content1, content2)) то
						возврат CreateXMLText("false")
					всё
				кц;
				если ((enum1.HasMoreElements()) или (enum2.HasMoreElements())) то
					возврат CreateXMLText("false")
				всё;
				возврат CreateXMLText("true")
			иначе
				возврат CreateXMLText("WebStd:IsEqual: Missing 'Arg1' or 'Arg2' subelement")
			всё
		кон Transform;
	кон IsEqual;

	(** returns 'true' if the content is 'false'. If the content is 'false' then it returns 'true'. Usage example
	 * The content could be the results of active elements like 'IsEqual'.
	 * <WebStd:Not>true|false</WebStd:Not> *)
	Not* = окласс(DynamicWebpage.StateLessActiveElement)
		проц {перекрыта}Transform*(elem: XML.Element; request: HTTPSupport.HTTPRequest) : XML.Content;
		перем str: Strings.String;
		нач
			str := GetXMLCharContent(elem);
			если ((str # НУЛЬ) и (str^ = "true")) то
				возврат CreateXMLText("false")
			аесли ((str # НУЛЬ) и (str^ = "false")) то
				возврат CreateXMLText("true")
			иначе
				возврат CreateXMLText("WebStd:Not - Content must be either 'true' or 'false'.")
			всё
		кон Transform;
	кон Not;

	(** returns 'true' if both arguments 'Arg1' and 'Arg2' have content 'true'. If one of them has content 'false' the result will be
	 * 'false'. The contents could be the results of active elements like 'IsEqual'. Usage example:
	 * <WebStd:And>
	 *    <Arg1>true|false</Arg1>
	 *    <Arg2>true|false</Arg2>
	 * </WebStd:And> *)
	 And* = окласс(DynamicWebpage.StateLessActiveElement)
		проц {перекрыта}Transform*(elem: XML.Element; request: HTTPSupport.HTTPRequest) : XML.Content;
		перем arg1, arg2: XML.Element; str1, str2: Strings.String;
		нач
			arg1 := GetXMLSubElement(elem, "Arg1");
			arg2 := GetXMLSubElement(elem, "Arg2");
			если ((arg1 # НУЛЬ) и (arg2 # НУЛЬ)) то
				str1 := GetXMLCharContent(arg1);
				str2 := GetXMLCharContent(arg2);
				если ((str1 # НУЛЬ) и (str1^ = "true") и (str2 # НУЛЬ) и (str2^ = "true")) то
					возврат CreateXMLText("true")
				аесли ((str1 # НУЛЬ) и (str1^ = "true") и (str2 # НУЛЬ) и (str2^ = "false")) то
					возврат CreateXMLText("false")
				аесли ((str1 # НУЛЬ) и (str1^ = "false") и (str2 # НУЛЬ) и (str2^ = "true")) то
					возврат CreateXMLText("false")
				аесли ((str1 # НУЛЬ) и (str1^ = "false") и (str2 # НУЛЬ) и (str2^ = "false")) то
					возврат CreateXMLText("false")
				иначе
					возврат CreateXMLText("WebStd:And - Content of 'Arg1' and 'Arg2' must be either 'true' or 'false'.")
				всё
			иначе
				возврат CreateXMLText("WebStd:And - 'Arg1' or 'Arg2' subelements missing.")
			всё
		кон Transform;
	кон And;

	(** returns 'true' if argument 'Arg1' or 'Arg2' (or both) has content 'true'. If both of them have content 'false'
	 *  the result will be 'false'. The contents could be the results of active elements like 'IsEqual'. Usage example:
	 * <WebStd:Or>
	 *    <Arg1>true|false</Arg1>
	 *    <Arg2>true|false</Arg2>
	 * </WebStd:Or> *)
	 Or* = окласс(DynamicWebpage.StateLessActiveElement)
		проц {перекрыта}Transform*(elem: XML.Element; request: HTTPSupport.HTTPRequest) : XML.Content;
		перем arg1, arg2: XML.Element; str1, str2: Strings.String;
		нач
			arg1 := GetXMLSubElement(elem, "Arg1");
			arg2 := GetXMLSubElement(elem, "Arg2");
			если ((arg1 # НУЛЬ) и (arg2 # НУЛЬ)) то
				str1 := GetXMLCharContent(arg1);
				str2 := GetXMLCharContent(arg2);
				если ((str1 # НУЛЬ) и (str1^ = "false") и (str2 # НУЛЬ) и (str2^ = "false")) то
					возврат CreateXMLText("false")
				аесли ((str1 # НУЛЬ) и (str1^ = "true") и (str2 # НУЛЬ) и (str2^ = "false")) то
					возврат CreateXMLText("true")
				аесли ((str1 # НУЛЬ) и (str1^ = "false") и (str2 # НУЛЬ) и (str2^ = "true")) то
					возврат CreateXMLText("true")
				аесли ((str1 # НУЛЬ) и (str1^ = "true") и (str2 # НУЛЬ) и (str2^ = "true")) то
					возврат CreateXMLText("true")
				иначе
					возврат CreateXMLText("WebStd:Or - Content of 'Arg1' and 'Arg2' must be either 'true' or 'false'.")
				всё
			иначе
				возврат CreateXMLText("WebStd:Or - 'Arg1' or 'Arg2' subelements missing.")
			всё
		кон Transform;
	кон Or;

	(** returns 'true' if argument either 'Arg1' or 'Arg2' has content 'true'. If both of them have the same content 'true' or 'false'
	 *  the result will be 'false'. The contents could be the results of active elements like 'IsEqual'. Usage example:
	 * <WebStd:Xor>
	 *    <Arg1>true|false</Arg1>
	 *    <Arg2>true|false</Arg2>
	 * </WebStd:Xor> *)
	 Xor* = окласс(DynamicWebpage.StateLessActiveElement)
		проц {перекрыта}Transform*(elem: XML.Element; request: HTTPSupport.HTTPRequest) : XML.Content;
		перем arg1, arg2: XML.Element; str1, str2: Strings.String;
		нач
			arg1 := GetXMLSubElement(elem, "Arg1");
			arg2 := GetXMLSubElement(elem, "Arg2");
			если ((arg1 # НУЛЬ) и (arg2 # НУЛЬ)) то
				str1 := GetXMLCharContent(arg1);
				str2 := GetXMLCharContent(arg2);
				если ((str1 # НУЛЬ) и (str1^ = "true") и (str2 # НУЛЬ) и (str2^ = "false")) то
					возврат CreateXMLText("true")
				аесли ((str1 # НУЛЬ) и (str1^ = "false") и (str2 # НУЛЬ) и (str2^ = "true")) то
					возврат CreateXMLText("true")
				аесли ((str1 # НУЛЬ) и (str1^ = "false") и (str2 # НУЛЬ) и (str2^ = "false")) то
					возврат CreateXMLText("false")
				аесли ((str1 # НУЛЬ) и (str1^ = "true") и (str2 # НУЛЬ) и (str2^ = "true")) то
					возврат CreateXMLText("false")
				иначе
					возврат CreateXMLText("WebStd:Xor - Content of 'Arg1' and 'Arg2' must be either 'true' or 'false'.")
				всё
			иначе
				возврат CreateXMLText("WebStd:Xor - 'Arg1' or 'Arg2' subelements missing.")
			всё
		кон Transform;
	кон Xor;

	(** a button that triggers a user event, usage example:
	 * EventButton can optionally have an attribute 'href' to specify another target page as the current one.
	 * If the target object is a statefull active element then 'objectid' has  to used to specify the instance.
	 *   <WebStd:EventButton label="ButtonLabel" method="invoke123" object="ObjABC" module="ModXYZ" objectid="myElem3">
	 *     <Param name="param1" value="val1"/>
	 *     <Param name="param2" value="val2"/>
	 *     ...
	 *  </WebStd:EventButton> *)
	EventButton* = окласс (DynamicWebpage.StateLessActiveElement)
		проц {перекрыта}Transform*(elem: XML.Element; request: HTTPSupport.HTTPRequest) : XML.Content;
		перем labelName, methodName, objectName, objectIdName, moduleName, elemName, paramName, paramValue,
			hrefString, sessionCounterStr: Strings.String; form, input, param: XML.Element; enum: XMLObjects.Enumerator;
			p: динамическиТипизированныйУкль; newParamName, encStr: массив 128 из симв8; content: XML.Content; session: HTTPSession.Session;
			dynStr: DynamicStrings.DynamicString;
		нач
			session := HTTPSession.GetSession(request); (* session # NIL *)

			labelName := elem.GetAttributeValue("label");
			methodName := elem.GetAttributeValue("method");
			objectName := elem.GetAttributeValue("object");
			objectIdName := elem.GetAttributeValue("objectid");
			moduleName := elem.GetAttributeValue("module");

			если ((moduleName # НУЛЬ) и (methodName# НУЛЬ) и (objectName # НУЛЬ)) то

				нов(form); form.SetName("form");
				form.SetAttributeValue("method", "POST");
				hrefString := elem.GetAttributeValue("href");
				если (hrefString # НУЛЬ) то
					form.SetAttributeValue("action", hrefString^)
				иначе
					form.SetAttributeValue("action", request.shortUri)
				всё;

				нов(input); input.SetName("input");
				input.SetAttributeValue("type", "hidden");
				input.SetAttributeValue("name", DynamicWebpage.HTTPVarCommandModule);
				input.SetAttributeValue("value", moduleName^);
				form.AddContent(input);

				нов(input); input.SetName("input");
				input.SetAttributeValue("type", "hidden");
				input.SetAttributeValue("name", DynamicWebpage.HTTPVarCommandObject);
				input.SetAttributeValue("value", objectName^);
				form.AddContent(input);

				нов(input); input.SetName("input");
				input.SetAttributeValue("type", "hidden");
				input.SetAttributeValue("name", DynamicWebpage.HTTPVarCommandMethod);
				input.SetAttributeValue("value", methodName^);
				form.AddContent(input);

				если (objectIdName # НУЛЬ) то
					нов(input); input.SetName("input");
					input.SetAttributeValue("type", "hidden");
					input.SetAttributeValue("name", DynamicWebpage.HTTPVarCommandObjectId);
					input.SetAttributeValue("value", objectIdName^);
					form.AddContent(input)
				всё;

				enum := elem.GetContents();
				нцПока (enum.HasMoreElements()) делай
					p := enum.GetNext();
					если (p суть XML.Element) то
						param := p(XML.Element); elemName := param.GetName();
						если ((elemName # НУЛЬ) и (elemName^ = "Param")) то
							paramName := param.GetAttributeValue("name");
							paramValue := param.GetAttributeValue("value");
							если ((paramName # НУЛЬ) и (paramValue # НУЛЬ)) то
								HTTPSupport.HTTPEncode(paramName^, encStr);
								Strings.Concat(DynamicWebpage.HTTPVarCommandParamPrefix, encStr, newParamName);

								нов(input); input.SetName("input");
								input.SetAttributeValue("type", "hidden");
								input.SetAttributeValue("name", newParamName);
								HTTPSupport.HTTPEncode(paramValue^, encStr);
								input.SetAttributeValue("value", encStr);
								form.AddContent(input)
							иначе
								form.AddContent(param)
							всё
						иначе
							content := p(XML.Content); form.AddContent(content)
						всё
					всё
				кц;

				нов(input); input.SetName("input");
				input.SetAttributeValue("type", "hidden");
				input.SetAttributeValue("name", HTTPSession.HTTPVarSessionIdName);
				input.SetAttributeValue("value", session.sessionId);
				form.AddContent(input);

				p := session.GetVariableValue(DynamicWebpage.StateCounterVariable);
				если ((p # НУЛЬ) и (p суть DynamicStrings.DynamicString)) то
					dynStr := p(DynamicStrings.DynamicString); sessionCounterStr := dynStr.ToArrOfChar(); (* sessionCounterStr # NIL *)
					нов(input); input.SetName("input");
					input.SetAttributeValue("type", "hidden");
					input.SetAttributeValue("name", DynamicWebpage.StateCounterVariable);
					input.SetAttributeValue("value", sessionCounterStr^);
					form.AddContent(input)
				всё;

				нов(input); input.SetName("input");
				input.SetAttributeValue("type", "submit");
				если (labelName # НУЛЬ) то
					input.SetAttributeValue("value", labelName^)
				всё;
				form.AddContent(input);
				возврат form
			иначе
				возврат CreateXMLText("Missing module, object or method name for WebStd:EventButton")
			всё
		кон Transform;
	кон EventButton;

	(** a hyperlink that triggers a user event.
	 * EventLink can optionally have an attribute 'href' to specify another target page as the current one.
	 * If the target object is a statefull active element then 'objectid' is used to specify the instance.
	 * usage example:
	 *   <WebStd:EventLink method="invoke123" object="ObjABC" module="ModXYZ" objectId="myElem3">
	 *     <Label>text or image html code</Label>
	 *     <Param name="param1" value="val1"/>
	 *     <Param name="param2" value="val2"/>
	 *     ...
	 *  </WebStd:EventLink> *)
	EventLink* = окласс(DynamicWebpage.StateLessActiveElement)
		проц {перекрыта}Transform*(elem: XML.Element; request: HTTPSupport.HTTPRequest) : XML.Content;
		перем a: XML.Element; newUri: массив 4096 из симв8; enum, labelEnum: XMLObjects.Enumerator;
			p, labelp: динамическиТипизированныйУкль; attr: XML.Attribute; content, labelContent: XML.Content;
			methodName, objectName, objectIdName, moduleName, attrName, subElemName, paramName, paramValue,
			hrefString, sessionCounterStr: Strings.String; encStr: массив 128 из симв8; subElem: XML.Element;
			session: HTTPSession.Session; dynStr: DynamicStrings.DynamicString;
		нач
			session := HTTPSession.GetSession(request);
			methodName := elem.GetAttributeValue("method");
			objectName := elem.GetAttributeValue("object");
			objectIdName := elem.GetAttributeValue("objectid");
			moduleName := elem.GetAttributeValue("module");

			если ((moduleName # НУЛЬ) и (methodName# НУЛЬ) и (objectName # НУЛЬ)) то
				hrefString := elem.GetAttributeValue("href");
				если (hrefString # НУЛЬ) то
					копируйСтрокуДо0(hrefString^, newUri);
					если (Strings.Pos("?", hrefString^) = -1) то
						Strings.Append(newUri, "?")
					иначе
						Strings.Append(newUri, "&")
					всё
				иначе
					Strings.Concat(request.shortUri, "?", newUri)
				всё;
				Strings.Append(newUri, HTTPSession.HTTPVarSessionIdName);
				Strings.Append(newUri, "=");
				Strings.Append(newUri, session.sessionId);
				Strings.Append(newUri, "&");
				Strings.Append(newUri, DynamicWebpage.HTTPVarCommandModule);
				Strings.Append(newUri, "=");
				Strings.Append(newUri, moduleName^);
				Strings.Append(newUri, "&");
				Strings.Append(newUri, DynamicWebpage.HTTPVarCommandObject);
				Strings.Append(newUri, "=");
				Strings.Append(newUri, objectName^);
				Strings.Append(newUri, "&");
				Strings.Append(newUri, DynamicWebpage.HTTPVarCommandMethod);
				Strings.Append(newUri, "=");
				Strings.Append(newUri, methodName^);
				если (objectIdName # НУЛЬ) то
					Strings.Append(newUri, "&");
					Strings.Append(newUri, DynamicWebpage.HTTPVarCommandObjectId);
					Strings.Append(newUri, "=");
					Strings.Append(newUri, objectIdName^)
				всё;
				p := session.GetVariableValue(DynamicWebpage.StateCounterVariable);
				если ((p # НУЛЬ) и (p суть DynamicStrings.DynamicString)) то
					dynStr := p(DynamicStrings.DynamicString); sessionCounterStr := dynStr.ToArrOfChar(); (* sessionCounterStr # NIL *)
					Strings.Append(newUri, "&");
					Strings.Append(newUri, DynamicWebpage.StateCounterVariable);
					Strings.Append(newUri, "=");
					Strings.Append(newUri, sessionCounterStr^)
				всё;

				нов(a); a.SetName("a");
				enum := elem.GetAttributes();
				нцПока (enum.HasMoreElements()) делай
					p := enum.GetNext(); attr := p(XML.Attribute);
					attrName := attr.GetName();
					если ((attrName # НУЛЬ) и (attrName^ # "href") и (attrName^ # "method") и (attrName^ # "object") и
						(attrName^ # "objectid") и (attrName^ # "module") и (Strings.Pos("xmlns", attrName^) # 0)) то
						a.AddAttribute(attr)
					всё
				кц;

				enum := elem.GetContents();
				нцПока (enum.HasMoreElements()) делай
					p := enum.GetNext(); content := p(XML.Content);
					если (content суть XML.Element) то
						subElem := content(XML.Element); subElemName := subElem.GetName();
						если (subElemName^ = "Param") то
							paramName := subElem.GetAttributeValue("name");
							paramValue := subElem.GetAttributeValue("value");
							если ((paramName # НУЛЬ) и (paramValue # НУЛЬ)) то
								Strings.Append(newUri, "&");
								Strings.Append(newUri, DynamicWebpage.HTTPVarCommandParamPrefix);
								HTTPSupport.HTTPEncode(paramName^, encStr);
								Strings.Append(newUri, encStr);
								Strings.Append(newUri, "=");
								HTTPSupport.HTTPEncode(paramValue^, encStr);
								Strings.Append(newUri, encStr)
							всё
						аесли ((subElemName # НУЛЬ) и (subElemName^ = "Label")) то
							labelEnum := subElem.GetContents();
							нцПока (labelEnum.HasMoreElements()) делай
								labelp := labelEnum.GetNext(); labelContent := labelp(XML.Content);
								a.AddContent(labelContent)
							кц
						всё
					всё
				кц;

				a.SetAttributeValue("href", newUri);
				возврат a
			иначе
				возврат CreateXMLText("Missing module, object or method name for WebStd:EventLink")
			всё
		кон Transform;
	кон EventLink;

	(** a formular that triggers a user event with parameters if submitted.
	 * transfer-method is HTTP POST.
	 * Formular can have an optionally attribute 'href' to specify another target page as the current one.
	 * If the target object is a statefull active element then 'objectid' has to used to specfiy the instance.
	 * usage example:
	 *   <WebStd:Formular method="invoke123" object="ObjABC" module="ModXYZ" objectid="myElem3">
	 *     ...
	 *     <input type="text" name="method-param1" value="val1"/>
	 *	 <textarea name="method-param3">hdsdaj</textarea>
	 *     <input type="password" name="method-param2" value="val2"/>
	 *    ...
	 *    <input type="submit" value="Submit"/>
	 *     ...
	 *  </WebStd:Formular> *)
	Formular* = окласс(DynamicWebpage.StateLessActiveElement)

		проц {перекрыта}Transform*(elem: XML.Element; request: HTTPSupport.HTTPRequest) : XML.Content;
		перем methodName, objectName, objectIdName, moduleName, attrName, hrefString, sessionCounterStr: Strings.String;
			session: HTTPSession.Session; form, input: XML.Element; enum: XMLObjects.Enumerator; p: динамическиТипизированныйУкль;
			content: XML.Content; attr: XML.Attribute; dynStr: DynamicStrings.DynamicString;
		нач
			session := HTTPSession.GetSession(request); (* session # NIL *)
			methodName := elem.GetAttributeValue("method");
			objectName := elem.GetAttributeValue("object");
			objectIdName := elem.GetAttributeValue("objectid");
			moduleName := elem.GetAttributeValue("module");

			если ((moduleName # НУЛЬ) и (methodName# НУЛЬ) и (objectName # НУЛЬ)) то

				нов(form); form.SetName("form");
				form.SetAttributeValue("method", "post");
				hrefString := elem.GetAttributeValue("href");
				если (hrefString # НУЛЬ) то
					form.SetAttributeValue("action", hrefString^)
				иначе
					form.SetAttributeValue("action", request.shortUri)
				всё;

				enum := elem.GetAttributes();
				нцПока (enum.HasMoreElements()) делай
					p := enum.GetNext(); attr := p(XML.Attribute);
					attrName := attr.GetName();
					если ((attrName # НУЛЬ) и (attrName^ # "href") и (attrName^ # "method")) то
						form.AddAttribute(attr)
					всё
				кц;

				нов(input); input.SetName("input");
				input.SetAttributeValue("type", "hidden");
				input.SetAttributeValue("name", DynamicWebpage.HTTPVarCommandModule);
				input.SetAttributeValue("value", moduleName^);
				form.AddContent(input);

				нов(input); input.SetName("input");
				input.SetAttributeValue("type", "hidden");
				input.SetAttributeValue("name", DynamicWebpage.HTTPVarCommandObject);
				input.SetAttributeValue("value", objectName^);
				form.AddContent(input);

				нов(input); input.SetName("input");
				input.SetAttributeValue("type", "hidden");
				input.SetAttributeValue("name", DynamicWebpage.HTTPVarCommandMethod);
				input.SetAttributeValue("value", methodName^);
				form.AddContent(input);

				если (objectIdName # НУЛЬ) то
					нов(input); input.SetName("input");
					input.SetAttributeValue("type", "hidden");
					input.SetAttributeValue("name", DynamicWebpage.HTTPVarCommandObjectId);
					input.SetAttributeValue("value", objectIdName^);
					form.AddContent(input)
				всё;

				нов(input); input.SetName("input");
				input.SetAttributeValue("type", "hidden");
				input.SetAttributeValue("name", HTTPSession.HTTPVarSessionIdName);
				input.SetAttributeValue("value", session.sessionId);
				form.AddContent(input);

				enum := elem.GetContents();
				нцПока (enum.HasMoreElements()) делай
					p := enum.GetNext(); content := p(XML.Content);
					RenameInputAttr(content);
					form.AddContent(content)
				кц;

				p := session.GetVariableValue(DynamicWebpage.StateCounterVariable);
				если ((p # НУЛЬ) и (p суть DynamicStrings.DynamicString)) то
					dynStr := p(DynamicStrings.DynamicString); sessionCounterStr := dynStr.ToArrOfChar(); (* sessionCounterStr # NIL *)
					нов(input); input.SetName("input");
					input.SetAttributeValue("type", "hidden");
					input.SetAttributeValue("name", DynamicWebpage.StateCounterVariable);
					input.SetAttributeValue("value", sessionCounterStr^);
					form.AddContent(input)
				всё;

				возврат form
			иначе
				возврат CreateXMLText("Missing module, object or method name for WebStd:Formular")
			всё
		кон Transform;

		(* rename 'name' attribute for <input>, <textarea>, <select> xhtml elements *)
		проц RenameInputAttr(n: XML.Content);
		перем elem: XML.Element; elemName, paramName: Strings.String; elemNameLow, newParamName, encStr: массив 128 из симв8;
			paramNameAttr: XML.Attribute; enum: XMLObjects.Enumerator; container: XML.Container; p: динамическиТипизированныйУкль; content: XML.Content;
		нач
			если (n суть XML.Element) то
				elem := n(XML.Element); elemName := elem.GetName();
				если (elemName # НУЛЬ) то
					копируйСтрокуДо0(elemName^, elemNameLow);
					Strings.LowerCase(elemNameLow);
					если ((elemNameLow = "input") или (elemNameLow = "textarea") или (elemNameLow = "select")
						или (elemNameLow = "submit")) то
						paramNameAttr := elem.GetAttribute("name"); (* attribute name 'name' must be lowercase *)
						если (paramNameAttr # НУЛЬ) то
							paramName := paramNameAttr.GetValue();
							HTTPSupport.HTTPEncode(paramName^, encStr);
							Strings.Concat(DynamicWebpage.HTTPVarCommandParamPrefix, encStr, newParamName);
							paramNameAttr.SetValue(newParamName)
						всё
					всё
				всё
			всё;
			если (n суть XML.Container) то
				container := n(XML.Container);
				enum := container.GetContents();
				нцПока (enum.HasMoreElements()) делай
					p := enum.GetNext(); content := p(XML.Content);
					RenameInputAttr(content)
				кц
			всё
		кон RenameInputAttr;

	кон Formular;

	(** persistent data container support *)

	(** abstract web displayable persistent object *)
	PersistentDataObject *= окласс (PrevalenceSystem.PersistentObject)
		(** use oid instance field to identify persistent object *)
		проц ToXML*(request: HTTPSupport.HTTPRequest) : XML.Content; (** the object specfifies its web representation *)
		нач возврат Externalize() (** use default xml serialization of the prevalence system *)
		кон ToXML;
	кон PersistentDataObject;

	PersistentDataObjectList* = укль на массив из PersistentDataObject;

	(** has to return true iff obj is selected *)
	PersistentDataFilter* = проц {делегат} (obj: PersistentDataObject) : булево;

	(** has to return true iff obj1 < obj2 in the order *)
	PersistentDataCompare* = проц {делегат} (obj1, obj2: PersistentDataObject): булево;

	(** persistent data container *)
	PersistentDataContainer*= окласс (PersistentDataObject)
		перем
			name: Strings.String;
			dataObjList: TFClasses.List; (* List of PersistentDataObject *)

		проц &Create*;
		нач
			Init; (* call superconstructor *)
			нов(dataObjList);
		кон Create;

		проц GetName*() : Strings.String;
		нач возврат name
		кон GetName;

		проц SetName*(n: массив из симв8); (** the name must be unique for all instances of PersistentDataContainer *)
		перем oldName: Strings.String; resultList: PrevalenceSystem.PersistentObjectList;
		нач
			утв(длинаМассива(n) > 0, 9999);
			BeginModification;
			oldName := name;
			нов(name, длинаМассива(n));
			копируйСтрокуДо0(n, name^);
			если (registeredAt # НУЛЬ) то
				(* check name uniqueness contraint *)
				resultList := registeredAt.FindPersistentObjects(FilterContainerByName);
				если (resultList # НУЛЬ) то
					ЛогЯдра.пСтроку8("WebStd.PersistentDataContainer: name '"); ЛогЯдра.пСтроку8(name^);
					ЛогЯдра.пСтроку8("' must be unique for all instances of PersistentDataContainer."); ЛогЯдра.пВК_ПС;
					name := oldName; (* rollback *)
					EndModification;
					СТОП(9999)
				всё;
			всё;
			EndModification
		кон SetName;

		(** returns NIL iff not present in this container *)
		проц GetObjectByOid*(objectId: цел32) : PersistentDataObject;
		перем i: размерМЗ; p: динамическиТипизированныйУкль; obj: PersistentDataObject;
		нач
			dataObjList.Lock;
			нцДля i := 0 до dataObjList.GetCount()-1 делай
				p := dataObjList.GetItem(i); obj := p(PersistentDataObject); (* obj # NIL & obj.oid # 0 since it was registered in prevalence system*)
				если (obj.oid = objectId) то
					dataObjList.Unlock;
					возврат obj
				всё
			кц;
			dataObjList.Unlock;
			возврат НУЛЬ
		кон GetObjectByOid;

		проц GetCount*() : размерМЗ;
		нач возврат dataObjList.GetCount()
		кон GetCount;

		проц GetItem*(i: размерМЗ) : PersistentDataObject;
		перем p: динамическиТипизированныйУкль; obj: PersistentDataObject;
		нач
			если ((i >= 0) и (i < dataObjList.GetCount())) то
				p := dataObjList.GetItem(i); obj := p(PersistentDataObject);
				возврат obj
			иначе
				возврат НУЛЬ
			всё
		кон GetItem;

		(** returns a list of filtered persistent data objects entries, if filter = NIL THEN no filter is applied. persComp defines the
		  * ordering of the list and can be NIL *)
		проц GetElementList*(filter: PersistentDataFilter; persComp: PersistentDataCompare) : PersistentDataObjectList;
		перем i: размерМЗ; filteredList: TFClasses.List; persList: PersistentDataObjectList; p: динамическиТипизированныйУкль; obj: PersistentDataObject;
			genArray: GenericSort.GenericArray; persSorter: PersistentDataSorter;
		нач
			нов (filteredList);
			если (filter = НУЛЬ) то filter := DefaultPersistentDataFilter всё;
			dataObjList.Lock;
			нцДля i := 0 до dataObjList.GetCount()-1 делай
				p := dataObjList.GetItem(i); obj := p(PersistentDataObject); (* obj # NIL & obj.oid # 0 since it was registered in prevalence system*)
				если (filter(obj)) то
					filteredList.Add(obj)
				всё
			кц;
			dataObjList.Unlock;
			если (filteredList.GetCount() > 0) то
				нов(genArray, filteredList.GetCount());
				нцДля i := 0 до filteredList.GetCount()-1 делай
					genArray[i] :=  filteredList.GetItem(i)
				кц;
				если (persComp # НУЛЬ) то
					нов(persSorter, persComp);
					GenericSort.QuickSort(genArray, persSorter.GenericCompare)
				всё;
				нов(persList, длинаМассива(genArray));
				нцДля i := 0 до длинаМассива(genArray)-1 делай
					persList[i] := genArray[i](PersistentDataObject)
				кц;
				возврат persList
			иначе
				возврат НУЛЬ
			всё
		кон GetElementList;

		проц AddPersistentDataObject*(obj: PersistentDataObject; desc: PrevalenceSystem.PersistentObjectDescriptor);
		нач
			если (obj # НУЛЬ) то
				если (~Contains(obj)) то
					BeginModification;
					dataObjList.Add(obj);
					если (registeredAt # НУЛЬ) то
						registeredAt.AddPersistentObject(obj, desc);
					всё;
					EndModification
					(* make sure that the object is registered in the prevalence system *)
					(* the object must be added to the prevalence system after there is a reference from a persistent object to it
						 * otherwise it could be already collected from the garbage collection mechanism of the prevalence system *)
				всё;
			всё
		кон AddPersistentDataObject;

		проц Contains*(obj: PersistentDataObject) : булево;
		перем p: динамическиТипизированныйУкль; i: размерМЗ;
		нач
			dataObjList.Lock;
			нцДля i := 0 до dataObjList.GetCount()-1 делай
				p := dataObjList.GetItem(i);
				если (p = obj) то
					dataObjList.Unlock;
					возврат истина
				всё
			кц;
			dataObjList.Unlock;
			возврат ложь
		кон Contains;

		проц RemovePersistentDataObject*(obj: PersistentDataObject);
		нач
			если (obj # НУЛЬ) то
				BeginModification;
				dataObjList.Remove(obj);
				(* the object will automatically and safely removed by the garbage collector of the prevalence system *)
				EndModification
			всё
		кон RemovePersistentDataObject;

		проц FilterContainerByName(obj: PrevalenceSystem.PersistentObject) : булево;
		перем c: PersistentDataContainer; n: Strings.String;
		нач
			если ((obj суть PersistentDataContainer) и (obj # сам)) то
				c := obj(PersistentDataContainer); n := c.GetName();
				если ((n # НУЛЬ) и (n^ = name^)) то
					возврат истина
				всё
			всё;
			возврат ложь
		кон FilterContainerByName;

		проц {перекрыта}Externalize*() : XML.Content;
		перем elem: XML.Element; i: размерМЗ; p: динамическиТипизированныйУкль; obj: PersistentDataObject; container: XML.Container;
			oidString: массив 14 из симв8;
		нач
			нов(container);

			если (name # НУЛЬ) то
				нов(elem); elem.SetName("name");
				AppendXMLContent(elem, CreateXMLText(name^));
				container.AddContent(elem)
			всё;

			dataObjList.Lock;
			нцДля i := 0 до dataObjList.GetCount()-1 делай
				p := dataObjList.GetItem(i); obj := p(PersistentDataObject); (* obj # NIL & obj.oid # 0 since it was registered in prevalence system*)
				Strings.IntToStr(obj.oid, oidString);
				нов(elem); elem.SetName("elem"); elem.SetAttributeValue("ref", oidString);
				container.AddContent(elem)
			кц;
			dataObjList.Unlock;
			возврат container
		кон Externalize;

		проц {перекрыта}Internalize*(xml: XML.Content);
		перем container: XML.Container; elem: XML.Element; enumContainer: XMLObjects.Enumerator; p: динамическиТипизированныйУкль;
		нач
			dataObjList.Clear; (* ! *)
			если (xml # НУЛЬ) то
				если (xml суть XML.Element) то
					elem := xml(XML.Element);
					InternalizeElem(elem)
				иначе
					container := xml(XML.Container);
					enumContainer := container.GetContents();
					нцПока(enumContainer.HasMoreElements()) делай
						p := enumContainer.GetNext();
						если (p суть XML.Element) то
							elem := p(XML.Element);
							InternalizeElem(elem)
						всё
					кц
				всё
			всё
		кон Internalize;

		проц InternalizeElem(elem: XML.Element);
		перем elemLabel, refStr: Strings.String; ref: цел32; persObj: PrevalenceSystem.PersistentObject;
		нач
			elemLabel := elem.GetName();
			если (elemLabel^ = "name") то
				name := GetXMLCharContent(elem)
			аесли (elemLabel^ = "elem") то
				refStr := elem.GetAttributeValue("ref");
				если (refStr # НУЛЬ) то
					Strings.StrToInt(refStr^, ref);
					если (registeredAt # НУЛЬ) то
						persObj := registeredAt.GetPersistentObject(ref);
						(* this is possible because of the recovery algorithm of the prevalence system *)
						если ((persObj # НУЛЬ) и (persObj суть PersistentDataObject)) то
							dataObjList.Add(persObj)
						иначе
							СТОП(9999)
						всё
					иначе
						СТОП(9999) (* object must be registered in at least one prevalence system *)
					всё
				всё
			всё
		кон InternalizeElem;

		проц {перекрыта}GetReferrencedObjects*() : PrevalenceSystem.PersistentObjectList;
		перем list: PrevalenceSystem.PersistentObjectList; i: размерМЗ; pers: PrevalenceSystem.PersistentObject; p: динамическиТипизированныйУкль;
		нач
			если (dataObjList.GetCount() > 0) то
				нов(list, dataObjList.GetCount());
				dataObjList.Lock;
				нцДля i := 0 до dataObjList.GetCount()-1 делай
					p := dataObjList.GetItem(i); pers := p(PrevalenceSystem.PersistentObject);
					list[i] := pers
				кц;
				dataObjList.Unlock;
				возврат list
			иначе
				возврат НУЛЬ
			всё
		кон GetReferrencedObjects;

		проц {перекрыта}ToXML*(request: HTTPSupport.HTTPRequest) : XML.Content;
		перем elem: XML.Element; i: размерМЗ; p: динамическиТипизированныйУкль; obj: PersistentDataObject; container: XML.Container;
			nameText: XML.ArrayChars; oidString, posString: массив 14 из симв8; objSer: XML.Content;
			persList: PersistentDataObjectList;
		нач
			нов(container);

			если (name # НУЛЬ) то
				нов(elem); elem.SetName("name");
				нов(nameText); nameText.SetStr(name^);
				elem.AddContent(nameText);
				container.AddContent(elem)
			всё;

			dataObjList.Lock;
			persList := GetElementList(DefaultPersistentDataFilter, НУЛЬ);
			нцДля i := 0 до dataObjList.GetCount()-1 делай
				p := dataObjList.GetItem(i); obj := p(PersistentDataObject); (* obj # NIL & obj.oid # 0 since it was registered in prevalence system*)
				Strings.IntToStr(obj.oid, oidString);
				Strings.IntToStr(i, posString);
				нов(elem); elem.SetName("Elem");
				elem.SetAttributeValue("pos", posString);
				elem.SetAttributeValue("ref", oidString);
				(* here would be an exception handler fine *)
				objSer := obj.ToXML(request);
				AppendXMLContent(elem, objSer);
				container.AddContent(elem)
			кц;
			dataObjList.Unlock;
			возврат container
		кон ToXML;
	кон PersistentDataContainer;

	(* helper object to wrap the generic compare function *)
	PersistentDataSorter = окласс
		перем
			comp: PersistentDataCompare;

		проц &Init*(persComp: PersistentDataCompare);
		нач (* persComp # NIL *)
			comp := persComp
		кон Init;

		проц GenericCompare(obj1, obj2: динамическиТипизированныйУкль): булево;
		перем persO1, persO2: PersistentDataObject;
		нач
			persO1 := obj1(PersistentDataObject); persO2 := obj2(PersistentDataObject);
			возврат comp(persO1, persO2)
		кон GenericCompare;
	кон PersistentDataSorter;

	(** a stateless data container active element which represents the access to a PersistentDataContainer
	 * of the prevalence system optionally specified. if 'prevalencesystem' is not present then the
	 * standardPrevalenceSystem will be used. The container name has to be globally unique in the corresponding
	 * prevalence system to allow global access to the persistent data container.
	 * usage example:
	 *   <WebStd:DataContainer name="Persons" prevalencesystem="standardPrevalenceSystem"/> *)
    DataContainer* = окласс (DynamicWebpage.StateLessActiveElement)

		проц {перекрыта}Transform*(input: XML.Element; request: HTTPSupport.HTTPRequest) : XML.Content;
		перем errStr: массив 256 из симв8; persCont: PersistentDataContainer; prevSys: PrevalenceSystem.PrevalenceSystem;
			containerName, prevSysName: Strings.String;
		нач
			containerName := input.GetAttributeValue("name");
			prevSysName := input.GetAttributeValue("prevalencesystem");
			если (prevSys # НУЛЬ) то
				prevSys := PrevalenceSystem.GetPrevalenceSystem(prevSysName^)
			иначе
				prevSys := PrevalenceSystem.standardPrevalenceSystem;
			всё;
			если ((containerName # НУЛЬ) и (prevSys # НУЛЬ)) то
				persCont := GetPersistentDataContainer(prevSys, containerName^);
				если (persCont # НУЛЬ) то
					возврат persCont.ToXML(request)
				иначе
					копируйСтрокуДо0("WebStd:DataContainer with name '", errStr); Strings.Append(errStr, containerName^);
					Strings.Append(errStr, "' is not present in the prevalence system.");
					возврат CreateXMLText(errStr)
				всё
			аесли (containerName = НУЛЬ) то
				возврат CreateXMLText("Missing attribute name for WebStd:DataContainer")
			иначе
				возврат CreateXMLText("Specified prevalence system is not present")
			всё
		кон Transform;
	кон DataContainer;

	(** session container support *)

	(** abstract web displayable object with session bounded lifetime *)
	SessionDataObject* = окласс
		перем oid*: цел32; (** unique object id *)

		проц &Init*;
		нач
			oid := GetNewOid()
		кон Init;

		проц ToXML*(request: HTTPSupport.HTTPRequest) : XML.Content;
		нач СТОП(309)
		кон ToXML;
	кон SessionDataObject;

	SessionDataObjectList* = укль на массив из SessionDataObject;

	(** has to return true iff obj is selected *)
	SessionDataFilter* = проц {делегат} (obj: SessionDataObject) : булево;

	(** has to return true iff obj1 < obj2 in the order *)
	SessionDataCompare* = проц {делегат} (obj1, obj2: SessionDataObject): булево;

	(** session data container *)
	SessionDataContainer* = окласс (SessionDataObject)
		перем
			name: Strings.String;
			dataObjList: TFClasses.List; (* List of SessionDataObject *)

		проц &Create*(containerName: массив из симв8);
		нач
			нов(dataObjList);
			нов(name, длинаМассива(containerName)); копируйСтрокуДо0(containerName, name^)
		кон Create;

		проц GetName*() : Strings.String;
		нач возврат name
		кон GetName;

		(** returns NIL iff not present in this container *)
		проц GetObjectByOid*(objectId: цел32) : SessionDataObject;
		перем i: размерМЗ; p: динамическиТипизированныйУкль; obj: SessionDataObject;
		нач
			dataObjList.Lock;
			нцДля i := 0 до dataObjList.GetCount()-1 делай
				p := dataObjList.GetItem(i); obj := p(SessionDataObject);
				если (obj.oid = objectId) то
					dataObjList.Unlock;
					возврат obj
				всё
			кц;
			dataObjList.Unlock;
			возврат НУЛЬ
		кон GetObjectByOid;

		проц GetCount*() : размерМЗ;
		нач возврат dataObjList.GetCount()
		кон GetCount;

		проц GetItem*(i: размерМЗ) : SessionDataObject;
		перем p: динамическиТипизированныйУкль; obj: SessionDataObject;
		нач
			если ((i >= 0) и (i < dataObjList.GetCount())) то
				p := dataObjList.GetItem(i); obj := p(SessionDataObject);
				возврат obj
			иначе
				возврат НУЛЬ
			всё
		кон GetItem;

		(** returns a list of filtered session data objects entries, if filter = NIL THEN no filter is applied.  sessComp defines the
			ordering of the list and can be NIL *)
		проц GetElementList*(filter: SessionDataFilter; sessComp: SessionDataCompare) : SessionDataObjectList;
		перем i: размерМЗ; filteredList: TFClasses.List; sessList: SessionDataObjectList; p: динамическиТипизированныйУкль; obj: SessionDataObject;
			genArray: GenericSort.GenericArray; sessSorter: SessionDataSorter;
		нач
			нов (filteredList);
			если (filter = НУЛЬ) то filter := DefaultSessionDataFilter всё;
			dataObjList.Lock;
			нцДля i := 0 до dataObjList.GetCount()-1 делай
				p := dataObjList.GetItem(i); obj := p(SessionDataObject); (* obj # NIL & obj.oid # 0 since it was registered in prevalence system*)
				если (filter(obj)) то
					filteredList.Add(obj)
				всё
			кц;
			dataObjList.Unlock;
			если (filteredList.GetCount() > 0) то
				нов(genArray, filteredList.GetCount());
				нцДля i := 0 до filteredList.GetCount()-1 делай
					genArray[i] :=  filteredList.GetItem(i)
				кц;
				если (sessComp # НУЛЬ) то
					нов(sessSorter, sessComp);
					GenericSort.QuickSort(genArray, sessSorter.GenericCompare)
				всё;
				нов(sessList, длинаМассива(genArray));
				нцДля i := 0 до длинаМассива(genArray)-1 делай
					sessList[i] := genArray[i](SessionDataObject)
				кц;
				возврат sessList
			иначе
				возврат НУЛЬ
			всё
		кон GetElementList;

		проц AddSessionDataObject*(obj: SessionDataObject);
		нач
			если (obj # НУЛЬ) то
				если (obj.oid = 0) то obj.oid := GetNewOid() всё; (* set unique oid if not initialized *)
				dataObjList.Add(obj)
			всё
		кон AddSessionDataObject;

		проц Contains*(obj: SessionDataObject) : булево;
		перем p: динамическиТипизированныйУкль; i: размерМЗ;
		нач
			dataObjList.Lock;
			нцДля i := 0 до dataObjList.GetCount()-1 делай
				p := dataObjList.GetItem(i);
				если (p = obj) то
					dataObjList.Unlock;
					возврат истина
				всё
			кц;
			dataObjList.Unlock;
			возврат ложь
		кон Contains;

		проц RemoveSessionDataObject*(obj: SessionDataObject);
		нач
			если (obj # НУЛЬ) то
				dataObjList.Remove(obj)
			всё
		кон RemoveSessionDataObject;

		проц {перекрыта}ToXML*(request: HTTPSupport.HTTPRequest) : XML.Content;
		перем elem: XML.Element; i: размерМЗ; p: динамическиТипизированныйУкль; obj: SessionDataObject; container: XML.Container;
			nameText: XML.ArrayChars; objSer: XML.Content; posString, oidString: массив 14 из симв8;
		нач
			нов(container);

			если (name # НУЛЬ) то
				нов(elem); elem.SetName("name");
				нов(nameText); nameText.SetStr(name^);
				elem.AddContent(nameText);
				container.AddContent(elem)
			всё;

			dataObjList.Lock;
			нцДля i := 0 до dataObjList.GetCount()-1 делай
				p := dataObjList.GetItem(i); obj := p(SessionDataObject); (* obj # NIL *)
				Strings.IntToStr(obj.oid, oidString);
				Strings.IntToStr(i, posString);
				(* here would be an exception handler fine *)
				objSer := obj.ToXML(request);
				нов(elem); elem.SetName("Elem");
				elem.SetAttributeValue("pos", posString);
				elem.SetAttributeValue("ref", oidString);
				AppendXMLContent(elem, objSer);
				container.AddContent(elem)
			кц;
			dataObjList.Unlock;
			возврат container
		кон ToXML;

	кон SessionDataContainer;

	(* helper object to wrap the generic compare function *)
	SessionDataSorter = окласс
		перем
			comp: SessionDataCompare;

		проц &Init*(sessComp: SessionDataCompare);
		нач (* sessComp # NIL *)
			comp := sessComp
		кон Init;

		проц GenericCompare(obj1, obj2: динамическиТипизированныйУкль): булево;
		перем sessO1, sessO2: SessionDataObject;
		нач
			sessO1 := obj1(SessionDataObject); sessO2 := obj2(SessionDataObject);
			возврат comp(sessO1, sessO2)
		кон GenericCompare;
	кон SessionDataSorter;

	(** a session container active element which represents the access to a SessionDataContainer
	 * the name has to globally unique for a session to allow global access to the session data container for the session
	 * usage example:
	 *   <WebStd:SessionContainer name="Persons"/> *)
	SessionContainer* = окласс (DynamicWebpage.StateLessActiveElement)
		(* the container is stored in the session object, hence the SessionContainer can be stateless *)
		проц {перекрыта}Transform*(input: XML.Element; request: HTTPSupport.HTTPRequest) : XML.Content;
		перем errStr: массив 128 из симв8; sessionCont: SessionDataContainer; containerName: Strings.String;
			session: HTTPSession.Session;
		нач
			containerName := input.GetAttributeValue("name");
			если (containerName # НУЛЬ) то
				session := HTTPSession.GetSession(request);
				sessionCont := GetSessionDataContainer(session, containerName^);
				если (sessionCont # НУЛЬ) то
					возврат sessionCont.ToXML(request)
				иначе
					копируйСтрокуДо0("WebStd:SessionContainer:  The session variable with name '", errStr);
					Strings.Append(errStr, containerName^);
					Strings.Append(errStr, "' is already used by another non session container object .");
					возврат CreateXMLText(errStr)
				всё
			иначе
				возврат CreateXMLText("Missing attribute name for WebStd:DataContainer")
			всё
		кон Transform;
	кон SessionContainer;

	(** simple datagrid statefull active element with paging, usage example:
	 * <WebStd:Datagrid id="mygrid3">
	 *   <Header>...</Header>
	 *   <Data>
	 *	  <WebStd:SessionContainer name="persons"/>
	 *       or
	 *      <WebStd:DataContainer name="employees"/>
	 *       or
	 *      <Elem ..> ... </Elem>
	 *	  <Elem ..> ... </Elem>
	 *      ...
	 *   </Data>
	 *   <Footer>..</Footer>
	 *   <Paging size="10" nextlabel="more.." previouslabel="..back"/>
	 * </WebStd:Datagrid>
	 * will transform into:
	 * <table>
	 *   <tr> header-content </tr>
	 *   <tr> 1.st data element </tr>
	 *   <tr> 2.nd data element </tr>
	 *   ...
	 *   <tr> 10.th data element </tr>
	 *   <tr><td colspan=""><WebStd:EventButton label="back..." ../><WebStd:EventButton label="more.."/></td></tr>
	 *   <tr> footer content </tr>
	 * </table>
	 *)
	Datagrid* = окласс (DynamicWebpage.StateFullActiveElement)
		перем
			pos: цел32; (* statefull instance variable: start position for paging *)

		проц &Init*;
		нач
			pos := 0
		кон Init;

		проц {перекрыта}Transform*(input: XML.Element; request: HTTPSupport.HTTPRequest) : XML.Content;
		перем table, tr, td, tdHeader, data, header, footer, elem, paging, subElem, eventButton, eventParam: XML.Element; p, pElem: динамическиТипизированныйУкль;
			content: XML.Content; gridEnum, elemEnum, enum: XMLObjects.Enumerator; elemName, pagingSizeStr,
			subElemName, labelName, objectId: Strings.String; columns, pagingSize, counter, k: цел32;
			colString, posString: массив 14 из симв8;
		нач
			objectId := input.GetAttributeValue(DynamicWebpage.XMLAttributeObjectIdName);
			(* objectId # NIL by DynamicWebpagePlugin logic*)

			gridEnum := input.GetContents();
			нцПока (gridEnum.HasMoreElements()) делай (* faster than 4 invocations of GetXMLSubElement(input) *)
				p := gridEnum.GetNext();
				если (p суть XML.Element) то
					subElem := p(XML.Element); elemName := subElem.GetName();
					если ((subElem # НУЛЬ) и (elemName^ = "Header")) то
						header := subElem
					аесли ((subElem # НУЛЬ) и (elemName^ = "Data")) то
						data := subElem
					аесли ((subElem # НУЛЬ) и (elemName^ = "Footer")) то
						footer := subElem
					аесли ((subElem # НУЛЬ) и (elemName^ = "Paging")) то
						paging := subElem
					всё
				всё
			кц;
			нов(table); table.SetName("table");
			если (header # НУЛЬ) то
				нов(tr); tr.SetName("tr");
				нов(tdHeader); tdHeader.SetName("td");  (* set "colspan" attribute later if the #columns is known *)
				enum := header.GetContents();
				нцПока (enum.HasMoreElements()) делай
					p := enum.GetNext(); content := p(XML.Content);
					tdHeader.AddContent(content)
				кц;
				tr.AddContent(tdHeader);
				table.AddContent(tr)
			всё;
			если (paging # НУЛЬ) то
				pagingSizeStr := paging.GetAttributeValue("size");
				если (pagingSizeStr # НУЛЬ) то
					Strings.StrToInt(pagingSizeStr^, pagingSize)
				иначе
					pagingSize := матМаксимум(цел32)
				всё
			всё;

			columns := 1;
			если (data # НУЛЬ) то
				counter := 0;
				elemEnum := data.GetContents();
				нцПока ((elemEnum.HasMoreElements()) и (counter < pos + pagingSize)) делай
					pElem := elemEnum.GetNext();
					если (pElem суть XML.Element) то
						elem := pElem(XML.Element); elemName := elem.GetName();
						если ((elemName # НУЛЬ) и (elemName^ = "Elem")) то
							если (counter >= pos) то
								нов(tr); tr.SetName("tr");
								enum := elem.GetContents();
								k := 0; (* # columns *)
								нцПока (enum.HasMoreElements()) делай
									p := enum.GetNext(); content := p(XML.Content);
									(* count columns *)
									если (content суть XML.Element) то
										subElem := content(XML.Element); subElemName := subElem.GetName();
										если ((subElemName # НУЛЬ) и (subElemName^ = "td")) то (* 'td' must be lowercase *)
											увел(k)
										всё
									всё;
									tr.AddContent(content)
								кц;
								table.AddContent(tr);
								если (k > columns) то columns := k всё
							всё;
							enum := elem.GetContents();
							если (enum.HasMoreElements()) то увел(counter) всё
						всё
					всё
				кц;
				если ((paging # НУЛЬ) и ((pos > 0) или (elemEnum.HasMoreElements()))) то (* previous or next button needed *)
					нов(tr); tr.SetName("tr");
					Strings.IntToStr(columns-1, colString);

					нов(td); td.SetName("td");
					tr.AddContent(td);
					если (pos > 0) то (* previous button *)
						labelName := paging.GetAttributeValue("previouslabel");
						Strings.IntToStr(pos-pagingSize, posString);

						нов(eventButton); eventButton.SetName("WebStd:EventButton");
						eventButton.SetAttributeValue("xmlns:WebStd", "WebStd");
						если (labelName # НУЛЬ) то
							eventButton.SetAttributeValue("label", labelName^)
						иначе
							eventButton.SetAttributeValue("label", "back")
						всё;
						eventButton.SetAttributeValue("method", "SetPos");
						eventButton.SetAttributeValue("object", "Datagrid");
						eventButton.SetAttributeValue("module", "WebStd");
						eventButton.SetAttributeValue("objectid", objectId^);

						нов(eventParam); eventParam.SetName("Param");
						eventParam.SetAttributeValue("name", "pos");
						eventParam.SetAttributeValue("value", posString);
						eventButton.AddContent(eventParam);
						td.AddContent(eventButton)
					иначе
						AppendXMLContent(td, CreateXMLText(" "));
					всё;

					нов(td); td.SetName("td"); td.SetAttributeValue("colspan", colString);
					tr.AddContent(td);
					если (elemEnum.HasMoreElements()) то (* next button *)
						labelName := paging.GetAttributeValue("nextlabel");
						Strings.IntToStr(pos+pagingSize, posString);

						нов(eventButton); eventButton.SetName("WebStd:EventButton");
						eventButton.SetAttributeValue("xmlns:WebStd", "WebStd");
						если (labelName # НУЛЬ) то
							eventButton.SetAttributeValue("label", labelName^)
						иначе
							eventButton.SetAttributeValue("label", "back")
						всё;
						eventButton.SetAttributeValue("method", "SetPos");
						eventButton.SetAttributeValue("object", "Datagrid");
						eventButton.SetAttributeValue("module", "WebStd");
						eventButton.SetAttributeValue("objectid", objectId^);

						нов(eventParam); eventParam.SetName("Param");
						eventParam.SetAttributeValue("name", "pos");
						eventParam.SetAttributeValue("value", posString);
						eventButton.AddContent(eventParam);
						td.AddContent(eventButton)
					иначе
						AppendXMLContent(td, CreateXMLText(" "));
					всё;
					table.AddContent(tr)
				всё
			всё;

			Strings.IntToStr(columns, colString);
			если (header # НУЛЬ) то (* set colspan for the header row *)
				tdHeader.SetAttributeValue("colspan", colString)
			всё;
			если (footer # НУЛЬ) то
				нов(tr); tr.SetName("tr");
				нов(td); td.SetName("td"); td.SetAttributeValue("colspan", colString);
				enum := footer.GetContents();
				нцПока (enum.HasMoreElements()) делай
					p := enum.GetNext(); content := p(XML.Content);
					td.AddContent(content)
				кц;
				tr.AddContent(td);
				table.AddContent(tr)
			всё;

			возврат table
		кон Transform;

		проц SetPos(request: HTTPSupport.HTTPRequest; params: DynamicWebpage.ParameterList);
			(* parameters: "pos" *)
		перем posString: Strings.String;
		нач
			posString := params.GetParameterValueByName("pos");
			если (posString # НУЛЬ) то
				Strings.StrToInt(posString^, pos)
			иначе
				ЛогЯдра.пСтроку8("WebStd:Datagrid - event handler 'SetPos' has parameter 'pos'.");
				ЛогЯдра.пВК_ПС
			всё
		кон SetPos;

		проц {перекрыта}GetEventHandlers*() : DynamicWebpage.EventHandlerList;
		перем list: DynamicWebpage.EventHandlerList;
		нач
			нов(list, 1);
			нов(list[0], "SetPos", SetPos);
			возврат list
		кон GetEventHandlers;

	кон Datagrid;

	(** statefull active element to allow toggling between two states. The state ('Show' or 'Hide') specified by 'startWith' is
	 * the initial state. The default initial state is 'Show' if 'startWith' is not specified. Usage example
	 * <WebStd:ToggleBlock id="MyToggleBlock3" startWith="Show" showLabel="show" hideLabel="hide">
	 *   <Show>...</Show>
	 *   <Hide>...</Hide>
	 * <WebStd:ToogleBlock>
	 *)
	ToggleBlock* = окласс(DynamicWebpage.StateFullActiveElement)
		перем
			isShowing: булево; (* true iff in show state *)
			firstAccess: булево; (* is true if the active element will be the first time transformed for its incarnation *)
		проц &Init*;
		нач isShowing := истина; firstAccess := истина
		кон Init;

		проц {перекрыта}PreTransform*(elem: XML.Element; request: HTTPSupport.HTTPRequest) : XML.Content;
		перем pTag, label, eventLink, show, hide: XML.Element; container: XML.Container;
			showLabel, hideLabel, objectId, startWith: Strings.String;
		нач
			если (firstAccess) то
				firstAccess := ложь;
				startWith := elem.GetAttributeValue("startWith");
				если (startWith # НУЛЬ) то
					если (startWith^ = "Hide") то isShowing := ложь
					аесли (startWith^ # "Show") то
						возврат CreateXMLText("WebStd:ToggleBlock - Attribute value for 'startWith' must be either 'Show' or 'Hide'")
					всё
				всё
			всё;
			objectId := elem.GetAttributeValue(DynamicWebpage.XMLAttributeObjectIdName); (* objectId # NIL *)
			showLabel := elem.GetAttributeValue("showLabel");
			hideLabel := elem.GetAttributeValue("hideLabel");
			show := GetXMLSubElement(elem, "Show");
			hide := GetXMLSubElement(elem, "Hide");

			нов(container);
			нов(pTag); pTag.SetName("p"); container.AddContent(pTag);

			нов(eventLink); eventLink.SetName("WebStd:EventLink");
			eventLink.SetAttributeValue("xmlns:WebStd", "WebStd");

			нов(label); label.SetName("Label");
			eventLink.AddContent(label);
			если (isShowing) то
				если (hideLabel # НУЛЬ) то
					AppendXMLContent(label, CreateXMLText(hideLabel^))
				иначе
					AppendXMLContent(label, CreateXMLText("hide"))
				всё;
				eventLink.SetAttributeValue("method", "Hide");
			иначе
				если (showLabel # НУЛЬ) то
					AppendXMLContent(label, CreateXMLText(showLabel^))
				иначе
					AppendXMLContent(label, CreateXMLText("show"))
				всё;
				eventLink.SetAttributeValue("method", "Show");
			всё;
			eventLink.SetAttributeValue("object", "ToggleBlock");
			eventLink.SetAttributeValue("module", "WebStd");
			eventLink.SetAttributeValue("objectid", objectId^);
			pTag.AddContent(eventLink);

			если (isShowing) то
				CopyXMLSubContents(show, container)
			иначе
				CopyXMLSubContents(hide, container)
			всё;
			возврат container
		кон PreTransform;

		проц Show(request: HTTPSupport.HTTPRequest; params: DynamicWebpage.ParameterList);
		нач isShowing := истина
		кон Show;

		проц Hide(request: HTTPSupport.HTTPRequest; params: DynamicWebpage.ParameterList);
		нач isShowing := ложь
		кон Hide;

		проц {перекрыта}GetEventHandlers*() : DynamicWebpage.EventHandlerList;
		перем list: DynamicWebpage.EventHandlerList;
		нач
			нов(list, 2);
			нов(list[0], "Show", Show);
			нов(list[1], "Hide", Hide);
			возврат list
		кон GetEventHandlers;

	кон ToggleBlock;

	(* persistent counter to store the visiting information *)
	PersistentCounter = окласс(PrevalenceSystem.PersistentObject)
		перем
			name: Strings.String;
			counter: цел32;

		проц &Initialize*;
		нач
			Init; name := НУЛЬ; counter := 0
		кон Initialize;

		проц IncreaseCounter;
		нач
			BeginModification;
			увел(counter);
			EndModification
		кон IncreaseCounter;

		проц {перекрыта}Internalize*(xml: XML.Content);
		перем container: XML.Container;
		нач
			container := xml(XML.Container);
			name := InternalizeString(container, "Name");
			counter := InternalizeInteger(container, "Counter")
		кон Internalize;

		проц {перекрыта}Externalize*() : XML.Content;
		перем container: XML.Container;
		нач
			нов(container);
			ExternalizeString(name, container, "Name");
			ExternalizeInteger(counter, container, "Counter");
			возврат container
		кон Externalize;
	кон PersistentCounter;

	(** a visitor counter uniquely specified by 'name'. Returns the number of different sessions having visited this counter.
	 * Usage example:
	 *  <WebStd:VisitorCounter name="MyVisits"/> *)
	VisitorCounter* = окласс(DynamicWebpage.StateLessActiveElement)

		перем
			counterName: Strings.String;
			nameLock: булево;

		проц &Init*;
		нач nameLock := ложь
		кон Init;

		проц {перекрыта}Transform*(input: XML.Element; request: HTTPSupport.HTTPRequest) : XML.Content;
		перем name: Strings.String; persCounter: PersistentCounter; numberStr: массив 14 из симв8;
			session: HTTPSession.Session; p: динамическиТипизированныйУкль; dynVarName, dynVarValue: DynamicStrings.DynamicString;
			varName: Strings.String;
		нач
			name := input.GetAttributeValue("name");
			если (name # НУЛЬ) то
				persCounter := GetCounterByName(name^); (* persCounter # NIL *)

				нов(dynVarName); Concat(dynVarName, SessionVisitorCounterPrefix);
				dynVarName.Append(name^);
				varName := dynVarName.ToArrOfChar(); (* varName # NIL *)

				session := HTTPSession.GetSession(request); (* session # NIL *)
				p := session.GetVariableValue(varName^);
				если (p = НУЛЬ) то (* increase counter only once for each session *)
					нов(dynVarValue); dynVarValue.Append(name^);
					session.AddVariableValue(varName^, dynVarValue);
					persCounter.IncreaseCounter
				всё;
				Strings.IntToStr(persCounter.counter, numberStr);
				возврат CreateXMLText(numberStr)
			иначе
				возврат CreateXMLText("WebStd:VisitorCounter - missing attribute 'name'")
			всё
		кон Transform;

		проц LockName;
		нач {единолично}
			дождись (~nameLock); nameLock := истина
		кон LockName;

		проц UnlockName;
		нач {единолично}
			nameLock := ложь
		кон UnlockName;

		проц FilterPersistentCounter(obj: PrevalenceSystem.PersistentObject) : булево;
		перем persCounter: PersistentCounter;
		нач (* obj # NIL & counterName # NIL *)
			если (obj суть PersistentCounter) то
				persCounter := obj(PersistentCounter);
				возврат ((persCounter.name # НУЛЬ) и (persCounter.name^ = counterName^))
			иначе
				возврат ложь
			всё
		кон FilterPersistentCounter;

		проц GetCounterByName(name: массив из симв8) : PersistentCounter;
		перем list: PrevalenceSystem.PersistentObjectList; persCounter: PersistentCounter;
		нач
			LockName;
			counterName := GetString(name); (* counterName # NIL *)
			list := PrevalenceSystem.FindPersistentObjects(FilterPersistentCounter);
			если (list = НУЛЬ) то
				(* create a new persistent counter *)
				нов(persCounter); persCounter.name := counterName;
				PrevalenceSystem.AddPersistentObjectToRootSet(persCounter, persistentCounterDesc)
			иначе
				persCounter := list[0](PersistentCounter) (* persCounter # NIL *)
			всё;
			UnlockName;
			возврат persCounter
		кон GetCounterByName;

	кон VisitorCounter;

	PtrDateTime* = укль на Dates.DateTime;

	перем
		persistentDataContainerDesc*: PrevalenceSystem.PersistentObjectDescriptor; (** descriptor for PersistentDataContainer *)
		persistentCounterDesc: PrevalenceSystem.PersistentObjectDescriptor; (** descriptor for PersistentCounter *)
		tempContainerName: Strings.String;  (* used temporary for the prevalence system filter predicate FilterPersistentDataContainer *)
		qlock: булево; (* locking for persistent object querying becuase of tempContainerName *)
		oidCounter: цел32; (* counter for unique oid among all SessionDataObject *)

	(** usefull XML-DOM operations *)

	(** returns the first XML subelement with name 'name' as child of 'parent' *)
	проц GetXMLSubElement*(parent: XML.Container; name: массив из симв8) : XML.Element;
	нач
		возврат GetXMLSubElementByIndex(parent, name, 0)
	кон GetXMLSubElement;

	(** returns the number of XML subelements with name 'name' as child of 'parent' *)
	проц NofXMLSubElements*(parent: XML.Container; name: массив из симв8) : цел32;
	перем enum: XMLObjects.Enumerator; p: динамическиТипизированныйУкль; elem: XML.Element; elemName: Strings.String; counter: цел32;
	нач
		counter := 0;
		если (parent # НУЛЬ) то
			enum := parent.GetContents();
			нцПока (enum.HasMoreElements()) делай
				p := enum.GetNext();
				если (p суть XML.Element) то
					elem := p(XML.Element); elemName := elem.GetName();
					если ((elemName # НУЛЬ) и (elemName^ = name)) то
						увел(counter)
					всё
				всё
			кц
		всё;
		возврат counter
	кон NofXMLSubElements;

	(** returns the 'index'.th XML subelement with name 'name' as child of 'parent' *)
	проц GetXMLSubElementByIndex*(parent: XML.Container; name: массив из симв8; index: цел32) : XML.Element;
	перем enum: XMLObjects.Enumerator; p: динамическиТипизированныйУкль; elem: XML.Element; elemName: Strings.String; counter: цел32;
	нач
		counter := 0;
		если (parent # НУЛЬ) то
			enum := parent.GetContents();
			нцПока (enum.HasMoreElements()) делай
				p := enum.GetNext();
				если (p суть XML.Element) то
					elem := p(XML.Element); elemName := elem.GetName();
					если ((elemName # НУЛЬ) и (elemName^ = name)) то
						если (index = counter) то возврат elem всё;
						увел(counter)
					всё
				всё
			кц
		всё;
		возврат НУЛЬ
	кон GetXMLSubElementByIndex;

	(** return first character content of an XML container *)
	проц GetXMLCharContent*(parent: XML.Container) : Strings.String;
	перем enum: XMLObjects.Enumerator; p: динамическиТипизированныйУкль; chars: XML.Chars; ent: XML.EntityRef;
		dynStr: DynamicStrings.DynamicString; text, name: Strings.String;
		decl: XML.EntityDecl; charRef: XML.CharReference; ch: массив 2 из симв8;
	нач
		если (parent # НУЛЬ) то
			нов(dynStr);
			enum := parent.GetContents();
			нцПока (enum.HasMoreElements()) делай
				p := enum.GetNext();
				если (p суть XML.CharReference) то
					charRef := p(XML.CharReference);
					ch[0] := симв8ИзКода(charRef.GetCode()); dynStr.Append(ch)
				аесли (p суть XML.Chars) то
					chars := p(XML.Chars);
					text := chars.GetStr();
					если (text # НУЛЬ) то
						(* ! XML.Element::Write does insert a CRLF at the end of the opening element name *)
						Strings.Trim(text^, DynamicStrings.CR);
						Strings.Trim(text^, DynamicStrings.LF);
						Strings.Trim(text^, DynamicStrings.CR);
						dynStr.Append(text^)
					всё
				аесли (p суть XML.EntityRef) то
					ent := p(XML.EntityRef);
					name := ent.GetName(); decl := ent.GetEntityDecl();
					если (decl # НУЛЬ) то
						text := decl.GetValue();
						если (text # НУЛЬ) то
							dynStr.Append(text^)
						всё
					аесли (name # НУЛЬ) то
						если (name^ = "lt") то
							копируйСтрокуДо0("<", ch); dynStr.Append(ch)
						аесли (name^ = "gt") то
							копируйСтрокуДо0(">", ch); dynStr.Append(ch)
						аесли (name^ = "amp") то
							копируйСтрокуДо0("&", ch); dynStr.Append(ch)
						аесли (name^ = "apos") то
							копируйСтрокуДо0("'", ch); dynStr.Append(ch)
						аесли (name^ = "quot") то
							копируйСтрокуДо0('"', ch); dynStr.Append(ch)
						аесли (name^ = "nbsp") то
							копируйСтрокуДо0(" ", ch); dynStr.Append(ch)
						иначе
							ЛогЯдра.пСтроку8("GetXMLCharContent: Unknown XML.EntityRef with name '");
							ЛогЯдра.пСтроку8(name^); ЛогЯдра.пСтроку8("'"); ЛогЯдра.пВК_ПС
						всё
					иначе
						ЛогЯдра.пСтроку8("GetXMLCharContent: Unknown XML.EntityRef with name NIL"); ЛогЯдра.пВК_ПС
					всё
				всё
			кц;
			если (dynStr.Length() > 0) то
				возврат dynStr.ToArrOfChar()
			всё
		всё;
		возврат НУЛЬ
	кон GetXMLCharContent;

	проц SpecialCharacter(c: симв8) : булево;
	нач (* ? < > & " are illegal characters *)
		возврат (c = "?") или (c = "<") или (c = ">") или (c = "&") или (c =  '"')
	кон SpecialCharacter;

	(** create an xml text as XML.ArrayChars and XML.EntityRef *)
	проц CreateXMLText*(text: массив из симв8) : XML.Container;
	перем cont: XML.Container; chars: XML.ArrayChars; ent: XML.EntityRef; charRef: XML.CharReference; pos, at: цел32;
		dynStr: DynamicStrings.DynamicString; str: Strings.String;ch: массив 6 из симв8;
	нач
		нов(cont);
		pos := 0;
		нцПока (pos < Strings.Length(text)) делай
			нов(dynStr); at := 0;
			нцПока((pos < Strings.Length(text)) и (~SpecialCharacter(text[pos]))) делай
				dynStr.Put(text[pos], at); увел(pos); увел(at);
			кц;
			если (at > 0) то
				str := dynStr.ToArrOfChar();
				нов(chars); chars.SetStr(str^); cont.AddContent(chars)
			всё;
			нцПока ((pos < Strings.Length(text)) и (SpecialCharacter(text[pos]))) делай
				ch[0] := 0X;
				просей text[pos] из
					"<": нов(ent); копируйСтрокуДо0("lt", ch); ent.SetName(ch); cont.AddContent(ent)
				|  ">": нов(ent); копируйСтрокуДо0("gt", ch); ent.SetName(ch); cont.AddContent(ent)
				|  "&": нов(ent); копируйСтрокуДо0("amp", ch); ent.SetName(ch); cont.AddContent(ent)
				|  '"': нов(ent); копируйСтрокуДо0("quot", ch); ent.SetName(ch); cont.AddContent(ent)
				иначе нов(charRef); charRef.SetCode(кодСимв8(text[pos])); cont.AddContent(charRef)
				всё;
				увел(pos)
			кц
		кц;
		возврат cont
	кон CreateXMLText;

	(** create attribute value text with encoded special charcters *)
	проц GetEncXMLAttributeText*(text: массив из симв8): Strings.String;
	перем i: размерМЗ; dynStr: DynamicStrings.DynamicString; chs: массив 8 из симв8;
		str: Strings.String;
	нач
		нов(dynStr);
		нцДля i := 0 до Strings.Length(text)-1 делай
			просей text[i] из
			   "<": копируйСтрокуДо0("&lt;", chs)
			| ">": копируйСтрокуДо0("&gt;", chs)
			| "&": копируйСтрокуДо0("&amp;", chs)
			| '"': копируйСтрокуДо0("&quot;", chs)
			иначе chs[0] := text[i]; chs[1] := 0X
			всё;
			dynStr.Append(chs)
		кц;
		str := dynStr.ToArrOfChar();
		возврат str
	кон GetEncXMLAttributeText;

	(** create xml text with <br/> tags for CR *)
	проц CreateXMLTextWithBR*(text: массив из симв8) : XML.Container;
	перем cont: XML.Container; chars: XML.ArrayChars; ent: XML.EntityRef; charRef: XML.CharReference; pos, at: цел32;
		dynStr: DynamicStrings.DynamicString; str: Strings.String;ch: массив 6 из симв8;
		br: XML.Element;
	нач
		нов(cont);
		pos := 0;
		нцПока (pos < Strings.Length(text)) делай
			нов(dynStr); at := 0;
			нцПока((pos < Strings.Length(text)) и (~SpecialCharacter(text[pos]) и (text[pos] # симв8ИзКода(13)))) делай
				если (text[pos] # симв8ИзКода(10)) то
					dynStr.Put(text[pos], at); увел(at)
				всё;
				увел(pos);
			кц;
			если (at > 0) то
				str := dynStr.ToArrOfChar();
				нов(chars); chars.SetStr(str^); cont.AddContent(chars)
			всё;
			нцПока ((pos < Strings.Length(text)) и ((SpecialCharacter(text[pos]) или (text[pos] = симв8ИзКода(13)))))делай
				ch[0] := 0X;
				просей text[pos] из
					симв8ИзКода(13): нов(br); br.SetName("br"); cont.AddContent(br)
				|  "<": нов(ent); копируйСтрокуДо0("lt", ch); ent.SetName(ch); cont.AddContent(ent)
				|  ">": нов(ent); копируйСтрокуДо0("gt", ch); ent.SetName(ch); cont.AddContent(ent)
				|  "&": нов(ent); копируйСтрокуДо0("amp", ch); ent.SetName(ch); cont.AddContent(ent)
				|  '"': нов(ent); копируйСтрокуДо0("quot", ch); ent.SetName(ch); cont.AddContent(ent)
				иначе нов(charRef); charRef.SetCode(кодСимв8(text[pos])); cont.AddContent(charRef)
				всё;
				увел(pos)
			кц
		кц;
		возврат cont
	кон CreateXMLTextWithBR;

	(** append the content 'appendix' to 'container' by avoiding nested XML containers *)
	проц AppendXMLContent*(container: XML.Container; appendix: XML.Content);
	перем subCont: XML.Container; enum: XMLObjects.Enumerator; pSub: динамическиТипизированныйУкль; content: XML.Content;
	нач
		если (appendix # НУЛЬ) то
			если ((appendix суть XML.Container) и (~(appendix суть XML.Element))) то (* avoid nested containers *)
				subCont := appendix(XML.Container);
				enum := subCont.GetContents();
				нцПока (enum.HasMoreElements()) делай
					pSub := enum.GetNext(); content := pSub(XML.Content);
					AppendXMLContent(container, content)
				кц
			иначе
				container.AddContent(appendix)
			всё
		всё
	кон AppendXMLContent;

	(** copy the contents of 'from' to 'to' by avoiding nested XML containers *)
	проц CopyXMLSubContents*(from, to: XML.Container);
	перем enum: XMLObjects.Enumerator; pSub: динамическиТипизированныйУкль; content: XML.Content;
	нач
		если ((from # НУЛЬ) и (to # НУЛЬ)) то
			enum := from.GetContents();
			нцПока (enum.HasMoreElements()) делай
				pSub := enum.GetNext(); content := pSub(XML.Content);
				AppendXMLContent(to, content)
			кц
		всё
	кон CopyXMLSubContents;

	проц Concat(dynStr: DynamicStrings.DynamicString; appendix: массив из симв8);
	перем appStr: Strings.String;
	нач
		appStr := GetString(appendix);
		dynStr.Append(appStr^)
	кон Concat;

	проц GetString*(text: массив из симв8): Strings.String;
	перем str: Strings.String;
	нач
		нов(str, Strings.Length(text)+1); копируйСтрокуДо0(text, str^); возврат str
	кон GetString;

	(** format 'day month year hour minute second" no check for validity *)
	проц StrToDateTime*(str: массив из симв8; перем dt: Dates.DateTime);
	перем i: размерМЗ;
		проц GoToNextBlock;
		нач
			нцПока (str[i] # 0X) и ((str[i] < "0") или (str[i] > "9")) делай увел(i) кц
		кон GoToNextBlock;
	нач
		i := 0;
		GoToNextBlock;
		Strings.StrToIntPos(str, dt.day, i);
		GoToNextBlock;
		Strings.StrToIntPos(str, dt.month, i);
		GoToNextBlock;
		Strings.StrToIntPos(str, dt.year, i);
		GoToNextBlock;
		Strings.StrToIntPos(str, dt.hour, i);
		GoToNextBlock;
		Strings.StrToIntPos(str, dt.minute, i);
		GoToNextBlock;
		Strings.StrToIntPos(str, dt.second, i)
	кон StrToDateTime;

	(** date time to string by DateTimeFormat in CONST block *)
	проц DateTimeToStr*(перем dt: Dates.DateTime) : Strings.String;
	перем dateStr: массив 40 из симв8;
	нач
		Strings.FormatDateTime(DateTimeFormat, dt, dateStr);
		возврат GetString(dateStr)
	кон DateTimeToStr;

	(** get the actual date time as a string *)
	проц GetNowDateTimeAsStr*() : Strings.String;
	перем dateStr: массив 40 из симв8;
	нач
		Strings.FormatDateTime(DateTimeFormat, Dates.Now(), dateStr);
		возврат GetString(dateStr)
	кон GetNowDateTimeAsStr;

	(** return true if date time 'a' is strictly earlier than 'b' *)
	проц CompareDateTime*(перем a, b: Dates.DateTime) : булево;
	нач
		если (a.year # b.year) то возврат a.year > b.year всё;
		если (a.month # b.month) то возврат a.month > b.month всё;
		если (a.day # b.day) то возврат a.day > b.day всё;
		если (a.hour # b.hour) то возврат a.hour > b.hour всё;
		если (a.minute # b.minute) то возврат a.minute > b.minute всё;
		возврат a.second > b.second
	кон CompareDateTime;

	(** usefull operations for the internalization and externalization process *)
		(** return the internalized string in XML element named 'elementName' from 'container', result is NIL if not present *)
	проц InternalizeString*(container: XML.Container; elementName: массив из симв8) : Strings.String;
	перем elem: XML.Element; str: Strings.String;
	нач
		elem := GetXMLSubElement(container, elementName);
		если (elem # НУЛЬ) то
			str := GetXMLCharContent(elem)
		иначе
			str := НУЛЬ
		всё;
		возврат str
	кон InternalizeString;

	(** return the internalized date time in XML element named 'elementName' from 'container', result is NIL if not present *)
	проц InternalizeDateTime*(container: XML.Container; elementName: массив из симв8) : PtrDateTime;
	перем elem: XML.Element; dateTimeStr: Strings.String; dateTime: PtrDateTime;
	нач
		elem := GetXMLSubElement(container, elementName);
		если (elem # НУЛЬ) то
			dateTimeStr := GetXMLCharContent(elem);
			если (dateTimeStr # НУЛЬ) то
				нов(dateTime); StrToDateTime(dateTimeStr^, dateTime^)
			всё
		иначе
			dateTime := НУЛЬ
		всё;
		возврат dateTime
	кон InternalizeDateTime;

	(** return the internalized SIGNED32 in XML element named 'elementName' from 'container', result is 0 if not present *)
	проц InternalizeInteger*(container: XML.Container; elementName: массив из симв8) : цел32;
	перем elem: XML.Element; intStr: Strings.String; number: цел32;
	нач
		number := 0;
		elem := GetXMLSubElement(container, elementName);
		если (elem # НУЛЬ) то
			intStr := GetXMLCharContent(elem);
			если (intStr # НУЛЬ) то
				Strings.StrToInt(intStr^, number)
			всё
		всё;
		возврат number
	кон InternalizeInteger;

	(** return the internalized BOOLEAN in XML element named 'elementName' from 'container', result is FALSE if not present *)
	проц InternalizeBoolean*(container: XML.Container; elementName: массив из симв8) : булево;
	перем elem: XML.Element; boolStr: Strings.String; boolVal: булево;
	нач
		boolVal := ложь;
		elem := GetXMLSubElement(container, elementName);
		если (elem # НУЛЬ) то
			boolStr := GetXMLCharContent(elem);
			если ((boolStr # НУЛЬ) и (boolStr^ = "true")) то
				boolVal := истина
			всё
		всё;
		возврат boolVal
	кон InternalizeBoolean;

	(** externlize string 'str' to 'container' with XML element named 'elementName'. 'str' could be NIL *)
	проц ExternalizeString*(str: Strings.String; container: XML.Container; elementName: массив из симв8);
	перем elem: XML.Element;
	нач
		если (str # НУЛЬ) то
			нов(elem); elem.SetName(elementName);
			AppendXMLContent(elem, CreateXMLText(str^));
			container.AddContent(elem)
		всё
	кон ExternalizeString;

	(** externlize dateTime 'dateTime' to 'container' with XML element named 'elementName'. 'dateTime' could be NIL *)
	проц ExternalizeDateTime*(dateTime: PtrDateTime; container: XML.Container; elementName: массив из симв8);
	перем elem: XML.Element; dateTimeStr: Strings.String;
	нач
		если (dateTime # НУЛЬ) то
			нов(elem); elem.SetName(elementName);
			dateTimeStr := DateTimeToStr(dateTime^);
			AppendXMLContent(elem, CreateXMLText(dateTimeStr^));
			container.AddContent(elem)
		всё;
	кон ExternalizeDateTime;

	(** externalize SIGNED32 'number' to 'container' with XML element named 'elementName'. *)
	проц ExternalizeInteger*(number: цел64; container: XML.Container; elementName: массив из симв8);
	перем elem: XML.Element; intStr: массив 14 из симв8;
	нач
		Strings.IntToStr(number, intStr);
		нов(elem); elem.SetName(elementName);
		AppendXMLContent(elem, CreateXMLText(intStr));
		container.AddContent(elem);
	кон ExternalizeInteger;

	(** externalize BOOLEAN 'boolVal' to 'container' with XML element named 'elementName'. *)
	проц ExternalizeBoolean*(boolVal: булево; container: XML.Container; elementName: массив из симв8);
	перем elem: XML.Element; boolStr: Strings.String;
	нач
		если (boolVal) то
			boolStr := GetString("true")
		иначе
			boolStr := GetString("false")
		всё;
		нов(elem); elem.SetName(elementName);
		AppendXMLContent(elem, CreateXMLText(boolStr^));
		container.AddContent(elem);
	кон ExternalizeBoolean;

	проц DefaultPersistentDataFilter*(obj: PersistentDataObject) : булево;
	нач возврат истина
	кон DefaultPersistentDataFilter;

	проц DefaultSessionDataFilter*(obj: SessionDataObject) : булево;
	нач возврат истина
	кон DefaultSessionDataFilter;

	(** get an existing session data container, if not present create a new one, return NIL if the session variable is
	    already used for another purpose *)
	проц GetSessionDataContainer*(session: HTTPSession.Session; name: массив из симв8) : SessionDataContainer;
	перем dynVarName: DynamicStrings.DynamicString; varName: Strings.String; p: динамическиТипизированныйУкль;
		sessionCont: SessionDataContainer;
	нач (** session # NIL *)
		нов(dynVarName); Concat(dynVarName, SessionContainerNamePrefix);
		dynVarName.Append(name);
		varName := dynVarName.ToArrOfChar();
		p := session.GetVariableValue(varName^);
		если ((p # НУЛЬ) и (p суть SessionDataContainer)) то
			sessionCont := p(SessionDataContainer);
			возврат sessionCont
		аесли (p = НУЛЬ) то
			(* create new session container *)
			нов(sessionCont, name);
			session.AddVariableValue(varName^, sessionCont);
			возврат sessionCont
		всё;
		ЛогЯдра.пСтроку8("WebStd:SessionDataContainer: Warning - The reserved prefix '");
		ЛогЯдра.пСтроку8(SessionContainerNamePrefix); ЛогЯдра.пСтроку8("' should not be used for session variables.");
		ЛогЯдра.пВК_ПС;
		возврат НУЛЬ
	кон GetSessionDataContainer;

	(** find an existing session data container, if not present then return NIL, return NIL if the session variable is
	    already used for another purpose *)
	проц FindSessionDataContainer*(session: HTTPSession.Session; name: массив из симв8) : SessionDataContainer;
	перем dynVarName: DynamicStrings.DynamicString; varName: Strings.String; p: динамическиТипизированныйУкль;
		sessionCont: SessionDataContainer;
	нач (** session # NIL *)
		нов(dynVarName); Concat(dynVarName, SessionContainerNamePrefix);
		dynVarName.Append(name);
		varName := dynVarName.ToArrOfChar();
		p := session.GetVariableValue(varName^);
		если ((p # НУЛЬ) и (p суть SessionDataContainer)) то
			sessionCont := p(SessionDataContainer);
			возврат sessionCont
		аесли (p = НУЛЬ) то
			возврат НУЛЬ
		всё;
		ЛогЯдра.пСтроку8("WebStd:SessionDataContainer: Warning - The reserved prefix '");
		ЛогЯдра.пСтроку8(SessionContainerNamePrefix); ЛогЯдра.пСтроку8("' should not be used for session variables.");
		ЛогЯдра.пВК_ПС;
		возврат НУЛЬ
	кон FindSessionDataContainer;

	(** get an existing persistent data container, if not present create a new one. if prevSys is NIL then the
	 * standard prevalence system is used *)
	проц GetPersistentDataContainer*(prevSys: PrevalenceSystem.PrevalenceSystem;
		name: массив из симв8) : PersistentDataContainer;
	перем resultList: PrevalenceSystem.PersistentObjectList; cont: PersistentDataContainer;
	нач
		если (prevSys = НУЛЬ) то
			prevSys := PrevalenceSystem.standardPrevalenceSystem
		всё;

		QueryLock;
		tempContainerName := GetString(name);
		resultList := prevSys.FindPersistentObjects(FilterPersistentDataContainer);
		если (resultList # НУЛЬ) то
			cont := resultList[0](PersistentDataContainer);
			QueryUnlock;
			возврат cont
		всё;
		(* create new persistent data container *)
		нов(cont); prevSys.AddPersistentObjectToRootSet(cont, persistentDataContainerDesc);
		cont.SetName(name);
		QueryUnlock;
		возврат cont
	кон GetPersistentDataContainer;

	(** find an existing persistent data container, if not present then return NIL. if prevSys is NIL then the
	 * standard prevalence system is used *)
	проц FindPersistentDataContainer*(prevSys: PrevalenceSystem.PrevalenceSystem;
		name: массив из симв8) : PersistentDataContainer;
	перем resultList: PrevalenceSystem.PersistentObjectList; cont: PersistentDataContainer;
	нач
		если (prevSys = НУЛЬ) то
			prevSys := PrevalenceSystem.standardPrevalenceSystem
		всё;

		QueryLock;
		tempContainerName := GetString(name);
		resultList := prevSys.FindPersistentObjects(FilterPersistentDataContainer);
		если (resultList # НУЛЬ) то
			cont := resultList[0](PersistentDataContainer);
			QueryUnlock;
			возврат cont
		всё;
		QueryUnlock;
		возврат НУЛЬ
	кон FindPersistentDataContainer;

	проц FilterPersistentDataContainer(obj: PrevalenceSystem.PersistentObject) : булево;
	перем pers: PersistentDataContainer; n: Strings.String;
	нач
		если (obj суть PersistentDataContainer) то
			pers := obj(PersistentDataContainer);
			n := pers.GetName();
			если ((n # НУЛЬ) и (n^ = tempContainerName^)) то
				возврат истина
			всё
		всё;
		возврат ложь
	кон FilterPersistentDataContainer;

	(* true iff href is a link to another webserver then 'host' *)
	проц IsExternalHyperlink(href: массив из симв8; host: массив из симв8) : булево;
	нач
		Strings.LowerCase(href); Strings.LowerCase(host);
		если (Strings.Pos("://", href) > 0) то
			возврат ~((Strings.Pos("http://", href) = 0) и (Strings.Pos(host, href) = Strings.Length("http://")))
		иначе
			возврат ложь
		всё
	кон IsExternalHyperlink;

	проц QueryLock;
	нач {единолично}
		дождись(~qlock);
		qlock := истина
	кон QueryLock;

	проц QueryUnlock;
	нач {единолично}
		qlock := ложь
	кон QueryUnlock;

	проц GetNewOid(): цел32;
	нач  увел(oidCounter); возврат oidCounter
	кон GetNewOid;

	проц CreateHyperlinkElement() : DynamicWebpage.ActiveElement;
	перем obj: Hyperlink;
	нач
		нов(obj); возврат obj
	кон CreateHyperlinkElement;

	проц CreateEventButtonElement() : DynamicWebpage.ActiveElement;
	перем obj: EventButton;
	нач
		нов(obj); возврат obj
	кон CreateEventButtonElement;

	проц CreateEventLinkElement() : DynamicWebpage.ActiveElement;
	перем obj: EventLink;
	нач
		нов(obj); возврат obj
	кон CreateEventLinkElement;

	проц CreateFormularElement() : DynamicWebpage.ActiveElement;
	перем obj: Formular;
	нач
		нов(obj); возврат obj
	кон CreateFormularElement;

	проц CreateDataContainerElement() : DynamicWebpage.ActiveElement;
	перем obj: DataContainer;
	нач
		нов(obj); возврат obj
	кон CreateDataContainerElement;

	проц CreateSessionContainerElement() : DynamicWebpage.ActiveElement;
	перем obj: SessionContainer;
	нач
		нов(obj); возврат obj
	кон CreateSessionContainerElement;

	проц CreateDatagridElement() : DynamicWebpage.ActiveElement;
	перем obj: Datagrid;
	нач
		нов(obj); возврат obj
	кон CreateDatagridElement;

	проц CreateGetHeaderFieldElement() : DynamicWebpage.ActiveElement;
	перем obj: GetHeaderField;
	нач
		нов(obj); возврат obj
	кон CreateGetHeaderFieldElement;

	проц CreateGetVariableElement() : DynamicWebpage.ActiveElement;
	перем obj: GetVariable;
	нач
		нов(obj); возврат obj
	кон CreateGetVariableElement;

	проц CreateSetVariableElement() : DynamicWebpage.ActiveElement;
	перем obj: SetVariable;
	нач
		нов(obj); возврат obj
	кон CreateSetVariableElement;

	проц CreateGuardElement() : DynamicWebpage.ActiveElement;
	перем obj: Guard;
	нач
		нов(obj); возврат obj
	кон CreateGuardElement;

	проц CreateSequenceElement() : DynamicWebpage.ActiveElement;
	перем obj: Sequence;
	нач
		нов(obj); возврат obj
	кон CreateSequenceElement;

	проц CreateIsEqualElement() : DynamicWebpage.ActiveElement;
	перем obj: IsEqual;
	нач
		нов(obj); возврат obj
	кон CreateIsEqualElement;

	проц CreateToggleBlockElement() : DynamicWebpage.ActiveElement;
	перем obj: ToggleBlock;
	нач
		нов(obj); возврат obj
	кон CreateToggleBlockElement;

	проц CreateVisitorCounterElement() : DynamicWebpage.ActiveElement;
	перем obj: VisitorCounter;
	нач
		нов(obj); возврат obj
	кон CreateVisitorCounterElement;

	проц CreateNotElement() : DynamicWebpage.ActiveElement;
	перем obj: Not;
	нач
		нов(obj); возврат obj
	кон CreateNotElement;

	проц CreateAndElement() : DynamicWebpage.ActiveElement;
	перем obj: And;
	нач
		нов(obj); возврат obj
	кон CreateAndElement;

	проц CreateOrElement() : DynamicWebpage.ActiveElement;
	перем obj: Or;
	нач
		нов(obj); возврат obj
	кон CreateOrElement;

	проц CreateXorElement() : DynamicWebpage.ActiveElement;
	перем obj: Xor;
	нач
		нов(obj); возврат obj
	кон CreateXorElement;

	проц GetActiveElementDescriptors*() : DynamicWebpage.ActiveElementDescSet;
	перем desc: укль на массив из DynamicWebpage.ActiveElementDescriptor;
		descSet: DynamicWebpage.ActiveElementDescSet;
	нач
		нов(desc, 19);
		нов(desc[0], "Hyperlink", CreateHyperlinkElement);
		нов(desc[1], "EventButton",  CreateEventButtonElement);
		нов(desc[2], "EventLink", CreateEventLinkElement);
		нов(desc[3], "Formular", CreateFormularElement);
		нов(desc[4], "DataContainer", CreateDataContainerElement);
		нов(desc[5], "SessionContainer", CreateSessionContainerElement);
		нов(desc[6], "Datagrid", CreateDatagridElement);
		нов(desc[7], "GetHeaderField", CreateGetHeaderFieldElement);
		нов(desc[8], "GetVariable", CreateGetVariableElement);
		нов(desc[9], "SetVariable", CreateSetVariableElement);
		нов(desc[10], "Guard", CreateGuardElement);
		нов(desc[11], "Sequence", CreateSequenceElement);
		нов(desc[12], "IsEqual", CreateIsEqualElement);
		нов(desc[13], "ToggleBlock", CreateToggleBlockElement);
		нов(desc[14], "VisitorCounter", CreateVisitorCounterElement);
		нов(desc[15], "Not", CreateNotElement);
		нов(desc[16], "And", CreateAndElement);
		нов(desc[17], "Or", CreateOrElement);
		нов(desc[18], "Xor", CreateXorElement);
		нов(descSet, desc^); возврат descSet
	кон GetActiveElementDescriptors;

	проц GetNewPersistentDataContainer() : PrevalenceSystem.PersistentObject;
	перем obj: PersistentDataContainer;
	нач
		нов(obj); возврат obj
	кон GetNewPersistentDataContainer;

	проц GetNewPersistentCounter() : PrevalenceSystem.PersistentObject;
	перем obj: PersistentCounter;
	нач
		нов(obj); возврат obj
	кон GetNewPersistentCounter;

	(** used by the prevalence system *)
	проц GetPersistentObjectDescriptors*() : PrevalenceSystem.PersistentObjectDescSet;
	перем descSet : PrevalenceSystem.PersistentObjectDescSet;
		descs: массив 2 из PrevalenceSystem.PersistentObjectDescriptor;
	нач
		descs[0] := persistentDataContainerDesc;
		descs[1] := persistentCounterDesc;
		нов(descSet, descs);
		возврат descSet
	кон GetPersistentObjectDescriptors;

нач
	oidCounter := 0;
	нов(persistentDataContainerDesc, "WebStd", "PersistentDataContainer", GetNewPersistentDataContainer);
	нов(persistentCounterDesc, "WebStd", "PersistentCounter", GetNewPersistentCounter);
кон WebStd.
