модуль CommandLine; (** AUTHOR "fof"; PURPOSE "A2 for Windows Command Line Interpreter"; *)

(* System.DoCommands System.FreeDownTo CommandLine2 ~  CommandLine2.Open~~ *)

(* В реальной сборке A2 сначала запускается StdIOShell.Mod, а запускается ли этот 
	модуль - вообще не ясно. Вероятно, он запускается только в случае, если это сказано
	в скрипте инициализации. Но пока что у нас скрипт инициализации открывается в явном
	виде через командную строку, и в этом случае командная строка уже "засорена" аргументами,
	которых данный модуль не поймёт *)

использует
	StdIO,Потоки,FileHandlers;

(* открыть документы, имена которых заданы в командной строке *)
проц Open*;
перем commandLine,command,name: массив 512 из симв8; чтец: Потоки.ЧтецИзСтроки;
нач
	StdIO.ПолучиКоманднуюСтрокуИзОС(commandLine);
	нов(чтец,длинаМассива(commandLine));
	чтец.ПримиСтроку8ДляЧтения(commandLine);
	чтец.чЦепочкуСимволов8ДоБелогоПоляИлиВКавычках(command);
	нцПока чтец.ПропустиБелоеПолеИЧитайЦепочкуСимволов8ДоБелогоПоляИлиВКавычках(name) делай
		FileHandlers.OpenFile(name,НУЛЬ, НУЛЬ);
	кц;
кон Open;

кон CommandLine.

