модуль WMTextStyleTool;	(** AUTHOR "TF"; PURPOSE "Text Tool"; *)

использует
	Commands, Потоки, Texts, Strings, WMComponents, WMRestorable, WMStringGrids, WMGrids,
	WMEditors, WMGraphics, WMMessages, WMStandardComponents, Modules,
	WMPopups, WMRectangles, WMDialogs, FP1616, Files, XMLParser, XMLScanner, XML, XMLObjects,
	WM := WMWindowManager, ЛогЯдра; 

конст
	AlignLeft = 0; AlignCenter = 1; AlignRight = 2; AlignJustified = 3;
	StyleRegular = 0; StyleBold = 1; StyleItalic = 2; StyleBoldItalic = 3;

	(* field parameter for Change procedure *)
	ChangeFont = {0};
	ChangeSize = {1};
	ChangeStyle = {2};
	ChangeFgColor = {3};
	ChangeBgColor = {4};

	(* mode parameter for Change procedure *)
	Absolute = 0;
	IncrementBy = 1;
	DecrementBy = 2;

тип
	KillerMsg = окласс
	кон KillerMsg;

	ContextMenuData = окласс
	перем val: цел32;

		проц &New*(val: цел32);
		нач
			сам.val := val;
		кон New;
	кон ContextMenuData;

тип

	ChangeInfo= окласс (Texts.Attributes)
	перем
		fields : мнвоНаБитахМЗ; (* which fields should be changed *)
		name : массив 128 из симв8;
		deltaSizeMode : цел32; (* Interpretation of deltasize field: Absolute, IncrementBy, DecrementBy *)
		deltaSize : цел32;
		fgColor, bgColor : цел32;
		style : мнвоНаБитахМЗ;

		проц &Init*;
		нач
			fields := {};
			deltaSizeMode := 0;
			deltaSize := 0;
			fgColor := 0; bgColor := 0;
			style := {};
		кон Init;

	кон ChangeInfo;

тип

	Window* = окласс (WMComponents.FormWindow)
	перем
		bold, lock, comment, stupid, assert, preferred, debug, normal,
		highlight, adhoc, more, edit, link, label: WMStandardComponents.Button;
		winpanel : WMStandardComponents.Panel;
		cList : WMStringGrids.StringGrid;
		styleEditor : StyleEditor;

		проц CreateForm(): WMComponents.VisualComponent;
		перем
			panel : WMStandardComponents.Panel;
			toolbar: WMStandardComponents.Panel;

			проц AB(panel : WMStandardComponents.Panel; btn: WMStandardComponents.Button);
			нач
				btn.alignment.Set(WMComponents.AlignLeft); btn.bounds.SetWidth(60); panel.AddContent(btn)
			кон AB;

		нач
			нов(panel); panel.bounds.SetExtents(120, 140); panel.takesFocus.Set(истина);

			(* link & label*)
			нов(toolbar); toolbar.bounds.SetHeight(20); toolbar.alignment.Set(WMComponents.AlignTop);
			panel.AddContent(toolbar);
			нов(link); link.caption.SetAOC("Add Link"); AB(toolbar, link); link.clDefault.Set(080CC80H);
			нов(label); label.caption.SetAOC("Add Label"); AB(toolbar, label); label.clDefault.Set(080CC80H);

			(* styles *)
			(**)
			нов(toolbar); toolbar.bounds.SetHeight(20); toolbar.alignment.Set(WMComponents.AlignTop);
			panel.AddContent(toolbar);
			нов(bold); bold.caption.SetAOC("Bold"); AB(toolbar, bold);
			нов(lock); lock.caption.SetAOC("Lock"); AB(toolbar, lock);

			(**)
			нов(toolbar); toolbar.bounds.SetHeight(20); toolbar.alignment.Set(WMComponents.AlignTop);
			panel.AddContent(toolbar);
			нов(comment); comment.caption.SetAOC("Comment"); AB(toolbar, comment);
			нов(debug); debug.caption.SetAOC("Debug"); AB(toolbar, debug);

			(**)
			нов(toolbar); toolbar.bounds.SetHeight(20); toolbar.alignment.Set(WMComponents.AlignTop);
			panel.AddContent(toolbar);
			нов(stupid); stupid.caption.SetAOC("Stupid"); AB(toolbar, stupid);
			нов(assert); assert.caption.SetAOC("Assert"); AB(toolbar, assert);

			(**)
			нов(toolbar); toolbar.bounds.SetHeight(20); toolbar.alignment.Set(WMComponents.AlignTop);
			panel.AddContent(toolbar);
			нов(preferred); preferred.caption.SetAOC("Preferred"); AB(toolbar, preferred);
			нов(normal); normal.caption.SetAOC("Normal"); AB(toolbar, normal);

			(**)
			нов(toolbar); toolbar.bounds.SetHeight(20); toolbar.alignment.Set(WMComponents.AlignTop);
			panel.AddContent(toolbar);
			нов(highlight); highlight.caption.SetAOC("Highlight"); AB(toolbar, highlight);
			нов(adhoc); adhoc.caption.SetAOC("AdHoc"); AB(toolbar, adhoc); adhoc.clDefault.Set(0CC0080H);

			(* style edit *)
			нов(toolbar); toolbar.bounds.SetHeight(20); toolbar.alignment.Set(WMComponents.AlignTop);
			panel.AddContent(toolbar);
			нов(more); more.caption.SetAOC("More"); AB(toolbar, more); more.clDefault.Set(0CC000080H);
			нов(edit); edit.caption.SetAOC("Edit"); AB(toolbar, edit); edit.clDefault.Set(0CC000080H); edit.visible.Set(ложь);

			(* List *)
			нов(cList); cList.alignment.Set(WMComponents.AlignClient);
			cList.onClick.Add(SetStyleFromList); cList.clCell.Set(0FFFFFFCCH); cList.clHover.Set(0FFFF00CCH);
			cList.model.Acquire;
			cList.model.SetNofCols(1);
			cList.model.SetNofRows(1);
			cList.SetSelectionMode(WMGrids.GridSelectSingleRow);
			cList.model.Release;
			panel.AddContent(cList);

			winpanel := panel;
			возврат panel
		кон CreateForm;

		проц &New*(c : WMRestorable.Context);
		перем vc : WMComponents.VisualComponent;
			xml : XML.Element;
			 s : Strings.String;
			 temp : булево;
		нач
			IncCount;
			vc := CreateForm();

			bold.onClick.Add(SetStyle);
			lock.onClick.Add(SetStyle);
			comment.onClick.Add(SetStyle);
			debug.onClick.Add(SetStyle);
			stupid.onClick.Add(SetStyle);
			assert.onClick.Add(SetStyle);
			preferred.onClick.Add(SetStyle);
			normal.onClick.Add(SetStyle);
			highlight.onClick.Add(SetStyle);
			(* adhoc style *)
			adhoc.onClick.Add(AdHocStyle);
			(* style editor *)
			more.onClick.Add(ShowList);
			edit.onClick.Add(EditStyles);

			link.onClick.Add(AddLink);
			label.onClick.Add(AddLabel);

			Init(vc.bounds.GetWidth(), vc.bounds.GetHeight(), истина);
			SetContent(vc);
			BuildList;

			если c # НУЛЬ то
				WMRestorable.AddByContext(сам, c);
				если c.appData # НУЛЬ то
					xml := c.appData(XML.Element);
					s := xml.GetAttributeValue("expanded");
					если s # НУЛЬ то Strings.StrToBool(s^, temp) всё;
					если temp то
						more.caption.SetAOC("Less");
						edit.visible.Set(истина);
					всё;
				всё;
				Resized(GetWidth(), GetHeight());
			иначе  WM.AddWindow(сам, 50, 50)
			 всё;
			SetTitle(Strings.NewString("Text Styles"))
		кон New;

		(* -- Handlers -- *)

		проц AdHocStyle(sender, data : динамическиТипизированныйУкль);
		перем adhocStyle : AdHocStyleWindow;
		нач
			нов(adhocStyle)
		кон AdHocStyle;

		проц EditStyles(sender, data: динамическиТипизированныйУкль);
		нач
			если styleEditor = НУЛЬ то
				нов(styleEditor);
				styleEditor.UpdateProc := BuildList;
			всё;
			styleEditor.Show(200, 150);
		кон EditStyles;

		проц ShowList(sender, data: динамическиТипизированныйУкль);
		перем caption : Strings.String;
			button : WMStandardComponents.Button;
			width, height : размерМЗ;
		нач
			button :=  sender(WMStandardComponents.Button);
			caption :=  button.caption.Get();
			manager := WM.GetDefaultManager();
			если caption^ = "More" то
				button.caption.SetAOC("Less");
				width := GetWidth(); height := GetHeight()+ 300;
				edit.visible.Set(истина);
			иначе
				button.caption.SetAOC("More");
				width := GetWidth(); height := 140;
				edit.visible.Set(ложь);
			всё;
			manager.SetWindowSize(сам, width, height); Resized(width, height);
		кон ShowList;

		проц BuildList;
		перем styles : Texts.CharacterStyleArray;
		i : цел32;
		нач
			styles := Texts.GetCharacterStyleArray();
			cList.model.Acquire;
			i := 0;
			нцПока ((i<длинаМассива(styles))  и (styles[i] # НУЛЬ)) делай
				cList.model.SetNofRows(i+1);
				cList.model.SetCellText(0, i, Strings.NewString(styles[i].name));
				cList.model.SetCellData(0, i, styles[i]);
				увел(i);
			кц;
			cList.model.Release;
		кон  BuildList;

		проц SetStyleFromList(sender, data: динамическиТипизированныйУкль);
		перем text : Texts.Text;
			from, to : Texts.TextPosition;
			a, b: размерМЗ;
			cStyle : Texts.CharacterStyle;
		нач
			если (data # НУЛЬ ) то
				cStyle := data(Texts.CharacterStyle);
				если Texts.GetLastSelection(text, from, to) то
				text.AcquireWrite;
				a := матМинимум(from.GetPosition(), to.GetPosition());
				b := матМаксимум(from.GetPosition(), to.GetPosition());
				text.SetCharacterStyle(a, b - a, cStyle);
				text.ReleaseWrite
				всё
			всё;
		кон SetStyleFromList;

		проц SetStyle(sender, data : динамическиТипизированныйУкль);
		перем text : Texts.Text;
			from, to : Texts.TextPosition;
			a, b: размерМЗ;
			cStyle : Texts.CharacterStyle;
		нач
			если Texts.GetLastSelection(text, from, to) то

				если sender = bold то
					cStyle := Texts.GetCharacterStyleByName("Bold");
				аесли sender = lock то
					cStyle := Texts.GetCharacterStyleByName("Lock");
				аесли sender = preferred то
					cStyle := Texts.GetCharacterStyleByName("Preferred");
				аесли sender = assert то
					cStyle := Texts.GetCharacterStyleByName("Assertion");
				аесли sender = comment то
					cStyle := Texts.GetCharacterStyleByName("Comment");
				аесли sender = debug то
					cStyle := Texts.GetCharacterStyleByName("Debug");
				аесли sender = stupid то
					cStyle := Texts.GetCharacterStyleByName("Stupid");
				аесли sender = normal то
					cStyle := Texts.GetCharacterStyleByName("Normal");
				аесли sender = highlight то
					cStyle := Texts.GetCharacterStyleByName("Highlight");
				всё;
				text.AcquireWrite;
				a := матМинимум(from.GetPosition(), to.GetPosition());
				b := матМаксимум(from.GetPosition(), to.GetPosition());
				text.SetCharacterStyle(a, b - a, cStyle);
				text.ReleaseWrite
			всё
		кон SetStyle;

		проц AddLink(sender, data: динамическиТипизированныйУкль);
		перем text : Texts.Text;
			from, to : Texts.TextPosition;
			a, b: размерМЗ;
			tempLink: массив 2083 из симв8;
			link : Texts.Link;
		нач
			если Texts.GetLastSelection(text, from, to) то
				если WMDialogs.QueryString("Enter Link", tempLink) = WMDialogs.ResOk то
					link := Strings.NewString(tempLink);
					text.AcquireWrite;
					a := матМинимум(from.GetPosition(), to.GetPosition());
					b := матМаксимум(from.GetPosition(), to.GetPosition());
					text.SetLink(a, b - a, link);
					text.ReleaseWrite
				всё
			всё
		кон AddLink;

		проц AddLabel(sender, data: динамическиТипизированныйУкль);
		перем text : Texts.Text;
			from, to : Texts.TextPosition;
			a: размерМЗ;
			label : массив 256 из симв8;
			lp : Texts.LabelPiece;
		нач
			если Texts.GetLastSelection(text, from, to) то
				если WMDialogs.QueryString("Enter Label", label) = WMDialogs.ResOk то
					нов(lp); lp.label := Strings.NewString(label);
					text.AcquireWrite;
					a := матМинимум(from.GetPosition(), to.GetPosition());
					text.InsertPiece(a, lp);
					text.ReleaseWrite
				всё
			всё
		кон AddLabel;

		проц {перекрыта}Close*;
		нач
			если styleEditor # НУЛЬ то styleEditor.Close всё;
			Close^;
			DecCount
		кон Close;

		проц {перекрыта}Handle*(перем x: WMMessages.Message);
		перем data : XML.Element; a : XML.Attribute; n, str: массив 32 из симв8;
		нач
			если (x.msgType = WMMessages.MsgExt) и (x.ext # НУЛЬ) то
				если (x.ext суть KillerMsg) то Close
				аесли (x.ext суть WMRestorable.Storage) то
					нов(data);  n := "TextStyleToolData"; data.SetName(n);
					нов(a); n := "expanded"; a.SetName(n); Strings.BoolToStr(edit.visible.Get(), str); a.SetValue(str); data.AddAttribute(a);
					x.ext(WMRestorable.Storage).Add("WMTextStyleTool", "WMTextStyleTool.Restore", сам, data)
				иначе Handle^(x)
				всё
			иначе Handle^(x)
			всё
		кон Handle;

	кон Window;

	(* Graphical User Interface to add AdHoc-Styles *)
	AdHocStyleWindow* = окласс(WMComponents.FormWindow)
	перем
		get, apply: WMStandardComponents.Button;
		famEdit, sizeEdit, styleEdit, colorEdit, bgColEdit: WMEditors.Editor;
		styleB, colB, bgColB : WMStandardComponents.Button;
		popup : WMPopups.Popup;
		cStyle : Texts.CharacterStyle;

		проц CreateForm(): WMComponents.VisualComponent;
		перем
			label : WMStandardComponents.Label;
			panel : WMStandardComponents.Panel;
			toolbar: WMStandardComponents.Panel;
			manager : WM.WindowManager;
			windowStyle : WM.WindowStyle;

			проц AB(panel : WMStandardComponents.Panel; btn: WMStandardComponents.Button);
			нач
				btn.alignment.Set(WMComponents.AlignLeft); btn.bounds.SetWidth(60); panel.AddContent(btn)
			кон AB;

			проц AL(panel : WMStandardComponents.Panel; lbl : WMStandardComponents.Label);
			нач
				lbl.alignment.Set(WMComponents.AlignLeft); lbl.bounds.SetWidth(45); label.textColor.Set(0000000FFH);
				lbl.fillColor.Set(windowStyle.bgColor); panel.AddContent(lbl)
			кон AL;

			проц AE(panel : WMStandardComponents.Panel; edtr : WMEditors.Editor);
			нач
				edtr.alignment.Set(WMComponents.AlignClient); edtr.multiLine.Set(ложь); edtr.fillColor.Set(0FFFFFF88H); edtr.tv.showBorder.Set(истина);
				edtr.tv.textAlignV.Set(WMGraphics.AlignCenter);
				edtr.tv.borders.Set(WMRectangles.MakeRect(3,3,1,1)); edtr.tv.defaultTextBgColor.Set(0FFFFFF88H);
				panel.AddContent(edtr)
			кон AE;

			проц AD(panel : WMStandardComponents.Panel; btn : WMStandardComponents.Button);
			нач
				btn.alignment.Set(WMComponents.AlignRight); btn.bounds.SetWidth(17); panel.AddContent(btn)
			кон AD;

		нач
			нов(panel); panel.bounds.SetExtents(120, 120); panel.takesFocus.Set(истина);
			manager := WM.GetDefaultManager();
			windowStyle := manager.GetStyle();

			(* Get/Apply *)
			нов(toolbar); toolbar.bounds.SetHeight(20); toolbar.alignment.Set(WMComponents.AlignTop);
			panel.AddContent(toolbar);
			нов(get); get.caption.SetAOC("Get"); AB(toolbar, get); get.clDefault.Set(088000088H);
			нов(apply); apply.caption.SetAOC("Apply"); AB(toolbar, apply); apply.clDefault.Set(088000088H);

			нов(toolbar); toolbar.bounds.SetHeight(20); toolbar.alignment.Set(WMComponents.AlignTop);
			panel.AddContent(toolbar);
			нов(label); label.caption.SetAOC(" Font:"); AL(toolbar, label);
			нов(famEdit); famEdit.SetAsString("Oberon"); AE(toolbar, famEdit);

			нов(toolbar); toolbar.bounds.SetHeight(20); toolbar.alignment.Set(WMComponents.AlignTop);
			panel.AddContent(toolbar);
			нов(label); label.caption.SetAOC(" Size:"); AL(toolbar, label);
			нов(sizeEdit); sizeEdit.SetAsString("10"); AE(toolbar, sizeEdit);

			нов(toolbar); toolbar.bounds.SetHeight(20); toolbar.alignment.Set(WMComponents.AlignTop);
			panel.AddContent(toolbar);
			нов(label); label.caption.SetAOC(" Style:"); AL(toolbar, label);
			нов(styleB); styleB.caption.SetAOC("+"); AD(toolbar, styleB);
			нов(styleEdit); styleEdit.SetAsString("Regular"); AE(toolbar, styleEdit);

			нов(toolbar); toolbar.bounds.SetHeight(20); toolbar.alignment.Set(WMComponents.AlignTop);
			panel.AddContent(toolbar);
			нов(label); label.caption.SetAOC(" Color:"); AL(toolbar, label);
			нов(colB); colB.caption.SetAOC("+"); AD(toolbar, colB);
			нов(colorEdit); colorEdit.SetAsString("000000FF"); AE(toolbar, colorEdit);

			нов(toolbar); toolbar.bounds.SetHeight(20); toolbar.alignment.Set(WMComponents.AlignTop);
			panel.AddContent(toolbar);
			нов(label); label.caption.SetAOC(" BGCol:"); AL(toolbar, label);
			нов(bgColB); bgColB.caption.SetAOC("+"); AD(toolbar, bgColB);
			нов(bgColEdit); bgColEdit.SetAsString("00000000"); AE(toolbar, bgColEdit);

			возврат panel
		кон CreateForm;

		проц &New*;
		перем vc : WMComponents.VisualComponent;
		нач
			vc := CreateForm();

			get.onClick.Add(GetStyle);
			apply.onClick.Add(SetCustomStyle);
			styleB.SetExtPointerDownHandler(StyleDrop);
			colB.SetExtPointerDownHandler(ColorHandler);
			bgColB.SetExtPointerDownHandler(BGColorHandler);

			Init(vc.bounds.GetWidth(), vc.bounds.GetHeight(), истина);
			SetContent(vc);

			WM.ExtAddWindow(сам, 50, 50, {WM.FlagStayOnTop, WM.FlagFrame, WM.FlagClose, WM.FlagMinimize});
			SetTitle(Strings.NewString("AdHoc Text Styles"))
		кон New;

		проц GetStyle(sender, data : динамическиТипизированныйУкль);
		перем text : Texts.Text; from, to : Texts.TextPosition;
			utilreader : Texts.TextReader; tempString : массив 256 из симв8;
			a, b: размерМЗ; ch: симв32; temp : цел32;
		нач
			если Texts.GetLastSelection(text, from, to) то
				text.AcquireWrite;
				a := матМинимум(from.GetPosition(), to.GetPosition());
				b := матМаксимум(from.GetPosition(), to.GetPosition());
				нов(utilreader, text);
				utilreader.SetPosition(a);
				utilreader.ReadCh(ch);
				если (utilreader.cstyle = НУЛЬ) и (utilreader.attributes = НУЛЬ) то
					famEdit.SetAsString("<Не задан>");
					sizeEdit.SetAsString("0");
					styleEdit.SetAsString("Regular");
					colorEdit.SetAsString("000000FF");
					bgColEdit.SetAsString("00000000");
				аесли (utilreader.cstyle # НУЛЬ) то
					cStyle := utilreader.cstyle;
					famEdit.SetAsString(cStyle.family);
					ЛогЯдра.пСтроку8("WMTextStyleTool: в тексте задан стиль ");
					(* r.PechKL(cStyle); *)
					temp := округлиВниз(FP1616.FixpToFloat(cStyle.size));
					Strings.IntToStr(temp, tempString);
					sizeEdit.SetAsString(tempString);
					если cStyle.style = {} то
						styleEdit.SetAsString("Regular");
					аесли cStyle.style = {0} то
						styleEdit.SetAsString("Bold");
					аесли cStyle.style = {1} то
						styleEdit.SetAsString("Italic");
					аесли cStyle.style = {0,1} то
						styleEdit.SetAsString("Bold Italic");
					иначе
						styleEdit.SetAsString("Regular");
					всё;
					Strings.IntToHexStr(cStyle.color, 7, tempString);
					colorEdit.SetAsString(tempString);
					Strings.IntToHexStr(cStyle.bgColor, 7, tempString);
					bgColEdit.SetAsString(tempString);
				аесли (utilreader.attributes # НУЛЬ) то
					famEdit.SetAsString(utilreader.attributes.fontInfo.name);
					Strings.IntToStr(utilreader.attributes.fontInfo.size, tempString);
					sizeEdit.SetAsString(tempString);
					если utilreader.attributes.fontInfo.style = {} то
						styleEdit.SetAsString("Regular");
					аесли utilreader.attributes.fontInfo.style = {0} то
						styleEdit.SetAsString("Bold");
					аесли utilreader.attributes.fontInfo.style = {1} то
						styleEdit.SetAsString("Italic");
					аесли utilreader.attributes.fontInfo.style = {0,1} то
						styleEdit.SetAsString("Bold Italic");
					иначе
						styleEdit.SetAsString("Regular");
					всё;
					Strings.IntToHexStr(utilreader.attributes.color, 7, tempString);
					colorEdit.SetAsString(tempString);
					Strings.IntToHexStr(utilreader.attributes.bgcolor, 7, tempString);
					bgColEdit.SetAsString(tempString);
				всё;
				text.ReleaseWrite
			всё;
		кон GetStyle;

		проц SetCustomStyle(sender, data: динамическиТипизированныйУкль);
		перем text : Texts.Text;
			from, to : Texts.TextPosition;
			cStyle : Texts.CharacterStyle;
			a, b: размерМЗ;
			style : мнвоНаБитахМЗ;
			fgColor, bgColor : цел32;
			name, tempString: массив 256 из симв8;
			res: целМЗ; size : цел32;
		нач
			если Texts.GetLastSelection(text, from, to) то
				(* create new AdHoc Style *)
				нов(cStyle);
				famEdit.GetAsString(name);
				копируйСтрокуДо0(name, cStyle.family);
				sizeEdit.GetAsString(tempString);
				Strings.StrToInt(tempString, size);
				size := FP1616.FloatToFixp(size);
				cStyle.size := size;
				styleEdit.GetAsString(tempString);
				если tempString = "Regular" то style := {};
				аесли tempString = "Bold" то style := {0};
				аесли tempString = "Italic" то style := {1};
				аесли tempString = "Bold Italic" то style := {0, 1};
				иначе
					style := {};
				всё;
				cStyle.style := style;
				colorEdit.GetAsString(tempString);
				Strings.HexStrToInt(tempString, fgColor, res);
				cStyle.color := fgColor;
				bgColEdit.GetAsString(tempString);
				Strings.HexStrToInt(tempString, bgColor, res);
				cStyle.bgColor := bgColor;
				(* create AdHoc Name *)
				size := округлиВниз(FP1616.FixpToFloat(size));
				CreateStyleName(name, style, size, fgColor, bgColor, cStyle.name);

				(* Set the style *)
				text.AcquireWrite;
				a := матМинимум(from.GetPosition(), to.GetPosition());
				b := матМаксимум(from.GetPosition(), to.GetPosition());
				text.SetCharacterStyle(a, b - a, cStyle);
				text.ReleaseWrite
			всё
		кон SetCustomStyle;

		проц StyleDrop(x, y : размерМЗ; keys : мнвоНаБитахМЗ; перем handled : булево);
		нач
			нов(popup);
			popup.Add("Regular", StylePopupHandler);
			popup.Add("Bold", StylePopupHandler);
			popup.Add("Italic", StylePopupHandler);
			popup.Add("Bold Italic", StylePopupHandler);
			handled := истина;

			popup.Popup(bounds.r-100, bounds.t+80);
		кон StyleDrop;

		проц StylePopupHandler(sender, data: динамическиТипизированныйУкль);
		перем button: WMStandardComponents.Button;
			tempString: Strings.String;
		нач
			popup.Close;
			если sender суть WMStandardComponents.Button то
				button := sender(WMStandardComponents.Button);
				tempString := button.caption.Get();
				если (tempString^ = "Regular") то
					styleEdit.SetAsString("Regular");
				аесли (tempString^ = "Bold") то
					styleEdit.SetAsString("Bold");
				аесли (tempString^ = "Italic") то
					styleEdit.SetAsString("Italic");
				аесли (tempString^ = "Bold Italic") то
					styleEdit.SetAsString("Bold Italic");
				иначе
					styleEdit.SetAsString("Regular");
				всё;
			всё;
		кон StylePopupHandler;

		проц ColorHandler(x, y : размерМЗ; keys : мнвоНаБитахМЗ; перем handled : булево);
		перем colorPanel : WMPopups.ColorSwatchPopup;
		нач
			нов(colorPanel);
			colorPanel.onColorChosen := ColorPopupHandler;
			colorPanel.Popup(bounds.r-190, bounds.t+100);

			handled := истина;
		кон ColorHandler;

		проц ColorPopupHandler(result: WMGraphics.Color);
		перем
			colorString: массив 16 из симв8;
		нач
			Strings.IntToHexStr(result, 7, colorString);
			colorEdit.SetAsString(colorString);
		кон ColorPopupHandler;

		проц BGColorHandler(x, y : размерМЗ; keys : мнвоНаБитахМЗ; перем handled : булево);
		перем colorPanel: WMPopups.ColorSwatchPopup;
		нач
			нов(colorPanel);
			colorPanel.onColorChosen := BGColorPopupHandler;
			colorPanel.Popup(bounds.r-190, bounds.t+220);

			handled := истина;
		кон BGColorHandler;

		проц BGColorPopupHandler(result: WMGraphics.Color);
		перем
			colorString: массив 16 из симв8;
		нач
			Strings.IntToHexStr(result, 7, colorString);
			bgColEdit.SetAsString(colorString);
		кон BGColorPopupHandler;

		проц {перекрыта}Close*;
		нач
			Close^;
		кон Close;

	кон AdHocStyleWindow;

	(* Graphical User Interface to create & edit Text Styles *)
	StyleEditor* = окласс(WMComponents.FormWindow)
	перем
		shown : булево; popup: WMPopups.Popup;
		oldPStyleName, oldCStyleName: массив 256 из симв8;
		tabColor, tabSelectedColor : цел32;
		previewLabel, fontNotFound : WMStandardComponents.Label;
		tabPanel, buttonPanel, pstylePanel, cstylePanel : WMStandardComponents.Panel;
		pstyleButton, cstyleButton, button : WMStandardComponents.Button;
		pName, pAlign, pFirstIndent, pLeftIndent, pRightIndent, pSpaceBefore, pSpaceAfter, pDefCharStyle,
		cName, cFont, cSize, cStyle, cBaselineShift, cLeading, cColor, cBackColor, cTracking, cStretchH, cStretchV: WMEditors.Editor;
		pList, cList: WMStringGrids.StringGrid;

		UpdateProc* : проц {делегат};

		currentPStyle, tempPStyle : Texts.ParagraphStyle;
		currentCStyle, tempCStyle : Texts.CharacterStyle;
		pStyles: Texts.ParagraphStyleArray;
		cStyles: Texts.CharacterStyleArray;

		vc : WMComponents.VisualComponent;

		проц CreateForm() : WMComponents.VisualComponent;
		перем panel, mainPanel, gridPanel, propertyPanel : WMStandardComponents.Panel;
			groupPanel : WMStandardComponents.GroupPanel;
			label : WMStandardComponents.Label;
			labelWidth : цел32;
			resizerH: WMStandardComponents.Resizer;
			manager : WM.WindowManager;
			windowStyle : WM.WindowStyle;

			проц CreateEditor(): WMEditors.Editor;
			перем editor: WMEditors.Editor;
			нач
				нов(editor); editor.alignment.Set(WMComponents.AlignClient);
				editor.multiLine.Set(ложь); editor.fillColor.Set(0FFFFFFFFH); editor.tv.showBorder.Set(истина);
				editor.tv.textAlignV.Set(WMGraphics.AlignCenter);
				editor.tv.borders.Set(WMRectangles.MakeRect(3,3,1,1)); editor.onEnter.Add(UpdateValueHandler);
				возврат editor
			кон CreateEditor;

			проц CreateLabel(конст caption : массив из симв8): WMStandardComponents.Label;
			перем label: WMStandardComponents.Label;
			нач
				нов(label); label.bounds.SetWidth(labelWidth); label.caption.SetAOC(caption);
				label.alignment.Set(WMComponents.AlignLeft);
				возврат label
			кон CreateLabel;

		нач
			labelWidth := 130;
			tabColor := 0008000FFH;
			tabSelectedColor := 000CC00FFH;
			manager := WM.GetDefaultManager();
			windowStyle := manager.GetStyle();

			нов(mainPanel); mainPanel.bounds.SetExtents(500, 420); mainPanel.fillColor.Set(windowStyle.bgColor);
			mainPanel.takesFocus.Set(истина);

			(* -- tabs -- *)
			нов(tabPanel); tabPanel.bounds.SetHeight(20); tabPanel.fillColor.Set(0CCCCCCFFH);
			tabPanel.alignment.Set(WMComponents.AlignTop);
			нов(pstyleButton); pstyleButton.caption.SetAOC("Paragraph"); pstyleButton.alignment.Set(WMComponents.AlignLeft);
			pstyleButton.onClick.Add(TabHandler); pstyleButton.clDefault.Set(tabSelectedColor);
			нов(cstyleButton); cstyleButton.caption.SetAOC("Character"); cstyleButton.alignment.Set(WMComponents.AlignLeft);
			cstyleButton.onClick.Add(TabHandler); cstyleButton.clDefault.Set(tabColor);
			(* tabPanel.AddContent(pstyleButton); *)
			(* tabPanel.AddContent(cstyleButton); *)
			mainPanel.AddContent(tabPanel);

			(* -- paragraph style -- *)
			нов(pstylePanel); pstylePanel.alignment.Set(WMComponents.AlignClient);
			pstylePanel.visible.Set(ложь);
			mainPanel.AddContent(pstylePanel);
			нов(gridPanel); gridPanel.alignment.Set(WMComponents.AlignClient);
			gridPanel.fillColor.Set(0FFFFFFFFH);
			нов(pList); pList.alignment.Set(WMComponents.AlignClient);
			pList.onClick.Add(PClickSelected);
			pList.model.Acquire;
			pList.model.SetNofCols(1);
			pList.model.SetNofRows(1);
			pList.SetSelectionMode(WMGrids.GridSelectSingleRow);
			pList.model.Release;
			gridPanel.AddContent(pList);
			pstylePanel.AddContent(gridPanel);
			нов(propertyPanel); propertyPanel.alignment.Set(WMComponents.AlignClient);
			pstylePanel.AddContent(propertyPanel);

			нов(label); label.bounds.SetHeight(13); label.alignment.Set(WMComponents.AlignTop);
			propertyPanel.AddContent(label);

			нов(panel); panel.bounds.SetHeight(20); panel.alignment.Set(WMComponents.AlignTop);
			label := CreateLabel(" Paragraph Style Name:"); panel.AddContent(label);
			pName := CreateEditor(); panel.AddContent(pName);
			propertyPanel.AddContent(panel);

			нов(panel); panel.bounds.SetHeight(20); panel.alignment.Set(WMComponents.AlignTop);
			label := CreateLabel(" Alignment:"); panel.AddContent(label);
			нов(button); button.caption.SetAOC("+"); button.alignment.Set(WMComponents.AlignRight);
			button.SetExtPointerDownHandler(AlignHandler); button.bounds.SetWidth(20); panel.AddContent(button);
			pAlign := CreateEditor(); panel.AddContent(pAlign);
			propertyPanel.AddContent(panel);

			нов(panel); panel.bounds.SetHeight(20); panel.alignment.Set(WMComponents.AlignTop);
			label := CreateLabel(" First Line Indent:"); panel.AddContent(label);
			pFirstIndent := CreateEditor(); panel.AddContent(pFirstIndent);
			propertyPanel.AddContent(panel);

			нов(panel); panel.bounds.SetHeight(20); panel.alignment.Set(WMComponents.AlignTop);
			label := CreateLabel(" Left Line Indent:"); panel.AddContent(label);
			pLeftIndent := CreateEditor(); panel.AddContent(pLeftIndent);
			propertyPanel.AddContent(panel);

			нов(panel); panel.bounds.SetHeight(20); panel.alignment.Set(WMComponents.AlignTop);
			label := CreateLabel(" Right Line Indent:"); panel.AddContent(label);
			pRightIndent := CreateEditor(); panel.AddContent(pRightIndent);
			propertyPanel.AddContent(panel);

			нов(panel); panel.bounds.SetHeight(20); panel.alignment.Set(WMComponents.AlignTop);
			label := CreateLabel(" Space Before:"); panel.AddContent(label);
			pSpaceBefore := CreateEditor(); panel.AddContent(pSpaceBefore);
			propertyPanel.AddContent(panel);

			нов(panel); panel.bounds.SetHeight(20); panel.alignment.Set(WMComponents.AlignTop);
			label := CreateLabel(" Space After:"); panel.AddContent(label);
			pSpaceAfter := CreateEditor(); panel.AddContent(pSpaceAfter);
			propertyPanel.AddContent(panel);

			нов(panel); panel.bounds.SetHeight(20); panel.alignment.Set(WMComponents.AlignTop);
			label := CreateLabel(" Default Char Style:"); panel.AddContent(label);
			pSpaceAfter := CreateEditor(); panel.AddContent(pSpaceAfter);
			propertyPanel.AddContent(panel);

			(* -- paragraph panel buttons -- *)
			нов(buttonPanel); buttonPanel.bounds.SetHeight(20); buttonPanel.fillColor.Set(08888FFFFH);
			buttonPanel.alignment.Set(WMComponents.AlignBottom);

			нов(button); button.caption.SetAOC("Apply"); button.alignment.Set(WMComponents.AlignRight);
			button.onClick.Add(ApplyPHandler);
			buttonPanel.AddContent(button);

			нов(button); button.caption.SetAOC("Delete"); button.alignment.Set(WMComponents.AlignRight);
			button.onClick.Add(RemovePHandler);
			buttonPanel.AddContent(button);

			нов(button); button.caption.SetAOC("Import"); button.alignment.Set(WMComponents.AlignRight);
			button.onClick.Add(ImportPHandler);
			buttonPanel.AddContent(button);

			нов(button); button.caption.SetAOC("New"); button.alignment.Set(WMComponents.AlignRight);
			button.onClick.Add(NewPHandler);
			buttonPanel.AddContent(button);

			propertyPanel.AddContent(buttonPanel);


			(* -- character style -- *)
			нов(cstylePanel); cstylePanel.alignment.Set(WMComponents.AlignClient);
			cstylePanel.visible.Set(истина);
			mainPanel.AddContent(cstylePanel);
			нов(gridPanel); gridPanel.bounds.SetWidth(200); gridPanel.alignment.Set(WMComponents.AlignLeft);
			gridPanel.fillColor.Set(0FFFFFFFFH);
			нов(cList); cList.alignment.Set(WMComponents.AlignClient);
			cList.onClick.Add(CClickSelected);
			cList.model.Acquire;
			cList.model.SetNofCols(1);
			cList.model.SetNofRows(1);
			cList.SetSelectionMode(WMGrids.GridSelectSingleRow);
			cList.model.Release;
			нов(resizerH); resizerH.alignment.Set(WMComponents.AlignRight);
			resizerH.bounds.SetWidth(4);
			gridPanel.AddContent(resizerH);
			gridPanel.AddContent(cList);
			cstylePanel.AddContent(gridPanel);

			нов(propertyPanel); propertyPanel.alignment.Set(WMComponents.AlignClient);
			cstylePanel.AddContent(propertyPanel);

			нов(label); label.bounds.SetHeight(13); label.alignment.Set(WMComponents.AlignTop);
			propertyPanel.AddContent(label);

			нов(panel); panel.bounds.SetHeight(20); panel.alignment.Set(WMComponents.AlignTop);
			label := CreateLabel(" Character Style Name:"); panel.AddContent(label);
			cName := CreateEditor(); panel.AddContent(cName);
			propertyPanel.AddContent(panel);

			нов(panel); panel.bounds.SetHeight(20); panel.alignment.Set(WMComponents.AlignTop);
			label := CreateLabel(" Font Name:"); panel.AddContent(label);
			cFont := CreateEditor(); panel.AddContent(cFont);
			propertyPanel.AddContent(panel);

			нов(panel); panel.bounds.SetHeight(20); panel.alignment.Set(WMComponents.AlignTop);
			label := CreateLabel(" Font Style:"); panel.AddContent(label);
			нов(button); button.caption.SetAOC("+"); button.alignment.Set(WMComponents.AlignRight);
			button.SetExtPointerDownHandler(StyleHandler); button.bounds.SetWidth(20); panel.AddContent(button);
			cStyle := CreateEditor(); panel.AddContent(cStyle);
			propertyPanel.AddContent(panel);

			нов(panel); panel.bounds.SetHeight(20); panel.alignment.Set(WMComponents.AlignTop);
			label := CreateLabel(" Font Size:"); panel.AddContent(label);
			cSize := CreateEditor(); panel.AddContent(cSize);
			propertyPanel.AddContent(panel);

			нов(panel); panel.bounds.SetHeight(20); panel.alignment.Set(WMComponents.AlignTop);
			label := CreateLabel(" Leading:"); panel.AddContent(label);
			cLeading := CreateEditor(); panel.AddContent(cLeading);
			propertyPanel.AddContent(panel);

			нов(panel); panel.bounds.SetHeight(20); panel.alignment.Set(WMComponents.AlignTop);
			label := CreateLabel(" Baseline Shift:"); panel.AddContent(label);
			cBaselineShift := CreateEditor(); panel.AddContent(cBaselineShift);
			propertyPanel.AddContent(panel);

			нов(panel); panel.bounds.SetHeight(20); panel.alignment.Set(WMComponents.AlignTop);
			label := CreateLabel(" Font Color:"); panel.AddContent(label);
			нов(button); button.caption.SetAOC("+"); button.alignment.Set(WMComponents.AlignRight);
			button.SetExtPointerDownHandler(ColorHandler); button.bounds.SetWidth(20); panel.AddContent(button);
			cColor := CreateEditor(); panel.AddContent(cColor);
			propertyPanel.AddContent(panel);

			нов(panel); panel.bounds.SetHeight(20); panel.alignment.Set(WMComponents.AlignTop);
			label := CreateLabel(" Font BG Color:"); panel.AddContent(label);
			нов(button); button.caption.SetAOC("+"); button.alignment.Set(WMComponents.AlignRight);
			button.SetExtPointerDownHandler(BGColorHandler); button.bounds.SetWidth(20); panel.AddContent(button);
			cBackColor := CreateEditor(); panel.AddContent(cBackColor);
			propertyPanel.AddContent(panel);

	(* --- not used yet ---> 	*)

			нов(panel); panel.bounds.SetHeight(20); panel.alignment.Set(WMComponents.AlignTop);
			label := CreateLabel(" Tracking:"); panel.AddContent(label);
			cTracking := CreateEditor(); panel.AddContent(cTracking);
			(* propertyPanel.AddContent(panel);	*)

			нов(panel); panel.bounds.SetHeight(20); panel.alignment.Set(WMComponents.AlignTop);
			label := CreateLabel(" Stretch Horizontal:"); panel.AddContent(label);
			cStretchH := CreateEditor(); panel.AddContent(cStretchH);
			(* propertyPanel.AddContent(panel);	*)

			нов(panel); panel.bounds.SetHeight(20); panel.alignment.Set(WMComponents.AlignTop);
			label := CreateLabel(" Stretch Vertical:"); panel.AddContent(label);
			cStretchV := CreateEditor(); panel.AddContent(cStretchV);
			(* propertyPanel.AddContent(panel);	*)

	(* 		<---------------- *)

			(* preview panel *)
			нов(panel); panel.bounds.SetHeight(15); panel.alignment.Set(WMComponents.AlignTop); propertyPanel.AddContent(panel);
			нов(groupPanel); groupPanel.alignment.Set(WMComponents.AlignTop); groupPanel.caption.SetAOC("Preview:"); groupPanel.bounds.SetHeight(80);
			нов(previewLabel); previewLabel.fillColor.Set(0FFFFFFFFH); previewLabel.alignment.Set(WMComponents.AlignClient);
			previewLabel.caption.SetAOC("The quick brown Fox jumped over the lazy Dog"); previewLabel.alignH.Set(1); previewLabel.alignV.Set(1);
			groupPanel.AddContent(previewLabel); propertyPanel.AddContent(groupPanel);
			нов(fontNotFound); fontNotFound.bounds.SetHeight(20); fontNotFound.alignment.Set(WMComponents.AlignTop);
			fontNotFound.caption.SetAOC("  ERROR: Font not found! - using DefaultFont"); fontNotFound.visible.Set(ложь);
			propertyPanel.AddContent(fontNotFound); fontNotFound.textColor.Set(0FF0000FFH);

			(* -- character style buttons -- *)
			нов(buttonPanel); buttonPanel.bounds.SetHeight(20); buttonPanel.fillColor.Set(windowStyle.bgColor);
			buttonPanel.alignment.Set(WMComponents.AlignBottom);

			нов(button); button.caption.SetAOC("Apply"); button.alignment.Set(WMComponents.AlignRight);
			button.onClick.Add(ApplyCHandler);
			buttonPanel.AddContent(button);

			нов(button); button.caption.SetAOC("Delete"); button.alignment.Set(WMComponents.AlignRight);
			button.onClick.Add(RemoveCHandler);
			buttonPanel.AddContent(button);

			нов(button); button.caption.SetAOC("Export"); button.alignment.Set(WMComponents.AlignRight);
			button.onClick.Add(ExportCHandler);
			buttonPanel.AddContent(button);

			нов(button); button.caption.SetAOC("Import"); button.alignment.Set(WMComponents.AlignRight);
			button.onClick.Add(ImportCHandler);
			buttonPanel.AddContent(button);

			нов(button); button.caption.SetAOC("New"); button.alignment.Set(WMComponents.AlignRight);
			button.onClick.Add(NewCHandler);
			buttonPanel.AddContent(button);

			propertyPanel.AddContent(buttonPanel);

			возврат mainPanel;
		кон CreateForm;

		проц &New*;
		перем
		нач
			vc := CreateForm();
			Init(vc.bounds.GetWidth(), vc.bounds.GetHeight(), ложь);
			SetContent(vc);
			SetTitle(Strings.NewString("Style Editor"));

			pStyles := Texts.GetParagraphStyleArray();
			cStyles := Texts.GetCharacterStyleArray();
		кон New;

		проц Show*(x, y: цел32);
		нач
			LoadStyleList;
			если ~shown то	shown := истина;
			иначе Hide; shown := истина; всё;
			manager := WM.GetDefaultManager();
			WM.AddWindow(сам, x, y);
			manager.SetFocus(сам);
			cList.SetSelection(0,0,0,0)
		кон Show;

		проц Hide*;
		нач
			если shown то
				shown := ложь;
				manager := WM.GetDefaultManager();
				manager.Remove(сам);
			всё;
		кон Hide;

		проц {перекрыта}Close*;
		нач
			Close^;
			если UpdateProc # НУЛЬ то UpdateProc всё;
			shown := ложь;
		кон Close;

		проц LoadStyleList;
		перем i : цел32;
		нач
			vc.Acquire;
			pList.model.Acquire;
			i := 0;
			нцПока ((i<длинаМассива(pStyles))  и (pStyles[i] # НУЛЬ)) делай
				pList.model.SetNofRows(i+1);
				pList.model.SetCellText(0, i, Strings.NewString(pStyles[i].name));
				pList.model.SetCellData(0, i, pStyles[i]);
				увел(i);
			кц;
			pList.model.Release;

			cList.model.Acquire;
			i := 0;
			нцПока ((i<длинаМассива(cStyles))  и (cStyles[i] # НУЛЬ)) делай
				cList.model.SetNofRows(i+1);
				cList.model.SetCellText(0, i, Strings.NewString(cStyles[i].name));
				cList.model.SetCellData(0, i, cStyles[i]);
				увел(i);
			кц;
			если i >  0 то CClickSelected(НУЛЬ, cList.model.GetCellData(0, 0)); всё;
			cList.model.Release;
			vc.Release;

		кон LoadStyleList;

		проц TabHandler(sender, data: динамическиТипизированныйУкль);
		нач
			если (sender # НУЛЬ) и (sender суть WMStandardComponents.Button) то
				если sender = pstyleButton то
					cstylePanel.visible.Set(ложь); cstyleButton.clDefault.Set(tabColor);
					pstylePanel.visible.Set(истина); pstyleButton.clDefault.Set(tabSelectedColor);
				аесли sender = cstyleButton то
					pstylePanel.visible.Set(ложь); pstyleButton.clDefault.Set(tabColor);
					cstylePanel.visible.Set(истина); cstyleButton.clDefault.Set(tabSelectedColor);
				иначе

				всё;
			всё;
		кон TabHandler;

		проц PClickSelected(sender, data: динамическиТипизированныйУкль);
		перем tempString: массив 64 из симв8;
		нач
			если (data # НУЛЬ) то
				currentPStyle := data(Texts.ParagraphStyle);
				tempPStyle := currentPStyle.Clone();
				pName.SetAsString(currentPStyle.name);
				если (currentPStyle.alignment = 0) то tempString := "Left";
				аесли (currentPStyle.alignment = 1) то tempString := "Center";
				аесли (currentPStyle.alignment = 2) то tempString := "Right";
				иначе tempString := "Justified";
				всё;
				pAlign.SetAsString(tempString);
				Strings.FloatToStr(currentPStyle.firstIndent, 0,4,0, tempString);
				pFirstIndent.SetAsString(tempString);
				Strings.FloatToStr(currentPStyle.leftIndent, 0,4,0, tempString);
				pLeftIndent.SetAsString(tempString);
				Strings.FloatToStr(currentPStyle.rightIndent, 0,4,0, tempString);
				pRightIndent.SetAsString(tempString);
				Strings.FloatToStr(currentPStyle.spaceBefore, 0,4,0, tempString);
				pSpaceBefore.SetAsString(tempString);
				Strings.FloatToStr(currentPStyle.spaceAfter, 0,4,0, tempString);
				pSpaceAfter.SetAsString(tempString);
				pDefCharStyle.SetAsString(currentPStyle.charStyle.name);
				копируйСтрокуДо0(currentPStyle.name, oldPStyleName);
			всё;
		кон PClickSelected;

		проц CClickSelected(sender, data: динамическиТипизированныйУкль);
		перем tempString: массив 64 из симв8;
			tempFont: WMGraphics.Font;
		нач
			если (data # НУЛЬ) то
				currentCStyle := data(Texts.CharacterStyle);
				tempCStyle := currentCStyle.Clone();
				cName.SetAsString(currentCStyle.name);
				cFont.SetAsString(currentCStyle.family);
				если (currentCStyle.style * {0, 1} = {}) то
					 tempString := "Regular";
				аесли (currentCStyle.style * {0, 1} = {0}) то
					tempString := "Bold";
				аесли (currentCStyle.style * {0, 1} = {1}) то
					tempString := "Italic";
				иначе
					tempString := "Bold Italic";
				всё;
				cStyle.SetAsString(tempString);
				Strings.FloatToStr(FP1616.FixpToFloat(currentCStyle.size), 0,4,0, tempString);
				cSize.SetAsString(tempString);
				Strings.FloatToStr(FP1616.FixpToFloat(currentCStyle.leading), 0,4,0, tempString);
				cLeading.SetAsString(tempString);
				Strings.FloatToStr(currentCStyle.baselineShift, 0,4,0, tempString);
				cBaselineShift.SetAsString(tempString);
				Strings.IntToHexStr(currentCStyle.color, 7, tempString);
				cColor.SetAsString(tempString);
				Strings.IntToHexStr(currentCStyle.bgColor, 7, tempString);
				cBackColor.SetAsString(tempString);
				Strings.FloatToStr(FP1616.FixpToFloat(currentCStyle.tracking), 0,4,0, tempString);
				cTracking.SetAsString(tempString);
				Strings.FloatToStr(FP1616.FixpToFloat(currentCStyle.scaleHorizontal), 0,4,0, tempString);
				cStretchH.SetAsString(tempString);
				Strings.FloatToStr(FP1616.FixpToFloat(currentCStyle.scaleVertical), 0,4,0, tempString);
				cStretchV.SetAsString(tempString);
				копируйСтрокуДо0(currentCStyle.name, oldCStyleName);

				(* update preview *)
				tempFont := WMGraphics.GetFont(tempCStyle.family, округлиВниз(FP1616.FixpToFloat(tempCStyle.size)), tempCStyle.style);
				previewLabel.SetFont(tempFont); previewLabel.fillColor.Set(tempCStyle.bgColor);
				previewLabel.textColor.Set(tempCStyle.color); previewLabel.Invalidate;
			всё;
		кон CClickSelected;

		проц UpdateValueHandler(sender, data: динамическиТипизированныйУкль);
		перем tempString : массив 64 из симв8;
			tempLReal : вещ64;
			tempInt : цел32; res : целМЗ;
			tempCharStyle : Texts.CharacterStyle;
			tempFont : WMGraphics.Font;
			tempEditor : WMEditors.Editor;
		нач
			(* paragraph style *)
			если sender суть WMEditors.Editor то
				tempEditor := sender(WMEditors.Editor);
				tempEditor.GetAsString(tempString);
			всё;

			если (tempEditor = pName) то
				копируйСтрокуДо0(tempString, tempPStyle.name);
			аесли (tempEditor = pAlign) то
				Strings.LowerCase(tempString);
				если (tempString = "left") то tempPStyle.alignment := 0; pAlign.SetAsString("Left");
				аесли (tempString = "center") то tempPStyle.alignment := 1; pAlign.SetAsString("Center");
				аесли (tempString = "right") то tempPStyle.alignment := 2; pAlign.SetAsString("Right");
				аесли (tempString = "justified") то tempPStyle.alignment := 3; pAlign.SetAsString("Justified");
				иначе tempPStyle.alignment := 0; pAlign.SetAsString("Left"); всё;
			аесли (tempEditor = pFirstIndent) то
				Strings.StrToFloat(tempString, tempLReal);
				tempPStyle.firstIndent := FP1616.FloatToFixp(устарПреобразуйКБолееУзкомуЦел(tempLReal));
				Strings.FloatToStr(tempLReal, 0,4,0, tempString);
				pFirstIndent.SetAsString(tempString);
			аесли (tempEditor = pLeftIndent) то
				Strings.StrToFloat(tempString, tempLReal);
				tempPStyle.leftIndent := FP1616.FloatToFixp(устарПреобразуйКБолееУзкомуЦел(tempLReal));
				Strings.FloatToStr(tempLReal, 0,4,0, tempString);
				pLeftIndent.SetAsString(tempString);
			аесли (tempEditor = pRightIndent) то
				Strings.StrToFloat(tempString, tempLReal);
				tempPStyle.rightIndent := FP1616.FloatToFixp(устарПреобразуйКБолееУзкомуЦел(tempLReal));
				Strings.FloatToStr(tempLReal, 0,4,0, tempString);
				pRightIndent.SetAsString(tempString);
			аесли (tempEditor = pSpaceBefore) то
				Strings.StrToFloat(tempString, tempLReal);
				tempPStyle.spaceBefore := FP1616.FloatToFixp(устарПреобразуйКБолееУзкомуЦел(tempLReal));
				Strings.FloatToStr(tempLReal, 0,4,0, tempString);
				pSpaceBefore.SetAsString(tempString);
			аесли (tempEditor = pSpaceAfter) то
				Strings.StrToFloat(tempString, tempLReal);
				tempPStyle.spaceAfter := FP1616.FloatToFixp(устарПреобразуйКБолееУзкомуЦел(tempLReal));
				Strings.FloatToStr(tempLReal, 0,4,0, tempString);
				pSpaceAfter.SetAsString(tempString);
			аесли (tempEditor = pDefCharStyle) то
				tempCharStyle := Texts.GetCharacterStyleByName(tempString);
				если tempCharStyle # НУЛЬ то
					tempPStyle.charStyle := tempCharStyle;
				иначе
					tempPStyle.charStyle := Texts.GetCharacterStyleByName("Normal");
					pDefCharStyle.SetAsString(tempPStyle.charStyle.name);
				всё;

			(* character style *)
			аесли (tempEditor = cName) то
				копируйСтрокуДо0(tempString, tempCStyle.name);
			аесли (tempEditor = cFont) то
				копируйСтрокуДо0(tempString, tempCStyle.family);
				(* load font *)
				tempFont := WMGraphics.GetFont(tempCStyle.family, округлиВниз(FP1616.FixpToFloat(tempCStyle.size)), tempCStyle.style);
				previewLabel.SetFont(tempFont); previewLabel.Invalidate;
				если (tempFont.name # tempCStyle.family) или (tempFont.size # округлиВниз(FP1616.FixpToFloat(tempCStyle.size))) то (* OR (tempFont.style # tempCStyle.style) *)
					fontNotFound.visible.Set(истина);
				иначе
					fontNotFound.visible.Set(ложь);
				всё;
			аесли (tempEditor = cStyle) то
				Strings.LowerCase(tempString);
				если (tempString = "regular") то tempCStyle.style := {}; cStyle.SetAsString("Regular");
				аесли (tempString = "bold") то tempCStyle.style := {0}; cStyle.SetAsString("Bold");
				аесли (tempString = "italic") то tempCStyle.style := {1}; cStyle.SetAsString("Italic");
				аесли (tempString = "bold italic") то tempCStyle.style := {0, 1}; cStyle.SetAsString("Bold Italic");
				иначе tempCStyle.style := {}; cStyle.SetAsString("Regular"); всё;
				tempFont := WMGraphics.GetFont(tempCStyle.family, округлиВниз(FP1616.FixpToFloat(tempCStyle.size)), tempCStyle.style);
				previewLabel.SetFont(tempFont); previewLabel.Invalidate;
				если (tempFont.name # tempCStyle.family) или (tempFont.size # округлиВниз(FP1616.FixpToFloat(tempCStyle.size))) то
					fontNotFound.visible.Set(истина);
				иначе
					fontNotFound.visible.Set(ложь);
				всё;
			аесли (tempEditor = cSize) то
				Strings.StrToFloat(tempString, tempLReal);
				tempCStyle.size := FP1616.FloatToFixp(устарПреобразуйКБолееУзкомуЦел(tempLReal));
				Strings.FloatToStr(tempLReal, 0,4,0, tempString);
				cSize.SetAsString(tempString);
				(* set leading to 120% of size *)
				tempLReal := tempLReal*1.2;
				tempCStyle.leading := FP1616.FloatToFixp(устарПреобразуйКБолееУзкомуЦел(tempLReal));
				Strings.FloatToStr(tempLReal, 0,4,0, tempString);
				cLeading.SetAsString(tempString);
				tempFont := WMGraphics.GetFont(tempCStyle.family, округлиВниз(FP1616.FixpToFloat(tempCStyle.size)), tempCStyle.style);
				previewLabel.SetFont(tempFont); previewLabel.Invalidate;
				если (tempFont.name # tempCStyle.family) или (tempFont.size # округлиВниз(FP1616.FixpToFloat(tempCStyle.size))) то
					fontNotFound.visible.Set(истина);
				иначе
					fontNotFound.visible.Set(ложь);
				всё;
			аесли (tempEditor = cLeading) то
				Strings.StrToFloat(tempString, tempLReal);
				tempCStyle.leading := FP1616.FloatToFixp(устарПреобразуйКБолееУзкомуЦел(tempLReal));
				Strings.FloatToStr(tempLReal, 0,4,0, tempString);
				cLeading.SetAsString(tempString);
			аесли (tempEditor = cBaselineShift) то
				Strings.StrToFloat(tempString, tempLReal);
				tempCStyle.baselineShift := FP1616.FloatToFixp(устарПреобразуйКБолееУзкомуЦел(tempLReal));
				Strings.FloatToStr(tempLReal, 0,4,0, tempString);
				cBaselineShift.SetAsString(tempString);
			аесли (tempEditor = cColor) то
				Strings.HexStrToInt(tempString, tempInt, res);
				tempCStyle.color := tempInt;
				Strings.IntToHexStr(tempInt, 7, tempString);
				cColor.SetAsString(tempString);
				previewLabel.textColor.Set(tempInt); previewLabel.Invalidate;
			аесли (tempEditor = cBackColor) то
				Strings.HexStrToInt(tempString, tempInt, res);
				tempCStyle.bgColor := tempInt;
				Strings.IntToHexStr(tempInt, 7, tempString);
				cBackColor.SetAsString(tempString);
				previewLabel.fillColor.Set(tempInt); previewLabel.Invalidate;
			аесли (tempEditor = cTracking) то
				Strings.StrToFloat(tempString, tempLReal);
				tempCStyle.tracking := FP1616.FloatToFixp(устарПреобразуйКБолееУзкомуЦел(tempLReal));
				Strings.FloatToStr(tempLReal, 0,4,0, tempString);
				cTracking.SetAsString(tempString);
			аесли (tempEditor = cStretchH) то
				Strings.StrToFloat(tempString, tempLReal);
				tempCStyle.scaleHorizontal := FP1616.FloatToFixp(устарПреобразуйКБолееУзкомуЦел(tempLReal));
				Strings.FloatToStr(tempLReal, 0,4,0, tempString);
				cStretchH.SetAsString(tempString);
			аесли (tempEditor = cStretchV) то
				Strings.StrToFloat(tempString, tempLReal);
				tempCStyle.scaleVertical := FP1616.FloatToFixp(устарПреобразуйКБолееУзкомуЦел(tempLReal));
				Strings.FloatToStr(tempLReal, 0,4,0, tempString);
				cStretchV.SetAsString(tempString);
			иначе
			всё;
		кон UpdateValueHandler;

		проц UpdateList;
		перем i : цел32;
		нач
			pList.model.Acquire;
			i := 0;
			нцПока ((i<длинаМассива(pStyles))  и (pStyles[i] # НУЛЬ)) делай
				pList.model.SetNofRows(i+1);
				pList.model.SetCellText(0, i, Strings.NewString(pStyles[i].name));
				pList.model.SetCellData(0, i, pStyles[i]);
				увел(i);
			кц;
			pList.model.Release;

			cList.model.Acquire;
			i := 0;
			нцПока ((i<длинаМассива(cStyles))  и (cStyles[i] # НУЛЬ)) делай
				cList.model.SetNofRows(i+1);
				cList.model.SetCellText(0, i, Strings.NewString(cStyles[i].name));
				cList.model.SetCellData(0, i, cStyles[i]);
				увел(i);
			кц;
			cList.model.Release;
			UpdateProc;
			SendUpdateMsg;

		кон UpdateList;

		проц SendUpdateMsg;
		перем changed : Texts.StyleChangedMsg;
			 msg : WMMessages.Message;
			 m : WM.WindowManager;
		нач
			нов(changed); msg.ext := changed; msg.msgType := WMMessages.MsgExt;
			m := WM.GetDefaultManager();
			m.Broadcast(msg);
		кон SendUpdateMsg;

		проц NewPHandler(sender, data: динамическиТипизированныйУкль);
		перем newPStyle: Texts.ParagraphStyle;
			tempString: массив 256 из симв8;
		нач
			нов(newPStyle);
			tempString := "newParagraphStyle";
			нцПока Texts.GetParagraphStyleByName(tempString) # НУЛЬ делай
				Strings.Append(tempString, "Copy");
			кц;
			Strings.Append(newPStyle.name, tempString);
			newPStyle.alignment := 0;						(* Left Align *)
			newPStyle.spaceBefore := 0;
			newPStyle.spaceAfter := 0;
			newPStyle.leftIndent := 0;
			newPStyle.rightIndent := 0;
			newPStyle.firstIndent := 0;
			newPStyle.charStyle := Texts.GetCharacterStyleByName("Normal");
			UpdateList;
		кон NewPHandler;

		проц ImportPHandler(sender, data: динамическиТипизированныйУкль);
		перем filename: массив 128 из симв8;
		нач
			filename := "";
			если WMDialogs.QueryString("Import Paragraph Styles from File:", filename) = WMDialogs.ResOk то
				ImportParagraphStyles(filename);
			всё;
			UpdateList;
		кон ImportPHandler;

		проц ImportParagraphStyles(конст filename: массив из симв8);
		перем tempString : массив 256 из симв8;
			tempReal : вещ64;
			reader : Files.Reader;
			parser : XMLParser.Parser;
			scanner : XMLScanner.Scanner;
			f : Files.File;
			XMLdocStyle : XML.Document;
			root: XML.Element;
			cont: XMLObjects.Enumerator;
			ptr: динамическиТипизированныйУкль;
			str: Strings.String;
			pStyle: Texts.ParagraphStyle;
			cStyle: Texts.CharacterStyle;
		нач
			копируйСтрокуДо0(filename, tempString);
			Strings.Append(tempString, ".XML");
			f := Files.Old(tempString);
			если f = НУЛЬ то возврат всё;
			нов(reader, f, 0);
			нов(scanner, reader);
			нов(parser, scanner);
			XMLdocStyle := parser.Parse();

			root := XMLdocStyle.GetRoot();
			cont := root.GetContents(); cont.Reset();
			нцПока cont.HasMoreElements() делай
				ptr := cont.GetNext();
				если ptr суть XML.Element то
					str := ptr(XML.Element).GetName();

					если (str # НУЛЬ) и (str^ = "paragraph-style") то				(* paragraph styles *)
						нов(pStyle);
						str := ptr(XML.Element).GetAttributeValue("name"); если str # НУЛЬ то копируйСтрокуДо0(str^, pStyle.name) всё;
						str := ptr(XML.Element).GetAttributeValue("alignment"); если str # НУЛЬ то Strings.StrToInt(str^, pStyle.alignment) всё;
						str := ptr(XML.Element).GetAttributeValue("first-indent"); если str # НУЛЬ то Strings.StrToFloat(str^, tempReal); pStyle.firstIndent := FP1616.FloatToFixp(устарПреобразуйКБолееУзкомуЦел(tempReal)); всё;
						str := ptr(XML.Element).GetAttributeValue("left-indent"); если str # НУЛЬ то Strings.StrToFloat(str^, tempReal); pStyle.leftIndent := FP1616.FloatToFixp(устарПреобразуйКБолееУзкомуЦел(tempReal)); всё;
						str := ptr(XML.Element).GetAttributeValue("right-indent"); если str # НУЛЬ то Strings.StrToFloat(str^, tempReal); pStyle.rightIndent := FP1616.FloatToFixp(устарПреобразуйКБолееУзкомуЦел(tempReal)); всё;
						str := ptr(XML.Element).GetAttributeValue("space-before"); если str # НУЛЬ то Strings.StrToFloat(str^, tempReal); pStyle.spaceBefore := FP1616.FloatToFixp(устарПреобразуйКБолееУзкомуЦел(tempReal)); всё;
						str := ptr(XML.Element).GetAttributeValue("space-after"); если str # НУЛЬ то Strings.StrToFloat(str^, tempReal); pStyle.spaceAfter := FP1616.FloatToFixp(устарПреобразуйКБолееУзкомуЦел(tempReal)); всё;
						str := ptr(XML.Element).GetAttributeValue("character-style");
						если str # НУЛЬ то
							cStyle := Texts.GetCharacterStyleByName(str^);
							если cStyle # НУЛЬ то pStyle.charStyle := cStyle; всё;
						всё;
						Texts.AddParagraphStyle(pStyle);
					всё;
				всё;
			кц;

		кон ImportParagraphStyles;

		проц RemovePHandler(sender, data: динамическиТипизированныйУкль);
		нач
			Texts.RemoveParagraphStyle(currentPStyle);
			UpdateList;
		кон RemovePHandler;

		проц ApplyPHandler(sender, data: динамическиТипизированныйУкль);
		перем tempString : массив 256 из симв8;
			tempLReal: вещ64;
			tempCharStyle : Texts.CharacterStyle;
		нач
			(* retrieve tempvalues first.. *)
			pName.GetAsString(tempString);
			копируйСтрокуДо0(tempString, tempPStyle.name);
			pAlign.GetAsString(tempString); Strings.LowerCase(tempString);
			если (tempString = "left") то tempPStyle.alignment := 0; pAlign.SetAsString("Left");
			аесли (tempString = "center") то tempPStyle.alignment := 1; pAlign.SetAsString("Center");
			аесли (tempString = "right") то tempPStyle.alignment := 2;	pAlign.SetAsString("Right");
			аесли (tempString = "justified") то tempPStyle.alignment := 3; pAlign.SetAsString("Justified");
			иначе tempPStyle.alignment := 0; pAlign.SetAsString("Left"); всё;
			pFirstIndent.GetAsString(tempString);
			Strings.StrToFloat(tempString, tempLReal);
			tempPStyle.firstIndent := FP1616.FloatToFixp(устарПреобразуйКБолееУзкомуЦел(tempLReal));
			Strings.FloatToStr(tempLReal, 0,4,0, tempString);
			pFirstIndent.SetAsString(tempString);
			pLeftIndent.GetAsString(tempString);
			Strings.StrToFloat(tempString, tempLReal);
			tempPStyle.leftIndent := FP1616.FloatToFixp(устарПреобразуйКБолееУзкомуЦел(tempLReal));
			Strings.FloatToStr(tempLReal, 0,4,0, tempString);
			pLeftIndent.SetAsString(tempString);
			pRightIndent.GetAsString(tempString);
			Strings.StrToFloat(tempString, tempLReal);
			tempPStyle.rightIndent := FP1616.FloatToFixp(устарПреобразуйКБолееУзкомуЦел(tempLReal));
			Strings.FloatToStr(tempLReal, 0,4,0, tempString);
			pRightIndent.SetAsString(tempString);
			pSpaceBefore.GetAsString(tempString);
			Strings.StrToFloat(tempString, tempLReal);
			tempPStyle.spaceBefore := FP1616.FloatToFixp(устарПреобразуйКБолееУзкомуЦел(tempLReal));
			Strings.FloatToStr(tempLReal, 0,4,0, tempString);
			pSpaceBefore.SetAsString(tempString);
			pSpaceAfter.GetAsString(tempString);
			Strings.StrToFloat(tempString, tempLReal);
			tempPStyle.spaceAfter := FP1616.FloatToFixp(устарПреобразуйКБолееУзкомуЦел(tempLReal));
			Strings.FloatToStr(tempLReal, 0,4,0, tempString);
			pSpaceAfter.SetAsString(tempString);
			pDefCharStyle.GetAsString(tempString);
			tempCharStyle := Texts.GetCharacterStyleByName(tempString);
			если tempCharStyle # НУЛЬ то
				tempPStyle.charStyle := tempCharStyle;
			иначе
				tempPStyle.charStyle := Texts.GetCharacterStyleByName("Normal");
				pDefCharStyle.SetAsString(tempPStyle.charStyle.name);
			всё;

			(* update currentStyle with temp, refresh list *)
			currentPStyle.name := tempPStyle.name;
			currentPStyle.alignment := tempPStyle.alignment;
			currentPStyle.firstIndent := tempPStyle.firstIndent;
			currentPStyle.leftIndent := tempPStyle.leftIndent;
			currentPStyle.rightIndent := tempPStyle.rightIndent;
			currentPStyle.spaceBefore := tempPStyle.spaceBefore;
			currentPStyle.spaceAfter := tempPStyle.spaceAfter;
			currentPStyle.charStyle := tempPStyle.charStyle;
			UpdateList;
		кон ApplyPHandler;

		проц NewCHandler(sender, data: динамическиТипизированныйУкль);
		перем newCStyle: Texts.CharacterStyle;
			name : массив 256 из симв8;
		нач
			нов(newCStyle);
			если (currentCStyle # НУЛЬ) и (currentCStyle.name # "") то
				копируйСтрокуДо0(currentCStyle.name, name);
			иначе
				копируйСтрокуДо0("NewCharacterStyle", name);
			всё;
			нцПока Texts.GetCharacterStyleByName(name) # НУЛЬ делай
				Strings.Append(name, "Copy");
			кц;
			копируйСтрокуДо0(name, newCStyle.name);

			если currentCStyle = НУЛЬ то
				newCStyle.family := "Oberon";
				newCStyle.style := {};
				newCStyle.size := FP1616.FloatToFixp(12.0);
				newCStyle.leading := FP1616.FloatToFixp(14.0);
				newCStyle.baselineShift := 0;
				newCStyle.tracking := 0;
				newCStyle.scaleHorizontal := FP1616.FloatToFixp(100.0);
				newCStyle.scaleVertical := FP1616.FloatToFixp(100.0);
				newCStyle.color := 0000000FFH;
				newCStyle.bgColor := цел32(0FFFFFF00H);
			иначе
				(* copy selected style *)
				копируйСтрокуДо0(currentCStyle.family, newCStyle.family);
				newCStyle.style := currentCStyle.style;
				newCStyle.size := currentCStyle.size;
				newCStyle.leading := currentCStyle.leading;
				newCStyle.baselineShift := currentCStyle.baselineShift;
				newCStyle.tracking := currentCStyle.tracking;
				newCStyle.scaleHorizontal := currentCStyle.scaleHorizontal;
				newCStyle.scaleVertical := currentCStyle.scaleVertical;
				newCStyle.color := currentCStyle.color;
				newCStyle.bgColor := currentCStyle.bgColor;
			всё;

			Texts.AddCharacterStyle(newCStyle);
			UpdateList;
		кон NewCHandler;

		проц ExportCHandler(sender, data: динамическиТипизированныйУкль);
		перем filename: массив 128 из симв8;
		нач
			filename := "UserTextStyles";
			если WMDialogs.QueryString("Export Character Styles to File:", filename) = WMDialogs.ResOk то
				ExportCharacterStyles(filename);
			всё;
		кон ExportCHandler;

		проц ExportCharacterStyles(конст filename: массив из симв8);
		перем i : цел32; style : мнвоНаБитахМЗ;
			tempString : массив 256 из симв8;
			w : Files.Writer; f : Files.File;
			cStyle : Texts.CharacterStyle;
		нач
			(* -- Save Style File -- *)
			копируйСтрокуДо0(filename, tempString);
			Strings.Append(tempString, ".XML");
			f := Files.New(tempString); если f = НУЛЬ то возврат всё;
			Files.OpenWriter(w, f, 0);
			w.пСтроку8('<?xml version="1.0" encoding="UTF-8"?>'); w.пВК_ПС;
			w.пСтроку8("<styles>"); w.пВК_ПС;

			(* processing character styles *)
			i := 0;
			нцПока ((i<длинаМассива(cStyles)) и (cStyles[i] #НУЛЬ)) делай
				cStyle := cStyles[i];
				w.пСтроку8('<character-style name="'); w.пСтроку8(cStyle.name);
				w.пСтроку8('" font-family="'); w.пСтроку8(cStyle.family);
				w.пСтроку8('" font-style="'); style := cStyle.style;
				если (style = {}) то
					w.пЦел64(0, 0);
				аесли (style = {0}) то
					w.пЦел64(1, 0);
				аесли (style = {1}) то
					w.пЦел64(2, 0);
				аесли (style = {0,1}) то
					w.пЦел64(3, 0);
				иначе
					w.пЦел64(0, 0);
				всё;
				w.пСтроку8('" font-size="');	 Strings.FloatToStr(FP1616.FixpToFloat(cStyle.size), 0,4,0, tempString); Strings.TrimLeft(tempString, " "); w.пСтроку8(tempString);
				w.пСтроку8('" leading="');  Strings.FloatToStr(FP1616.FixpToFloat(cStyle.leading), 0,4,0, tempString); Strings.TrimLeft(tempString, " "); w.пСтроку8(tempString);
				w.пСтроку8('" baseline-shift="');  Strings.FloatToStr(FP1616.FixpToFloat(cStyle.baselineShift), 0,4,0, tempString); Strings.TrimLeft(tempString, " "); w.пСтроку8(tempString);
				w.пСтроку8('" color="'); w.п16ричное(cStyle.color, 8);
				w.пСтроку8('" bgcolor="');  w.п16ричное(cStyle.bgColor, 8);
				w.пСтроку8('" tracking="');  Strings.FloatToStr(FP1616.FixpToFloat(cStyle.tracking), 0,4,0, tempString); Strings.TrimLeft(tempString, " "); w.пСтроку8(tempString);
				w.пСтроку8('" h-scale="');  Strings.FloatToStr(FP1616.FixpToFloat(cStyle.scaleHorizontal), 0,4,0, tempString); Strings.TrimLeft(tempString, " "); w.пСтроку8(tempString);
				w.пСтроку8('" v-scale="');  Strings.FloatToStr(FP1616.FixpToFloat(cStyle.scaleVertical), 0,4,0, tempString); Strings.TrimLeft(tempString, " "); w.пСтроку8(tempString);
				w.пСтроку8('" />'); w.пВК_ПС;
				увел(i);
			кц;
			w.пСтроку8("</styles>"); w.пВК_ПС;
			w.ПротолкниБуферВПоток; Files.Register(f);

		кон ExportCharacterStyles;

		проц ImportCHandler(sender, data: динамическиТипизированныйУкль);
		перем filename: массив 128 из симв8;
		нач
			filename := "";
			если WMDialogs.QueryString("Import Character Styles from File:", filename) = WMDialogs.ResOk то
				ImportCharacterStyles(filename);
			всё;
			UpdateList;
		кон ImportCHandler;

		проц ImportCharacterStyles(конст filename: массив из симв8);
		перем tempString : массив 256 из симв8;
			tempReal: вещ64;
			tempInt: цел32; res: целМЗ;
			reader : Files.Reader;
			parser : XMLParser.Parser;
			scanner : XMLScanner.Scanner;
			f : Files.File;
			XMLdocStyle : XML.Document;
			root: XML.Element;
			cont: XMLObjects.Enumerator;
			ptr: динамическиТипизированныйУкль;
			str: Strings.String;
			cStyle: Texts.CharacterStyle;
		нач
			копируйСтрокуДо0(filename, tempString);
			Strings.Append(tempString, ".XML");
			f := Files.Old(tempString);
			если f = НУЛЬ то возврат всё;
			нов(reader, f, 0);
			нов(scanner, reader);
			нов(parser, scanner);
			XMLdocStyle := parser.Parse();

			root := XMLdocStyle.GetRoot();
			cont := root.GetContents(); cont.Reset();
			нцПока cont.HasMoreElements() делай
				ptr := cont.GetNext();
				если ptr суть XML.Element то
					str := ptr(XML.Element).GetName();
					(* KernelLog.String(str^); KernelLog.Ln; *)
					если (str # НУЛЬ) и (str^ = "character-style") то					(* character styles *)
						нов(cStyle);
						str := ptr(XML.Element).GetAttributeValue("name"); если str # НУЛЬ то копируйСтрокуДо0(str^, cStyle.name) всё;
						str := ptr(XML.Element).GetAttributeValue("font-family"); если str # НУЛЬ то копируйСтрокуДо0(str^, cStyle.family) всё;
						str := ptr(XML.Element).GetAttributeValue("font-style");
						если str # НУЛЬ то
							если (str^ = "0") то cStyle.style := {};
							аесли (str^ = "1") то cStyle.style := {0};
							аесли (str^ = "2") то cStyle.style := {1};
							аесли (str^ = "3") то cStyle.style := {0,1};
							иначе cStyle.style := {};
							всё;
						всё;
						str := ptr(XML.Element).GetAttributeValue("font-size"); если str # НУЛЬ то Strings.StrToFloat(str^, tempReal); cStyle.size := FP1616.FloatToFixp(устарПреобразуйКБолееУзкомуЦел(tempReal)); всё;
						str := ptr(XML.Element).GetAttributeValue("leading"); если str # НУЛЬ то Strings.StrToFloat(str^, tempReal); cStyle.leading := FP1616.FloatToFixp(устарПреобразуйКБолееУзкомуЦел(tempReal)); всё;
						str := ptr(XML.Element).GetAttributeValue("baseline-shift"); если str # НУЛЬ то Strings.StrToFloat(str^, tempReal); cStyle.baselineShift := FP1616.FloatToFixp(устарПреобразуйКБолееУзкомуЦел(tempReal)); всё;
						str := ptr(XML.Element).GetAttributeValue("color"); если str # НУЛЬ то Strings.HexStrToInt(str^, tempInt, res); cStyle.color := tempInt; всё;
						str := ptr(XML.Element).GetAttributeValue("bgcolor"); если str # НУЛЬ то Strings.HexStrToInt(str^, tempInt, res); cStyle.bgColor := tempInt; всё;
						str := ptr(XML.Element).GetAttributeValue("tracking"); если str # НУЛЬ то Strings.StrToFloat(str^, tempReal); cStyle.tracking := FP1616.FloatToFixp(устарПреобразуйКБолееУзкомуЦел(tempReal)); всё;
						str := ptr(XML.Element).GetAttributeValue("h-scale"); если str # НУЛЬ то Strings.StrToFloat(str^, tempReal); cStyle.scaleHorizontal := FP1616.FloatToFixp(устарПреобразуйКБолееУзкомуЦел(tempReal)); всё;
						str := ptr(XML.Element).GetAttributeValue("v-scale"); если str # НУЛЬ то Strings.StrToFloat(str^, tempReal); cStyle.scaleVertical := FP1616.FloatToFixp(устарПреобразуйКБолееУзкомуЦел(tempReal)); всё;
						Texts.AddCharacterStyle(cStyle);

					всё;
				всё;
			кц;

		кон ImportCharacterStyles;

		проц RemoveCHandler(sender, data: динамическиТипизированныйУкль);
		перем i : цел32;
		нач
			Texts.RemoveCharacterStyle(currentCStyle);
			cList.model.Acquire;
			i := 0;
			нцПока ((i<длинаМассива(cStyles))  и (cStyles[i] # НУЛЬ)) делай
				cList.model.SetNofRows(i+1);
				cList.model.SetCellText(0, i, Strings.NewString(cStyles[i].name));
				cList.model.SetCellData(0, i, cStyles[i]);
				увел(i);
			кц;
			CClickSelected(НУЛЬ, cList.model.GetCellData(0, i-1));
			cList.SetSelection(0,i-1, 0, i-1);
			cList.model.Release;
			UpdateProc;

		кон RemoveCHandler;

		проц ApplyCHandler(sender, data: динамическиТипизированныйУкль);
		перем tempString : массив 256 из симв8;
			tempLReal: вещ64;
			tempInt : цел32; res: целМЗ;
			tempFont : WMGraphics.Font;
		нач
			(* retrieve tempvalues first for those who didn't press enter after changing a value... *)
			cName.GetAsString(tempString);
			копируйСтрокуДо0(tempString, tempCStyle.name);
			cFont.GetAsString(tempString);
			копируйСтрокуДо0(tempString, tempCStyle.family);
			cStyle.GetAsString(tempString); Strings.LowerCase(tempString);
			если (tempString = "regular") то tempCStyle.style := {}; cStyle.SetAsString("Regular");
			аесли (tempString = "bold") то tempCStyle.style := {0}; cStyle.SetAsString("Bold");
			аесли (tempString = "italic") то tempCStyle.style := {1}; cStyle.SetAsString("Italic");
			аесли (tempString = "bold italic") то tempCStyle.style := {0, 1}; cStyle.SetAsString("Bold Italic");
			иначе tempCStyle.style := {}; cStyle.SetAsString("Regular"); всё;
			cSize.GetAsString(tempString);
			Strings.StrToFloat(tempString, tempLReal);
			tempCStyle.size := FP1616.FloatToFixp(устарПреобразуйКБолееУзкомуЦел(tempLReal));
			Strings.FloatToStr(tempLReal, 0,4,0, tempString);
			cSize.SetAsString(tempString);
			cLeading.GetAsString(tempString);
			Strings.StrToFloat(tempString, tempLReal);
			tempCStyle.leading := FP1616.FloatToFixp(устарПреобразуйКБолееУзкомуЦел(tempLReal));
			Strings.FloatToStr(tempLReal, 0,4,0, tempString);
			cLeading.SetAsString(tempString);
			tempFont := WMGraphics.GetFont(tempCStyle.family, округлиВниз(FP1616.FixpToFloat(tempCStyle.size)), tempCStyle.style);
			previewLabel.SetFont(tempFont); previewLabel.Invalidate;
			если (tempFont.name # tempCStyle.family) или (tempFont.size # округлиВниз(FP1616.FixpToFloat(tempCStyle.size))) то
				fontNotFound.visible.Set(истина);
			иначе
				fontNotFound.visible.Set(ложь);
			всё;
			cLeading.GetAsString(tempString);
			Strings.StrToFloat(tempString, tempLReal);
			tempCStyle.leading := FP1616.FloatToFixp(устарПреобразуйКБолееУзкомуЦел(tempLReal));
			Strings.FloatToStr(tempLReal, 0,4,0, tempString);
			cLeading.SetAsString(tempString);
			cBaselineShift.GetAsString(tempString);
			Strings.StrToFloat(tempString, tempLReal);
			tempCStyle.baselineShift := FP1616.FloatToFixp(устарПреобразуйКБолееУзкомуЦел(tempLReal));
			Strings.FloatToStr(tempLReal, 0,4,0, tempString);
			cBaselineShift.SetAsString(tempString);
			cColor.GetAsString(tempString);
			Strings.HexStrToInt(tempString, tempInt, res);
			tempCStyle.color := tempInt;
			Strings.IntToHexStr(tempInt, 7, tempString);
			cColor.SetAsString(tempString);
			previewLabel.textColor.Set(tempInt); previewLabel.Invalidate;
			cBackColor.GetAsString(tempString);
			Strings.HexStrToInt(tempString, tempInt, res);
			tempCStyle.bgColor := tempInt;
			Strings.IntToHexStr(tempInt, 7, tempString);
			cBackColor.SetAsString(tempString);
			previewLabel.fillColor.Set(tempInt); previewLabel.Invalidate;
			cTracking.GetAsString(tempString);
			Strings.StrToFloat(tempString, tempLReal);
			tempCStyle.tracking := FP1616.FloatToFixp(устарПреобразуйКБолееУзкомуЦел(tempLReal));
			Strings.FloatToStr(tempLReal, 0,4,0, tempString);
			cTracking.SetAsString(tempString);
			cStretchH.GetAsString(tempString);
			Strings.StrToFloat(tempString, tempLReal);
			tempCStyle.scaleHorizontal := FP1616.FloatToFixp(устарПреобразуйКБолееУзкомуЦел(tempLReal));
			Strings.FloatToStr(tempLReal, 0,4,0, tempString);
			cStretchH.SetAsString(tempString);
			cStretchV.GetAsString(tempString);
			Strings.StrToFloat(tempString, tempLReal);
			tempCStyle.scaleVertical := FP1616.FloatToFixp(устарПреобразуйКБолееУзкомуЦел(tempLReal));
			Strings.FloatToStr(tempLReal, 0,4,0, tempString);
			cStretchV.SetAsString(tempString);

			(* update currentStyle with temp, refresh list *)
			currentCStyle.name := tempCStyle.name;
			currentCStyle.family := tempCStyle.family;
			currentCStyle.style := tempCStyle.style;
			currentCStyle.size := tempCStyle.size;
			currentCStyle.leading := tempCStyle.leading;
			currentCStyle.baselineShift := tempCStyle.baselineShift;
			currentCStyle.color := tempCStyle.color;
			currentCStyle.bgColor := tempCStyle.bgColor;
			currentCStyle.tracking := tempCStyle.tracking;
			currentCStyle.scaleHorizontal := tempCStyle.scaleHorizontal;
			currentCStyle.scaleVertical := tempCStyle.scaleVertical;
			(* Invalidate Cache *)
			currentCStyle.fontcache := НУЛЬ;
			UpdateList;
		кон ApplyCHandler;

		проц AlignHandler(x, y : размерМЗ; keys : мнвоНаБитахМЗ; перем handled : булево);
		нач
			нов(popup);
			popup.AddParButton("Left", AlignPopupHandler, ctxAlignLeft);
			popup.AddParButton("Center", AlignPopupHandler, ctxAlignCenter);
			popup.AddParButton("Right", AlignPopupHandler, ctxAlignRight);
			popup.AddParButton("Justified", AlignPopupHandler, ctxAlignJustified);
			handled := истина;

			popup.Popup(bounds.r-100, bounds.t+72);
		кон AlignHandler;

		проц AlignPopupHandler(sender, data: динамическиТипизированныйУкль);
		нач
			если (data # НУЛЬ) то
				popup.Close;
				если data(ContextMenuData).val = 0 то
					pAlign.SetAsString("Left"); tempPStyle.alignment := 0;
				аесли data(ContextMenuData).val = 1 то
					pAlign.SetAsString("Center"); tempPStyle.alignment := 1;
				аесли data(ContextMenuData).val = 2 то
					pAlign.SetAsString("Right"); tempPStyle.alignment := 2;
				аесли data(ContextMenuData).val = 3 то
					pAlign.SetAsString("Justified"); tempPStyle.alignment := 3;
				иначе
				всё;
			всё;
		кон AlignPopupHandler;

		проц StyleHandler(x, y : размерМЗ; keys : мнвоНаБитахМЗ; перем handled : булево);
		нач
			нов(popup);
			popup.AddParButton("Regular", StylePopupHandler, ctxRegular);
			popup.AddParButton("Bold", StylePopupHandler, ctxBold);
			popup.AddParButton("Italic", StylePopupHandler, ctxItalic);
			popup.AddParButton("Bold Italic", StylePopupHandler, ctxBoldItalic);
			handled := истина;

			popup.Popup(bounds.r-100, bounds.t+92);
		кон StyleHandler;

		проц StylePopupHandler(sender, data: динамическиТипизированныйУкль);
		перем tempFont : WMGraphics.Font;
		нач
			если (data # НУЛЬ) то
				popup.Close;
				если data(ContextMenuData).val = 0 то
					cStyle.SetAsString("Regular"); tempCStyle.style := {};
				аесли data(ContextMenuData).val = 1 то
					cStyle.SetAsString("Bold"); tempCStyle.style := {0};
				аесли data(ContextMenuData).val = 2 то
					cStyle.SetAsString("Italic"); tempCStyle.style := {1};
				аесли data(ContextMenuData).val = 3 то
					cStyle.SetAsString("Bold Italic"); tempCStyle.style := {0,1};
				иначе
				всё;
				tempFont := WMGraphics.GetFont(tempCStyle.family, округлиВниз(FP1616.FixpToFloat(tempCStyle.size)), tempCStyle.style);
				previewLabel.SetFont(tempFont); previewLabel.Invalidate;
			всё;
		кон StylePopupHandler;

		проц ColorHandler(x, y : размерМЗ; keys : мнвоНаБитахМЗ; перем handled : булево);
		перем colorPanel : WMPopups.ColorSwatchPopup;
		нач
			нов(colorPanel);
			colorPanel.onColorChosen := ColorPopupHandler;
			colorPanel.Popup(bounds.r-190, bounds.t+172);

			handled := истина;
		кон ColorHandler;

		проц ColorPopupHandler(result: WMGraphics.Color);
		перем
			colorString: массив 16 из симв8;
		нач
			Strings.IntToHexStr(result, 7, colorString);
			cColor.SetAsString(colorString);
			tempCStyle.color := result;
			previewLabel.textColor.Set(result); previewLabel.Invalidate;
		кон ColorPopupHandler;

		проц BGColorHandler(x, y : размерМЗ; keys : мнвоНаБитахМЗ; перем handled : булево);
		перем colorPanel: WMPopups.ColorSwatchPopup;
		нач
			нов(colorPanel);
			colorPanel.onColorChosen := BGColorPopupHandler;
			colorPanel.Popup(bounds.r-190, bounds.t+192);

			handled := истина;
		кон BGColorHandler;

		проц BGColorPopupHandler(result: WMGraphics.Color);
		перем
			colorString: массив 16 из симв8;
		нач
			Strings.IntToHexStr(result, 7, colorString);
			cBackColor.SetAsString(colorString);
			tempCStyle.bgColor := result;
			previewLabel.fillColor.Set(result); previewLabel.Invalidate;
		кон BGColorPopupHandler;

	кон StyleEditor;

перем
	nofWindows : цел32;
	ctxAlignLeft, ctxAlignCenter, ctxAlignRight, ctxAlignJustified : ContextMenuData;
	ctxRegular, ctxBold, ctxItalic, ctxBoldItalic : ContextMenuData;

проц CreateStyleName(конст fontname : массив из симв8; style : мнвоНаБитахМЗ; size : размерМЗ; fgColor, bgColor : цел32; перем name : массив из симв8);
перем string : массив 32 из симв8; styleInt : цел32;
нач
	(* create AdHoc Name *)
	копируйСтрокуДо0("AdHoc", name); Strings.Append(name, " ");
	Strings.Append(name, fontname); Strings.Append(name, " ");
	Strings.IntToStr(size, string); Strings.Append(name, string); Strings.Append(name, " ");
	если (style = {}) то styleInt := 0;
	аесли (style = {0}) то styleInt := 1;
	аесли (style ={1}) то styleInt := 2;
	аесли (style = {0, 1}) то styleInt := 3;
	иначе styleInt := 0;
	всё;
	Strings.IntToStr(styleInt, string); Strings.Append(name, string); Strings.Append(name, " ");
	Strings.IntToStr(0, string); Strings.Append(name, string); Strings.Append(name, " ");
	Strings.IntToHexStr(fgColor, 7, string); Strings.Append(name, string); Strings.Append(name, " ");
	Strings.IntToHexStr(bgColor, 7, string); Strings.Append(name, string);
кон CreateStyleName;

проц EnsureAttribute(перем attr : Texts.Attributes);
нач
	если (attr = НУЛЬ) то
		нов(attr); нов(attr.fontInfo);
		attr.fontInfo.name := "Oberon";
		attr.fontInfo.size := 12;
	всё
кон EnsureAttribute;

(* Actually, this is a hack... but for now, do it.  *)
проц GetNewSize(конст fontname : массив из симв8; mode, value: цел32; currentSize : размерМЗ; перем newSize : размерМЗ);
нач
	утв((mode = Absolute) или (mode = IncrementBy) или (mode = DecrementBy));
	если (mode = Absolute) то
		newSize := value;
	иначе
		если (fontname = "Oberon") то
			если (mode = IncrementBy) то
				если (currentSize = 8) то newSize := 10;
				аесли (currentSize = 10) то newSize := 12;
				аесли (currentSize = 12) то newSize := 14;
				аесли (currentSize = 14) то newSize := 16;
				аесли (currentSize = 16) то newSize := 20;
				аесли (currentSize = 20) то newSize := 24;
				аесли (currentSize = 24) то newSize := 24;
				иначе (* go to default *)
					newSize := 12; (* max. size of Oberon font *)
				всё;
			иначе
				если (currentSize = 8) то newSize := 8;
				аесли (currentSize = 10) то newSize := 8;
				аесли (currentSize = 12) то newSize := 10;
				аесли (currentSize = 14) то newSize := 12;
				аесли (currentSize = 16) то newSize := 14;
				аесли (currentSize = 20) то newSize := 16;
				аесли (currentSize = 24) то newSize := 20;
				иначе
					newSize := 12;
				всё;
			всё;
		аесли (fontname = "Courier") то
			если (mode = IncrementBy) то
				если (currentSize = 10) то newSize := 12;
				иначе
					newSize := 12;
				всё;
			иначе
				если (currentSize = 12) то newSize := 10;
				иначе
					newSize := 12;
				всё;
			всё;
		иначе
			если (mode = IncrementBy) то newSize := currentSize + value; иначе newSize := currentSize - value; всё;
		всё;
	всё;
	если (newSize < 5) то newSize := 5; всё;
кон GetNewSize;

проц ChangeFontSize(перем attr : Texts.Attributes; userData : динамическиТипизированныйУкль);
перем changeInfo : ChangeInfo;
нач
	если (userData # НУЛЬ) и (userData суть ChangeInfo) то
		changeInfo := userData (ChangeInfo);
		EnsureAttribute(attr);
		GetNewSize(attr.fontInfo.name, changeInfo.deltaSizeMode, changeInfo.deltaSize, attr.fontInfo.size, attr.fontInfo.size);
		attr.fontInfo.fontcache := НУЛЬ;
	всё;
кон ChangeFontSize;

проц ChangeFontColor(перем attr : Texts.Attributes; userData : динамическиТипизированныйУкль);
перем changeInfo : ChangeInfo;
нач
	если (userData # НУЛЬ) и (userData суть ChangeInfo) то
		changeInfo := userData (ChangeInfo);
		EnsureAttribute(attr);
		если (changeInfo.fields * ChangeFgColor # {}) то attr.color := changeInfo.fgColor; всё;
		если (changeInfo.fields * ChangeBgColor # {}) то attr.bgcolor := changeInfo.bgColor; всё;
		attr.fontInfo.fontcache := НУЛЬ;
	всё;
кон ChangeFontColor;

проц ChangeFontStyle(перем attr : Texts.Attributes; userData : динамическиТипизированныйУкль);
нач
	если (userData # НУЛЬ) и (userData суть ChangeInfo) то
		EnsureAttribute(attr);
		attr.fontInfo.style := userData(ChangeInfo).style;
		attr.fontInfo.fontcache := НУЛЬ;
	всё;
кон ChangeFontStyle;

проц ChangeFontName(перем attr : Texts.Attributes; userData : динамическиТипизированныйУкль);
нач
	если (userData # НУЛЬ) и (userData суть ChangeInfo) то
		EnsureAttribute(attr);
		копируйСтрокуДо0(userData(ChangeInfo).name, attr.fontInfo.name);
		attr.fontInfo.fontcache := НУЛЬ;
	всё;
кон ChangeFontName;

проц Change(changeInfo : ChangeInfo);
перем
	text : Texts.Text;
	from, to : Texts.TextPosition;
	utilreader : Texts.TextReader;
	a, b : размерМЗ;
	ch : Texts.Char32;
	newCstyle : Texts.CharacterStyle;
нач
	утв(changeInfo # НУЛЬ);
	если Texts.GetLastSelection(text, from, to) то
		text.AcquireWrite;
		a := матМинимум(from.GetPosition(), to.GetPosition());
		b := матМаксимум(from.GetPosition(), to.GetPosition());

		нов(utilreader, text);
		utilreader.SetPosition(a);
		utilreader.ReadCh(ch);

		если (utilreader.cstyle = НУЛЬ) и (utilreader.attributes = НУЛЬ) то
			changeInfo.deltaSizeMode := Absolute;
			changeInfo.deltaSize := 10; (* Set to reasonable default *)
			 text.UpdateAttributes(a, b - a, ChangeFontSize, changeInfo);
		аесли (utilreader.cstyle # НУЛЬ) то
			newCstyle := utilreader.cstyle.Clone();
			GetNewSize(newCstyle.family, changeInfo.deltaSizeMode, changeInfo.deltaSize, newCstyle.size, newCstyle.size);
			CreateStyleName(newCstyle.family, newCstyle.style, newCstyle.size, newCstyle.color, newCstyle.bgColor, newCstyle.name);
			Texts.AddCharacterStyle(newCstyle);
			text.SetCharacterStyle(a, b - a, newCstyle);
		аесли (utilreader.attributes # НУЛЬ) то
			если (changeInfo.fields * ChangeSize # {}) то text.UpdateAttributes(a, b - a, ChangeFontSize, changeInfo); всё;
			если (changeInfo.fields * ChangeStyle # {}) то text.UpdateAttributes(a, b - a, ChangeFontStyle, changeInfo); всё;
			если (changeInfo.fields * (ChangeFgColor + ChangeBgColor) # {}) то
				text.UpdateAttributes(a, b - a, ChangeFontColor, changeInfo);
			всё;
			если (changeInfo.fields * ChangeFont # {}) то text.UpdateAttributes(a, b - a, ChangeFontName, changeInfo); всё;
		всё;
		text.ReleaseWrite;
	всё;
кон Change;

(* Set the font size of the currently selected text either relativ or absolute *)
проц SetFontSize*(context : Commands.Context); (** ("Absolute"|"IncrementBy" |"DecrementBy") [value] ~*)
перем changeInfo : ChangeInfo; modeStr : массив 16 из симв8; mode, value : цел32;
нач
	context.arg.ПропустиБелоеПоле; context.arg.чЦепочкуСимволов8ДоБелогоПоляИлиВКавычках(modeStr);
	context.arg.ПропустиБелоеПоле; context.arg.чЦел32(value, ложь);
	Strings.UpperCase(modeStr);
	если (modeStr = "ABSOLUTE") то mode := Absolute;
	аесли (modeStr = "INCREMENTBY") то mode := IncrementBy;
	аесли (modeStr = "DECREMENTBY") то mode := DecrementBy;
	иначе
		context.error.пСтроку8("WMTextStyleTool.SetFontSize: Unknown mode parameter"); context.error.пВК_ПС;
		возврат;
	всё;
	нов(changeInfo);
	changeInfo.fields := ChangeSize;
	changeInfo.deltaSizeMode := mode;
	changeInfo.deltaSize := value;
	если (mode # Absolute) и (value = 0) то changeInfo.deltaSize := 1; (* default increment/ decrement *) всё;
	Change(changeInfo);
кон SetFontSize;

(** Set the font style of the currently selected text. Default: Normal  *)
проц SetFontStyle*(context : Commands.Context);
перем styleStr : массив 16 из симв8; style : мнвоНаБитахМЗ; changeInfo : ChangeInfo;
нач
	context.arg.ПропустиБелоеПоле; context.arg.чЦепочкуСимволов8ДоБелогоПоляИлиВКавычках(styleStr);
	Strings.UpperCase(styleStr);
	если (styleStr = "BOLD") то style := {WMGraphics.FontBold};
	аесли (styleStr = "ITALIC") то style := {WMGraphics.FontItalic};
	аесли (styleStr = "NORMAL") или (styleStr = "") то style := {};
	иначе
		context.error.пСтроку8("WMTextStyleTool.SetFontStyle: Unknown font style parameter."); context.error.пВК_ПС;
		возврат;
	всё;
	нов(changeInfo);
	changeInfo.fields := ChangeStyle;
	changeInfo.style := style;
	Change(changeInfo);
кон SetFontStyle;

(** Set the font color of the currently selected text. If not parameter is specified, fgColor is black, bgColor is unchanged *)
проц SetFontColor*(context : Commands.Context); (** [fgColor] [bgColor] ~ *)
перем fgColor, bgColor : цел32; changeInfo : ChangeInfo;
нач
	context.arg.ПропустиБелоеПоле; context.arg.чЦел32(fgColor, истина);
	context.arg.ПропустиБелоеПоле; context.arg.чЦел32(bgColor, истина);
	нов(changeInfo);
	changeInfo.fields := ChangeFgColor;
	changeInfo.fgColor := fgColor;
	если (context.arg.кодВозвратаПоследнейОперации = Потоки.Успех) то
		changeInfo.bgColor := bgColor;
		changeInfo.fields := changeInfo.fields + ChangeBgColor;
	всё;
	Change(changeInfo);
кон SetFontColor;

(** Set the font for the currently selected text. Default: Oberon *)
проц SetFontName*(context : Commands.Context); (** [fontname] ~ *)
перем name : массив 128 из симв8; changeInfo : ChangeInfo;
нач
	если ~context.arg.ПропустиБелоеПолеИЧитайЦепочкуСимволов8ДоБелогоПоляИлиВКавычках(name) то копируйСтрокуДо0("Oberon", name); всё;
	нов(changeInfo);
	копируйСтрокуДо0(name, changeInfo.name);
	changeInfo.fields := ChangeFont;
	Change(changeInfo);
кон SetFontName;

(** Set the style of the currently selected text by name *)
проц SetStyleByName*(context : Commands.Context); (* stylename ~ *)
перем
	text : Texts.Text;
	from, to : Texts.TextPosition;
	a, b : размерМЗ;
	cStyle : Texts.CharacterStyle;
	cStyleStr : массив 32 из симв8;
нач
	если ~context.arg.ПропустиБелоеПолеИЧитайЦепочкуСимволов8ДоБелогоПоляИлиВКавычках(cStyleStr) то возврат всё;

	если Texts.GetLastSelection(text, from, to) то
		cStyle := Texts.GetCharacterStyleByName(cStyleStr);
		если cStyle # НУЛЬ то
			text.AcquireWrite;
			a := матМинимум(from.GetPosition(), to.GetPosition());
			b := матМаксимум(from.GetPosition(), to.GetPosition());
			text.SetCharacterStyle(a, b - a, cStyle);
			text.ReleaseWrite
		всё;
	всё;
кон SetStyleByName;

проц Open*;
перем winstance : Window;
нач
	нов(winstance, НУЛЬ);
кон Open;

проц Restore*(context : WMRestorable.Context);
перем w : Window;
нач
	нов(w, context);
кон Restore;

проц IncCount;
нач {единолично}
	увел(nofWindows)
кон IncCount;

проц DecCount;
нач {единолично}
	умень(nofWindows)
кон DecCount;

проц Cleanup;
перем die : KillerMsg;
	 msg : WMMessages.Message;
	 m : WM.WindowManager;
нач {единолично}
	нов(die);
	msg.ext := die;
	msg.msgType := WMMessages.MsgExt;
	m := WM.GetDefaultManager();
	m.Broadcast(msg);
	дождись(nofWindows = 0)
кон Cleanup;

нач
	нов(ctxAlignLeft, AlignLeft);
	нов(ctxAlignCenter, AlignCenter);
	нов(ctxAlignRight, AlignRight);
	нов(ctxAlignJustified, AlignJustified);
	нов(ctxRegular, StyleRegular);
	нов(ctxBold, StyleBold);
	нов(ctxItalic, StyleItalic);
	нов(ctxBoldItalic, StyleBoldItalic);

	Modules.InstallTermHandler(Cleanup)
кон WMTextStyleTool.

System.Free WMTextStyleTool ~
WMTextStyleTool.Open  ~

WMTextStyleTool.SetStyleByName Bold ~
WMTextStyleTool.SetStyleByName Normal ~

WMTextStyleTool.SetFontName Oberon ~
WMTextStyleTool.SetFontName Courier ~

WMTextStyleTool.SetFontSize IncrementBy ~
WMTextStyleTool.SetFontSize DecrementBy ~

WMTextStyleTool.SetFontSize Absolute 20 ~

WMTextStyleTool.SetFontStyle bold ~
WMTextStyleTool.SetFontStyle normal ~

WMTextStyleTool.SetFontColor FF0000FFH ~
WMTextStyleTool.SetFontColor 0 ~
