модуль WMUsbInfo; (** AUTHOR "staubesv"; PURPOSE "USB topology info (GUI)"; *)
(**
 * This Module doesn't add any functionality to the USB system software. Its purpose is to represent the current state of
 * the USB system software.
 *
 * Usage:
 *
 *	WMUsbInfo.Open ~ to start application
 *	System.Free WMUsbInfo ~ to unload it
 *
 * History:
 *
 *	20.11.2005	First release (staubesv)
 *	12.12.2005	Fixed HID class, subclass & protocol indication / BCD representation (staubesv)
 *	06.01.2006	Display VendorID, ProductID & Unknown descriptor type in Hexadecimal instead of decimal, add HID descriptor (staubesv)
 *	13.03.2006	Fixed Window.AddDeviceDescriptor so it also shows the maxPacketSize0 field (staubesv)
 *	21.03.2006	Made window restorable, don't keep reference to window when it's closed so the GC can collect it (staubesv)
 *	28.06.2006	Adapted to modified procedure Usb.GetRootHubs (staubesv)
 *	27.07.2006	Poll for events instead of being notified (staubesv)
 *)

использует
	НИЗКОУР,
	ЛогЯдра, Strings, Потоки, Modules, Kernel, Plugins, Codecs, ЭВМ,
	Usbdi, Usb, UsbHcdi,
	WMTabComponents, WMComponents, WMStandardComponents, WMWindowManager, WMTrees, WMGraphics, WMRestorable, WMMessages;

конст
	(* Initial window size *)
	WindowWidth = 700;
	WindowHeight = 400;

	WriterSize = 1024; (* Default size of StringWriters *)

	Debug = истина;

	(* This file contains a list of assigned USB vendor IDs. Can be get from www.usb.org *)
	VendorIdFile = "WMUsbInfo.tar://usb.if";

	ShowIcons = истина;

	(* How often show the tool poll for changes? *)
	PollInterval = 200; (* ms *)

	(* Video Modes *)
	VmStandard = 0; (* Show devices connected to USB *)
	VmDetailed = 1; (* Show devices connected to USB and all their descriptors *)
	VmPortStatus = 2; (* Show the port status of all ports *)
	VmDrivers = 3; (* Show all registered USB device drivers and their instances *)

тип

	KillerMsg = окласс
	кон KillerMsg;

	(* View mode data for Tab's *)
	Mode = укль на запись;
		mode : цел32;
	кон;

	Driver = укль на запись;
		driver : Usbdi.Driver;
		interface : размерМЗ;
		next : Driver;
	кон;

	(* Graphical user interface *)
	Window = окласс (WMComponents.FormWindow)
	перем
		(* Tree showing the USB topology *)
		usbTree : WMTrees.Tree;
		usbTreeView : WMTrees.TreeView;
		usbSelected : WMTrees.TreeNode;
		drivers : Driver; (* associated to usbSelected *)

		(* Tree showing the registered USB device drivers and their instances *)
		drvTree : WMTrees.Tree;
		drvTreeView : WMTrees.TreeView;

		mainpanel, buttonpanel, treepanel, driverpanel : WMStandardComponents.Panel;
		btnRefresh, btnProperties : WMStandardComponents.Button;

		tabs : WMTabComponents.Tabs;

		infoline : WMStandardComponents.Label;

		viewmode : цел32;

		string : массив WriterSize из симв8;

		lastNbrOfDriverEvents, lastNbrOfTopologyEvents : цел32;

		(* Active object control *)
		dead, alive  : булево;
		timer : Kernel.Timer;

		проц AddDeviceDescriptor(d : Usb.DeviceDescriptor; конст nname: массив из симв8; parent : WMTrees.TreeNode; isQualifier : булево);
		перем dn, tn : WMTrees.TreeNode; w : Потоки.ПисарьВСтроку8ФиксированногоРазмера; i : цел32; vendor, class, subclass, protocol : Strings.String;
		нач
			нов(dn); нов(w, WriterSize);
			AddUsbNode(dn, parent, nname);

			GetDeviceDescription(d.bDeviceClass, d.bDeviceSubClass, d.bDeviceProtocol, class, subclass, protocol);
			vendor := GetVendorString(d.idVendor);

			i := 0;
			нц
				нов(tn); w.Сбрось;
				просей i из
					0: w.пСтроку8("USB Version: "); w.п16ричное(логСдвиг(d.bcdUSB, -8) остОтДеленияНа 10H, -2); w.пСимв8("."); w.п16ричное(d.bcdUSB остОтДеленияНа 10H, -2);
					|1: w.пСтроку8("Class: "); w.п16ричное(d.bDeviceClass, -2); w.пСимв8("H");
						если class # НУЛЬ то w. пСтроку8(" ("); w.пСтроку8(class^); w.пСимв8(")"); всё;
					|2: w.пСтроку8("SubClass: "); w.п16ричное(d.bDeviceSubClass, -2); w.пСимв8("H");
						если subclass # НУЛЬ то w. пСтроку8(" ("); w.пСтроку8(subclass^); w.пСимв8(")"); всё;
					|3: w.пСтроку8("Protocoll: "); w.п16ричное(d.bDeviceProtocol, -2); w.пСимв8("H");
						если protocol # НУЛЬ то w. пСтроку8(" ("); w.пСтроку8(protocol^); w.пСимв8(")"); всё;
					|4: w.пСтроку8("idVendor: "); w.п16ричное(логСдвиг(d.idVendor, -8) остОтДеленияНа 100H, -2); w.п16ричное(d.idVendor остОтДеленияНа 100H, -2); w.пСимв8("H");
						если vendor # НУЛЬ то w.пСтроку8(" ("); w.пСтроку8(vendor^); w.пСимв8(")"); всё;
					|5: w.пСтроку8("idProduct: "); w.п16ричное(логСдвиг(d.idProduct, -8) остОтДеленияНа 100H, -2); w.п16ричное(d.idProduct остОтДеленияНа 100H, -2); w.пСимв8("H");
					|6: w.пСтроку8("Device Version: "); w.п16ричное(логСдвиг(d.bcdDevice, -8) остОтДеленияНа 10H, -2); w.пСимв8("."); w.п16ричное(d.bcdDevice остОтДеленияНа 10H, -2);
					|7: w.пСтроку8("NumConfigurations: "); w.пЦел64(d.bNumConfigurations, 0);
					|8: w.пСтроку8("iManufacturer: "); w.пЦел64(d.iManufacturer, 0); w.пСтроку8(" (");
					      если d.iManufacturer = 0 то w.пСтроку8("No string descriptor)");
					      аесли d.sManufacturer # НУЛЬ то w.пСтроку8(d.sManufacturer^); w.пСимв8(")");
					      иначе w.пСтроку8("Not parsed)");
					      всё;
					|9: w.пСтроку8("iProduct: "); w.пЦел64(d.iProduct, 0); w.пСтроку8(" (");
					      если d.iProduct = 0 то w.пСтроку8("No string descriptor)");
					      аесли d.sProduct # НУЛЬ то w.пСтроку8(d.sProduct^); w.пСимв8(")");
					      иначе w.пСтроку8("Not parsed)");
					      всё;
			      		|10: w.пСтроку8("iSerial: "); w.пЦел64(d.iSerialNumber, 0); w.пСтроку8(" (");
					      если d.iSerialNumber = 0 то w.пСтроку8("No string descriptor)");
					      аесли d.sSerialNumber # НУЛЬ то w.пСтроку8(d.sSerialNumber^); w.пСимв8(")");
					      иначе w.пСтроку8("Not parsed)");
					      всё;
					|11: w.пСтроку8("MaxPacketSize0: "); w.пЦел64(d.bMaxPacketSize0, 0); w.пСтроку8(" Bytes");
				всё;
				w.ДайПрочитанное˛сколькоПоместитсяИСимвол0(string); AddUsbNode(tn, dn, string);
				увел(i); если (i > 11) или (isQualifier и (i > 7)) то прервиЦикл; всё;
			кц;
		кон AddDeviceDescriptor;

		проц AddIad(iads : Usbdi.Iads; parent : WMTrees.TreeNode);
		перем dn, tn, in : WMTrees.TreeNode; w : Потоки.ПисарьВСтроку8ФиксированногоРазмера; c, s, p : Strings.String; j, k : размерМЗ; i : Usb.InterfaceAssociationDescriptor;
		нач
			нов(dn); нов(w, WriterSize);
			AddUsbNode(dn, parent, "Interface Association Descriptors");

			нцДля k := 0 до длинаМассива(iads)-1 делай

				нов(in);
				w.Сбрось; w.пСтроку8("Interface Associtation Descriptor "); w.пЦел64(k, 0); w.ДайПрочитанное˛сколькоПоместитсяИСимвол0(string);
				AddUsbNode(in, dn, string);

				i := iads[k] (Usb.InterfaceAssociationDescriptor) ;
				GetIadDescription(i.bFunctionClass, i.bFunctionSubClass, i.bFunctionProtocol, c, s, p);

				нцДля j := 0 до 5 делай
					нов(tn); w.Сбрось;
					просей j из
						0: w.пСтроку8("bFirstInterface: "); w.пЦел64(i.bFirstInterface, 0);
						|1: w.пСтроку8("bInterfaceCount: "); w.пЦел64(i.bInterfaceCount, 0);
						|2: w.пСтроку8("bFunctionClass: "); w.пЦел64(i.bFunctionClass, 0);
							если c # НУЛЬ то w.пСтроку8(" ("); w.пСтроку8(c^); w.пСтроку8(")"); всё;
						|3: w.пСтроку8("bFunctionSubClass: "); w.пЦел64(i.bFunctionSubClass, 0);
							если s # НУЛЬ то w.пСтроку8(" ("); w.пСтроку8(s^); w.пСтроку8(")"); всё;
						|4: w.пСтроку8("bFunctionProtocol: "); w.пЦел64(i.bFunctionProtocol, 0);
							если p # НУЛЬ то w.пСтроку8(" ("); w.пСтроку8(p^); w.пСтроку8(")"); всё;
						|5: w.пСтроку8("iFunction: "); w.пЦел64(i.iFunction, 0); w.пСтроку8(" (");
						      если i.iFunction = 0 то w.пСтроку8("No string descriptor)");
						      аесли i.sFunction # НУЛЬ то w.пСтроку8(i.sFunction^); w.пСимв8(")");
						      иначе w.пСтроку8("Not parsed)");
						      всё;
					всё;
					w.ДайПрочитанное˛сколькоПоместитсяИСимвол0(string); AddUsbNode(tn, in, string);
				кц;
			кц;
		кон AddIad;

		проц AddNonStandard(u : Usbdi.UnknownDescriptor ; intf : Usbdi.InterfaceDescriptor; parent : WMTrees.TreeNode);
		перем dn, tn : WMTrees.TreeNode; w : Потоки.ПисарьВСтроку8ФиксированногоРазмера;
		нач
			если u = НУЛЬ то (* No non-standard descriptors *) возврат; всё;

			нов(dn); нов(w, WriterSize);
			AddUsbNode(dn, parent, "Non-Standard Descriptors");

			нцПока(u # НУЛЬ) делай
				если intf.bInterfaceClass = 0EH то (* Video Device Class-Specific Descriptor *)
					AddVideoClass(u, intf, dn);
				аесли intf.bInterfaceClass = 03H то (* HID device class-specific descriptor *)
					AddHidClass(u, intf, dn);
				иначе
					нов(tn); w.Сбрось;
					 w.пСтроку8("Non-Standard Descriptor (Type: "); w.п16ричное(u.bDescriptorType, -2); w.пСимв8("H");
					 w.пСтроку8(", Length: "); w.пЦел64(u.bLength, 0); w.пСтроку8(")");
					 w.ДайПрочитанное˛сколькоПоместитсяИСимвол0(string); AddUsbNode(tn, dn, string);
					 AddDescriptorData(u.descriptor^, dn);
				всё;
				u := u.next;
			кц;
		кон AddNonStandard;

		проц AddDescriptorData(конст data: массив из симв8; parent : WMTrees.TreeNode);
		перем n : WMTrees.TreeNode; i : размерМЗ; w : Потоки.ПисарьВСтроку8ФиксированногоРазмера;
		нач
			нов(n); нов(w, WriterSize);
			w.пСтроку8("Data: ");
			нцДля i := 0 до длинаМассива(data)-1 делай
				w.п16ричное(кодСимв8(data[i]), -2); w.пСимв8(" ");
			кц;
			w.ДайПрочитанное˛сколькоПоместитсяИСимвол0(string); AddUsbNode(n, parent, string);
		кон AddDescriptorData;

		(* Add HID class-specific descriptor *)
		проц AddHidClass(u : Usbdi.UnknownDescriptor; intf : Usbdi.InterfaceDescriptor; parent : WMTrees.TreeNode);
		перем w : Потоки.ПисарьВСтроку8ФиксированногоРазмера;  cl, n, dn : WMTrees.TreeNode; i : размерМЗ;

			проц AddDescriptorType(type : цел32; w : Потоки.ПисарьВСтроку8ФиксированногоРазмера);
			нач
				просей type из
					21H: 	w.пСтроку8("(HID Descriptor)");
					|22H:	w.пСтроку8("(Report Descriptor)");
					|23H: 	w.пСтроку8("(Physical Descriptor)");
				иначе
					w.пСтроку8("(Unknown)");
				всё;
			кон AddDescriptorType;

			проц AddClassDescriptor(offset : размерМЗ);
			нач
				нов(n); w.Сбрось;
				w.пСтроку8("bDescriptorType: "); w.п16ричное(кодСимв8(u.descriptor[offset]), -2); w.пСтроку8("H ");
				AddDescriptorType(кодСимв8(u.descriptor[offset]), w);
				w.пСтроку8(", bDescriptorLength: ");
				w.пЦел64(кодСимв8(u.descriptor[offset + 1]) + 10H*кодСимв8(u.descriptor[offset + 2]), 0); w.пСтроку8(" Bytes");
				w.ДайПрочитанное˛сколькоПоместитсяИСимвол0(string); AddUsbNode(n, cl, string);
			кон AddClassDescriptor;

		нач
			нов(dn); нов(w, WriterSize);
			AddUsbNode(dn, parent, "HID class-specific descriptor");

			если u.bLength >= 9 то
				i := 0;
				нц
					нов(n); w.Сбрось;
					просей i из
						0: 	w.пСтроку8("HID Class Specification Release: ");
							w.п16ричное(кодСимв8(u.descriptor[3]), -2); w.пСимв8("."); w.п16ричное(кодСимв8(u.descriptor[2]), -2);
						|1:	w.пСтроку8("Country Code: "); w.пЦел64(кодСимв8(u.descriptor[4]), 0);
							если кодСимв8(u.descriptor[4]) = 0 то w.пСтроку8(" (Not Supported)"); всё;
						|2:	w.пСтроку8("bNumDescriptors: "); w.пЦел64(кодСимв8(u.descriptor[5]), 0);
					всё;
					увел(i);
					w.ДайПрочитанное˛сколькоПоместитсяИСимвол0(string); AddUsbNode(n, dn, string);
					если i > 2 то прервиЦикл; всё;
				кц;

				нов(cl); AddUsbNode(cl, dn, "Class Descriptors");
				i := 6;
				нц
					AddClassDescriptor(i); увел(i, 3);
					если i >= длинаМассива(u.descriptor) - 3 то прервиЦикл; всё;
				кц;
			иначе
				нов(n); w.Сбрось; w.пСтроку8("Parse Error: Descriptor < 9 Bytes"); w.ДайПрочитанное˛сколькоПоместитсяИСимвол0(string);
				AddUsbNode(n, dn, string);
			всё;
		кон AddHidClass;

		(* Show USB Video Device Class-Specific descriptors *)
		проц AddVideoClass(u : Usbdi.UnknownDescriptor; intf : Usbdi.InterfaceDescriptor;  parent : WMTrees.TreeNode);
		перем subtype : цел32; v, w : Потоки.ПисарьВСтроку8ФиксированногоРазмера; tn, n : WMTrees.TreeNode;

			проц AddVCHeader(u : Usbdi.UnknownDescriptor; parent : WMTrees.TreeNode);
			перем n : WMTrees.TreeNode; i : размерМЗ; w : Потоки.ПисарьВСтроку8ФиксированногоРазмера;
			нач
				утв(длинаМассива(u.descriptor) >= 12);
				нов(w, WriterSize);
				нцДля i := 1 до 4 делай
					нов(n); w.Сбрось;
					просей i из
						1: w.пСтроку8("bcdVDC: "); w.п16ричное(кодСимв8(u.descriptor[4]), -2); w.пСимв8("."); w.п16ричное(кодСимв8(u.descriptor[3]), -2);
						|2: w.пСтроку8("wTotalLength: "); w.пЦел64(кодСимв8(u.descriptor[5]) + 100H*кодСимв8(u.descriptor[6]), 0);
						|3: w.пСтроку8("dwClockFrequency: ");
							w.пЦел64(кодСимв8(u.descriptor[7]) + 100H*кодСимв8(u.descriptor[8]) + 10000H*кодСимв8(u.descriptor[9])
							 +1000000H*кодСимв8(u.descriptor[10]), 0); w.пСтроку8(" Hz");
						|4: w.пСтроку8("bInCollection: "); w.пЦел64(кодСимв8(u.descriptor[11]), 0);
					всё;
					w.ДайПрочитанное˛сколькоПоместитсяИСимвол0(string); AddUsbNode(n, parent, string);
				кц;
				нцДля i := 12 до длинаМассива(u.descriptor)-1 делай
					нов(n); w.Сбрось;
					w.пСтроку8("baInterfaceNr("); w.пЦел64(i-11, 0); w.пСтроку8("): ");
					w.пЦел64(кодСимв8(u.descriptor[i]), 0);
					w.ДайПрочитанное˛сколькоПоместитсяИСимвол0(string); AddUsbNode(n, parent, string);
				кц;
			кон AddVCHeader;

			проц AddTerminal(u : Usbdi.UnknownDescriptor; parent : WMTrees.TreeNode);
			перем n : WMTrees.TreeNode; i, subtype : цел32; w : Потоки.ПисарьВСтроку8ФиксированногоРазмера;
			нач
				нов(w, WriterSize);
				(* Common fields of all terminal descriptors *)
				нцДля i := 1 до 3 делай
					нов(n); w.Сбрось;
					просей i из
						1: w.пСтроку8("bTerminalID: "); w.пЦел64(кодСимв8(u.descriptor[3]), 0);
						|2: w.пСтроку8("wTerminalType: "); subtype := кодСимв8(u.descriptor[4]) + 100H*кодСимв8(u.descriptor[5]);
							w.пЦел64(subtype, 0); w.пСтроку8(" (");
							если subtype = 100H то w.пСтроку8("Vendor-Specific Terminal)");
							аесли subtype = 101H то w.пСтроку8("Streaming Terminal)");
							аесли subtype = 200H то w.пСтроку8("Vendor-Specific Input Terminal)");
							аесли subtype = 201H то w.пСтроку8("Camera Input Terminal)");
							аесли subtype = 202H то w.пСтроку8("Media Transport Inpurt Terminal)");
							аесли subtype = 300H то w.пСтроку8("Vendor-Specific Output Terminal)");
							аесли subtype = 301H то w.пСтроку8("Display Output Terminal)");
							аесли subtype = 302H то w.пСтроку8("Media Transport Output Terminal)");
							аесли subtype = 400H то w.пСтроку8("Vendor-Specific External Terminal)");
							аесли subtype = 401H то w.пСтроку8("Composite Connector)");
							аесли subtype = 402H то w.пСтроку8("S-Video Connector)");
							аесли subtype = 403H то w.пСтроку8("Component Connector)");
							иначе
								w.пСтроку8("Unknown Terminal Type)");
							всё;
						|3: w.пСтроку8("bAssocTerminal: "); w.пЦел64(кодСимв8(u.descriptor[6]), 0);
					всё;
					w.ДайПрочитанное˛сколькоПоместитсяИСимвол0(string); AddUsbNode(n, parent, string);
				кц;
				нов(n); w.Сбрось;
				subtype := кодСимв8(u.descriptor[2]);
				если subtype = 02H то (* Input Terminal *)
					w.пСтроку8("iTerminal: "); w.пЦел64(кодСимв8(u.descriptor[7]), 0);
					w.ДайПрочитанное˛сколькоПоместитсяИСимвол0(string); AddUsbNode(n, parent, string);
				аесли subtype = 03H то (* Output Terminal *)
					w.пСтроку8("bSourceID: "); w.пЦел64(кодСимв8(u.descriptor[8]), 0);
					w.ДайПрочитанное˛сколькоПоместитсяИСимвол0(string); AddUsbNode(n, parent, string);
					нов(n); w.Сбрось;
					w.пСтроку8("iTerminal: "); w.пЦел64(кодСимв8(u.descriptor[8]), 0);
					w.ДайПрочитанное˛сколькоПоместитсяИСимвол0(string); AddUsbNode(n, parent, string);
				всё;
				AddDescriptorData(u.descriptor^, parent);
			кон AddTerminal;

			(* Common fields of unit descriptors *)
			проц AddUnit(u : Usbdi.UnknownDescriptor; parent : WMTrees.TreeNode);
			перем n : WMTrees.TreeNode; i, j: размерМЗ; subtype : цел32; w : Потоки.ПисарьВСтроку8ФиксированногоРазмера;
			нач
				нов(n); нов(w, WriterSize);
				w.пСтроку8("bUnitID: "); w.пЦел64(кодСимв8(u.descriptor[3]), 0);
				w.ДайПрочитанное˛сколькоПоместитсяИСимвол0(string); AddUsbNode(n, parent, string);

				subtype := кодСимв8(u.descriptor[2]);
				если subtype = 4 то (* Selector Unit *)
					нов(n); w.Сбрось;
					w.пСтроку8("bNrInPins: "); w.пЦел64(кодСимв8(u.descriptor[4]), 0);
					w.ДайПрочитанное˛сколькоПоместитсяИСимвол0(string); AddUsbNode(n, parent, string);
					нцДля i := 5 до длинаМассива(u.descriptor)-2 делай
						нов(n); w.Сбрось;
						w.пСтроку8("baSourceID("); w.пЦел64(i-4, 0); w.пСтроку8("): "); w.пЦел64(кодСимв8(u.descriptor[i]), 0);
						w.ДайПрочитанное˛сколькоПоместитсяИСимвол0(string); AddUsbNode(n, parent, string);
					кц;
					нов(n); w.Сбрось;
					w.пСтроку8("iSelector: "); w.пЦел64(кодСимв8(u.descriptor[длинаМассива(u.descriptor)-1]), 0);
					w.ДайПрочитанное˛сколькоПоместитсяИСимвол0(string); AddUsbNode(n, parent, string);
				аесли subtype = 6 то (* Extension Unit *)
					нцДля i := 1 до 7 делай
						нов(n); w.Сбрось;
						просей i из
							1: w.пСтроку8("guidExtensionCode: ");
							    нцДля j := 0 до 15 делай w.п16ричное(кодСимв8(u.descriptor[4+j]), -2); w.пСимв8(" "); кц;
							|2: w.пСтроку8("bNumControls: "); w.пЦел64(кодСимв8(u.descriptor[20]), 0);
							|3: w.пСтроку8("bNrInPins: "); w.пЦел64(кодСимв8(u.descriptor[21]), 0);
							|4: нцДля j := 0 до кодСимв8(u.descriptor[21])-1 делай
									w.пСтроку8("baSourceID("); w.пЦел64(j+1, 0); w.пСтроку8("): "); w.пЦел64(кодСимв8(u.descriptor[22+j]), 0);
								кц;
							|5: w.пСтроку8("bControlSize: "); w.пЦел64(кодСимв8(u.descriptor[22 + кодСимв8(u.descriptor[21])]), 0);
							|6: нцДля j := 0 до кодСимв8(u.descriptor[22 + кодСимв8(u.descriptor[21])])-1 делай
									w.пСтроку8("bmControls("); w.пЦел64(j+1, 0); w.пСтроку8("): ");
									w.пЦел64(кодСимв8(u.descriptor[23 +  кодСимв8(u.descriptor[21])]), 0);
								кц;
							|7: w.пСтроку8("iExtension: "); w.пЦел64(кодСимв8(u.descriptor[длинаМассива(u.descriptor)-1]), 0);
						всё;
						w.ДайПрочитанное˛сколькоПоместитсяИСимвол0(string); AddUsbNode(n, parent, string);
					кц;
				иначе
					AddDescriptorData(u.descriptor^, parent);
				всё;

			кон AddUnit;

			проц AddOutputHeader(u : Usbdi.UnknownDescriptor; parent : WMTrees.TreeNode);
			перем n : WMTrees.TreeNode; i  : цел32; w : Потоки.ПисарьВСтроку8ФиксированногоРазмера;
			нач
				нов(w, WriterSize);
				нцДля i := 1 до 4 делай
					нов(n); w.Сбрось;
					просей i из
						1: w.пСтроку8("bNumFormats: "); w.пЦел64(кодСимв8(u.descriptor[3]), 0);
						|2: w.пСтроку8("wTotalLength: "); w.пЦел64(кодСимв8(u.descriptor[4]) + 100H*кодСимв8(u.descriptor[5]), 0);
						|3: w.пСтроку8("bEndpointAddress: "); w.пЦел64(кодСимв8(u.descriptor[6]), 0);
						|4: w.пСтроку8("bTerminalLink: "); w.пЦел64(кодСимв8(u.descriptor[7]), 0);
					всё;
					w.ДайПрочитанное˛сколькоПоместитсяИСимвол0(string); AddUsbNode(n, parent, string);
				кц;
			кон AddOutputHeader;

			проц AddInputHeader(u : Usbdi.UnknownDescriptor; parent : WMTrees.TreeNode);
			перем n : WMTrees.TreeNode; i: размерМЗ; temp : цел32; w : Потоки.ПисарьВСтроку8ФиксированногоРазмера;
			нач
				нов(w, WriterSize);
				нцДля i := 1 до 9 делай
					нов(n); w.Сбрось;
					просей i из
						1: w.пСтроку8("bNumFormats: "); w.пЦел64(кодСимв8(u.descriptor[3]), 0);
						|2: w.пСтроку8("wTotalLength: "); w.пЦел64(кодСимв8(u.descriptor[4]) + 100H*кодСимв8(u.descriptor[5]), 0);
						|3: w.пСтроку8("bEndpointAddress: "); w.пЦел64(кодСимв8(u.descriptor[6]), 0);
						|4: w.пСтроку8("bmInfo: "); w.пЦел64(кодСимв8(u.descriptor[7]), 0);
						|5: w.пСтроку8("bTerminalLink: "); w.пЦел64(кодСимв8(u.descriptor[8]), 0);
						|6: w.пСтроку8("bStillCaptureMethod: "); temp := кодСимв8(u.descriptor[9]); w.пЦел64(temp, 0);
							если temp = 0 то w.пСтроку8(" (None)");
							аесли temp = 1 то w.пСтроку8(" (Method 1)");
							аесли temp = 2 то w.пСтроку8(" (Method 2)");
							аесли temp = 3 то w.пСтроку8(" (Method 3)");
							иначе w.пСтроку8(" (Unknown)");
							всё;
						|7: w.пСтроку8("bTriggerSupport: "); temp := кодСимв8(u.descriptor[10]); w.пЦел64(temp, 0);
							если temp = 0 то w.пСтроку8(" (Not supported)");
							аесли temp = 1 то w.пСтроку8(" (Supported)");
							иначе w.пСтроку8(" (Unknown)");
							всё;
						|8: w.пСтроку8("bTriggerUsage: "); temp :=кодСимв8(u.descriptor[11]);  w.пЦел64(temp, 0);
							если кодСимв8(u.descriptor[10]) = 0 то w.пСтроку8(" (No Trigger Support)");
							аесли temp = 0 то w.пСтроку8(" (Initiate Still Image Captue)");
							аесли temp = 1 то w.пСтроку8(" (General Purpose Button Event)");
							иначе w.пСтроку8(" (Unknown)");
							всё;
						|9: w.пСтроку8("bControlSize: "); w.пЦел64(кодСимв8(u.descriptor[12]), 0);
					всё;
					w.ДайПрочитанное˛сколькоПоместитсяИСимвол0(string); AddUsbNode(n, parent, string);
				кц;
				нцДля i := 13 до длинаМассива(u.descriptor)-1 делай
					нов(n); w.Сбрось;
					w.пСтроку8("bmaControls("); w.пЦел64(i-12, 0); w.пСтроку8("): "); w.пМнвоНаБитахМЗ(НИЗКОУР.подмениТипЗначения(мнвоНаБитахМЗ, u.descriptor[i]));
					w.ДайПрочитанное˛сколькоПоместитсяИСимвол0(string); AddUsbNode(n, parent, string);
				кц;
			кон AddInputHeader;

			проц AddVcInterruptEp(u : Usbdi.UnknownDescriptor; parent : WMTrees.TreeNode);
			перем wMaxTransferSize : цел32; n : WMTrees.TreeNode; w : Потоки.ПисарьВСтроку8ФиксированногоРазмера;
			нач
				нов(n); нов(w, WriterSize);
				если (длинаМассива(u.descriptor) = 5) то
					wMaxTransferSize := кодСимв8(u.descriptor[3]) + 100H*кодСимв8(u.descriptor[4]);
					w.пСтроку8("wMaxTransferSize: "); w.пЦел64(wMaxTransferSize, 0);
				иначе
					w.пСтроку8("Parse Error (Length#5)");
				всё;
				w.ДайПрочитанное˛сколькоПоместитсяИСимвол0(string); AddUsbNode(n, parent, string);
			кон AddVcInterruptEp;

			проц AddLength(u : Usbdi.UnknownDescriptor; parent : WMTrees.TreeNode);
			перем n : WMTrees.TreeNode; w : Потоки.ПисарьВСтроку8ФиксированногоРазмера;
			нач
				нов(n); нов(w, WriterSize);
				w.пСтроку8("bLength: "); w.пЦел64(u.bLength, 0); w.пСтроку8(" Bytes");
				w.ДайПрочитанное˛сколькоПоместитсяИСимвол0(string); AddUsbNode(n, parent, string);
			кон AddLength;

		нач
			нов(tn); нов(w, WriterSize); нов(v, WriterSize);
			w.пСтроку8("Video Class-Specific ");

			если u.bDescriptorType = 020H то
				w.пСтроку8("Undefined Descriptor"); AddLength(u, tn); AddDescriptorData(u.descriptor^, tn);
			аесли u.bDescriptorType = 021H то
				w.пСтроку8("Device Descriptor"); AddLength(u, tn); AddDescriptorData(u.descriptor^, tn);
			аесли u.bDescriptorType = 022H то
				w.пСтроку8("Configuration Descriptor"); AddLength(u, tn); AddDescriptorData(u.descriptor^, tn);
			аесли u.bDescriptorType = 023H то
				w.пСтроку8("String Descriptor"); AddLength(u, tn); AddDescriptorData(u.descriptor^, tn);
			аесли u.bDescriptorType = 024H то
				subtype := кодСимв8(u.descriptor[2]);
				если intf.bInterfaceSubClass = 01H то
					w.пСтроку8("Video Control Interface Descriptor: "); AddLength(u, tn);
					просей subtype из
						0: w.пСтроку8("Undefined Descriptor"); AddDescriptorData(u.descriptor^, tn);
						|1: w.пСтроку8("VC Header"); AddVCHeader(u, tn);
						|2: w.пСтроку8("VC Input Terminal"); AddTerminal(u, tn);
						|3: w.пСтроку8( "VC Output Terminal"); AddTerminal(u, tn);
						|4: w.пСтроку8( "VC Selector Unit"); AddUnit(u, tn);
						|5: w.пСтроку8( "VC Processing Unit"); AddUnit(u, tn);
						|6: w.пСтроку8("VC Extension Unit"); AddUnit(u, tn);
					иначе
						w.пСтроку8("Unknown");
						v.пСтроку8("Unknown (Type: "); v.пЦел64(u.bDescriptorType, 0); v.пСтроку8(", Length: "); v.пЦел64(u.bLength, 0); v.пСтроку8(")");
						v.ДайПрочитанное˛сколькоПоместитсяИСимвол0(string); AddUsbNode(n, tn, string);
						AddDescriptorData(u.descriptor^, tn);
					всё;
				аесли intf.bInterfaceSubClass = 02H то
					w.пСтроку8("Video Streaming Interface Descriptor: "); AddLength(u, tn);
					просей subtype из
						0: w.пСтроку8("Undefined Descriptor");
						|1: w.пСтроку8("VS Input Header"); AddInputHeader(u, tn);
						|2: w.пСтроку8("VS Output Header"); AddOutputHeader(u, tn);
						|3: w.пСтроку8("VS Still Image Frame"); AddDescriptorData(u.descriptor^, tn);
						|4: w.пСтроку8("VS Format Uncompressed"); AddDescriptorData(u.descriptor^, tn);
						|5: w.пСтроку8("VS Frame Uncompressed"); AddDescriptorData(u.descriptor^, tn);
						|6: w.пСтроку8("VS Format MJPEG"); AddDescriptorData(u.descriptor^, tn);
						|7: w.пСтроку8("VS Frame MJPEG"); AddDescriptorData(u.descriptor^, tn);
						|8: w.пСтроку8("VS Format MPEG1"); AddDescriptorData(u.descriptor^, tn);
						|9: w.пСтроку8("VS Format MPEG2 PS"); AddDescriptorData(u.descriptor^, tn);
						|10: w.пСтроку8("VS Format MPEG2 TS"); AddDescriptorData(u.descriptor^, tn);
						|11: w.пСтроку8("VS Format MPEG4 SL"); AddDescriptorData(u.descriptor^, tn);
						|12: w.пСтроку8("VS Format DV"); AddDescriptorData(u.descriptor^, tn);
						|13: w.пСтроку8("VS Color Format"); AddDescriptorData(u.descriptor^, tn);
						|14: w.пСтроку8("VS Format Vendor"); AddDescriptorData(u.descriptor^, tn);
						|15: w.пСтроку8("VS Frame Vendor"); AddDescriptorData(u.descriptor^, tn);
					иначе
						w.пСтроку8("Unknown");
						v.пСтроку8("Unknown (Type: "); v.пЦел64(u.bDescriptorType, 0); v.пСтроку8(", Length: "); v.пЦел64(u.bLength, 0); v.пСтроку8(")");
						v.ДайПрочитанное˛сколькоПоместитсяИСимвол0(string); AddUsbNode(n, tn, string);
						AddDescriptorData(u.descriptor^, tn);
					всё;
				иначе
					w.пСтроку8("Undefined Interface Descriptor"); AddLength(u, tn); AddDescriptorData(u.descriptor^, tn);
				всё;
			аесли u.bDescriptorType = 025H то
				subtype := кодСимв8(u.descriptor[2]);
				w.пСтроку8("Endpoint Descriptor");	AddLength(u, tn);
				нов(n);
				просей subtype из
					0: AddUsbNode(n, tn, "Endpoint Undefined"); AddDescriptorData(u.descriptor^, tn);
					|1: AddUsbNode(n, tn, "Endpoint General"); AddDescriptorData(u.descriptor^, tn);
					|2: AddUsbNode(n, tn, "Endpoint"); AddDescriptorData(u.descriptor^, tn);
					|3: AddUsbNode(n, tn, "Endpoint Interrupt"); AddVcInterruptEp(u, tn);
				иначе
					v.пСтроку8("Unknown (Type: "); v.пЦел64(u.bDescriptorType, 0); v.пСтроку8(", Length: "); v.пЦел64(u.bLength, 0); v.пСтроку8(")");
					v.ДайПрочитанное˛сколькоПоместитсяИСимвол0(string); AddUsbNode(n, tn, string);
					AddDescriptorData(u.descriptor^, tn);
				всё;
			иначе
			всё;
			w.ДайПрочитанное˛сколькоПоместитсяИСимвол0(string); AddUsbNode(tn, parent, string);
		кон AddVideoClass;

		проц AddConfiguration(c :  Usb.ConfigurationDescriptor; nbr: адресВПамяти; parent : WMTrees.TreeNode);
		перем dn, tn  : WMTrees.TreeNode; w : Потоки.ПисарьВСтроку8ФиксированногоРазмера; i : размерМЗ;
		нач
			нов(dn); нов(w, WriterSize);
			w.пСтроку8("Configuration "); w.пАдресВПамяти(nbr); w.ДайПрочитанное˛сколькоПоместитсяИСимвол0(string);

			AddUsbNode(dn, parent, string);

			если c.iads # НУЛЬ то (* Show Interface Associtation Descriptors *)
				AddIad(c.iads, dn);
			всё;

	(*		IF c.unknown # NIL THEN (* Show Non-Standard Descriptors *)
				AddNonStandard(c.unknown, dn);
			END; *)

			если c.interfaces # НУЛЬ то (* Show interfaces *)
				нцДля i := 0 до длинаМассива(c.interfaces)-1 делай AddInterface(c.interfaces[i] (Usb.InterfaceDescriptor), i, dn); кц;
			всё;

			нцДля i := 0 до 6 делай
				нов(tn); w.Сбрось;
				просей i из
					0: w.пСтроку8("bNumInterfaces: "); w.пЦел64(c.bNumInterfaces, 0);
					|1: w.пСтроку8("bConfigurationValue: "); w.пЦел64(c.bConfigurationValue, 0);
					|2: w.пСтроку8("iConfiguration: "); w.пЦел64(c.iConfiguration, 0); w.пСтроку8(" (");
					      если c.iConfiguration = 0 то w.пСтроку8("No string descriptor)");
					      аесли c.sConfiguration # НУЛЬ то w.пСтроку8(c.sConfiguration^); w.пСимв8(")");
					      иначе w.пСтроку8("Not parsed)");
					      всё;
					|3: w.пСтроку8("Max Power: "); w.пЦел64(c.bMaxPower, 0); w.пСтроку8("mA");
					|4: w.пСтроку8("Total Length: "); w.пЦел64(c.wTotalLength, 0); w.пСтроку8(" Bytes");
					|5: w.пСтроку8("Can be Self-Powered: "); если c.selfPowered то w.пСтроку8("Yes"); иначе w.пСтроку8("No"); всё;
					|6: w.пСтроку8("Remote Wakeup support: "); если c.remoteWakeup то w.пСтроку8("Yes"); иначе w.пСтроку8("No"); всё;
				всё;
				w.ДайПрочитанное˛сколькоПоместитсяИСимвол0(string); AddUsbNode(tn, dn, string);
			кц;
		кон AddConfiguration;

		проц AddInterface(i : Usb.InterfaceDescriptor; nbr : размерМЗ; parent : WMTrees.TreeNode);
		перем dn, tn, en : WMTrees.TreeNode; w : Потоки.ПисарьВСтроку8ФиксированногоРазмера; j : размерМЗ; class, subclass, protocol : Strings.String;
		нач
			нов(dn);
			нов(w, WriterSize);
			если i.bAlternateSetting # 0 то w.пСтроку8("Alternate "); всё;
			w.пСтроку8("Interface "); w.пЦел64(nbr, 0); w.ДайПрочитанное˛сколькоПоместитсяИСимвол0(string);

			AddUsbNode(dn, parent, string);
			GetInterfaceDescription(i.bInterfaceClass, i.bInterfaceSubClass, i.bInterfaceProtocol, class, subclass, protocol);

			если i.unknown # НУЛЬ то (* Show Non-Standard Interface Descriptors *)
				AddNonStandard(i.unknown, i, dn);
			всё;

			если i.endpoints # НУЛЬ то (* Show endpoint information *)
				нов(en); AddUsbNode(en, dn, "Endpoints");
				нцДля j := 0 до длинаМассива(i.endpoints)-1 делай AddEndpoint(i.endpoints[j] (Usb.EndpointDescriptor), i , j+1, en); кц;
			всё;

			нцДля j := 0 до 8 делай
				нов(tn); w.Сбрось;
				просей j из
					0: w.пСтроку8("Interface Number: "); w.пЦел64(i.bInterfaceNumber, 0);
					|1: w.пСтроку8("Alternate Setting: "); w.пЦел64(i.bAlternateSetting, 0);
					|2: w.пСтроку8("Class: "); w.п16ричное(i.bInterfaceClass, -2); w.пСимв8("H");
						если class # НУЛЬ то w.пСтроку8(" ("); w.пСтроку8(class^); w.пСимв8(")"); всё;
					|3: w.пСтроку8("SubClass: "); w.п16ричное(i.bInterfaceSubClass, -2); w.пСимв8("H");
						если subclass # НУЛЬ то w.пСтроку8(" ("); w.пСтроку8(subclass^); w.пСимв8(")"); всё;
					|4: w.пСтроку8("Protocol: "); w.п16ричное(i.bInterfaceProtocol, -2); w.пСимв8("H");
						если protocol # НУЛЬ то w.пСтроку8(" ("); w.пСтроку8(protocol^); w.пСимв8(")"); всё;
					|5: w.пСтроку8("NumAlternateInterfaces: "); w.пЦел64(i.numAlternateInterfaces , 0);
					|6: w.пСтроку8("NumEndPoints: "); w.пЦел64(i.bNumEndpoints , 0);
					|7: w.пСтроку8("iInterface: "); w.пЦел64(i.iInterface, 0); w.пСтроку8(" (");
						если i.iInterface = 0 то w.пСтроку8("No string descriptor)");
						аесли i.sInterface # НУЛЬ то w.пСтроку8(i.sInterface^); w.пСимв8(")");
						иначе w.пСтроку8("Not parsed)");
						всё;
					|8: w.пСтроку8("Driver: ");
						если i.driver = НУЛЬ то w.пСтроку8("No driver installed");
						иначе
							w.пСтроку8(i.driver.name); w.пСтроку8(" ("); w.пСтроку8(i.driver.desc); w.пСимв8(")");
						всё;
				всё;
				w.ДайПрочитанное˛сколькоПоместитсяИСимвол0(string); AddUsbNode(tn, dn, string);
			кц;

			если i.alternateInterfaces # НУЛЬ то
				нцДля j := 0 до длинаМассива(i.alternateInterfaces)-1 делай
					AddInterface(i.alternateInterfaces[j] (Usb.InterfaceDescriptor), j, dn);
				кц;
			всё;
		кон AddInterface;

		проц AddEndpoint(e : Usb.EndpointDescriptor;intf : Usbdi.InterfaceDescriptor;  nbr : размерМЗ; parent : WMTrees.TreeNode);
		перем dn  : WMTrees.TreeNode; w : Потоки.ПисарьВСтроку8ФиксированногоРазмера; i : цел32;
		нач
			нов(dn); нов(w, WriterSize);
			нцДля i := 0 до 4 делай
				просей i из
					0: w.пСтроку8("Endpoint Number: "); w.пЦел64(e.bEndpointAddress, 0);
					    (* Direction bit is ignored for control endpoints *)
						если НИЗКОУР.подмениТипЗначения(мнвоНаБитахМЗ, e.bmAttributes) * {0,1} # {} то (* It's not a control endpoint *)
							если НИЗКОУР.подмениТипЗначения(мнвоНаБитахМЗ, e.bEndpointAddress) * {7} = {} то w.пСтроку8(" (OUT)"); иначе w.пСтроку8(" (IN)"); всё;
						всё;
					|1: w.пСтроку8(", Type: ");
						просей НИЗКОУР.подмениТипЗначения(цел32, e.bmAttributes * {0..1}) из
							0: w.пСтроку8("Control");
							|1: w.пСтроку8("Isochronous");
							|2: w.пСтроку8("Bulk");
							|3: w.пСтроку8("Interrupt");
						всё;
					|2: w.пСтроку8(", MaxPacketSize: "); w.пЦел64(e.wMaxPacketSize, 0); w.пСтроку8("Bytes");
					|3: w.пСтроку8(" (Mult: "); w.пЦел64(e.mult, 0); w.пСтроку8(")");
					|4: w.пСтроку8(", Interval: "); w.пЦел64(e.bInterval, 0); w.пСтроку8("ms");
				всё;
			кц;
			если НИЗКОУР.подмениТипЗначения(цел32, e.bmAttributes * {0..1}) = 1 то (* Isochronous endpoint *)
				w.пСтроку8(" (Synchronization: ");
				просей НИЗКОУР.подмениТипЗначения(цел32, логСдвиг(e.bmAttributes * {2..3}, -2)) из
					0: w.пСтроку8("None");
					|1: w.пСтроку8("Asynchronous");
					|2: w.пСтроку8("Adaptive");
					|3: w.пСтроку8("Synchronous");
				всё;
				w.пСтроку8(", Usage: ");
				просей НИЗКОУР.подмениТипЗначения(цел32, логСдвиг(e.bmAttributes * {4..5}, -4)) из
					0: w.пСтроку8("Data");
					|1: w.пСтроку8("Feedback");
					|2: w.пСтроку8("Implicit Feedback Data");
					|3: w.пСтроку8("Reserved");
				всё;
				w.пСимв8(")");
			всё;
			w.ДайПрочитанное˛сколькоПоместитсяИСимвол0(string); AddUsbNode(dn, parent, string);

			если e.unknown # НУЛЬ то (* Show Non-Standard Endpoint Descriptors *)
				AddNonStandard(e.unknown, intf, parent);
			всё;

		кон AddEndpoint;

		проц ViewModeDetailed(dev : Usb.UsbDevice; parent : WMTrees.TreeNode; w : Потоки.ПисарьВСтроку8ФиксированногоРазмера);
		перем i : адресВПамяти; cn : WMTrees.TreeNode;
		нач
			утв((dev # НУЛЬ) и (parent # НУЛЬ) и (w # НУЛЬ) );
			утв(viewmode = VmDetailed);
			если (dev.parent = dev) то (* It's a root hub *)
				i := ЭВМ.ДайФизическийАдресДиапазонаПамяти(dev.controller.iobase, 4);
				если (i = -1) и Debug то ЛогЯдра.пСтроку8("UsbInfo: Address mapping error."); ЛогЯдра.пВК_ПС; всё;
				w.пСтроку8(" (I/O base address: "); w.п16ричное(i, -8); w.пСтроку8("H, Interrupt Line: ");
				w.пЦел64(dev.controller.irq, 0); w.пСимв8(")");
			иначе
				w.пСтроку8(" (");
				если dev.speed = UsbHcdi.LowSpeed то w.пСтроку8("LowSpeed");
				аесли dev.speed = UsbHcdi.FullSpeed то w.пСтроку8("FullSpeed");
				аесли dev.speed = UsbHcdi.HighSpeed то w.пСтроку8("HighSpeed");
				иначе w.пСтроку8("Speed unknown!");
				всё;
				w.пСтроку8(", Address: "); w.пЦел64(dev.address, 0); w.пСимв8(")");

				AddDeviceDescriptor(dev.descriptor (Usb.DeviceDescriptor), "Device Descriptor", parent, ложь);
				если dev.qualifier # НУЛЬ то
					AddDeviceDescriptor(dev.qualifier (Usb.DeviceDescriptor), "Device Qualifier", parent, истина);
				всё;

				нов(cn);
				AddUsbNode(cn, parent, "Configurations");
				нцДля i := 0 до длинаМассива(dev.configurations)-1 делай
					AddConfiguration(dev.configurations[i] (Usb.ConfigurationDescriptor), i, cn);
				кц;

				если dev.otherconfigurations # НУЛЬ то
					нов(cn);
					AddUsbNode(cn, parent, "Other-speed Configurations");
					нцДля i := 0 до длинаМассива(dev.configurations)-1 делай
						AddConfiguration(dev.otherconfigurations[i] (Usb.ConfigurationDescriptor), i, cn);
					кц;
				всё;
			всё;
		кон ViewModeDetailed;

		проц Dev2Node(dev : Usb.UsbDevice; port : размерМЗ; parent : WMTrees.TreeNode);
		перем tn, pn : WMTrees.TreeNode; w : Потоки.ПисарьВСтроку8ФиксированногоРазмера; i : размерМЗ; deviceAttached : булево;
			image : WMGraphics.Image;
		нач
			утв(dev # НУЛЬ);
			нов(tn); нов(w, WriterSize);

			usbTree.Acquire;
			usbTree.SetNodeData(tn, dev);
			usbTree.Release;

			если ShowIcons то
				image := GetImage(dev);
				если image # НУЛЬ то usbTree.Acquire; usbTree.SetNodeImage(tn, image); usbTree.Release; всё;
			всё;

			если dev.parent = dev то w.пСтроку8("Root");
			иначе w.пСтроку8("Port "); w.пЦел64(port, 0); w.пСтроку8(": ");
			всё;
			если dev.hubFlag то w.пСтроку8("Hub with "); w.пЦел64(dev.nbrOfPorts, 0); w.пСтроку8(" ports: "); всё;

			если ((dev.descriptor(Usb.DeviceDescriptor).sManufacturer # НУЛЬ) или (dev.descriptor(Usb.DeviceDescriptor).sProduct # НУЛЬ)) то
				если dev.descriptor(Usb.DeviceDescriptor).sManufacturer # НУЛЬ то w.пСтроку8(dev.descriptor(Usb.DeviceDescriptor).sManufacturer^); w.пСимв8(" "); всё;
				если dev.descriptor(Usb.DeviceDescriptor).sProduct # НУЛЬ то w.пСтроку8(dev.descriptor(Usb.DeviceDescriptor).sProduct^); всё;
			иначе
				w.пСтроку8("Unnamed device");
			всё;

			если viewmode = VmDetailed то ViewModeDetailed(dev, tn, w); всё;

			w.ДайПрочитанное˛сколькоПоместитсяИСимвол0(string);
			AddUsbNode(tn, parent, string);
			usbTree.Acquire; usbTree.ExpandToRoot(tn); usbTree.Release;

			если dev.hubFlag то
				pn := tn;
				deviceAttached := ложь;
				нцДля i := 0 до dev.nbrOfPorts-1 делай
					если dev.deviceAtPort[i] # НУЛЬ то
						Dev2Node(dev.deviceAtPort[i], i+1,  pn);
						deviceAttached := истина;
					всё;
				кц;
				если ~deviceAttached то
					нов(tn);
					AddUsbNode(tn, pn, "No devices attached");
				всё;
			всё;
		кон Dev2Node;

		проц BuildTree;
		перем i : размерМЗ; tn, node : WMTrees.TreeNode; rootHubs : Usb.RootHubArray;
		нач
			usbTreeView.visible.Set(ложь);
			usbTree.Acquire;
			нов(tn);
			usbTree.SetRoot(tn);
			usbTree.SetNodeCaption(tn, Strings.NewString("Universal Serial Bus(ses)"));
			usbTree.Release;

			Usb.GetRootHubs(rootHubs);
			если rootHubs # НУЛЬ то
				нцДля i := 0 до длинаМассива(rootHubs)-1 делай
					Dev2Node(rootHubs[i], i+1, tn);
					rootHubs[i] := НУЛЬ;
				кц;
			иначе
				нов(node);
				AddUsbNode(node, tn, "No USB host controller drivers installed");
				usbTree.Acquire; usbTree.ExpandToRoot(node); usbTree.Release;
			всё;
			usbTreeView.visible.Set(истина);
		кон BuildTree;

		проц BuildDrivers;
		перем i, j : размерМЗ; tn, node, n : WMTrees.TreeNode;
			drivers : укль на массив из Usb.RegisteredDriver; driverFound : булево;
			drv : Usb.RegisteredDriver; plugin : Plugins.Plugin;
			w : Потоки.ПисарьВСтроку8ФиксированногоРазмера; dev : Usb.UsbDevice;
		нач
			drvTreeView.visible.Set(ложь);
			drvTree.Acquire;
			нов(tn);
			drvTree.SetRoot(tn);
			drvTree.SetNodeCaption(tn, Strings.NewString("Registered USB device drivers"));
			drvTree.Release;

			нов(drivers, длинаМассива(Usb.drivers.drivers)); (* NOT Threadsafe! *)
			нцДля i := 0 до длинаМассива(Usb.drivers.drivers)-1 делай drivers[i] := Usb.drivers.drivers[i]; кц;

			driverFound := ложь; нов(w, WriterSize);

			нцДля i := 0 до длинаМассива(drivers)-1 делай (* i is driver priority *)
				если drivers[i] # НУЛЬ то
					drv := drivers[i].next;
					нцПока drv # НУЛЬ делай(* NOT Threadsafe! *)
						driverFound := истина;
						нов(node);
						w.Сбрось; w.пСтроку8(drv.name); w.пСтроку8(" ("); w.пСтроку8(drv.desc); w.пСтроку8(") ");
						w.пСтроку8("Priority: "); w.пЦел64(i, 0);
						w.ДайПрочитанное˛сколькоПоместитсяИСимвол0(string);
						AddDrvNode(node, tn, string);
						drvTree.Acquire; drvTree.ExpandToRoot(node); drvTree.Release;
						(* Show instances of this driver *)
						нцДля j := 0 до 99 делай
							если drv.usedSuffix[j]  то (* Driver instance found *)
								(* Get plugin name *)
								plugin := Usb.usbDrivers.Get(Usb.drivers.AddSuffix(drv.name, j));
								если plugin # НУЛЬ то
									нов(n);
									w.Сбрось; w.пСтроку8("Instance: "); w.пСтроку8(plugin.name);
									w.пСтроку8(" assigned to ");
									dev := plugin(Usbdi.Driver).device (Usb.UsbDevice);
									если dev # НУЛЬ то
										если (dev.descriptor(Usb.DeviceDescriptor).sManufacturer # НУЛЬ) или (dev.descriptor(Usb.DeviceDescriptor).sProduct # НУЛЬ) то
											если dev.descriptor(Usb.DeviceDescriptor).sManufacturer # НУЛЬ то w.пСтроку8(dev.descriptor(Usb.DeviceDescriptor).sManufacturer^); w.пСимв8(" ");всё;
											если dev.descriptor(Usb.DeviceDescriptor).sProduct # НУЛЬ то w.пСтроку8(dev.descriptor(Usb.DeviceDescriptor).sProduct^); всё;
										иначе
											w.пСтроку8("Unnamed device");
										всё;
									иначе
										w.пСтроку8("no device!?!");
									всё;
									w.ДайПрочитанное˛сколькоПоместитсяИСимвол0(string); AddDrvNode(n, node, string);
									drvTree.Acquire; drvTree.ExpandToRoot(n); drvTree.Release;
								всё;
							всё;
						кц;
						drv := drv.next;
					кц; (* end while *)
				всё;
			кц;

			если ~driverFound то (* No USB device drivers registered *)
				нов(node);
				AddDrvNode(node, tn, "No USB device drivers registered");
				drvTree.Acquire; drvTree.ExpandToRoot(node); drvTree.Release;
			всё;

			drvTreeView.visible.Set(истина);
		кон BuildDrivers;

		(* Search all interfaces of the USB device dev active configuration for installed
		device drivers. Returns NIL, if no drivers found. *)
		проц GetDriversOf(dev : Usb.UsbDevice) : Driver;
		перем drivers, d, temp : Driver; con : Usb.ConfigurationDescriptor; i : размерМЗ;
		нач
			если dev # НУЛЬ то
				con := dev.actConfiguration (Usb.ConfigurationDescriptor);
				(* Search all interfaces of the active configuration for installed device drivers *)
				нцДля i := 0 до длинаМассива(con.interfaces)-1 делай
					если con.interfaces[i](Usb.InterfaceDescriptor).driver # НУЛЬ то
						если drivers = НУЛЬ то (* New list *)
							нов(drivers); drivers.interface := i;
							drivers.driver := con.interfaces[i](Usb.InterfaceDescriptor).driver;
						иначе (* Append to list *)
							нов(d); d.interface := i;
							d.driver := con.interfaces[i](Usb.InterfaceDescriptor).driver;
							temp := drivers; нцПока(temp.next # НУЛЬ) делай temp := temp.next; кц;
							temp.next := d;
						всё;
					всё;
				кц;
			всё;
			возврат drivers;
		кон GetDriversOf;

		проц GetUsbInfo(перем nbrOfRootHubs,  nbrOfPorts, nbrOfDevices : размерМЗ);
		перем i : размерМЗ; rootHubs : Usb.RootHubArray;

			проц ProcessHub(hub : Usb.UsbDevice; перем nbrOfPorts, nbrOfDevices : размерМЗ);
			перем i : размерМЗ; dev : Usb.UsbDevice;
			нач
				утв((hub # НУЛЬ) и (hub.hubFlag = истина) и (hub.deviceAtPort # НУЛЬ));
				увел(nbrOfPorts, длинаМассива(hub.deviceAtPort));
				нцДля i := 0 до длинаМассива(hub.deviceAtPort)-1 делай
					dev := hub.deviceAtPort[i];
					если (dev # НУЛЬ) то
						увел(nbrOfDevices);
						если dev.hubFlag то ProcessHub(hub.deviceAtPort[i], nbrOfPorts, nbrOfDevices); всё;
					всё;
				кц;
			кон ProcessHub;

		нач
			Usb.GetRootHubs(rootHubs);
			если rootHubs # НУЛЬ то
				nbrOfRootHubs := длинаМассива(rootHubs); nbrOfPorts := 0; nbrOfDevices := 0;
				нцДля i := 0 до длинаМассива(rootHubs)-1 делай
					ProcessHub(rootHubs[i], nbrOfPorts, nbrOfDevices);
					rootHubs[i] := НУЛЬ;
				кц;
			иначе
				 nbrOfRootHubs := 0; nbrOfPorts := 0; nbrOfDevices := 0;
			всё;
		кон GetUsbInfo;

		проц BuildInfoLine;
		перем w : Потоки.ПисарьВСтроку8ФиксированногоРазмера; nbrOfRootHubs, nbrOfPorts, nbrOfDevices : размерМЗ;
		нач
			нов(w, WriterSize);
			GetUsbInfo(nbrOfRootHubs, nbrOfPorts, nbrOfDevices);
			если nbrOfRootHubs = 0 то
				w.пСтроку8(" No USB host controllers found");
			иначе
				w.пСтроку8(" Root Hubs: "); w.пЦел64(nbrOfRootHubs, 0);
				w.пСтроку8("  Total port count: "); w.пЦел64(nbrOfPorts, 0);
				w.пСтроку8("  Devices connected: "); w.пЦел64(nbrOfDevices, 0);
			всё;
			w.ДайПрочитанное˛сколькоПоместитсяИСимвол0(string);
			infoline.caption.Set(Strings.NewString(string));
		кон BuildInfoLine;

		проц ButtonHandler(sender, data : динамическиТипизированныйУкль);
		перем btn : WMStandardComponents.Button;
		нач
			btn := sender (WMStandardComponents.Button);
			если btn = btnRefresh то (* Force refresh *)
				lastNbrOfDriverEvents := -1; lastNbrOfTopologyEvents := -1;
				timer.Wakeup;
			всё;
		кон ButtonHandler;

		проц TabSelected(sender, data : динамическиТипизированныйУкль);
		перем m : Mode; viewChanged : булево;
		нач
			если (data # НУЛЬ) и (data суть WMTabComponents.Tab) то
				m := data(WMTabComponents.Tab).data (Mode);
				если m.mode # viewmode то
					если (viewmode = VmDrivers) и (m.mode # VmDrivers) то
						treepanel.visible.Set(истина); driverpanel.visible.Set(ложь);
					всё;
					viewmode := m.mode;
					если  m.mode = VmStandard то viewChanged := истина;
					аесли m.mode = VmDetailed то viewChanged := истина;
					аесли m.mode = VmDrivers то
						treepanel.visible.Set(ложь); driverpanel.visible.Set(истина);
					аесли m.mode = VmPortStatus то viewChanged := истина;
					всё;
					если viewChanged то (* Force refresh *) lastNbrOfTopologyEvents := -1; timer.Wakeup; всё;
				всё;
			всё
		кон TabSelected;

		проц NodeSelected(sender, data : динамическиТипизированныйУкль);
		перем dev : Usb.UsbDevice; ndata : динамическиТипизированныйУкль; d : Driver;
		нач
			usbSelected := НУЛЬ; drivers := НУЛЬ;
			если (data # НУЛЬ) и (data суть WMTrees.TreeNode) то
				usbTree.Acquire;
				usbSelected := data (WMTrees.TreeNode);
				ndata := usbTree.GetNodeData(usbSelected);
				usbTree.Release;
				если ndata # НУЛЬ то
					dev := ndata (Usb.UsbDevice);
					d := GetDriversOf(dev);
					drivers := d;
				всё;
			всё;
		кон NodeSelected;

		(* Add node <node> to the usbTree as child of node <parent> and name it <caption> *)
		проц AddUsbNode(node, parent : WMTrees.TreeNode; конст caption : массив из симв8);
		нач
			usbTree.Acquire;
			usbTree.AddChildNode(parent, node);
			usbTree.SetNodeCaption(node, Strings.NewString(caption));
			usbTree.Release;
		кон AddUsbNode;

		(* Add node <node> to the drvTree as child of node <parent> and name it <caption> *)
		проц AddDrvNode(node, parent : WMTrees.TreeNode; конст caption : массив из симв8);
		нач
			drvTree.Acquire;
			drvTree.AddChildNode(parent, node);
			drvTree.SetNodeCaption(node, Strings.NewString(caption));
			drvTree.Release;
		кон AddDrvNode;

		проц {перекрыта}Handle(перем x: WMMessages.Message);
		нач
			если (x.msgType = WMMessages.MsgExt) и (x.ext # НУЛЬ) то
				если (x.ext суть KillerMsg) то Close
				иначе Handle^(x)
				всё
			иначе Handle^(x)
			всё
		кон Handle;

		проц &New*(c : WMRestorable.Context);
		перем
			label : WMStandardComponents.Label;
			tab : WMTabComponents.Tab;
			mode : Mode;
			string : массив 32 из симв8;
			i : цел32;
		нач
			нов(timer);
			dead := ложь; alive := истина;

			нов(mainpanel);
			mainpanel.bounds.SetExtents(WindowWidth, WindowHeight); mainpanel.fillColor.Set(цел32(0FFFFFFFFH));

			нов(buttonpanel);
			buttonpanel.fillColor.Set(0F0F0F0FH);
			buttonpanel.bounds.SetHeight(20); buttonpanel.alignment.Set(WMComponents.AlignTop);
			mainpanel.AddContent(buttonpanel);

			нов(label); label.caption.SetAOC("  View mode: ");
			label.bounds.SetWidth(100); label.alignment.Set(WMComponents.AlignLeft);
			buttonpanel.AddContent(label);

			нов(tabs); tabs.bounds.SetWidth(250); tabs.alignment.Set(WMComponents.AlignLeft);
			tabs.onSelectTab.Add(TabSelected);
			buttonpanel.AddContent(tabs);

			нцДля i := 0 до 2 делай
				tab := tabs.NewTab();
				tabs.AddTab(tab);
				нов(mode);
				просей i из
					0: string := "Standard"; mode.mode := VmStandard;
					|1 : string := "Detailed"; mode.mode := VmDetailed;
					|2 : string := "Drivers"; mode.mode := VmDrivers;
					|3 : string := "PortStatus"; mode.mode := VmPortStatus;
				всё;
				tabs.SetTabCaption(tab, Strings.NewString(string));
				tabs.SetTabData(tab, mode);
			кц;

			нов(btnRefresh); btnRefresh.caption.SetAOC("Refresh"); btnRefresh.alignment.Set(WMComponents.AlignRight);
			btnRefresh.onClick.Add(ButtonHandler);
			buttonpanel.AddContent(btnRefresh);

			нов(btnProperties); btnProperties.caption.SetAOC("Properties"); btnProperties.alignment.Set(WMComponents.AlignRight);
			btnProperties.onClick.Add(ButtonHandler); btnProperties.visible.Set(ложь);
			buttonpanel.AddContent(btnProperties);

			нов(infoline);
			infoline.bounds.SetHeight(20); infoline.alignment.Set(WMComponents.AlignBottom);
			infoline.fillColor.Set(0F0F0F0FH);
			mainpanel.AddContent(infoline);

			нов(treepanel);
			treepanel.alignment.Set(WMComponents.AlignClient);
			mainpanel.AddContent(treepanel);

			нов(usbTreeView);
			usbTreeView.alignment.Set(WMComponents.AlignClient);
			usbTreeView.onSelectNode.Add(NodeSelected);
			usbTree := usbTreeView.GetTree();
			treepanel.AddContent(usbTreeView);

			нов(driverpanel);
			driverpanel.alignment.Set(WMComponents.AlignClient);
			driverpanel.visible.Set(ложь);
			mainpanel.AddContent(driverpanel);

			нов(drvTreeView);
			drvTreeView.alignment.Set(WMComponents.AlignClient);
			drvTree := drvTreeView.GetTree();
			driverpanel.AddContent(drvTreeView);

			viewmode := VmStandard;

			BuildTree;
			BuildDrivers;
			BuildInfoLine;

			Init(mainpanel.bounds.GetWidth(), mainpanel.bounds.GetHeight(), ложь);
			SetContent(mainpanel);
			SetTitle(Strings.NewString("USB Viewer"));
			SetIcon(WMGraphics.LoadImage("WMIcons.tar://WMUsbInfo.png", истина));

			WMWindowManager.DefaultAddWindow(сам);
			IncCount;
		кон New;

		проц {перекрыта}Close;
		нач
			Close^;
			alive := ложь; timer.Wakeup;
			нач {единолично} дождись(dead); кон;
			DecCount;
		кон Close;

	нач {активное}
		нцПока(alive) делай

			(* Have drivers been added or removed? *)
			если Usb.drivers.nbrOfDriverEvents # lastNbrOfDriverEvents то
				lastNbrOfDriverEvents := Usb.drivers.nbrOfDriverEvents;
				BuildDrivers;
				BuildInfoLine;
			всё;

			(* Has the bus topology changes? *)
			если Usb.nbrOfTopologyEvents # lastNbrOfTopologyEvents то
				lastNbrOfTopologyEvents := Usb.nbrOfTopologyEvents;
				BuildTree;
				BuildInfoLine;
			всё;

			timer.Sleep(PollInterval);
		кц;
		нач {единолично} dead := истина; кон;
	кон Window;

перем
	nofWindows : цел32;

(*
 * Return a string represenation of the idVendor field of the USB device descriptor. Returns "Unknown", if
 * no string available. A list of assigned vendor IDs can be found at www.usb.org.
 *)
проц GetVendorString(vendorId : цел32) : Strings.String;
конст Trace = ложь;
перем
	in : Потоки.Чтец;
	line, vendor : цел32; char : симв8;
	vendorStr : массив 128 из симв8;
нач
	in := Codecs.OpenInputStream(VendorIdFile);
	если in # НУЛЬ то
		(* File format: vendorid + "|" + vendor string + "EOL" *)
		нц
			увел(line);
			char := in.ПодглядиСимв8();
			если in.ЗапасиБайтыИзПотокаВБуфереИДайИхКоличество() = 0 то (* End of file *) прервиЦикл; всё;
			in.чЦел32(vendor, ложь); (* Get the Vendor ID *)
			in.чСимв8(char);
			если in.кодВозвратаПоследнейОперации # Потоки.Успех то ЛогЯдра.пСтроку8("res: "); ЛогЯдра.пЦел64(in.кодВозвратаПоследнейОперации,0); ЛогЯдра.пВК_ПС; всё;
			если char # "|" то
				если Debug то
					ЛогЯдра.пСтроку8("UsbInfo: Parse error while parsing vendor id file at line ");
					ЛогЯдра.пЦел64(line, 0); ЛогЯдра.пВК_ПС;
				всё;
				прервиЦикл;
			всё;
			in.чСтроку8ДоКонцаСтрокиТекстаВключительно(vendorStr);
			если Trace то ЛогЯдра.пЦел64(vendor, 0); ЛогЯдра.пСтроку8(": "); ЛогЯдра.пСтроку8(vendorStr); ЛогЯдра.пВК_ПС; всё;
			если vendorId = vendor то возврат Strings.NewString(vendorStr); всё;
			если in.кодВозвратаПоследнейОперации # Потоки.Успех то прервиЦикл; всё;
		кц;
	аесли Debug то ЛогЯдра.пСтроку8("UsbInfo: Could not load file: "); ЛогЯдра.пСтроку8(VendorIdFile); ЛогЯдра.пВК_ПС;
	всё;
	возврат Strings.NewString("Unknown");
кон GetVendorString;

(* Return a image according to the device type *)
проц GetImage(dev : Usb.UsbDevice) : WMGraphics.Image;
перем if : Usb.InterfaceDescriptor; image : WMGraphics.Image;
нач
	if := dev.actConfiguration.interfaces[0] (Usb.InterfaceDescriptor);
	если dev.parent = dev то (* Root Hub *)
		если dev.controller.isHighSpeed то
			image := WMGraphics.LoadImage("WMUsbInfo.tar://UsbControllerHs.png", истина);
		иначе
			image := WMGraphics.LoadImage("WMUsbInfo.tar://UsbController.png", истина);
		всё;
	аесли dev.hubFlag то  (* USB hub device *)
		если dev.speed = UsbHcdi.HighSpeed то
			image := WMGraphics.LoadImage("WMUsbInfo.tar://UsbHubHs.png", истина);
		иначе
			image := WMGraphics.LoadImage("WMUsbInfo.tar://UsbHub.png", истина);
		всё;
	аесли (if.bInterfaceClass = 03H) и (if.bInterfaceSubClass = 01H) и (if.bInterfaceProtocol = 02H) то (* Mouse *)
		image := WMGraphics.LoadImage("WMUsbInfo.tar://UsbMouse.png", истина);
	аесли (if.bInterfaceClass = 03H) и (if.bInterfaceSubClass = 01H) и (if.bInterfaceProtocol = 01H) то (* Keyboard *)
		image := WMGraphics.LoadImage("WMUsbInfo.tar://UsbKeyboard.png", истина);
	аесли (if.bInterfaceClass = 08H) то (* Mass Storage Device *)
		если dev.speed = UsbHcdi.HighSpeed то
			image := WMGraphics.LoadImage("WMUsbInfo.tar://UsbMassStorageHs.png", истина);
		иначе
			image := WMGraphics.LoadImage("WMUsbInfo.tar://UsbMassStorage.png", истина);
		всё;
	всё;
	возврат image;
кон GetImage;

(*
 * Return a string description of Device Class, Device Subclass and Interface Protocol according
 * to the Device Class Code Definition 1.0.
 *)
проц GetDeviceDescription(class, subclass, protocol : цел32; перем c, s, p : Strings.String);
нач
	c := НУЛЬ; s := НУЛЬ; p := НУЛЬ;
	если class = 0 то
		c := Strings.NewString("Class information at interface level");
	аесли class = 2 то
		c := Strings.NewString("Communication");
	аесли class = 9 то
		c := Strings.NewString("Hub");
		если protocol = 0 то p := Strings.NewString("No TT");
		аесли protocol = 1 то p := Strings.NewString("Single TT");
		аесли protocol = 2 то p := Strings.NewString("Multi TT");
		всё;
	аесли class = 220 то
		c := Strings.NewString("Diagnostic Device");
		если (subclass = 1) то s := Strings.NewString("Reprogrammable Diagnostic Device"); всё;
		если (protocol = 1) то s := Strings.NewString("USB2 Compliance Device"); всё;
	аесли class = 224 то
		c := Strings.NewString("Wireless Controller");
		если (subclass = 1) то s := Strings.NewString("RF Controller"); всё;
		если (protocol = 1) то s := Strings.NewString("Bluetooth Programming Interface"); всё;
	аесли class = 239 то
		c := Strings.NewString("Miscellaneous Device Class");
		если (subclass = 2) то s := Strings.NewString("Common Class"); всё;
		если (protocol = 1) то s := Strings.NewString("Interface Association Descriptor"); всё;
	всё;
	если class = 0FFH то c := Strings.NewString("Vendor-Specific"); всё;
	если subclass = 0FFH то s := Strings.NewString("Vendor-Specific"); всё;
	если protocol = 0FFH то p := Strings.NewString("Vendor-Specific"); всё;
кон GetDeviceDescription;

(*
 * Return a string description of Interface Class, Interface Subclass and Interface Protocol according
 * to the Device Class Code Definition 1.0 and
 * - USB Printer Device Class 1.0
 * - USB Mass-storage Device Class 1.0
 * - USB Audio Device Class 1.0
 * - USB Video Device Class 1.0
 * - USB HID Device Class 1.0
 *)
проц GetInterfaceDescription(class, subclass, protocol : цел32; перем c, s, p: Strings.String);
нач
	c := НУЛЬ; s := НУЛЬ; p := НУЛЬ;
	если class = 1 то
		c := Strings.NewString("Audio");
		если subclass = 0 то s := Strings.NewString("Undefined");
		аесли subclass = 1 то s := Strings.NewString("Audio Control");
		аесли subclass = 2 то s := Strings.NewString("Audio Streaming");
		аесли subclass = 3 то s := Strings.NewString("MIDI Streaming");
		всё;
		если protocol = 0 то p := Strings.NewString("Undefined"); всё;
	аесли class = 2 то
		c := Strings.NewString("CDC-Control");
	аесли class = 3 то
		c := Strings.NewString("HID");
		если subclass = 0 то s := Strings.NewString("No Subclass");
		аесли subclass = 1 то s := Strings.NewString("Boot Interface Subclass");
			если protocol = 0 то p := Strings.NewString("None");
			аесли protocol = 1 то p := Strings.NewString("Keyboard");
			аесли protocol = 2 то p := Strings.NewString("Mouse");
			иначе p := Strings.NewString("Reserved");
			всё;
		иначе s := Strings.NewString("Reserved");
		всё;
	аесли class = 5 то
		c := Strings.NewString("Physical");
	аесли class = 6 то
		если (subclass = 1) и (protocol = 1) то c := Strings.NewString("Image"); всё;
	аесли class = 7 то
		c := Strings.NewString("Printer");
		если subclass = 1 то s := Strings.NewString("Printers"); всё;
		если protocol = 00H то p := Strings.NewString("Undefined");
		аесли protocol = 01H то p := Strings.NewString("Unidirectional Interface");
		аесли protocol = 02H то p := Strings.NewString("Bidirectional Interface");
		аесли protocol = 03H то p := Strings.NewString("1284.4 Compatible Bidirectional Interface");
		всё;
	аесли class = 8 то
		c := Strings.NewString("Mass-Storage");
		если subclass = 1 то s := Strings.NewString("Reduced Block Commands");
		аесли subclass = 2 то s := Strings.NewString("SFF-8020i, MMC-2 (ATAPI)");
		аесли subclass = 3 то s := Strings.NewString("QIC-157");
		аесли subclass = 4 то s := Strings.NewString("UFI");
		аесли subclass = 5 то s := Strings.NewString("SFF-8070i");
		аесли subclass = 6 то s := Strings.NewString("SCSI Transparent Command Set");
		аесли (subclass >= 7) и (subclass < 256) то
			s := Strings.NewString("Reserved");
		всё;
		если protocol = 00H то p := Strings.NewString("CBI Transport (with completion interrupt)");
		аесли protocol = 01H то p := Strings.NewString("CBI Transport (w/o completion interrupt)")
		аесли protocol = 50H то p := Strings.NewString("Bulk-Only Transport")
		всё;
	аесли class = 9 то
		c := Strings.NewString("Hub");
	аесли class = 10 то
		c := Strings.NewString("CDC-Data");
	аесли class = 11 то
		c := Strings.NewString("Chip/Smartcard");
	аесли class = 13 то
		c := Strings.NewString("Content-Security");
	аесли class = 14 то
		c := Strings.NewString("Video");
		если subclass = 0 то s := Strings.NewString("Undefined");
		аесли subclass = 1 то s := Strings.NewString("Video Control");
		аесли subclass = 2 то s := Strings.NewString("Video Streaming");
		аесли subclass = 3 то s := Strings.NewString("Video Interface Collection");
		всё;
		если protocol = 0 то p := Strings.NewString("Undefined"); всё;
	аесли class = 220 то
		c := Strings.NewString("Diagnostic Device");
		если (subclass = 1) то s := Strings.NewString("Reprogrammable Diagnostic Device"); всё;
		если (protocol = 1) то s := Strings.NewString("USB2 Compliance Device"); всё;
	аесли class = 224 то
		c := Strings.NewString("Wireless Controller");
		если (subclass = 1) то s := Strings.NewString("RF Controller"); всё;
		если (protocol = 1) то s := Strings.NewString("Bluetooth Programming Interface"); всё;
	аесли class = 254 то
		c := Strings.NewString("Application-Specific");
		если (subclass = 1) то s := Strings.NewString("Device Firmware Update");
		аесли (subclass = 2) то s := Strings.NewString("IrDA Bridge");
		аесли (subclass = 3) то s := Strings.NewString("Test & Measurement Class");
		всё;
	всё;
	если class = 0FFH то c := Strings.NewString("Vendor-Specific"); всё;
	если subclass = 0FFH то s := Strings.NewString("Vendor-Specific"); всё;
	если protocol = 0FFH то p := Strings.NewString("Vendor-Specific"); всё;
кон GetInterfaceDescription;

(*
 * Return a string description of Device Class, Device Subclass and Interface Protocol according
 * to:
 *
 *)
проц GetIadDescription(class, subclass, protocol : цел32; перем c, s, p : Strings.String);
нач
	c := НУЛЬ; s := НУЛЬ; p := НУЛЬ;
	если class = 0EH то
		c := Strings.NewString("Video");
		если subclass = 00H то s := Strings.NewString("Undefined");
		аесли subclass = 01H то s := Strings.NewString("Video Control");
		аесли subclass = 02H то s := Strings.NewString("Video Streaming");
		аесли subclass = 03H то s := Strings.NewString("Video Interface Collection");
		всё;
		если protocol = 00H то p := Strings.NewString("Undefined"); всё;
	всё;
кон GetIadDescription;

(** Open Usb Viewer *)
проц Open*;
перем w : Window;
нач
	нов(w, НУЛЬ);
кон Open;

проц Restore*(context : WMRestorable.Context);
перем w : Window;
нач
	нов(w, context)
кон Restore;

проц IncCount;
нач {единолично}
	увел(nofWindows);
кон IncCount;

проц DecCount;
нач {единолично}
	умень(nofWindows);
кон DecCount;

проц Cleanup;
перем die : KillerMsg; msg : WMMessages.Message; m : WMWindowManager.WindowManager;
нач {единолично}
	нов(die); msg.ext := die; msg.msgType := WMMessages.MsgExt;
	m := WMWindowManager.GetDefaultManager();
	m.Broadcast(msg);
	дождись(nofWindows = 0);
кон Cleanup;

нач
	Modules.InstallTermHandler(Cleanup);
кон WMUsbInfo.

WMUsbInfo.Open ~  System.Free WMUsbInfo ~
